%!PS-Adobe-3.0 EPSF-3.0
%%Creator: (MATLAB, The Mathworks, Inc. Version 8.6.0.267246 \(R2015b\). Operating System: Linux)
%%Title: /home/conor/papers/paper_2/paper_draft/images/example_scenario_2.eps
%%CreationDate: 2016-05-17T14:57:57
%%Pages: (atend)
%%BoundingBox: 0 0 420 315
%%LanguageLevel: 2
%%EndComments
%%BeginProlog
%%BeginResource: procset (Apache XML Graphics Std ProcSet) 1.2 0
%%Version: 1.2 0
%%Copyright: (Copyright 2001-2003,2010 The Apache Software Foundation. License terms: http://www.apache.org/licenses/LICENSE-2.0)
/bd{bind def}bind def
/ld{load def}bd
/GR/grestore ld
/M/moveto ld
/LJ/setlinejoin ld
/C/curveto ld
/f/fill ld
/LW/setlinewidth ld
/GC/setgray ld
/t/show ld
/N/newpath ld
/CT/concat ld
/cp/closepath ld
/S/stroke ld
/L/lineto ld
/CC/setcmykcolor ld
/A/ashow ld
/GS/gsave ld
/RC/setrgbcolor ld
/RM/rmoveto ld
/ML/setmiterlimit ld
/re {4 2 roll M
1 index 0 rlineto
0 exch rlineto
neg 0 rlineto
cp } bd
/_ctm matrix def
/_tm matrix def
/BT { _ctm currentmatrix pop matrix _tm copy pop 0 0 moveto } bd
/ET { _ctm setmatrix } bd
/iTm { _ctm setmatrix _tm concat } bd
/Tm { _tm astore pop iTm 0 0 moveto } bd
/ux 0.0 def
/uy 0.0 def
/F {
  /Tp exch def
  /Tf exch def
  Tf findfont Tp scalefont setfont
  /cf Tf def  /cs Tp def
} bd
/ULS {currentpoint /uy exch def /ux exch def} bd
/ULE {
  /Tcx currentpoint pop def
  gsave
  newpath
  cf findfont cs scalefont dup
  /FontMatrix get 0 get /Ts exch def /FontInfo get dup
  /UnderlinePosition get Ts mul /To exch def
  /UnderlineThickness get Ts mul /Tt exch def
  ux uy To add moveto  Tcx uy To add lineto
  Tt setlinewidth stroke
  grestore
} bd
/OLE {
  /Tcx currentpoint pop def
  gsave
  newpath
  cf findfont cs scalefont dup
  /FontMatrix get 0 get /Ts exch def /FontInfo get dup
  /UnderlinePosition get Ts mul /To exch def
  /UnderlineThickness get Ts mul /Tt exch def
  ux uy To add cs add moveto Tcx uy To add cs add lineto
  Tt setlinewidth stroke
  grestore
} bd
/SOE {
  /Tcx currentpoint pop def
  gsave
  newpath
  cf findfont cs scalefont dup
  /FontMatrix get 0 get /Ts exch def /FontInfo get dup
  /UnderlinePosition get Ts mul /To exch def
  /UnderlineThickness get Ts mul /Tt exch def
  ux uy To add cs 10 mul 26 idiv add moveto Tcx uy To add cs 10 mul 26 idiv add lineto
  Tt setlinewidth stroke
  grestore
} bd
/QT {
/Y22 exch store
/X22 exch store
/Y21 exch store
/X21 exch store
currentpoint
/Y21 load 2 mul add 3 div exch
/X21 load 2 mul add 3 div exch
/X21 load 2 mul /X22 load add 3 div
/Y21 load 2 mul /Y22 load add 3 div
/X22 load /Y22 load curveto
} bd
/SSPD {
dup length /d exch dict def
{
/v exch def
/k exch def
currentpagedevice k known {
/cpdv currentpagedevice k get def
v cpdv ne {
/upd false def
/nullv v type /nulltype eq def
/nullcpdv cpdv type /nulltype eq def
nullv nullcpdv or
{
/upd true def
} {
/sametype v type cpdv type eq def
sametype {
v type /arraytype eq {
/vlen v length def
/cpdvlen cpdv length def
vlen cpdvlen eq {
0 1 vlen 1 sub {
/i exch def
/obj v i get def
/cpdobj cpdv i get def
obj cpdobj ne {
/upd true def
exit
} if
} for
} {
/upd true def
} ifelse
} {
v type /dicttype eq {
v {
/dv exch def
/dk exch def
/cpddv cpdv dk get def
dv cpddv ne {
/upd true def
exit
} if
} forall
} {
/upd true def
} ifelse
} ifelse
} if
} ifelse
upd true eq {
d k v put
} if
} if
} if
} forall
d length 0 gt {
d setpagedevice
} if
} bd
%%EndResource
%%BeginResource: procset (Apache XML Graphics EPS ProcSet) 1.0 0
%%Version: 1.0 0
%%Copyright: (Copyright 2002-2003 The Apache Software Foundation. License terms: http://www.apache.org/licenses/LICENSE-2.0)
/BeginEPSF { %def
/b4_Inc_state save def         % Save state for cleanup
/dict_count countdictstack def % Count objects on dict stack
/op_count count 1 sub def      % Count objects on operand stack
userdict begin                 % Push userdict on dict stack
/showpage { } def              % Redefine showpage, { } = null proc
0 setgray 0 setlinecap         % Prepare graphics state
1 setlinewidth 0 setlinejoin
10 setmiterlimit [ ] 0 setdash newpath
/languagelevel where           % If level not equal to 1 then
{pop languagelevel             % set strokeadjust and
1 ne                           % overprint to their defaults.
{false setstrokeadjust false setoverprint
} if
} if
} bd
/EndEPSF { %def
count op_count sub {pop} repeat            % Clean up stacks
countdictstack dict_count sub {end} repeat
b4_Inc_state restore
} bd
%%EndResource
%FOPBeginFontDict
%%IncludeResource: font Courier-Bold
%%IncludeResource: font Helvetica
%%IncludeResource: font Courier-BoldOblique
%%IncludeResource: font Courier-Oblique
%%IncludeResource: font Times-Roman
%%IncludeResource: font Helvetica-BoldOblique
%%IncludeResource: font Helvetica-Bold
%%IncludeResource: font Helvetica-Oblique
%%IncludeResource: font Times-BoldItalic
%%IncludeResource: font Courier
%%IncludeResource: font Times-Italic
%%IncludeResource: font Times-Bold
%%IncludeResource: font Symbol
%%IncludeResource: font ZapfDingbats
%FOPEndFontDict
%%BeginResource: encoding WinAnsiEncoding
/WinAnsiEncoding [
/.notdef /.notdef /.notdef /.notdef /.notdef
/.notdef /.notdef /.notdef /.notdef /.notdef
/.notdef /.notdef /.notdef /.notdef /.notdef
/.notdef /.notdef /.notdef /.notdef /.notdef
/.notdef /.notdef /.notdef /.notdef /.notdef
/.notdef /.notdef /.notdef /.notdef /.notdef
/.notdef /.notdef /space /exclam /quotedbl
/numbersign /dollar /percent /ampersand /quotesingle
/parenleft /parenright /asterisk /plus /comma
/hyphen /period /slash /zero /one
/two /three /four /five /six
/seven /eight /nine /colon /semicolon
/less /equal /greater /question /at
/A /B /C /D /E
/F /G /H /I /J
/K /L /M /N /O
/P /Q /R /S /T
/U /V /W /X /Y
/Z /bracketleft /backslash /bracketright /asciicircum
/underscore /quoteleft /a /b /c
/d /e /f /g /h
/i /j /k /l /m
/n /o /p /q /r
/s /t /u /v /w
/x /y /z /braceleft /bar
/braceright /asciitilde /bullet /Euro /bullet
/quotesinglbase /florin /quotedblbase /ellipsis /dagger
/daggerdbl /circumflex /perthousand /Scaron /guilsinglleft
/OE /bullet /Zcaron /bullet /bullet
/quoteleft /quoteright /quotedblleft /quotedblright /bullet
/endash /emdash /asciitilde /trademark /scaron
/guilsinglright /oe /bullet /zcaron /Ydieresis
/space /exclamdown /cent /sterling /currency
/yen /brokenbar /section /dieresis /copyright
/ordfeminine /guillemotleft /logicalnot /sfthyphen /registered
/macron /degree /plusminus /twosuperior /threesuperior
/acute /mu /paragraph /middot /cedilla
/onesuperior /ordmasculine /guillemotright /onequarter /onehalf
/threequarters /questiondown /Agrave /Aacute /Acircumflex
/Atilde /Adieresis /Aring /AE /Ccedilla
/Egrave /Eacute /Ecircumflex /Edieresis /Igrave
/Iacute /Icircumflex /Idieresis /Eth /Ntilde
/Ograve /Oacute /Ocircumflex /Otilde /Odieresis
/multiply /Oslash /Ugrave /Uacute /Ucircumflex
/Udieresis /Yacute /Thorn /germandbls /agrave
/aacute /acircumflex /atilde /adieresis /aring
/ae /ccedilla /egrave /eacute /ecircumflex
/edieresis /igrave /iacute /icircumflex /idieresis
/eth /ntilde /ograve /oacute /ocircumflex
/otilde /odieresis /divide /oslash /ugrave
/uacute /ucircumflex /udieresis /yacute /thorn
/ydieresis
] def
%%EndResource
%FOPBeginFontReencode
/Courier-Bold findfont
dup length dict begin
  {1 index /FID ne {def} {pop pop} ifelse} forall
  /Encoding WinAnsiEncoding def
  currentdict
end
/Courier-Bold exch definefont pop
/Helvetica findfont
dup length dict begin
  {1 index /FID ne {def} {pop pop} ifelse} forall
  /Encoding WinAnsiEncoding def
  currentdict
end
/Helvetica exch definefont pop
/Courier-BoldOblique findfont
dup length dict begin
  {1 index /FID ne {def} {pop pop} ifelse} forall
  /Encoding WinAnsiEncoding def
  currentdict
end
/Courier-BoldOblique exch definefont pop
/Courier-Oblique findfont
dup length dict begin
  {1 index /FID ne {def} {pop pop} ifelse} forall
  /Encoding WinAnsiEncoding def
  currentdict
end
/Courier-Oblique exch definefont pop
/Times-Roman findfont
dup length dict begin
  {1 index /FID ne {def} {pop pop} ifelse} forall
  /Encoding WinAnsiEncoding def
  currentdict
end
/Times-Roman exch definefont pop
/Helvetica-BoldOblique findfont
dup length dict begin
  {1 index /FID ne {def} {pop pop} ifelse} forall
  /Encoding WinAnsiEncoding def
  currentdict
end
/Helvetica-BoldOblique exch definefont pop
/Helvetica-Bold findfont
dup length dict begin
  {1 index /FID ne {def} {pop pop} ifelse} forall
  /Encoding WinAnsiEncoding def
  currentdict
end
/Helvetica-Bold exch definefont pop
/Helvetica-Oblique findfont
dup length dict begin
  {1 index /FID ne {def} {pop pop} ifelse} forall
  /Encoding WinAnsiEncoding def
  currentdict
end
/Helvetica-Oblique exch definefont pop
/Times-BoldItalic findfont
dup length dict begin
  {1 index /FID ne {def} {pop pop} ifelse} forall
  /Encoding WinAnsiEncoding def
  currentdict
end
/Times-BoldItalic exch definefont pop
/Courier findfont
dup length dict begin
  {1 index /FID ne {def} {pop pop} ifelse} forall
  /Encoding WinAnsiEncoding def
  currentdict
end
/Courier exch definefont pop
/Times-Italic findfont
dup length dict begin
  {1 index /FID ne {def} {pop pop} ifelse} forall
  /Encoding WinAnsiEncoding def
  currentdict
end
/Times-Italic exch definefont pop
/Times-Bold findfont
dup length dict begin
  {1 index /FID ne {def} {pop pop} ifelse} forall
  /Encoding WinAnsiEncoding def
  currentdict
end
/Times-Bold exch definefont pop
%FOPEndFontReencode
%%EndProlog
%%Page: 1 1
%%PageBoundingBox: 0 0 420 315
%%BeginPageSetup
[1 0 0 -1 0 315] CT
%%EndPageSetup
GS
[0.75 0 0 0.75 0 0] CT
1 GC
N
0 0 560 420 re
f
GR
GS
[0.75 0 0 0.75 0 0] CT
1 GC
N
0 0 560 420 re
f
GR
GS
[0.75 0 0 0.75 0 0] CT
1 GC
N
118.5 374 M
461.5 374 L
461.5 31 L
118.5 31 L
cp
f
GR
GS
[0.75 0 0 0.75 0 0] CT
0.149 GC
2 setlinecap
1 LJ
0.667 LW
N
118.5 374 M
461.5 374 L
S
GR
GS
[0.75 0 0 0.75 0 0] CT
0.149 GC
2 setlinecap
1 LJ
0.667 LW
N
118.5 31 M
461.5 31 L
S
GR
GS
[0.75 0 0 0.75 0 0] CT
0.149 GC
2 setlinecap
1 LJ
0.667 LW
N
152.8 374 M
152.8 370.57 L
S
GR
GS
[0.75 0 0 0.75 0 0] CT
0.149 GC
2 setlinecap
1 LJ
0.667 LW
N
221.4 374 M
221.4 370.57 L
S
GR
GS
[0.75 0 0 0.75 0 0] CT
0.149 GC
2 setlinecap
1 LJ
0.667 LW
N
290 374 M
290 370.57 L
S
GR
GS
[0.75 0 0 0.75 0 0] CT
0.149 GC
2 setlinecap
1 LJ
0.667 LW
N
358.6 374 M
358.6 370.57 L
S
GR
GS
[0.75 0 0 0.75 0 0] CT
0.149 GC
2 setlinecap
1 LJ
0.667 LW
N
427.2 374 M
427.2 370.57 L
S
GR
GS
[0.75 0 0 0.75 0 0] CT
0.149 GC
2 setlinecap
1 LJ
0.667 LW
N
152.8 31 M
152.8 34.43 L
S
GR
GS
[0.75 0 0 0.75 0 0] CT
0.149 GC
2 setlinecap
1 LJ
0.667 LW
N
221.4 31 M
221.4 34.43 L
S
GR
GS
[0.75 0 0 0.75 0 0] CT
0.149 GC
2 setlinecap
1 LJ
0.667 LW
N
290 31 M
290 34.43 L
S
GR
GS
[0.75 0 0 0.75 0 0] CT
0.149 GC
2 setlinecap
1 LJ
0.667 LW
N
358.6 31 M
358.6 34.43 L
S
GR
GS
[0.75 0 0 0.75 0 0] CT
0.149 GC
2 setlinecap
1 LJ
0.667 LW
N
427.2 31 M
427.2 34.43 L
S
GR
GS
[0.75 0 0 0.75 114.6 284.50001] CT
0.149 GC
/Times-Roman 13 F
GS
[1 0 0 1 0 0] CT
-15 13 moveto 
1 -1 scale
(-200) t 
GR
GR
GS
[0.75 0 0 0.75 166.05 284.50001] CT
0.149 GC
/Times-Roman 13 F
GS
[1 0 0 1 0 0] CT
-15 13 moveto 
1 -1 scale
(-100) t 
GR
GR
GS
[0.75 0 0 0.75 217.5 284.50001] CT
0.149 GC
/Times-Roman 13 F
GS
[1 0 0 1 0 0] CT
-4.5 13 moveto 
1 -1 scale
(0) t 
GR
GR
GS
[0.75 0 0 0.75 268.95 284.50001] CT
0.149 GC
/Times-Roman 13 F
GS
[1 0 0 1 0 0] CT
-12.5 13 moveto 
1 -1 scale
(100) t 
GR
GR
GS
[0.75 0 0 0.75 320.40001 284.50001] CT
0.149 GC
/Times-Roman 13 F
GS
[1 0 0 1 0 0] CT
-12.5 13 moveto 
1 -1 scale
(200) t 
GR
GR
GS
[0.75 0 0 0.75 217.50011 298.24999] CT
0.149 GC
/Times-Roman 15 F
GS
[1 0 0 1 0 0] CT
-20 14 moveto 
1 -1 scale
(x \(m\)) t 
GR
GR
GS
[0.75 0 0 0.75 0 0] CT
0.149 GC
2 setlinecap
1 LJ
0.667 LW
N
118.5 374 M
118.5 31 L
S
GR
GS
[0.75 0 0 0.75 0 0] CT
0.149 GC
2 setlinecap
1 LJ
0.667 LW
N
461.5 374 M
461.5 31 L
S
GR
GS
[0.75 0 0 0.75 0 0] CT
0.149 GC
2 setlinecap
1 LJ
0.667 LW
N
118.5 374 M
121.93 374 L
S
GR
GS
[0.75 0 0 0.75 0 0] CT
0.149 GC
2 setlinecap
1 LJ
0.667 LW
N
118.5 339.7 M
121.93 339.7 L
S
GR
GS
[0.75 0 0 0.75 0 0] CT
0.149 GC
2 setlinecap
1 LJ
0.667 LW
N
118.5 305.4 M
121.93 305.4 L
S
GR
GS
[0.75 0 0 0.75 0 0] CT
0.149 GC
2 setlinecap
1 LJ
0.667 LW
N
118.5 271.1 M
121.93 271.1 L
S
GR
GS
[0.75 0 0 0.75 0 0] CT
0.149 GC
2 setlinecap
1 LJ
0.667 LW
N
118.5 236.8 M
121.93 236.8 L
S
GR
GS
[0.75 0 0 0.75 0 0] CT
0.149 GC
2 setlinecap
1 LJ
0.667 LW
N
118.5 202.5 M
121.93 202.5 L
S
GR
GS
[0.75 0 0 0.75 0 0] CT
0.149 GC
2 setlinecap
1 LJ
0.667 LW
N
118.5 168.2 M
121.93 168.2 L
S
GR
GS
[0.75 0 0 0.75 0 0] CT
0.149 GC
2 setlinecap
1 LJ
0.667 LW
N
118.5 133.9 M
121.93 133.9 L
S
GR
GS
[0.75 0 0 0.75 0 0] CT
0.149 GC
2 setlinecap
1 LJ
0.667 LW
N
118.5 99.6 M
121.93 99.6 L
S
GR
GS
[0.75 0 0 0.75 0 0] CT
0.149 GC
2 setlinecap
1 LJ
0.667 LW
N
118.5 65.3 M
121.93 65.3 L
S
GR
GS
[0.75 0 0 0.75 0 0] CT
0.149 GC
2 setlinecap
1 LJ
0.667 LW
N
118.5 31 M
121.93 31 L
S
GR
GS
[0.75 0 0 0.75 0 0] CT
0.149 GC
2 setlinecap
1 LJ
0.667 LW
N
461.5 374 M
458.07 374 L
S
GR
GS
[0.75 0 0 0.75 0 0] CT
0.149 GC
2 setlinecap
1 LJ
0.667 LW
N
461.5 339.7 M
458.07 339.7 L
S
GR
GS
[0.75 0 0 0.75 0 0] CT
0.149 GC
2 setlinecap
1 LJ
0.667 LW
N
461.5 305.4 M
458.07 305.4 L
S
GR
GS
[0.75 0 0 0.75 0 0] CT
0.149 GC
2 setlinecap
1 LJ
0.667 LW
N
461.5 271.1 M
458.07 271.1 L
S
GR
GS
[0.75 0 0 0.75 0 0] CT
0.149 GC
2 setlinecap
1 LJ
0.667 LW
N
461.5 236.8 M
458.07 236.8 L
S
GR
GS
[0.75 0 0 0.75 0 0] CT
0.149 GC
2 setlinecap
1 LJ
0.667 LW
N
461.5 202.5 M
458.07 202.5 L
S
GR
GS
[0.75 0 0 0.75 0 0] CT
0.149 GC
2 setlinecap
1 LJ
0.667 LW
N
461.5 168.2 M
458.07 168.2 L
S
GR
GS
[0.75 0 0 0.75 0 0] CT
0.149 GC
2 setlinecap
1 LJ
0.667 LW
N
461.5 133.9 M
458.07 133.9 L
S
GR
GS
[0.75 0 0 0.75 0 0] CT
0.149 GC
2 setlinecap
1 LJ
0.667 LW
N
461.5 99.6 M
458.07 99.6 L
S
GR
GS
[0.75 0 0 0.75 0 0] CT
0.149 GC
2 setlinecap
1 LJ
0.667 LW
N
461.5 65.3 M
458.07 65.3 L
S
GR
GS
[0.75 0 0 0.75 0 0] CT
0.149 GC
2 setlinecap
1 LJ
0.667 LW
N
461.5 31 M
458.07 31 L
S
GR
GS
[0.75 0 0 0.75 84.875 280.5] CT
0.149 GC
/Times-Roman 13 F
GS
[1 0 0 1 0 0] CT
-30 4.5 moveto 
1 -1 scale
(-250) t 
GR
GR
GS
[0.75 0 0 0.75 84.875 254.77501] CT
0.149 GC
/Times-Roman 13 F
GS
[1 0 0 1 0 0] CT
-30 4.5 moveto 
1 -1 scale
(-200) t 
GR
GR
GS
[0.75 0 0 0.75 84.875 229.05] CT
0.149 GC
/Times-Roman 13 F
GS
[1 0 0 1 0 0] CT
-30 4.5 moveto 
1 -1 scale
(-150) t 
GR
GR
GS
[0.75 0 0 0.75 84.875 203.325] CT
0.149 GC
/Times-Roman 13 F
GS
[1 0 0 1 0 0] CT
-30 4.5 moveto 
1 -1 scale
(-100) t 
GR
GR
GS
[0.75 0 0 0.75 84.875 177.6] CT
0.149 GC
/Times-Roman 13 F
GS
[1 0 0 1 0 0] CT
-22 4.5 moveto 
1 -1 scale
(-50) t 
GR
GR
GS
[0.75 0 0 0.75 84.875 151.875] CT
0.149 GC
/Times-Roman 13 F
GS
[1 0 0 1 0 0] CT
-9 4.5 moveto 
1 -1 scale
(0) t 
GR
GR
GS
[0.75 0 0 0.75 84.875 126.15] CT
0.149 GC
/Times-Roman 13 F
GS
[1 0 0 1 0 0] CT
-17 4.5 moveto 
1 -1 scale
(50) t 
GR
GR
GS
[0.75 0 0 0.75 84.875 100.425] CT
0.149 GC
/Times-Roman 13 F
GS
[1 0 0 1 0 0] CT
-25 4.5 moveto 
1 -1 scale
(100) t 
GR
GR
GS
[0.75 0 0 0.75 84.875 74.7] CT
0.149 GC
/Times-Roman 13 F
GS
[1 0 0 1 0 0] CT
-25 4.5 moveto 
1 -1 scale
(150) t 
GR
GR
GS
[0.75 0 0 0.75 84.875 48.975] CT
0.149 GC
/Times-Roman 13 F
GS
[1 0 0 1 0 0] CT
-25 4.5 moveto 
1 -1 scale
(200) t 
GR
GR
GS
[0.75 0 0 0.75 84.875 23.25] CT
0.149 GC
/Times-Roman 13 F
GS
[1 0 0 1 0 0] CT
-25 4.5 moveto 
1 -1 scale
(250) t 
GR
GR
GS
[0 -0.75 0.75 0 59.375 151.87487] CT
0.149 GC
/Times-Roman 15 F
GS
[1 0 0 1 0 0] CT
-20 -4 moveto 
1 -1 scale
(y \(m\)) t 
GR
GR
GS
[0.75 0 0 0.75 0 0] CT
1 LJ
N
278.5 340.5 M
277.736 338.149 L
275.736 336.696 L
273.264 336.696 L
271.264 338.149 L
270.5 340.5 L
271.264 342.851 L
273.264 344.304 L
275.736 344.304 L
277.736 342.851 L
cp
S
GR
GS
[0.75 0 0 0.75 0 0] CT
1 LJ
N
342.5 135.5 M
341.736 133.149 L
339.736 131.696 L
337.264 131.696 L
335.264 133.149 L
334.5 135.5 L
335.264 137.851 L
337.264 139.304 L
339.736 139.304 L
341.736 137.851 L
cp
S
GR
GS
[0.75 0 0 0.75 0 0] CT
1 LJ
N
347.5 326.5 M
346.736 324.149 L
344.736 322.696 L
342.264 322.696 L
340.264 324.149 L
339.5 326.5 L
340.264 328.851 L
342.264 330.304 L
344.736 330.304 L
346.736 328.851 L
cp
S
GR
GS
[0.75 0 0 0.75 0 0] CT
1 LJ
N
333.5 227.5 M
332.736 225.149 L
330.736 223.696 L
328.264 223.696 L
326.264 225.149 L
325.5 227.5 L
326.264 229.851 L
328.264 231.304 L
330.736 231.304 L
332.736 229.851 L
cp
S
GR
GS
[0.75 0 0 0.75 0 0] CT
1 LJ
N
323.5 368.5 M
322.736 366.149 L
320.736 364.696 L
318.264 364.696 L
316.264 366.149 L
315.5 368.5 L
316.264 370.851 L
318.264 372.304 L
320.736 372.304 L
322.736 370.851 L
cp
S
GR
GS
[0.75 0 0 0.75 0 0] CT
1 LJ
N
299.5 336.5 M
298.736 334.149 L
296.736 332.696 L
294.264 332.696 L
292.264 334.149 L
291.5 336.5 L
292.264 338.851 L
294.264 340.304 L
296.736 340.304 L
298.736 338.851 L
cp
S
GR
GS
[0.75 0 0 0.75 0 0] CT
1 LJ
N
206.5 142.5 M
205.736 140.149 L
203.736 138.696 L
201.264 138.696 L
199.264 140.149 L
198.5 142.5 L
199.264 144.851 L
201.264 146.304 L
203.736 146.304 L
205.736 144.851 L
cp
S
GR
GS
[0.75 0 0 0.75 0 0] CT
1 LJ
N
285.5 231.5 M
284.736 229.149 L
282.736 227.696 L
280.264 227.696 L
278.264 229.149 L
277.5 231.5 L
278.264 233.851 L
280.264 235.304 L
282.736 235.304 L
284.736 233.851 L
cp
S
GR
GS
[0.75 0 0 0.75 0 0] CT
1 LJ
N
148.5 265.5 M
147.736 263.149 L
145.736 261.696 L
143.264 261.696 L
141.264 263.149 L
140.5 265.5 L
141.264 267.851 L
143.264 269.304 L
145.736 269.304 L
147.736 267.851 L
cp
S
GR
GS
[0.75 0 0 0.75 0 0] CT
1 LJ
N
179.5 270.5 M
178.736 268.149 L
176.736 266.696 L
174.264 266.696 L
172.264 268.149 L
171.5 270.5 L
172.264 272.851 L
174.264 274.304 L
176.736 274.304 L
178.736 272.851 L
cp
S
GR
GS
[0.75 0 0 0.75 0 0] CT
1 LJ
N
205.5 71.5 M
204.736 69.149 L
202.736 67.696 L
200.264 67.696 L
198.264 69.149 L
197.5 71.5 L
198.264 73.851 L
200.264 75.304 L
202.736 75.304 L
204.736 73.851 L
cp
S
GR
GS
[0.75 0 0 0.75 0 0] CT
1 LJ
N
259.5 319.5 M
258.736 317.149 L
256.736 315.696 L
254.264 315.696 L
252.264 317.149 L
251.5 319.5 L
252.264 321.851 L
254.264 323.304 L
256.736 323.304 L
258.736 321.851 L
cp
S
GR
GS
[0.75 0 0 0.75 0 0] CT
1 LJ
N
302.5 189.5 M
301.736 187.149 L
299.736 185.696 L
297.264 185.696 L
295.264 187.149 L
294.5 189.5 L
295.264 191.851 L
297.264 193.304 L
299.736 193.304 L
301.736 191.851 L
cp
S
GR
GS
[0.75 0 0 0.75 0 0] CT
1 LJ
N
458.5 200.5 M
457.736 198.149 L
455.736 196.696 L
453.264 196.696 L
451.264 198.149 L
450.5 200.5 L
451.264 202.851 L
453.264 204.304 L
455.736 204.304 L
457.736 202.851 L
cp
S
GR
GS
[0.75 0 0 0.75 0 0] CT
1 LJ
N
192.5 244.5 M
191.736 242.149 L
189.736 240.696 L
187.264 240.696 L
185.264 242.149 L
184.5 244.5 L
185.264 246.851 L
187.264 248.304 L
189.736 248.304 L
191.736 246.851 L
cp
S
GR
GS
[0.75 0 0 0.75 0 0] CT
1 LJ
N
159 220.5 M
168 220.5 L
S
GR
GS
[0.75 0 0 0.75 0 0] CT
1 LJ
N
163.5 225 M
163.5 216 L
S
GR
GS
[0.75 0 0 0.75 0 0] CT
1 LJ
N
179 213.5 M
188 213.5 L
S
GR
GS
[0.75 0 0 0.75 0 0] CT
1 LJ
N
183.5 218 M
183.5 209 L
S
GR
GS
[0.75 0 0 0.75 0 0] CT
1 LJ
N
181 239.5 M
190 239.5 L
S
GR
GS
[0.75 0 0 0.75 0 0] CT
1 LJ
N
185.5 244 M
185.5 235 L
S
GR
GS
[0.75 0 0 0.75 0 0] CT
1 LJ
N
174 227.5 M
183 227.5 L
S
GR
GS
[0.75 0 0 0.75 0 0] CT
1 LJ
N
178.5 232 M
178.5 223 L
S
GR
GS
[0.75 0 0 0.75 0 0] CT
1 LJ
N
143 201.5 M
152 201.5 L
S
GR
GS
[0.75 0 0 0.75 0 0] CT
1 LJ
N
147.5 206 M
147.5 197 L
S
GR
GS
[0.75 0 0 0.75 0 0] CT
1 LJ
N
170 237.5 M
179 237.5 L
S
GR
GS
[0.75 0 0 0.75 0 0] CT
1 LJ
N
174.5 242 M
174.5 233 L
S
GR
GS
[0.75 0 0 0.75 0 0] CT
1 LJ
N
164 167.5 M
173 167.5 L
S
GR
GS
[0.75 0 0 0.75 0 0] CT
1 LJ
N
168.5 172 M
168.5 163 L
S
GR
GS
[0.75 0 0 0.75 0 0] CT
1 LJ
N
143 219.5 M
152 219.5 L
S
GR
GS
[0.75 0 0 0.75 0 0] CT
1 LJ
N
147.5 224 M
147.5 215 L
S
GR
GS
[0.75 0 0 0.75 0 0] CT
1 LJ
N
185 249.5 M
194 249.5 L
S
GR
GS
[0.75 0 0 0.75 0 0] CT
1 LJ
N
189.5 254 M
189.5 245 L
S
GR
GS
[0.75 0 0 0.75 0 0] CT
1 LJ
N
184 187.5 M
193 187.5 L
S
GR
GS
[0.75 0 0 0.75 0 0] CT
1 LJ
N
188.5 192 M
188.5 183 L
S
GR
GS
[0.75 0 0 0.75 0 0] CT
1 0 0 RC
1 LJ
N
161 244.5 M
170 244.5 L
S
GR
GS
[0.75 0 0 0.75 0 0] CT
1 0 0 RC
1 LJ
N
165.5 249 M
165.5 240 L
S
GR
GS
[0.75 0 0 0.75 0 0] CT
1 0 0 RC
1 LJ
N
176 232.5 M
185 232.5 L
S
GR
GS
[0.75 0 0 0.75 0 0] CT
1 0 0 RC
1 LJ
N
180.5 237 M
180.5 228 L
S
GR
GS
[0.75 0 0 0.75 0 0] CT
1 0 0 RC
1 LJ
N
156 239.5 M
165 239.5 L
S
GR
GS
[0.75 0 0 0.75 0 0] CT
1 0 0 RC
1 LJ
N
160.5 244 M
160.5 235 L
S
GR
GS
[0.75 0 0 0.75 0 0] CT
1 0 0 RC
1 LJ
N
162 217.5 M
171 217.5 L
S
GR
GS
[0.75 0 0 0.75 0 0] CT
1 0 0 RC
1 LJ
N
166.5 222 M
166.5 213 L
S
GR
GS
[0.75 0 0 0.75 0 0] CT
1 0 0 RC
1 LJ
N
167 208.5 M
176 208.5 L
S
GR
GS
[0.75 0 0 0.75 0 0] CT
1 0 0 RC
1 LJ
N
171.5 213 M
171.5 204 L
S
GR
GS
[0.75 0 0 0.75 0 0] CT
1 0 0 RC
1 LJ
N
192 225.5 M
201 225.5 L
S
GR
GS
[0.75 0 0 0.75 0 0] CT
1 0 0 RC
1 LJ
N
196.5 230 M
196.5 221 L
S
GR
GS
[0.75 0 0 0.75 0 0] CT
1 0 0 RC
1 LJ
N
172 185.5 M
181 185.5 L
S
GR
GS
[0.75 0 0 0.75 0 0] CT
1 0 0 RC
1 LJ
N
176.5 190 M
176.5 181 L
S
GR
GS
[0.75 0 0 0.75 0 0] CT
1 0 0 RC
1 LJ
N
135 219.5 M
144 219.5 L
S
GR
GS
[0.75 0 0 0.75 0 0] CT
1 0 0 RC
1 LJ
N
139.5 224 M
139.5 215 L
S
GR
GS
[0.75 0 0 0.75 0 0] CT
1 0 0 RC
1 LJ
N
169 248.5 M
178 248.5 L
S
GR
GS
[0.75 0 0 0.75 0 0] CT
1 0 0 RC
1 LJ
N
173.5 253 M
173.5 244 L
S
GR
GS
[0.75 0 0 0.75 0 0] CT
1 0 0 RC
1 LJ
N
170 184.5 M
179 184.5 L
S
GR
GS
[0.75 0 0 0.75 0 0] CT
1 0 0 RC
1 LJ
N
174.5 189 M
174.5 180 L
S
GR
GS
[0.75 0 0 0.75 0 0] CT
10.0 ML
N
281.265 207.832 M
299.735 207.832 L
290.5 191.836 L
cp
S
GR
GS
[0.75 0 0 0.75 0 0] CT
0 0.447 0.741 RC
1 LJ
0.667 LW
N
165.727 244.612 M
163.322 220.92 L
S
GR
GS
[0.75 0 0 0.75 0 0] CT
0.851 0.325 0.098 RC
1 LJ
0.667 LW
N
180.893 232.729 M
183.683 213.938 L
S
GR
GS
[0.75 0 0 0.75 0 0] CT
0.929 0.694 0.125 RC
1 LJ
0.667 LW
N
160.988 239.917 M
185.693 239.712 L
S
GR
GS
[0.75 0 0 0.75 0 0] CT
0.494 0.184 0.557 RC
1 LJ
0.667 LW
N
166.971 217.685 M
178.971 227.235 L
S
GR
GS
[0.75 0 0 0.75 0 0] CT
0.467 0.675 0.188 RC
1 LJ
0.667 LW
N
171.148 208.576 M
147.164 201.362 L
S
GR
GS
[0.75 0 0 0.75 0 0] CT
0.302 0.745 0.933 RC
1 LJ
0.667 LW
N
196.261 225.628 M
174.285 237.427 L
S
GR
GS
[0.75 0 0 0.75 0 0] CT
0.635 0.078 0.184 RC
1 LJ
0.667 LW
N
176.351 185.743 M
168.397 167.553 L
S
GR
GS
[0.75 0 0 0.75 0 0] CT
0 0.447 0.741 RC
1 LJ
0.667 LW
N
139.072 219.171 M
147.327 219.481 L
S
GR
GS
[0.75 0 0 0.75 0 0] CT
0.851 0.325 0.098 RC
1 LJ
0.667 LW
N
173.73 248.407 M
189.335 249.992 L
S
GR
GS
[0.75 0 0 0.75 0 0] CT
0.929 0.694 0.125 RC
1 LJ
0.667 LW
N
174.826 184.444 M
188.091 187.449 L
S
GR
GS
[0.75 0 0 0.75 0 0] CT
1 LJ
0.667 LW
N
118.5 202.5 M
118.867 213.717 L
119.967 224.885 L
121.795 235.958 L
124.344 246.887 L
127.601 257.627 L
131.555 268.13 L
136.186 278.353 L
141.477 288.25 L
147.403 297.78 L
153.94 306.903 L
161.059 315.578 L
168.731 323.769 L
176.922 331.441 L
185.597 338.56 L
194.72 345.097 L
204.25 351.023 L
214.147 356.314 L
224.37 360.945 L
234.873 364.899 L
245.613 368.156 L
256.542 370.705 L
267.615 372.533 L
278.783 373.633 L
290 374 L
290 374 L
301.217 373.633 L
312.385 372.533 L
323.458 370.705 L
334.387 368.156 L
345.127 364.899 L
355.63 360.945 L
365.853 356.314 L
375.75 351.023 L
385.28 345.097 L
394.403 338.56 L
403.078 331.441 L
411.269 323.769 L
418.941 315.578 L
426.06 306.903 L
432.597 297.78 L
438.523 288.25 L
443.814 278.353 L
448.445 268.13 L
452.399 257.627 L
455.656 246.887 L
458.205 235.958 L
460.033 224.885 L
461.133 213.717 L
461.5 202.5 L
461.5 202.5 L
461.133 191.283 L
460.033 180.115 L
458.205 169.042 L
455.656 158.113 L
452.399 147.373 L
448.445 136.87 L
443.814 126.647 L
438.523 116.75 L
432.597 107.22 L
426.06 98.097 L
418.941 89.422 L
411.269 81.231 L
403.078 73.559 L
394.403 66.44 L
385.28 59.903 L
375.75 53.977 L
365.853 48.686 L
355.63 44.055 L
345.127 40.101 L
334.387 36.844 L
323.458 34.295 L
312.385 32.467 L
301.217 31.367 L
290 31 L
290 31 L
278.783 31.367 L
267.615 32.467 L
256.542 34.295 L
245.613 36.844 L
234.873 40.101 L
224.37 44.055 L
214.147 48.686 L
204.25 53.977 L
194.72 59.903 L
185.597 66.44 L
176.922 73.559 L
168.731 81.231 L
161.059 89.422 L
153.94 98.097 L
147.403 107.22 L
141.477 116.75 L
136.186 126.647 L
131.555 136.87 L
127.601 147.373 L
124.344 158.113 L
121.795 169.042 L
119.967 180.115 L
118.867 191.283 L
118.5 202.5 L
cp
S
GR
GS
[0.75 0 0 0.75 0 0] CT
1 LJ
0.667 LW
N
118.466 227.629 M
118.52 227.957 L
119.386 231.67 L
120.493 235.319 L
121.836 238.887 L
123.409 242.361 L
125.207 245.723 L
127.22 248.961 L
129.441 252.06 L
131.86 255.008 L
134.466 257.791 L
137.249 260.397 L
140.197 262.816 L
143.296 265.037 L
146.534 267.051 L
149.897 268.848 L
153.37 270.422 L
156.938 271.765 L
160.587 272.871 L
164.3 273.737 L
168.062 274.358 L
171.857 274.732 L
175.668 274.857 L
175.668 274.857 L
179.479 274.732 L
183.273 274.358 L
187.035 273.737 L
190.748 272.871 L
194.397 271.765 L
197.966 270.422 L
201.439 268.848 L
204.801 267.051 L
208.039 265.037 L
211.139 262.816 L
214.086 260.397 L
216.869 257.791 L
219.475 255.008 L
221.894 252.06 L
224.115 248.961 L
226.129 245.723 L
227.926 242.361 L
229.5 238.887 L
230.843 235.319 L
231.95 231.67 L
232.815 227.957 L
233.437 224.195 L
233.81 220.4 L
233.935 216.59 L
233.935 216.59 L
233.81 212.779 L
S
GR
GS
[0.75 0 0 0.75 0 0] CT
1 LJ
0.667 LW
N
233.935 216.59 M
233.81 212.779 L
233.437 208.984 L
232.815 205.222 L
231.95 201.509 L
230.843 197.86 L
229.5 194.292 L
227.926 190.819 L
226.129 187.456 L
224.115 184.218 L
221.894 181.119 L
219.475 178.171 L
216.869 175.388 L
214.086 172.782 L
211.139 170.363 L
208.039 168.142 L
204.801 166.128 L
201.439 164.331 L
197.966 162.757 L
194.397 161.414 L
190.748 160.308 L
187.035 159.442 L
183.273 158.821 L
179.479 158.447 L
175.668 158.322 L
175.668 158.322 L
171.857 158.447 L
168.062 158.821 L
164.3 159.442 L
160.587 160.308 L
156.938 161.414 L
153.37 162.757 L
149.897 164.331 L
146.534 166.128 L
143.296 168.142 L
140.197 170.363 L
137.249 172.782 L
134.466 175.388 L
131.86 178.171 L
129.441 181.119 L
127.22 184.218 L
125.207 187.456 L
123.409 190.819 L
121.836 194.292 L
120.493 197.86 L
119.386 201.509 L
118.52 205.222 L
118.466 205.55 L
S
GR
GS
[0.75 0 0 0.75 0 0] CT
1 GC
N
346 112 M
346 44 L
448 44 L
448 112 L
cp
f
GR
GS
[0.75 0 0 0.75 298.5 40.7005] CT
/Times-Roman 12 F
GS
[1 0 0 1 0 0] CT
0 4.5 moveto 
1 -1 scale
(CU) t 
GR
GR
GS
[0.75 0 0 0.75 0 0] CT
1 LJ
N
378.5 54.5 M
377.736 52.149 L
375.736 50.696 L
373.264 50.696 L
371.264 52.149 L
370.5 54.5 L
371.264 56.851 L
373.264 58.304 L
375.736 58.304 L
377.736 56.851 L
cp
S
GR
GS
[0.75 0 0 0.75 298.5 52.56683] CT
/Times-Roman 12 F
GS
[1 0 0 1 0 0] CT
0 4.5 moveto 
1 -1 scale
(D2D Rx) t 
GR
GR
GS
[0.75 0 0 0.75 0 0] CT
1 LJ
N
370 70.5 M
379 70.5 L
S
GR
GS
[0.75 0 0 0.75 0 0] CT
1 LJ
N
374.5 75 M
374.5 66 L
S
GR
GS
[0.75 0 0 0.75 298.5 64.43317] CT
/Times-Roman 12 F
GS
[1 0 0 1 0 0] CT
0 4.5 moveto 
1 -1 scale
(D2D Tx) t 
GR
GR
GS
[0.75 0 0 0.75 0 0] CT
1 0 0 RC
1 LJ
N
370 85.5 M
379 85.5 L
S
GR
GS
[0.75 0 0 0.75 0 0] CT
1 0 0 RC
1 LJ
N
374.5 90 M
374.5 81 L
S
GR
GS
[0.75 0 0 0.75 298.5 76.29951] CT
/Times-Roman 12 F
GS
[1 0 0 1 0 0] CT
0 4.5 moveto 
1 -1 scale
(BS) t 
GR
GR
GS
[0.75 0 0 0.75 0 0] CT
10.0 ML
N
365.265 106.832 M
383.735 106.832 L
374.5 90.836 L
cp
S
GR
GS
[0.75 0 0 0.75 0 0] CT
0.149 GC
10.0 ML
0.667 LW
N
346 112 M
346 44 L
448 44 L
448 112 L
cp
S
GR
%%Trailer
%%Pages: 1
%%EOF
