%!PS-Adobe-3.0 EPSF-3.0
%%Creator: (MATLAB, The Mathworks, Inc. Version 8.6.0.267246 \(R2015b\). Operating System: Linux)
%%Title: /home/conor/papers/paper_2/paper_draft/images/example_scenario.eps
%%CreationDate: 2016-05-14T10:46:24
%%Pages: (atend)
%%BoundingBox: 0 0 420 315
%%LanguageLevel: 2
%%EndComments
%%BeginProlog
%%BeginResource: procset (Apache XML Graphics Std ProcSet) 1.2 0
%%Version: 1.2 0
%%Copyright: (Copyright 2001-2003,2010 The Apache Software Foundation. License terms: http://www.apache.org/licenses/LICENSE-2.0)
/bd{bind def}bind def
/ld{load def}bd
/GR/grestore ld
/M/moveto ld
/LJ/setlinejoin ld
/C/curveto ld
/f/fill ld
/LW/setlinewidth ld
/GC/setgray ld
/t/show ld
/N/newpath ld
/CT/concat ld
/cp/closepath ld
/S/stroke ld
/L/lineto ld
/CC/setcmykcolor ld
/A/ashow ld
/GS/gsave ld
/RC/setrgbcolor ld
/RM/rmoveto ld
/ML/setmiterlimit ld
/re {4 2 roll M
1 index 0 rlineto
0 exch rlineto
neg 0 rlineto
cp } bd
/_ctm matrix def
/_tm matrix def
/BT { _ctm currentmatrix pop matrix _tm copy pop 0 0 moveto } bd
/ET { _ctm setmatrix } bd
/iTm { _ctm setmatrix _tm concat } bd
/Tm { _tm astore pop iTm 0 0 moveto } bd
/ux 0.0 def
/uy 0.0 def
/F {
  /Tp exch def
  /Tf exch def
  Tf findfont Tp scalefont setfont
  /cf Tf def  /cs Tp def
} bd
/ULS {currentpoint /uy exch def /ux exch def} bd
/ULE {
  /Tcx currentpoint pop def
  gsave
  newpath
  cf findfont cs scalefont dup
  /FontMatrix get 0 get /Ts exch def /FontInfo get dup
  /UnderlinePosition get Ts mul /To exch def
  /UnderlineThickness get Ts mul /Tt exch def
  ux uy To add moveto  Tcx uy To add lineto
  Tt setlinewidth stroke
  grestore
} bd
/OLE {
  /Tcx currentpoint pop def
  gsave
  newpath
  cf findfont cs scalefont dup
  /FontMatrix get 0 get /Ts exch def /FontInfo get dup
  /UnderlinePosition get Ts mul /To exch def
  /UnderlineThickness get Ts mul /Tt exch def
  ux uy To add cs add moveto Tcx uy To add cs add lineto
  Tt setlinewidth stroke
  grestore
} bd
/SOE {
  /Tcx currentpoint pop def
  gsave
  newpath
  cf findfont cs scalefont dup
  /FontMatrix get 0 get /Ts exch def /FontInfo get dup
  /UnderlinePosition get Ts mul /To exch def
  /UnderlineThickness get Ts mul /Tt exch def
  ux uy To add cs 10 mul 26 idiv add moveto Tcx uy To add cs 10 mul 26 idiv add lineto
  Tt setlinewidth stroke
  grestore
} bd
/QT {
/Y22 exch store
/X22 exch store
/Y21 exch store
/X21 exch store
currentpoint
/Y21 load 2 mul add 3 div exch
/X21 load 2 mul add 3 div exch
/X21 load 2 mul /X22 load add 3 div
/Y21 load 2 mul /Y22 load add 3 div
/X22 load /Y22 load curveto
} bd
/SSPD {
dup length /d exch dict def
{
/v exch def
/k exch def
currentpagedevice k known {
/cpdv currentpagedevice k get def
v cpdv ne {
/upd false def
/nullv v type /nulltype eq def
/nullcpdv cpdv type /nulltype eq def
nullv nullcpdv or
{
/upd true def
} {
/sametype v type cpdv type eq def
sametype {
v type /arraytype eq {
/vlen v length def
/cpdvlen cpdv length def
vlen cpdvlen eq {
0 1 vlen 1 sub {
/i exch def
/obj v i get def
/cpdobj cpdv i get def
obj cpdobj ne {
/upd true def
exit
} if
} for
} {
/upd true def
} ifelse
} {
v type /dicttype eq {
v {
/dv exch def
/dk exch def
/cpddv cpdv dk get def
dv cpddv ne {
/upd true def
exit
} if
} forall
} {
/upd true def
} ifelse
} ifelse
} if
} ifelse
upd true eq {
d k v put
} if
} if
} if
} forall
d length 0 gt {
d setpagedevice
} if
} bd
%%EndResource
%%BeginResource: procset (Apache XML Graphics EPS ProcSet) 1.0 0
%%Version: 1.0 0
%%Copyright: (Copyright 2002-2003 The Apache Software Foundation. License terms: http://www.apache.org/licenses/LICENSE-2.0)
/BeginEPSF { %def
/b4_Inc_state save def         % Save state for cleanup
/dict_count countdictstack def % Count objects on dict stack
/op_count count 1 sub def      % Count objects on operand stack
userdict begin                 % Push userdict on dict stack
/showpage { } def              % Redefine showpage, { } = null proc
0 setgray 0 setlinecap         % Prepare graphics state
1 setlinewidth 0 setlinejoin
10 setmiterlimit [ ] 0 setdash newpath
/languagelevel where           % If level not equal to 1 then
{pop languagelevel             % set strokeadjust and
1 ne                           % overprint to their defaults.
{false setstrokeadjust false setoverprint
} if
} if
} bd
/EndEPSF { %def
count op_count sub {pop} repeat            % Clean up stacks
countdictstack dict_count sub {end} repeat
b4_Inc_state restore
} bd
%%EndResource
%FOPBeginFontDict
%%IncludeResource: font Courier-Bold
%%IncludeResource: font Helvetica
%%IncludeResource: font Courier-BoldOblique
%%IncludeResource: font Courier-Oblique
%%IncludeResource: font Times-Roman
%%IncludeResource: font Helvetica-BoldOblique
%%IncludeResource: font Helvetica-Bold
%%IncludeResource: font Helvetica-Oblique
%%IncludeResource: font Times-BoldItalic
%%IncludeResource: font Courier
%%IncludeResource: font Times-Italic
%%IncludeResource: font Times-Bold
%%IncludeResource: font Symbol
%%IncludeResource: font ZapfDingbats
%FOPEndFontDict
%%BeginResource: encoding WinAnsiEncoding
/WinAnsiEncoding [
/.notdef /.notdef /.notdef /.notdef /.notdef
/.notdef /.notdef /.notdef /.notdef /.notdef
/.notdef /.notdef /.notdef /.notdef /.notdef
/.notdef /.notdef /.notdef /.notdef /.notdef
/.notdef /.notdef /.notdef /.notdef /.notdef
/.notdef /.notdef /.notdef /.notdef /.notdef
/.notdef /.notdef /space /exclam /quotedbl
/numbersign /dollar /percent /ampersand /quotesingle
/parenleft /parenright /asterisk /plus /comma
/hyphen /period /slash /zero /one
/two /three /four /five /six
/seven /eight /nine /colon /semicolon
/less /equal /greater /question /at
/A /B /C /D /E
/F /G /H /I /J
/K /L /M /N /O
/P /Q /R /S /T
/U /V /W /X /Y
/Z /bracketleft /backslash /bracketright /asciicircum
/underscore /quoteleft /a /b /c
/d /e /f /g /h
/i /j /k /l /m
/n /o /p /q /r
/s /t /u /v /w
/x /y /z /braceleft /bar
/braceright /asciitilde /bullet /Euro /bullet
/quotesinglbase /florin /quotedblbase /ellipsis /dagger
/daggerdbl /circumflex /perthousand /Scaron /guilsinglleft
/OE /bullet /Zcaron /bullet /bullet
/quoteleft /quoteright /quotedblleft /quotedblright /bullet
/endash /emdash /asciitilde /trademark /scaron
/guilsinglright /oe /bullet /zcaron /Ydieresis
/space /exclamdown /cent /sterling /currency
/yen /brokenbar /section /dieresis /copyright
/ordfeminine /guillemotleft /logicalnot /sfthyphen /registered
/macron /degree /plusminus /twosuperior /threesuperior
/acute /mu /paragraph /middot /cedilla
/onesuperior /ordmasculine /guillemotright /onequarter /onehalf
/threequarters /questiondown /Agrave /Aacute /Acircumflex
/Atilde /Adieresis /Aring /AE /Ccedilla
/Egrave /Eacute /Ecircumflex /Edieresis /Igrave
/Iacute /Icircumflex /Idieresis /Eth /Ntilde
/Ograve /Oacute /Ocircumflex /Otilde /Odieresis
/multiply /Oslash /Ugrave /Uacute /Ucircumflex
/Udieresis /Yacute /Thorn /germandbls /agrave
/aacute /acircumflex /atilde /adieresis /aring
/ae /ccedilla /egrave /eacute /ecircumflex
/edieresis /igrave /iacute /icircumflex /idieresis
/eth /ntilde /ograve /oacute /ocircumflex
/otilde /odieresis /divide /oslash /ugrave
/uacute /ucircumflex /udieresis /yacute /thorn
/ydieresis
] def
%%EndResource
%FOPBeginFontReencode
/Courier-Bold findfont
dup length dict begin
  {1 index /FID ne {def} {pop pop} ifelse} forall
  /Encoding WinAnsiEncoding def
  currentdict
end
/Courier-Bold exch definefont pop
/Helvetica findfont
dup length dict begin
  {1 index /FID ne {def} {pop pop} ifelse} forall
  /Encoding WinAnsiEncoding def
  currentdict
end
/Helvetica exch definefont pop
/Courier-BoldOblique findfont
dup length dict begin
  {1 index /FID ne {def} {pop pop} ifelse} forall
  /Encoding WinAnsiEncoding def
  currentdict
end
/Courier-BoldOblique exch definefont pop
/Courier-Oblique findfont
dup length dict begin
  {1 index /FID ne {def} {pop pop} ifelse} forall
  /Encoding WinAnsiEncoding def
  currentdict
end
/Courier-Oblique exch definefont pop
/Times-Roman findfont
dup length dict begin
  {1 index /FID ne {def} {pop pop} ifelse} forall
  /Encoding WinAnsiEncoding def
  currentdict
end
/Times-Roman exch definefont pop
/Helvetica-BoldOblique findfont
dup length dict begin
  {1 index /FID ne {def} {pop pop} ifelse} forall
  /Encoding WinAnsiEncoding def
  currentdict
end
/Helvetica-BoldOblique exch definefont pop
/Helvetica-Bold findfont
dup length dict begin
  {1 index /FID ne {def} {pop pop} ifelse} forall
  /Encoding WinAnsiEncoding def
  currentdict
end
/Helvetica-Bold exch definefont pop
/Helvetica-Oblique findfont
dup length dict begin
  {1 index /FID ne {def} {pop pop} ifelse} forall
  /Encoding WinAnsiEncoding def
  currentdict
end
/Helvetica-Oblique exch definefont pop
/Times-BoldItalic findfont
dup length dict begin
  {1 index /FID ne {def} {pop pop} ifelse} forall
  /Encoding WinAnsiEncoding def
  currentdict
end
/Times-BoldItalic exch definefont pop
/Courier findfont
dup length dict begin
  {1 index /FID ne {def} {pop pop} ifelse} forall
  /Encoding WinAnsiEncoding def
  currentdict
end
/Courier exch definefont pop
/Times-Italic findfont
dup length dict begin
  {1 index /FID ne {def} {pop pop} ifelse} forall
  /Encoding WinAnsiEncoding def
  currentdict
end
/Times-Italic exch definefont pop
/Times-Bold findfont
dup length dict begin
  {1 index /FID ne {def} {pop pop} ifelse} forall
  /Encoding WinAnsiEncoding def
  currentdict
end
/Times-Bold exch definefont pop
%FOPEndFontReencode
%%EndProlog
%%Page: 1 1
%%PageBoundingBox: 0 0 420 315
%%BeginPageSetup
[1 0 0 -1 0 315] CT
%%EndPageSetup
GS
[0.75 0 0 0.75 0 0] CT
1 GC
N
0 0 560 420 re
f
GR
GS
[0.75 0 0 0.75 0 0] CT
1 GC
N
0 0 560 420 re
f
GR
GS
[0.75 0 0 0.75 0 0] CT
1 GC
N
118.5 374 M
461.5 374 L
461.5 31 L
118.5 31 L
cp
f
GR
GS
[0.75 0 0 0.75 0 0] CT
0.149 GC
2 setlinecap
1 LJ
0.667 LW
N
118.5 374 M
461.5 374 L
S
GR
GS
[0.75 0 0 0.75 0 0] CT
0.149 GC
2 setlinecap
1 LJ
0.667 LW
N
118.5 31 M
461.5 31 L
S
GR
GS
[0.75 0 0 0.75 0 0] CT
0.149 GC
2 setlinecap
1 LJ
0.667 LW
N
152.8 374 M
152.8 370.57 L
S
GR
GS
[0.75 0 0 0.75 0 0] CT
0.149 GC
2 setlinecap
1 LJ
0.667 LW
N
221.4 374 M
221.4 370.57 L
S
GR
GS
[0.75 0 0 0.75 0 0] CT
0.149 GC
2 setlinecap
1 LJ
0.667 LW
N
290 374 M
290 370.57 L
S
GR
GS
[0.75 0 0 0.75 0 0] CT
0.149 GC
2 setlinecap
1 LJ
0.667 LW
N
358.6 374 M
358.6 370.57 L
S
GR
GS
[0.75 0 0 0.75 0 0] CT
0.149 GC
2 setlinecap
1 LJ
0.667 LW
N
427.2 374 M
427.2 370.57 L
S
GR
GS
[0.75 0 0 0.75 0 0] CT
0.149 GC
2 setlinecap
1 LJ
0.667 LW
N
152.8 31 M
152.8 34.43 L
S
GR
GS
[0.75 0 0 0.75 0 0] CT
0.149 GC
2 setlinecap
1 LJ
0.667 LW
N
221.4 31 M
221.4 34.43 L
S
GR
GS
[0.75 0 0 0.75 0 0] CT
0.149 GC
2 setlinecap
1 LJ
0.667 LW
N
290 31 M
290 34.43 L
S
GR
GS
[0.75 0 0 0.75 0 0] CT
0.149 GC
2 setlinecap
1 LJ
0.667 LW
N
358.6 31 M
358.6 34.43 L
S
GR
GS
[0.75 0 0 0.75 0 0] CT
0.149 GC
2 setlinecap
1 LJ
0.667 LW
N
427.2 31 M
427.2 34.43 L
S
GR
GS
[0.75 0 0 0.75 114.6 284.50001] CT
0.149 GC
/Helvetica 13 F
GS
[1 0 0 1 0 0] CT
-15 13 moveto 
1 -1 scale
(-200) t 
GR
GR
GS
[0.75 0 0 0.75 166.05 284.50001] CT
0.149 GC
/Helvetica 13 F
GS
[1 0 0 1 0 0] CT
-15 13 moveto 
1 -1 scale
(-100) t 
GR
GR
GS
[0.75 0 0 0.75 217.5 284.50001] CT
0.149 GC
/Helvetica 13 F
GS
[1 0 0 1 0 0] CT
-4.5 13 moveto 
1 -1 scale
(0) t 
GR
GR
GS
[0.75 0 0 0.75 268.95 284.50001] CT
0.149 GC
/Helvetica 13 F
GS
[1 0 0 1 0 0] CT
-12.5 13 moveto 
1 -1 scale
(100) t 
GR
GR
GS
[0.75 0 0 0.75 320.40001 284.50001] CT
0.149 GC
/Helvetica 13 F
GS
[1 0 0 1 0 0] CT
-12.5 13 moveto 
1 -1 scale
(200) t 
GR
GR
GS
[0.75 0 0 0.75 217.50011 298.24999] CT
0.149 GC
/Helvetica 15 F
GS
[1 0 0 1 0 0] CT
-20 14 moveto 
1 -1 scale
(x \(m\)) t 
GR
GR
GS
[0.75 0 0 0.75 0 0] CT
0.149 GC
2 setlinecap
1 LJ
0.667 LW
N
118.5 374 M
118.5 31 L
S
GR
GS
[0.75 0 0 0.75 0 0] CT
0.149 GC
2 setlinecap
1 LJ
0.667 LW
N
461.5 374 M
461.5 31 L
S
GR
GS
[0.75 0 0 0.75 0 0] CT
0.149 GC
2 setlinecap
1 LJ
0.667 LW
N
118.5 374 M
121.93 374 L
S
GR
GS
[0.75 0 0 0.75 0 0] CT
0.149 GC
2 setlinecap
1 LJ
0.667 LW
N
118.5 339.7 M
121.93 339.7 L
S
GR
GS
[0.75 0 0 0.75 0 0] CT
0.149 GC
2 setlinecap
1 LJ
0.667 LW
N
118.5 305.4 M
121.93 305.4 L
S
GR
GS
[0.75 0 0 0.75 0 0] CT
0.149 GC
2 setlinecap
1 LJ
0.667 LW
N
118.5 271.1 M
121.93 271.1 L
S
GR
GS
[0.75 0 0 0.75 0 0] CT
0.149 GC
2 setlinecap
1 LJ
0.667 LW
N
118.5 236.8 M
121.93 236.8 L
S
GR
GS
[0.75 0 0 0.75 0 0] CT
0.149 GC
2 setlinecap
1 LJ
0.667 LW
N
118.5 202.5 M
121.93 202.5 L
S
GR
GS
[0.75 0 0 0.75 0 0] CT
0.149 GC
2 setlinecap
1 LJ
0.667 LW
N
118.5 168.2 M
121.93 168.2 L
S
GR
GS
[0.75 0 0 0.75 0 0] CT
0.149 GC
2 setlinecap
1 LJ
0.667 LW
N
118.5 133.9 M
121.93 133.9 L
S
GR
GS
[0.75 0 0 0.75 0 0] CT
0.149 GC
2 setlinecap
1 LJ
0.667 LW
N
118.5 99.6 M
121.93 99.6 L
S
GR
GS
[0.75 0 0 0.75 0 0] CT
0.149 GC
2 setlinecap
1 LJ
0.667 LW
N
118.5 65.3 M
121.93 65.3 L
S
GR
GS
[0.75 0 0 0.75 0 0] CT
0.149 GC
2 setlinecap
1 LJ
0.667 LW
N
118.5 31 M
121.93 31 L
S
GR
GS
[0.75 0 0 0.75 0 0] CT
0.149 GC
2 setlinecap
1 LJ
0.667 LW
N
461.5 374 M
458.07 374 L
S
GR
GS
[0.75 0 0 0.75 0 0] CT
0.149 GC
2 setlinecap
1 LJ
0.667 LW
N
461.5 339.7 M
458.07 339.7 L
S
GR
GS
[0.75 0 0 0.75 0 0] CT
0.149 GC
2 setlinecap
1 LJ
0.667 LW
N
461.5 305.4 M
458.07 305.4 L
S
GR
GS
[0.75 0 0 0.75 0 0] CT
0.149 GC
2 setlinecap
1 LJ
0.667 LW
N
461.5 271.1 M
458.07 271.1 L
S
GR
GS
[0.75 0 0 0.75 0 0] CT
0.149 GC
2 setlinecap
1 LJ
0.667 LW
N
461.5 236.8 M
458.07 236.8 L
S
GR
GS
[0.75 0 0 0.75 0 0] CT
0.149 GC
2 setlinecap
1 LJ
0.667 LW
N
461.5 202.5 M
458.07 202.5 L
S
GR
GS
[0.75 0 0 0.75 0 0] CT
0.149 GC
2 setlinecap
1 LJ
0.667 LW
N
461.5 168.2 M
458.07 168.2 L
S
GR
GS
[0.75 0 0 0.75 0 0] CT
0.149 GC
2 setlinecap
1 LJ
0.667 LW
N
461.5 133.9 M
458.07 133.9 L
S
GR
GS
[0.75 0 0 0.75 0 0] CT
0.149 GC
2 setlinecap
1 LJ
0.667 LW
N
461.5 99.6 M
458.07 99.6 L
S
GR
GS
[0.75 0 0 0.75 0 0] CT
0.149 GC
2 setlinecap
1 LJ
0.667 LW
N
461.5 65.3 M
458.07 65.3 L
S
GR
GS
[0.75 0 0 0.75 0 0] CT
0.149 GC
2 setlinecap
1 LJ
0.667 LW
N
461.5 31 M
458.07 31 L
S
GR
GS
[0.75 0 0 0.75 84.875 280.5] CT
0.149 GC
/Helvetica 13 F
GS
[1 0 0 1 0 0] CT
-30 4.5 moveto 
1 -1 scale
(-250) t 
GR
GR
GS
[0.75 0 0 0.75 84.875 254.77501] CT
0.149 GC
/Helvetica 13 F
GS
[1 0 0 1 0 0] CT
-30 4.5 moveto 
1 -1 scale
(-200) t 
GR
GR
GS
[0.75 0 0 0.75 84.875 229.05] CT
0.149 GC
/Helvetica 13 F
GS
[1 0 0 1 0 0] CT
-30 4.5 moveto 
1 -1 scale
(-150) t 
GR
GR
GS
[0.75 0 0 0.75 84.875 203.325] CT
0.149 GC
/Helvetica 13 F
GS
[1 0 0 1 0 0] CT
-30 4.5 moveto 
1 -1 scale
(-100) t 
GR
GR
GS
[0.75 0 0 0.75 84.875 177.6] CT
0.149 GC
/Helvetica 13 F
GS
[1 0 0 1 0 0] CT
-22 4.5 moveto 
1 -1 scale
(-50) t 
GR
GR
GS
[0.75 0 0 0.75 84.875 151.875] CT
0.149 GC
/Helvetica 13 F
GS
[1 0 0 1 0 0] CT
-9 4.5 moveto 
1 -1 scale
(0) t 
GR
GR
GS
[0.75 0 0 0.75 84.875 126.15] CT
0.149 GC
/Helvetica 13 F
GS
[1 0 0 1 0 0] CT
-17 4.5 moveto 
1 -1 scale
(50) t 
GR
GR
GS
[0.75 0 0 0.75 84.875 100.425] CT
0.149 GC
/Helvetica 13 F
GS
[1 0 0 1 0 0] CT
-25 4.5 moveto 
1 -1 scale
(100) t 
GR
GR
GS
[0.75 0 0 0.75 84.875 74.7] CT
0.149 GC
/Helvetica 13 F
GS
[1 0 0 1 0 0] CT
-25 4.5 moveto 
1 -1 scale
(150) t 
GR
GR
GS
[0.75 0 0 0.75 84.875 48.975] CT
0.149 GC
/Helvetica 13 F
GS
[1 0 0 1 0 0] CT
-25 4.5 moveto 
1 -1 scale
(200) t 
GR
GR
GS
[0.75 0 0 0.75 84.875 23.25] CT
0.149 GC
/Helvetica 13 F
GS
[1 0 0 1 0 0] CT
-25 4.5 moveto 
1 -1 scale
(250) t 
GR
GR
GS
[0 -0.75 0.75 0 59.375 151.87487] CT
0.149 GC
/Helvetica 15 F
GS
[1 0 0 1 0 0] CT
-20 -4 moveto 
1 -1 scale
(y \(m\)) t 
GR
GR
GS
[0.75 0 0 0.75 0 0] CT
1 LJ
N
265.5 206.5 M
264.736 204.149 L
262.736 202.696 L
260.264 202.696 L
258.264 204.149 L
257.5 206.5 L
258.264 208.851 L
260.264 210.304 L
262.736 210.304 L
264.736 208.851 L
cp
S
GR
GS
[0.75 0 0 0.75 0 0] CT
1 LJ
N
228.5 288.5 M
227.736 286.149 L
225.736 284.696 L
223.264 284.696 L
221.264 286.149 L
220.5 288.5 L
221.264 290.851 L
223.264 292.304 L
225.736 292.304 L
227.736 290.851 L
cp
S
GR
GS
[0.75 0 0 0.75 0 0] CT
1 LJ
N
203.5 208.5 M
202.736 206.149 L
200.736 204.696 L
198.264 204.696 L
196.264 206.149 L
195.5 208.5 L
196.264 210.851 L
198.264 212.304 L
200.736 212.304 L
202.736 210.851 L
cp
S
GR
GS
[0.75 0 0 0.75 0 0] CT
1 LJ
N
239.5 290.5 M
238.736 288.149 L
236.736 286.696 L
234.264 286.696 L
232.264 288.149 L
231.5 290.5 L
232.264 292.851 L
234.264 294.304 L
236.736 294.304 L
238.736 292.851 L
cp
S
GR
GS
[0.75 0 0 0.75 0 0] CT
1 LJ
N
311.5 52.5 M
310.736 50.149 L
308.736 48.696 L
306.264 48.696 L
304.264 50.149 L
303.5 52.5 L
304.264 54.851 L
306.264 56.304 L
308.736 56.304 L
310.736 54.851 L
cp
S
GR
GS
[0.75 0 0 0.75 0 0] CT
1 LJ
N
407.5 215.5 M
406.736 213.149 L
404.736 211.696 L
402.264 211.696 L
400.264 213.149 L
399.5 215.5 L
400.264 217.851 L
402.264 219.304 L
404.736 219.304 L
406.736 217.851 L
cp
S
GR
GS
[0.75 0 0 0.75 0 0] CT
1 LJ
N
329.5 181.5 M
328.736 179.149 L
326.736 177.696 L
324.264 177.696 L
322.264 179.149 L
321.5 181.5 L
322.264 183.851 L
324.264 185.304 L
326.736 185.304 L
328.736 183.851 L
cp
S
GR
GS
[0.75 0 0 0.75 0 0] CT
1 LJ
N
261.5 182.5 M
260.736 180.149 L
258.736 178.696 L
256.264 178.696 L
254.264 180.149 L
253.5 182.5 L
254.264 184.851 L
256.264 186.304 L
258.736 186.304 L
260.736 184.851 L
cp
S
GR
GS
[0.75 0 0 0.75 0 0] CT
1 LJ
N
418.5 214.5 M
417.736 212.149 L
415.736 210.696 L
413.264 210.696 L
411.264 212.149 L
410.5 214.5 L
411.264 216.851 L
413.264 218.304 L
415.736 218.304 L
417.736 216.851 L
cp
S
GR
GS
[0.75 0 0 0.75 0 0] CT
1 LJ
N
144.5 188.5 M
143.736 186.149 L
141.736 184.696 L
139.264 184.696 L
137.264 186.149 L
136.5 188.5 L
137.264 190.851 L
139.264 192.304 L
141.736 192.304 L
143.736 190.851 L
cp
S
GR
GS
[0.75 0 0 0.75 0 0] CT
1 LJ
N
191.5 289.5 M
190.736 287.149 L
188.736 285.696 L
186.264 285.696 L
184.264 287.149 L
183.5 289.5 L
184.264 291.851 L
186.264 293.304 L
188.736 293.304 L
190.736 291.851 L
cp
S
GR
GS
[0.75 0 0 0.75 0 0] CT
1 LJ
N
459.5 190.5 M
458.736 188.149 L
456.736 186.696 L
454.264 186.696 L
452.264 188.149 L
451.5 190.5 L
452.264 192.851 L
454.264 194.304 L
456.736 194.304 L
458.736 192.851 L
cp
S
GR
GS
[0.75 0 0 0.75 0 0] CT
1 LJ
N
311.5 353.5 M
310.736 351.149 L
308.736 349.696 L
306.264 349.696 L
304.264 351.149 L
303.5 353.5 L
304.264 355.851 L
306.264 357.304 L
308.736 357.304 L
310.736 355.851 L
cp
S
GR
GS
[0.75 0 0 0.75 0 0] CT
1 LJ
N
286.5 351.5 M
285.736 349.149 L
283.736 347.696 L
281.264 347.696 L
279.264 349.149 L
278.5 351.5 L
279.264 353.851 L
281.264 355.304 L
283.736 355.304 L
285.736 353.851 L
cp
S
GR
GS
[0.75 0 0 0.75 0 0] CT
1 LJ
N
313.5 106.5 M
312.736 104.149 L
310.736 102.696 L
308.264 102.696 L
306.264 104.149 L
305.5 106.5 L
306.264 108.851 L
308.264 110.304 L
310.736 110.304 L
312.736 108.851 L
cp
S
GR
GS
[0.75 0 0 0.75 0 0] CT
1 LJ
N
295 138.5 M
304 138.5 L
S
GR
GS
[0.75 0 0 0.75 0 0] CT
1 LJ
N
299.5 143 M
299.5 134 L
S
GR
GS
[0.75 0 0 0.75 0 0] CT
1 LJ
N
315 143.5 M
324 143.5 L
S
GR
GS
[0.75 0 0 0.75 0 0] CT
1 LJ
N
319.5 148 M
319.5 139 L
S
GR
GS
[0.75 0 0 0.75 0 0] CT
1 LJ
N
314 139.5 M
323 139.5 L
S
GR
GS
[0.75 0 0 0.75 0 0] CT
1 LJ
N
318.5 144 M
318.5 135 L
S
GR
GS
[0.75 0 0 0.75 0 0] CT
1 LJ
N
304 144.5 M
313 144.5 L
S
GR
GS
[0.75 0 0 0.75 0 0] CT
1 LJ
N
308.5 149 M
308.5 140 L
S
GR
GS
[0.75 0 0 0.75 0 0] CT
1 LJ
N
308 171.5 M
317 171.5 L
S
GR
GS
[0.75 0 0 0.75 0 0] CT
1 LJ
N
312.5 176 M
312.5 167 L
S
GR
GS
[0.75 0 0 0.75 0 0] CT
1 LJ
N
294 157.5 M
303 157.5 L
S
GR
GS
[0.75 0 0 0.75 0 0] CT
1 LJ
N
298.5 162 M
298.5 153 L
S
GR
GS
[0.75 0 0 0.75 0 0] CT
1 LJ
N
337 125.5 M
346 125.5 L
S
GR
GS
[0.75 0 0 0.75 0 0] CT
1 LJ
N
341.5 130 M
341.5 121 L
S
GR
GS
[0.75 0 0 0.75 0 0] CT
1 LJ
N
304 168.5 M
313 168.5 L
S
GR
GS
[0.75 0 0 0.75 0 0] CT
1 LJ
N
308.5 173 M
308.5 164 L
S
GR
GS
[0.75 0 0 0.75 0 0] CT
1 LJ
N
309 170.5 M
318 170.5 L
S
GR
GS
[0.75 0 0 0.75 0 0] CT
1 LJ
N
313.5 175 M
313.5 166 L
S
GR
GS
[0.75 0 0 0.75 0 0] CT
1 LJ
N
316 152.5 M
325 152.5 L
S
GR
GS
[0.75 0 0 0.75 0 0] CT
1 LJ
N
320.5 157 M
320.5 148 L
S
GR
GS
[0.75 0 0 0.75 0 0] CT
1 0 0 RC
1 LJ
N
285 124.5 M
294 124.5 L
S
GR
GS
[0.75 0 0 0.75 0 0] CT
1 0 0 RC
1 LJ
N
289.5 129 M
289.5 120 L
S
GR
GS
[0.75 0 0 0.75 0 0] CT
1 0 0 RC
1 LJ
N
295 149.5 M
304 149.5 L
S
GR
GS
[0.75 0 0 0.75 0 0] CT
1 0 0 RC
1 LJ
N
299.5 154 M
299.5 145 L
S
GR
GS
[0.75 0 0 0.75 0 0] CT
1 0 0 RC
1 LJ
N
319 139.5 M
328 139.5 L
S
GR
GS
[0.75 0 0 0.75 0 0] CT
1 0 0 RC
1 LJ
N
323.5 144 M
323.5 135 L
S
GR
GS
[0.75 0 0 0.75 0 0] CT
1 0 0 RC
1 LJ
N
302 164.5 M
311 164.5 L
S
GR
GS
[0.75 0 0 0.75 0 0] CT
1 0 0 RC
1 LJ
N
306.5 169 M
306.5 160 L
S
GR
GS
[0.75 0 0 0.75 0 0] CT
1 0 0 RC
1 LJ
N
292 160.5 M
301 160.5 L
S
GR
GS
[0.75 0 0 0.75 0 0] CT
1 0 0 RC
1 LJ
N
296.5 165 M
296.5 156 L
S
GR
GS
[0.75 0 0 0.75 0 0] CT
1 0 0 RC
1 LJ
N
315 152.5 M
324 152.5 L
S
GR
GS
[0.75 0 0 0.75 0 0] CT
1 0 0 RC
1 LJ
N
319.5 157 M
319.5 148 L
S
GR
GS
[0.75 0 0 0.75 0 0] CT
1 0 0 RC
1 LJ
N
326 133.5 M
335 133.5 L
S
GR
GS
[0.75 0 0 0.75 0 0] CT
1 0 0 RC
1 LJ
N
330.5 138 M
330.5 129 L
S
GR
GS
[0.75 0 0 0.75 0 0] CT
1 0 0 RC
1 LJ
N
294 155.5 M
303 155.5 L
S
GR
GS
[0.75 0 0 0.75 0 0] CT
1 0 0 RC
1 LJ
N
298.5 160 M
298.5 151 L
S
GR
GS
[0.75 0 0 0.75 0 0] CT
1 0 0 RC
1 LJ
N
294 174.5 M
303 174.5 L
S
GR
GS
[0.75 0 0 0.75 0 0] CT
1 0 0 RC
1 LJ
N
298.5 179 M
298.5 170 L
S
GR
GS
[0.75 0 0 0.75 0 0] CT
1 0 0 RC
1 LJ
N
310 159.5 M
319 159.5 L
S
GR
GS
[0.75 0 0 0.75 0 0] CT
1 0 0 RC
1 LJ
N
314.5 164 M
314.5 155 L
S
GR
GS
[0.75 0 0 0.75 0 0] CT
10.0 ML
N
281.265 207.832 M
299.735 207.832 L
290.5 191.836 L
cp
S
GR
GS
[0.75 0 0 0.75 0 0] CT
0 0.447 0.741 RC
1 LJ
0.667 LW
N
289.925 124.131 M
299.701 138.06 L
S
GR
GS
[0.75 0 0 0.75 0 0] CT
0.851 0.325 0.098 RC
1 LJ
0.667 LW
N
299.856 149.517 M
319.957 143.482 L
S
GR
GS
[0.75 0 0 0.75 0 0] CT
0.929 0.694 0.125 RC
1 LJ
0.667 LW
N
323.53 139.195 M
318.528 139.942 L
S
GR
GS
[0.75 0 0 0.75 0 0] CT
0.494 0.184 0.557 RC
1 LJ
0.667 LW
N
306.057 164.557 M
308.218 144.755 L
S
GR
GS
[0.75 0 0 0.75 0 0] CT
0.467 0.675 0.188 RC
1 LJ
0.667 LW
N
296.608 160.989 M
312.042 171.724 L
S
GR
GS
[0.75 0 0 0.75 0 0] CT
0.302 0.745 0.933 RC
1 LJ
0.667 LW
N
319.043 152.055 M
298.374 157.536 L
S
GR
GS
[0.75 0 0 0.75 0 0] CT
0.635 0.078 0.184 RC
1 LJ
0.667 LW
N
330.594 133.027 M
341.3 125.383 L
S
GR
GS
[0.75 0 0 0.75 0 0] CT
0 0.447 0.741 RC
1 LJ
0.667 LW
N
298.451 155.768 M
308.712 168.646 L
S
GR
GS
[0.75 0 0 0.75 0 0] CT
0.851 0.325 0.098 RC
1 LJ
0.667 LW
N
298.541 174.65 M
313.395 170.563 L
S
GR
GS
[0.75 0 0 0.75 0 0] CT
0.929 0.694 0.125 RC
1 LJ
0.667 LW
N
314.004 159.819 M
320.083 152.276 L
S
GR
GS
[0.75 0 0 0.75 0 0] CT
1 LJ
0.667 LW
N
118.5 202.5 M
118.867 213.717 L
119.967 224.885 L
121.795 235.958 L
124.344 246.887 L
127.601 257.627 L
131.555 268.13 L
136.186 278.353 L
141.477 288.25 L
147.403 297.78 L
153.94 306.903 L
161.059 315.578 L
168.731 323.769 L
176.922 331.441 L
185.597 338.56 L
194.72 345.097 L
204.25 351.023 L
214.147 356.314 L
224.37 360.945 L
234.873 364.899 L
245.613 368.156 L
256.542 370.705 L
267.615 372.533 L
278.783 373.633 L
290 374 L
290 374 L
301.217 373.633 L
312.385 372.533 L
323.458 370.705 L
334.387 368.156 L
345.127 364.899 L
355.63 360.945 L
365.853 356.314 L
375.75 351.023 L
385.28 345.097 L
394.403 338.56 L
403.078 331.441 L
411.269 323.769 L
418.941 315.578 L
426.06 306.903 L
432.597 297.78 L
438.523 288.25 L
443.814 278.353 L
448.445 268.13 L
452.399 257.627 L
455.656 246.887 L
458.205 235.958 L
460.033 224.885 L
461.133 213.717 L
461.5 202.5 L
461.5 202.5 L
461.133 191.283 L
460.033 180.115 L
458.205 169.042 L
455.656 158.113 L
452.399 147.373 L
448.445 136.87 L
443.814 126.647 L
438.523 116.75 L
432.597 107.22 L
426.06 98.097 L
418.941 89.422 L
411.269 81.231 L
403.078 73.559 L
394.403 66.44 L
385.28 59.903 L
375.75 53.977 L
365.853 48.686 L
355.63 44.055 L
345.127 40.101 L
334.387 36.844 L
323.458 34.295 L
312.385 32.467 L
301.217 31.367 L
290 31 L
290 31 L
278.783 31.367 L
267.615 32.467 L
256.542 34.295 L
245.613 36.844 L
234.873 40.101 L
224.37 44.055 L
214.147 48.686 L
204.25 53.977 L
194.72 59.903 L
185.597 66.44 L
176.922 73.559 L
168.731 81.231 L
161.059 89.422 L
153.94 98.097 L
147.403 107.22 L
141.477 116.75 L
136.186 126.647 L
131.555 136.87 L
127.601 147.373 L
124.344 158.113 L
121.795 169.042 L
119.967 180.115 L
118.867 191.283 L
118.5 202.5 L
cp
S
GR
GS
[0.75 0 0 0.75 0 0] CT
1 LJ
0.667 LW
N
303.217 178.57 M
305.46 178.497 L
307.694 178.277 L
309.908 177.911 L
312.094 177.401 L
314.242 176.75 L
316.343 175.959 L
318.387 175.033 L
320.367 173.975 L
322.273 172.789 L
324.097 171.482 L
325.832 170.058 L
327.47 168.524 L
329.005 166.886 L
330.429 165.151 L
331.736 163.326 L
332.921 161.42 L
333.979 159.441 L
334.906 157.396 L
335.696 155.295 L
336.348 153.148 L
336.858 150.962 L
337.223 148.747 L
337.443 146.513 L
337.517 144.27 L
337.517 144.27 L
337.443 142.027 L
337.223 139.793 L
336.858 137.578 L
336.348 135.393 L
335.696 133.245 L
334.906 131.144 L
333.979 129.1 L
332.921 127.12 L
331.736 125.214 L
330.429 123.39 L
329.005 121.654 L
327.47 120.016 L
325.832 118.482 L
324.097 117.058 L
322.273 115.751 L
320.367 114.565 L
318.387 113.507 L
316.343 112.581 L
314.242 111.79 L
312.094 111.139 L
309.908 110.629 L
307.694 110.263 L
305.46 110.043 L
303.217 109.97 L
303.217 109.97 L
300.973 110.043 L
298.74 110.263 L
296.525 110.629 L
294.339 111.139 L
292.191 111.79 L
290.091 112.581 L
288.046 113.507 L
286.067 114.565 L
284.161 115.751 L
282.336 117.058 L
280.601 118.482 L
278.963 120.016 L
277.428 121.654 L
276.005 123.39 L
274.697 125.214 L
273.512 127.12 L
272.454 129.1 L
271.528 131.144 L
270.737 133.245 L
270.085 135.393 L
269.576 137.578 L
269.21 139.793 L
268.99 142.027 L
268.917 144.27 L
268.917 144.27 L
268.99 146.513 L
269.21 148.747 L
269.576 150.962 L
270.085 153.148 L
270.737 155.295 L
271.528 157.396 L
272.454 159.441 L
273.512 161.42 L
274.697 163.326 L
276.005 165.151 L
277.428 166.886 L
278.963 168.524 L
280.601 170.058 L
282.336 171.482 L
284.161 172.789 L
286.067 173.975 L
288.046 175.033 L
290.091 175.959 L
292.191 176.75 L
294.339 177.401 L
296.525 177.911 L
298.74 178.277 L
300.973 178.497 L
303.217 178.57 L
cp
S
GR
GS
[0.75 0 0 0.75 0 0] CT
1 GC
N
348 363 M
348 295 L
450 295 L
450 363 L
cp
f
GR
GS
[0.75 0 0 0.75 300 228.9505] CT
/Helvetica 12 F
GS
[1 0 0 1 0 0] CT
0 4.5 moveto 
1 -1 scale
(CU) t 
GR
GR
GS
[0.75 0 0 0.75 0 0] CT
1 LJ
N
380.5 305.5 M
379.736 303.149 L
377.736 301.696 L
375.264 301.696 L
373.264 303.149 L
372.5 305.5 L
373.264 307.851 L
375.264 309.304 L
377.736 309.304 L
379.736 307.851 L
cp
S
GR
GS
[0.75 0 0 0.75 300 240.81683] CT
/Helvetica 12 F
GS
[1 0 0 1 0 0] CT
0 4.5 moveto 
1 -1 scale
(D2D Rx) t 
GR
GR
GS
[0.75 0 0 0.75 0 0] CT
1 LJ
N
372 321.5 M
381 321.5 L
S
GR
GS
[0.75 0 0 0.75 0 0] CT
1 LJ
N
376.5 326 M
376.5 317 L
S
GR
GS
[0.75 0 0 0.75 300 252.68317] CT
/Helvetica 12 F
GS
[1 0 0 1 0 0] CT
0 4.5 moveto 
1 -1 scale
(D2D Tx) t 
GR
GR
GS
[0.75 0 0 0.75 0 0] CT
1 0 0 RC
1 LJ
N
372 336.5 M
381 336.5 L
S
GR
GS
[0.75 0 0 0.75 0 0] CT
1 0 0 RC
1 LJ
N
376.5 341 M
376.5 332 L
S
GR
GS
[0.75 0 0 0.75 300 264.5495] CT
/Helvetica 12 F
GS
[1 0 0 1 0 0] CT
0 4.5 moveto 
1 -1 scale
(BS) t 
GR
GR
GS
[0.75 0 0 0.75 0 0] CT
10.0 ML
N
367.265 357.832 M
385.735 357.832 L
376.5 341.836 L
cp
S
GR
GS
[0.75 0 0 0.75 0 0] CT
0.149 GC
10.0 ML
0.667 LW
N
348 363 M
348 295 L
450 295 L
450 363 L
cp
S
GR
%%Trailer
%%Pages: 1
%%EOF
