%!PS-Adobe-3.0 EPSF-3.0
%%Creator: cairo 1.14.6 (http://cairographics.org)
%%CreationDate: Tue May 30 21:28:52 2017
%%Pages: 1
%%DocumentData: Clean7Bit
%%LanguageLevel: 2
%%BoundingBox: 0 -1 164 382
%%EndComments
%%BeginProlog
save
50 dict begin
/q { gsave } bind def
/Q { grestore } bind def
/cm { 6 array astore concat } bind def
/w { setlinewidth } bind def
/J { setlinecap } bind def
/j { setlinejoin } bind def
/M { setmiterlimit } bind def
/d { setdash } bind def
/m { moveto } bind def
/l { lineto } bind def
/c { curveto } bind def
/h { closepath } bind def
/re { exch dup neg 3 1 roll 5 3 roll moveto 0 rlineto
      0 exch rlineto 0 rlineto closepath } bind def
/S { stroke } bind def
/f { fill } bind def
/f* { eofill } bind def
/n { newpath } bind def
/W { clip } bind def
/W* { eoclip } bind def
/BT { } bind def
/ET { } bind def
/pdfmark where { pop globaldict /?pdfmark /exec load put }
    { globaldict begin /?pdfmark /pop load def /pdfmark
    /cleartomark load def end } ifelse
/BDC { mark 3 1 roll /BDC pdfmark } bind def
/EMC { mark /EMC pdfmark } bind def
/cairo_store_point { /cairo_point_y exch def /cairo_point_x exch def } def
/Tj { show currentpoint cairo_store_point } bind def
/TJ {
  {
    dup
    type /stringtype eq
    { show } { -0.001 mul 0 cairo_font_matrix dtransform rmoveto } ifelse
  } forall
  currentpoint cairo_store_point
} bind def
/cairo_selectfont { cairo_font_matrix aload pop pop pop 0 0 6 array astore
    cairo_font exch selectfont cairo_point_x cairo_point_y moveto } bind def
/Tf { pop /cairo_font exch def /cairo_font_matrix where
      { pop cairo_selectfont } if } bind def
/Td { matrix translate cairo_font_matrix matrix concatmatrix dup
      /cairo_font_matrix exch def dup 4 get exch 5 get cairo_store_point
      /cairo_font where { pop cairo_selectfont } if } bind def
/Tm { 2 copy 8 2 roll 6 array astore /cairo_font_matrix exch def
      cairo_store_point /cairo_font where { pop cairo_selectfont } if } bind def
/g { setgray } bind def
/rg { setrgbcolor } bind def
/d1 { setcachedevice } bind def
%%EndProlog
%%BeginSetup
%%EndSetup
%%Page: 1 1
%%BeginPageSetup
%%PageBoundingBox: 0 -1 164 382
%%EndPageSetup
q 0 -1 164 383 rectclip q
q
0 381.602 164 -382 re W n
[ 1 0 0 1 0 -0.398041 ] concat
  q
0.615686 0.733333 0.380392 rg
43.191 227.793 m 46.109 226.219 49.746 227.309 51.32 230.227 c 52.895 233.145
 51.805 236.781 48.891 238.355 c 26.137 250.633 12 274.254 12 300 c 12 338.598
 43.402 370 82 370 c 120.598 370 152 338.598 152 300 c 152 274.25 137.863
 250.633 115.109 238.355 c 112.195 236.781 111.105 233.141 112.68 230.227
 c 113.762 228.215 115.828 227.074 117.965 227.074 c 118.926 227.074 119.902
 227.305 120.809 227.793 c 147.449 242.168 164 269.836 164 300 c 164 345.215
 127.215 382 82 382 c 36.785 382 0 345.215 0 300 c 0 269.836 16.551 242.168
 43.191 227.793 c h
43.191 227.793 m f
103.883 268.961 m 101.176 267.047 100.535 263.301 102.449 260.598 c 103.617
 258.941 105.473 258.062 107.352 258.062 c 108.551 258.062 109.762 258.418
 110.812 259.164 c 124.078 268.547 132 283.812 132 300 c 132 327.57 109.57
 350 82 350 c 54.43 350 32 327.57 32 300 c 32 283.812 39.922 268.547 53.188
 259.164 c 55.891 257.246 59.637 257.891 61.551 260.598 c 63.465 263.301
 62.824 267.047 60.117 268.961 c 50.023 276.098 44 287.703 44 300 c 44 320.953
 61.047 338 82 338 c 102.953 338 120 320.953 120 300 c 120 287.703 113.977
 276.098 103.883 268.961 c h
103.883 268.961 m f
152.047 77.977 m 152.043 77.992 152.035 78.008 152.031 78.027 c 88 265 
l 88 283.031 l 94.984 285.508 100 292.176 100 300 c 100 309.926 91.926 318
 82 318 c 72.074 318 64 309.926 64 300 c 64 292.176 69.016 285.508 76 283.031
 c 76 265 l 52.867 197.457 l 52.852 197.402 52.832 197.352 52.816 197.301
 c 32.887 139.105 l 32.859 139.031 32.832 138.957 32.809 138.879 c 1.477
 47.391 l 0.402 44.254 2.074 40.84 5.207 39.77 c 5.852 39.547 6.508 39.441
 7.152 39.441 c 9.645 39.441 11.977 41.008 12.828 43.5 c 20.961 67.242 l
 76 35.344 l 76 6.398 l 76 3.086 78.688 0.398 82 0.398 c 85.312 0.398 88
 3.086 88 6.398 c 88 35.344 l 143.039 67.242 l 151.164 43.52 l 152.238 40.383
 155.648 38.711 158.785 39.785 c 161.922 40.859 163.59 44.27 162.52 47.406
 c h
61.375 185.262 m 76 172.824 l 76 118.625 l 45.707 139.504 l h
88 172.824 m 102.625 185.258 l 118.293 139.504 l 88 118.625 l h
98.445 197.461 m 88 188.578 l 88 227.961 l h
82 306 m 85.309 306 88 303.309 88 300 c 88 296.691 85.309 294 82 294 c 
78.691 294 76 296.691 76 300 c 76 303.309 78.691 306 82 306 c h
76 188.578 m 65.555 197.461 l 76 227.961 l h
24.922 78.816 m 41.668 127.715 l 76 104.047 l 76 49.211 l h
88 49.211 m 88 104.047 l 122.332 127.711 l 139.078 78.816 l h
88 49.211 m f
  Q
Q
Q Q
showpage
%%Trailer
end restore
%%EOF
