%!PS-Adobe-3.0 EPSF-3.0
%%Creator: cairo 1.14.6 (http://cairographics.org)
%%CreationDate: Tue May 30 22:11:27 2017
%%Pages: 1
%%DocumentData: Clean7Bit
%%LanguageLevel: 2
%%BoundingBox: 0 -1 225 391
%%EndComments
%%BeginProlog
save
50 dict begin
/q { gsave } bind def
/Q { grestore } bind def
/cm { 6 array astore concat } bind def
/w { setlinewidth } bind def
/J { setlinecap } bind def
/j { setlinejoin } bind def
/M { setmiterlimit } bind def
/d { setdash } bind def
/m { moveto } bind def
/l { lineto } bind def
/c { curveto } bind def
/h { closepath } bind def
/re { exch dup neg 3 1 roll 5 3 roll moveto 0 rlineto
      0 exch rlineto 0 rlineto closepath } bind def
/S { stroke } bind def
/f { fill } bind def
/f* { eofill } bind def
/n { newpath } bind def
/W { clip } bind def
/W* { eoclip } bind def
/BT { } bind def
/ET { } bind def
/pdfmark where { pop globaldict /?pdfmark /exec load put }
    { globaldict begin /?pdfmark /pop load def /pdfmark
    /cleartomark load def end } ifelse
/BDC { mark 3 1 roll /BDC pdfmark } bind def
/EMC { mark /EMC pdfmark } bind def
/cairo_store_point { /cairo_point_y exch def /cairo_point_x exch def } def
/Tj { show currentpoint cairo_store_point } bind def
/TJ {
  {
    dup
    type /stringtype eq
    { show } { -0.001 mul 0 cairo_font_matrix dtransform rmoveto } ifelse
  } forall
  currentpoint cairo_store_point
} bind def
/cairo_selectfont { cairo_font_matrix aload pop pop pop 0 0 6 array astore
    cairo_font exch selectfont cairo_point_x cairo_point_y moveto } bind def
/Tf { pop /cairo_font exch def /cairo_font_matrix where
      { pop cairo_selectfont } if } bind def
/Td { matrix translate cairo_font_matrix matrix concatmatrix dup
      /cairo_font_matrix exch def dup 4 get exch 5 get cairo_store_point
      /cairo_font where { pop cairo_selectfont } if } bind def
/Tm { 2 copy 8 2 roll 6 array astore /cairo_font_matrix exch def
      cairo_store_point /cairo_font where { pop cairo_selectfont } if } bind def
/g { setgray } bind def
/rg { setrgbcolor } bind def
/d1 { setcachedevice } bind def
%%EndProlog
%%BeginSetup
%%EndSetup
%%Page: 1 1
%%BeginPageSetup
%%PageBoundingBox: 0 -1 225 391
%%EndPageSetup
q 0 -1 225 392 rectclip q
0.752941 0.313726 0.27451 rg
214.879 333.758 m 56.32 333.758 l 56.32 381.039 l 56.32 386.48 51.922 390.879
 46.48 390.879 c 41.039 390.879 36.641 386.48 36.641 381.039 c 36.641 333.758
 l 9.84 333.758 l 4.398 333.758 0 329.359 0 323.918 c 0 9.84 l 0 4.398 4.398
 -0 9.84 -0 c 214.801 -0 l 220.238 -0 224.641 4.398 224.641 9.84 c 224.641
 324 l 224.641 329.359 220.238 333.758 214.879 333.758 c h
205.039 19.598 m 19.762 19.598 l 19.762 314.16 l 205.121 314.16 l 205.121
 19.598 l h
205.039 19.598 m f
36.719 285.918 m 36.719 188.238 l 36.719 182.801 41.121 178.398 46.559 
178.398 c 178.32 178.398 l 183.762 178.398 188.16 182.801 188.16 188.238
 c 188.16 285.918 l 188.16 291.359 183.762 295.758 178.32 295.758 c 46.559
 295.758 l 41.121 295.758 36.719 291.359 36.719 285.918 c h
56.32 276.16 m 168.48 276.16 l 168.48 198.078 l 56.32 198.078 l h
56.32 276.16 m f
125.039 142.16 m 125.039 135.18 119.383 129.519 112.398 129.519 c 105.418
 129.519 99.762 135.18 99.762 142.16 c 99.762 149.141 105.418 154.801 112.398
 154.801 c 119.383 154.801 125.039 149.141 125.039 142.16 c h
125.039 142.16 m f
166.641 142.16 m 166.641 135.18 160.98 129.519 154 129.519 c 147.02 129.519
 141.359 135.18 141.359 142.16 c 141.359 149.141 147.02 154.801 154 154.801
 c 160.98 154.801 166.641 149.141 166.641 142.16 c h
166.641 142.16 m f
83.441 142.16 m 83.441 135.18 77.781 129.519 70.801 129.519 c 63.82 129.519
 58.16 135.18 58.16 142.16 c 58.16 149.141 63.82 154.801 70.801 154.801 
c 77.781 154.801 83.441 149.141 83.441 142.16 c h
83.441 142.16 m f
125.039 103.117 m 125.039 96.137 119.383 90.48 112.398 90.48 c 105.418 
90.48 99.762 96.137 99.762 103.117 c 99.762 110.102 105.418 115.758 112.398
 115.758 c 119.383 115.758 125.039 110.102 125.039 103.117 c h
125.039 103.117 m f
166.641 103.117 m 166.641 96.137 160.98 90.48 154 90.48 c 147.02 90.48 
141.359 96.137 141.359 103.117 c 141.359 110.102 147.02 115.758 154 115.758
 c 160.98 115.758 166.641 110.102 166.641 103.117 c h
166.641 103.117 m f
83.441 103.117 m 83.441 96.137 77.781 90.48 70.801 90.48 c 63.82 90.48 
58.16 96.137 58.16 103.117 c 58.16 110.102 63.82 115.758 70.801 115.758 
c 77.781 115.758 83.441 110.102 83.441 103.117 c h
83.441 103.117 m f
125.039 64.16 m 125.039 57.18 119.383 51.519 112.398 51.519 c 105.418 51.519
 99.762 57.18 99.762 64.16 c 99.762 71.141 105.418 76.801 112.398 76.801
 c 119.383 76.801 125.039 71.141 125.039 64.16 c h
125.039 64.16 m f
166.641 64.16 m 166.641 57.18 160.98 51.519 154 51.519 c 147.02 51.519 
141.359 57.18 141.359 64.16 c 141.359 71.141 147.02 76.801 154 76.801 c 
160.98 76.801 166.641 71.141 166.641 64.16 c h
166.641 64.16 m f
83.441 64.16 m 83.441 57.18 77.781 51.519 70.801 51.519 c 63.82 51.519 
58.16 57.18 58.16 64.16 c 58.16 71.141 63.82 76.801 70.801 76.801 c 77.781
 76.801 83.441 71.141 83.441 64.16 c h
83.441 64.16 m f
Q Q
showpage
%%Trailer
end restore
%%EOF
