\relax 
\catcode `:\active 
\catcode `;\active 
\catcode `!\active 
\catcode `?\active 
\select@language{french}
\@writefile{toc}{\select@language{french}}
\@writefile{lof}{\select@language{french}}
\@writefile{lot}{\select@language{french}}
\@mlabel{}{\unhbox \voidb@x \ignorespaces Prof. Jean-Marie Gorce\\CITI-INRIA\\ B\IeC {\^a}timent Claude Chappe, Insa Lyon\\69621 Villeurbanne CEDEX France}
