\relax 
\providecommand\hyper@newdestlabel[2]{}
\providecommand\HyperFirstAtBeginDocument{\AtBeginDocument}
\HyperFirstAtBeginDocument{\ifx\hyper@anchor\@undefined
\global\let\oldcontentsline\contentsline
\gdef\contentsline#1#2#3#4{\oldcontentsline{#1}{#2}{#3}}
\global\let\oldnewlabel\newlabel
\gdef\newlabel#1#2{\newlabelxx{#1}#2}
\gdef\newlabelxx#1#2#3#4#5#6{\oldnewlabel{#1}{{#2}{#3}}}
\AtEndDocument{\ifx\hyper@anchor\@undefined
\let\contentsline\oldcontentsline
\let\newlabel\oldnewlabel
\fi}
\fi}
\global\let\hyper@last\relax 
\gdef\HyperFirstAtBeginDocument#1{#1}
\providecommand\HyField@AuxAddToFields[1]{}
\providecommand\HyField@AuxAddToCoFields[2]{}
\AC@reset@newl@bel
\bibstyle{biblatex}
\bibdata{thesis-blx,IEEEabrv,library}
\citation{biblatex-control}
\@input{1-Preamble/1-Front/front-page.aux}
\@writefile{toc}{\thispagestyle {empty}}
\providecommand \oddpage@label [2]{}
\@writefile{toc}{\boolfalse {citerequest}\boolfalse {citetracker}\boolfalse {pagetracker}\boolfalse {backtracker}\relax }
\@writefile{lof}{\boolfalse {citerequest}\boolfalse {citetracker}\boolfalse {pagetracker}\boolfalse {backtracker}\relax }
\@writefile{lot}{\boolfalse {citerequest}\boolfalse {citetracker}\boolfalse {pagetracker}\boolfalse {backtracker}\relax }
\select@language{english}
\@writefile{toc}{\defcounter {refsection}{0}\relax }\@writefile{toc}{\select@language{english}}
\@writefile{lof}{\defcounter {refsection}{0}\relax }\@writefile{lof}{\select@language{english}}
\@writefile{lot}{\defcounter {refsection}{0}\relax }\@writefile{lot}{\select@language{english}}
\providecommand {\FN@pp@footnotehinttrue }{}
\providecommand {\FN@pp@footnote@aux }[2]{}
\FN@pp@footnotehinttrue 
\FN@pp@footnotehinttrue 
\@input{1-Preamble/2-Dedication/dedication.aux}
\FN@pp@footnotehinttrue 
\@input{1-Preamble/4-Acknowledgement/acknowledgement.aux}
\FN@pp@footnotehinttrue 
\@input{1-Preamble/5-Abstract/abstract.aux}
\FN@pp@footnotehinttrue 
\FN@pp@footnotehinttrue 
\@writefile{@@@}{\chapterbegin }
\@writefile{toc}{\contentsline {chapter}{List of Figures}{ix}{chapter*.3}}
\FN@pp@footnotehinttrue 
\@writefile{@@@}{\chapterbegin }
\@writefile{toc}{\contentsline {chapter}{List of Tables}{xiii}{chapter*.4}}
\FN@pp@footnotehinttrue 
\@writefile{@@@}{\chapterbegin }
\@writefile{toc}{\contentsline {chapter}{Nomenclature}{xv}{chapter*.5}}
\FN@pp@footnotehinttrue 
\FN@pp@footnotehinttrue 
\@writefile{@@@}{\chapterbegin }
\FN@pp@footnotehinttrue 
\@input{2-Chapters/0-Chapter/chapter0.aux}
\FN@pp@footnotehinttrue 
\@input{2-Chapters/1-Chapter/chapter1.aux}
\FN@pp@footnotehinttrue 
\citation{Andrews2014}
\citation{Forschung2013c}
\citation{Forschung2013c}
\citation{NokiaUseCases}
\citation{Elayoubi2016}
\citation{NBIoTReport}
\citation{LTEMReport}
\citation{Andrews2014}
\citation{Sexton2016}
\citation{Gupta2015}
\citation{Zhang2015LTEU}
\citation{Doyle2014networkswithoutborders}
\citation{Akyildiz2006}
\citation{LopezBenitez2009}
\citation{Wellens2009}
\citation{AlDulaimai2015}
\citation{Pollet1995}
\citation{Aziz2010}
\citation{Mahmoud2009}
\citation{Baltar2007}
\citation{Banelli2014}
\citation{Farhang-Boroujeny2011}
\citation{Bellanger2010}
\citation{Renfors2017book}
\@input{2-Chapters/2-Chapter/chapter2.aux}
\FN@pp@footnotehinttrue 
\citation{shannon1948mathematical}
\citation{Kyosti2008}
\citation{savaux2013thesis}
\citation{jain2007channel}
\citation{jain2007channel}
\citation{jain2007channel}
\citation{jain2007channel}
\citation{Weinstein1971}
\citation{azizphd}
\citation{savaux2013thesis}
\citation{sesia2011lte}
\citation{Auer2011}
\citation{Zhao2007}
\citation{Mitola2000}
\citation{MoyCommMag}
\citation{Akyildiz2006}
\citation{HaykinBrainEmpowered}
\citation{Akyildiz2011}
\citation{Khan2013}
\citation{Forschung2013c}
\citation{Baltar2007}
\citation{Pollet1995}
\citation{Morelli2007}
\citation{azizphd}
\citation{Mahmoud2009}
\citation{Forschung2013c}
\citation{Forschung2013a}
\citation{FCC03-222}
\citation{FCConWhiteSpaces}
\citation{FCConWhiteSpaces}
\citation{FCConWhiteSpaces}
\citation{Shellhammer2009}
\citation{Ghosh2011}
\citation{Fitch2011}
\citation{Baykas2012}
\citation{OfficeofCommunications2015}
\citation{Ghosh2011}
\citation{FCConWhiteSpaces}
\citation{Shellhammer2009}
\citation{Noguet2011}
\citation{Berg2014743}
\citation{Berg2009}
\citation{Mahmoud2009}
\citation{Asadi2014a}
\citation{Asadi2014a}
\citation{Asadi2014a}
\citation{Doppler2009a}
\citation{Feng2013}
\citation{Asadi2014a}
\citation{Mach2015}
\citation{Lin2014a}
\citation{Cannon2015}
\citation{3GPPTR36843}
\citation{azizphd}
\citation{Aminjavaheri2015}
\citation{Khoshkholgh2014}
\citation{Xing2014}
\citation{Wu2016}
\citation{Pischella2016b}
\citation{Pischella2016a}
\citation{Garcia-Roger2016}
\citation{Forschung2013c}
\citation{Banelli2014}
\citation{Sexton2016}
\citation{Banelli2014}
\citation{Sahin2014}
\citation{Bazzi2015}
\citation{Aminjavaheri2015}
\citation{Guan2017}
\citation{VanEeckhaute2017}
\citation{Liu2017}
\citation{Dore2017}
\citation{Shafi2017}
\citation{Ankarali2017}
\citation{Bellanger2010}
\citation{Emphatic}
\citation{Forschung2013a}
\citation{Metis}
\citation{Andrews2014}
\citation{Banelli2014}
\citation{Balian1981}
\citation{Low1985}
\citation{Chang1966}
\citation{Saltzberg1967}
\citation{Tonello2005}
\citation{FMT_Emphatic}
\citation{Siohan2002}
\citation{Farhang-Boroujeny2011}
\citation{lele2008channel}
\citation{Savaux2015}
\citation{prez2016mimo}
\citation{Nissel2017jsac}
\citation{Bellanger2015}
\citation{Fettweis2009}
\citation{Fettweis2009}
\citation{Michailow2014}
\citation{Farhang2015a}
\citation{Lin2014b}
\citation{CausICASSP2016}
\citation{Lin2014b}
\citation{Michailow2014}
\citation{Abdoli2015}
\citation{Wild2014}
\citation{Wild2014}
\citation{Vakilian2013}
\citation{Wild2015complexity}
\citation{Matthe2016complexity}
\citation{Zhang2015fOFDM}
\citation{Abdoli2015}
\citation{Weitkemper2016fOFDM}
\citation{Renfors2016fOFDM}
\citation{Wang2017fOFDM}
\citation{Abdoli2015}
\citation{FarhangBoroujeny2016}
\citation{Lin2014b}
\citation{Michailow2014}
\citation{Aminjavaheri2015}
\citation{Aminjavaheri2015}
\citation{Aminjavaheri2015}
\citation{Aminjavaheri2015}
\citation{Aminjavaheri2015}
\citation{VanEeckhaute2017}
\citation{Wang2015virtual}
\citation{Michailow2012a}
\citation{alamouti1998simple}
\citation{marzetta2010noncooperative}
\citation{zakaria:tel-00923184}
\citation{Abdoli2015}
\citation{Wild2014}
\citation{FarhangBoroujeny2016}
\citation{Farhang-Boroujeny2011}
\citation{Nissel2017jsac}
\citation{prez2016mimo}
\citation{Berg2014743}
\citation{Berg2014b}
\citation{Farhang2015a}
\citation{FarhangBoroujeny2016}
\citation{Abdoli2015}
\citation{Matthe2016complexity}
\citation{Wild2015complexity}
\citation{michailow2013low}
\citation{Chafii2016}
\citation{Chafii2016}
\@input{2-Chapters/2a-Chapter/chapter2a.aux}
\FN@pp@footnotehinttrue 
\citation{Mitola2000}
\citation{HaykinBrainEmpowered}
\citation{Weiss2004}
\citation{Weiss2004}
\citation{shaat2010computationally}
\citation{Mahmoud2009}
\citation{Noguet2011}
\citation{shaat2010computationally}
\citation{skrzypczak2012ofdm}
\citation{Su2016}
\citation{Michailow2011}
\citation{Medjahdi2010a}
\citation{Medjahdi2012phd}
\citation{Medjahdi2012phd}
\citation{Medjahdi2012phd}
\citation{Medjahdi2011}
\citation{Medjahdi2012phd}
\citation{Ahmed2016}
\citation{Berg2014743}
\citation{EurecomExp}
\citation{EURECOM+4725}
\citation{KeysightVideo}
\citation{KeysightWaveforms}
\citation{Wunsch2017Dyspan}
\citation{Wunsch2017TCCN}
\citation{skrzypczak2012ofdm}
\citation{Bellanger2010RWS}
\citation{Datta2011}
\citation{kollar2010modulation}
\citation{bogucka2015dynamic}
\citation{Noguet2011}
\citation{schellmann2014fbmc}
\citation{shaat2010computationally}
\citation{dikmese2014spectrumb}
\citation{Zhang2012z}
\citation{Medjahdi2011}
\citation{Zhang2010Eur}
\citation{zhang2010uplink}
\citation{Xing2014}
\citation{Pischella2016b}
\citation{Pischella2016a}
\citation{li2016downlink}
\citation{Mukherjee2015}
\citation{Haddadin2016}
\citation{Wu2016}
\citation{Wu2017}
\@input{2-Chapters/3-Chapter/chapter3.aux}
\FN@pp@footnotehinttrue 
\citation{Ahmed2016}
\citation{Wang2016Light}
\citation{Bodinier2016ICT}
\citation{BodinierICC2016}
\citation{Bodinier2016GC}
\citation{Bodinier2017access}
\citation{CompSyncConcepts}
\citation{Medjahdi2010a}
\citation{Medjahdi2010a}
\citation{EurecomExp}
\citation{EURECOM+4725}
\citation{Renfors2016f}
\citation{Renfors2016f}
\@input{2-Chapters/4-Chapter/chapter4.aux}
\FN@pp@footnotehinttrue 
\citation{Bodinier2016ISWCS}
\citation{BodinierICC2016}
\citation{Bourrous2017}
\citation{Ihalainen2008}
\citation{Datta2011}
\citation{skrzypczak2012ofdm}
\citation{KeysightWaveforms}
\citation{Berg2014743}
\citation{shaat2010computationally}
\@input{2-Chapters/5-Chapter/chapter5.aux}
\citation{Sexton2016GC}
\citation{Sexton2017TVT}
\FN@pp@footnotehinttrue 
\citation{Kyosti2008}
\citation{Xing2014}
\citation{Medjahdi2010a}
\citation{Medjahdi2010a}
\citation{Feng2013}
\citation{Han2014Bipartite}
\citation{Wang2014Fast}
\citation{shaat2010computationally}
\citation{Fodor2012}
\citation{Novlan2011}
\citation{chae2011radio}
\citation{Saquib2013Fractional}
\citation{Novlan2010Comparison}
\citation{Novlan2010Comparison}
\citation{cox2012introduction}
\citation{Kyosti2008}
\citation{Medjahdi2010a}
\citation{Pischella2016a}
\citation{Ahmed2016}
\citation{3GPPUERef}
\citation{3GPPScenarios}
\citation{3GPPScenarios}
\citation{Medjahdi2010a}
\@input{2-Chapters/6-Chapter/chapter6.aux}
\FN@pp@footnotehinttrue 
\citation{MaliatsosKK16}
\citation{Wu2017}
\@input{3-Appendices/1-Appendix/appendix1.aux}
\FN@pp@footnotehinttrue 
\@input{3-Appendices/2-Appendix/appendix2.aux}
\FN@pp@footnotehinttrue 
\citation{irisTestbed}
\citation{ChenTestbed}
\citation{CortexLab}
\@input{3-Appendices/3-Appendix/appendix3.aux}
\FN@pp@footnotehinttrue 
\@input{3-Appendices/0-Appendix/appendix0.aux}
\citation{Sexton2017TVT}
\citation{Bodinier2017access}
\citation{Sexton2016GC}
\citation{Bodinier2016GC}
\citation{Bodinier2016ISWCS}
\FN@pp@footnotehinttrue 
\citation{Bodinier2016ICT}
\citation{BodinierICC2016}
\citation{Bourrous2017}
\citation{CausICASSP2016}
\citation{Naoues2016}
\citation{Vial2017}
\FN@pp@footnotehinttrue 
\FN@pp@footnotehinttrue 
\@writefile{@@@}{\chapterbegin }
\@writefile{toc}{\contentsline {chapter}{Bibliography}{177}{chapter*.180}}
\FN@pp@footnotehinttrue 
\global\mtcsecondpartfalse
