%!PS-Adobe-3.0 EPSF-3.0
%%Creator: (MATLAB, The Mathworks, Inc. Version 8.5.0.197613 \(R2015a\). Operating System: Windows 7)
%%Title: C:/Users/quentin_bodinier/Documents/MATLAB/TWC/mean.eps
%%CreationDate: 2016-07-31T23:08:06
%%Pages: (atend)
%%BoundingBox: 0 0 678 442
%%LanguageLevel: 2
%%EndComments
%%BeginProlog
%%BeginResource: procset (Apache XML Graphics Std ProcSet) 1.2 0
%%Version: 1.2 0
%%Copyright: (Copyright 2001-2003,2010 The Apache Software Foundation. License terms: http://www.apache.org/licenses/LICENSE-2.0)
/bd{bind def}bind def
/ld{load def}bd
/GR/grestore ld
/M/moveto ld
/LJ/setlinejoin ld
/C/curveto ld
/f/fill ld
/LW/setlinewidth ld
/GC/setgray ld
/t/show ld
/N/newpath ld
/CT/concat ld
/cp/closepath ld
/S/stroke ld
/L/lineto ld
/CC/setcmykcolor ld
/A/ashow ld
/GS/gsave ld
/RC/setrgbcolor ld
/RM/rmoveto ld
/ML/setmiterlimit ld
/re {4 2 roll M
1 index 0 rlineto
0 exch rlineto
neg 0 rlineto
cp } bd
/_ctm matrix def
/_tm matrix def
/BT { _ctm currentmatrix pop matrix _tm copy pop 0 0 moveto } bd
/ET { _ctm setmatrix } bd
/iTm { _ctm setmatrix _tm concat } bd
/Tm { _tm astore pop iTm 0 0 moveto } bd
/ux 0.0 def
/uy 0.0 def
/F {
  /Tp exch def
  /Tf exch def
  Tf findfont Tp scalefont setfont
  /cf Tf def  /cs Tp def
} bd
/ULS {currentpoint /uy exch def /ux exch def} bd
/ULE {
  /Tcx currentpoint pop def
  gsave
  newpath
  cf findfont cs scalefont dup
  /FontMatrix get 0 get /Ts exch def /FontInfo get dup
  /UnderlinePosition get Ts mul /To exch def
  /UnderlineThickness get Ts mul /Tt exch def
  ux uy To add moveto  Tcx uy To add lineto
  Tt setlinewidth stroke
  grestore
} bd
/OLE {
  /Tcx currentpoint pop def
  gsave
  newpath
  cf findfont cs scalefont dup
  /FontMatrix get 0 get /Ts exch def /FontInfo get dup
  /UnderlinePosition get Ts mul /To exch def
  /UnderlineThickness get Ts mul /Tt exch def
  ux uy To add cs add moveto Tcx uy To add cs add lineto
  Tt setlinewidth stroke
  grestore
} bd
/SOE {
  /Tcx currentpoint pop def
  gsave
  newpath
  cf findfont cs scalefont dup
  /FontMatrix get 0 get /Ts exch def /FontInfo get dup
  /UnderlinePosition get Ts mul /To exch def
  /UnderlineThickness get Ts mul /Tt exch def
  ux uy To add cs 10 mul 26 idiv add moveto Tcx uy To add cs 10 mul 26 idiv add lineto
  Tt setlinewidth stroke
  grestore
} bd
/QT {
/Y22 exch store
/X22 exch store
/Y21 exch store
/X21 exch store
currentpoint
/Y21 load 2 mul add 3 div exch
/X21 load 2 mul add 3 div exch
/X21 load 2 mul /X22 load add 3 div
/Y21 load 2 mul /Y22 load add 3 div
/X22 load /Y22 load curveto
} bd
/SSPD {
dup length /d exch dict def
{
/v exch def
/k exch def
currentpagedevice k known {
/cpdv currentpagedevice k get def
v cpdv ne {
/upd false def
/nullv v type /nulltype eq def
/nullcpdv cpdv type /nulltype eq def
nullv nullcpdv or
{
/upd true def
} {
/sametype v type cpdv type eq def
sametype {
v type /arraytype eq {
/vlen v length def
/cpdvlen cpdv length def
vlen cpdvlen eq {
0 1 vlen 1 sub {
/i exch def
/obj v i get def
/cpdobj cpdv i get def
obj cpdobj ne {
/upd true def
exit
} if
} for
} {
/upd true def
} ifelse
} {
v type /dicttype eq {
v {
/dv exch def
/dk exch def
/cpddv cpdv dk get def
dv cpddv ne {
/upd true def
exit
} if
} forall
} {
/upd true def
} ifelse
} ifelse
} if
} ifelse
upd true eq {
d k v put
} if
} if
} if
} forall
d length 0 gt {
d setpagedevice
} if
} bd
%%EndResource
%%BeginResource: procset (Apache XML Graphics EPS ProcSet) 1.0 0
%%Version: 1.0 0
%%Copyright: (Copyright 2002-2003 The Apache Software Foundation. License terms: http://www.apache.org/licenses/LICENSE-2.0)
/BeginEPSF { %def
/b4_Inc_state save def         % Save state for cleanup
/dict_count countdictstack def % Count objects on dict stack
/op_count count 1 sub def      % Count objects on operand stack
userdict begin                 % Push userdict on dict stack
/showpage { } def              % Redefine showpage, { } = null proc
0 setgray 0 setlinecap         % Prepare graphics state
1 setlinewidth 0 setlinejoin
10 setmiterlimit [ ] 0 setdash newpath
/languagelevel where           % If level not equal to 1 then
{pop languagelevel             % set strokeadjust and
1 ne                           % overprint to their defaults.
{false setstrokeadjust false setoverprint
} if
} if
} bd
/EndEPSF { %def
count op_count sub {pop} repeat            % Clean up stacks
countdictstack dict_count sub {end} repeat
b4_Inc_state restore
} bd
%%EndResource
%FOPBeginFontDict
%%IncludeResource: font Courier-Bold
%%IncludeResource: font Helvetica
%%IncludeResource: font Courier-BoldOblique
%%IncludeResource: font Courier-Oblique
%%IncludeResource: font Times-Roman
%%IncludeResource: font Helvetica-BoldOblique
%%IncludeResource: font Helvetica-Bold
%%IncludeResource: font Helvetica-Oblique
%%IncludeResource: font Times-BoldItalic
%%IncludeResource: font Courier
%%IncludeResource: font Times-Italic
%%IncludeResource: font Times-Bold
%%IncludeResource: font Symbol
%%IncludeResource: font ZapfDingbats
%FOPEndFontDict
%%BeginResource: encoding WinAnsiEncoding
/WinAnsiEncoding [
/.notdef /.notdef /.notdef /.notdef /.notdef
/.notdef /.notdef /.notdef /.notdef /.notdef
/.notdef /.notdef /.notdef /.notdef /.notdef
/.notdef /.notdef /.notdef /.notdef /.notdef
/.notdef /.notdef /.notdef /.notdef /.notdef
/.notdef /.notdef /.notdef /.notdef /.notdef
/.notdef /.notdef /space /exclam /quotedbl
/numbersign /dollar /percent /ampersand /quotesingle
/parenleft /parenright /asterisk /plus /comma
/hyphen /period /slash /zero /one
/two /three /four /five /six
/seven /eight /nine /colon /semicolon
/less /equal /greater /question /at
/A /B /C /D /E
/F /G /H /I /J
/K /L /M /N /O
/P /Q /R /S /T
/U /V /W /X /Y
/Z /bracketleft /backslash /bracketright /asciicircum
/underscore /quoteleft /a /b /c
/d /e /f /g /h
/i /j /k /l /m
/n /o /p /q /r
/s /t /u /v /w
/x /y /z /braceleft /bar
/braceright /asciitilde /bullet /Euro /bullet
/quotesinglbase /florin /quotedblbase /ellipsis /dagger
/daggerdbl /circumflex /perthousand /Scaron /guilsinglleft
/OE /bullet /Zcaron /bullet /bullet
/quoteleft /quoteright /quotedblleft /quotedblright /bullet
/endash /emdash /asciitilde /trademark /scaron
/guilsinglright /oe /bullet /zcaron /Ydieresis
/space /exclamdown /cent /sterling /currency
/yen /brokenbar /section /dieresis /copyright
/ordfeminine /guillemotleft /logicalnot /sfthyphen /registered
/macron /degree /plusminus /twosuperior /threesuperior
/acute /mu /paragraph /middot /cedilla
/onesuperior /ordmasculine /guillemotright /onequarter /onehalf
/threequarters /questiondown /Agrave /Aacute /Acircumflex
/Atilde /Adieresis /Aring /AE /Ccedilla
/Egrave /Eacute /Ecircumflex /Edieresis /Igrave
/Iacute /Icircumflex /Idieresis /Eth /Ntilde
/Ograve /Oacute /Ocircumflex /Otilde /Odieresis
/multiply /Oslash /Ugrave /Uacute /Ucircumflex
/Udieresis /Yacute /Thorn /germandbls /agrave
/aacute /acircumflex /atilde /adieresis /aring
/ae /ccedilla /egrave /eacute /ecircumflex
/edieresis /igrave /iacute /icircumflex /idieresis
/eth /ntilde /ograve /oacute /ocircumflex
/otilde /odieresis /divide /oslash /ugrave
/uacute /ucircumflex /udieresis /yacute /thorn
/ydieresis
] def
%%EndResource
%FOPBeginFontReencode
/Courier-Bold findfont
dup length dict begin
  {1 index /FID ne {def} {pop pop} ifelse} forall
  /Encoding WinAnsiEncoding def
  currentdict
end
/Courier-Bold exch definefont pop
/Helvetica findfont
dup length dict begin
  {1 index /FID ne {def} {pop pop} ifelse} forall
  /Encoding WinAnsiEncoding def
  currentdict
end
/Helvetica exch definefont pop
/Courier-BoldOblique findfont
dup length dict begin
  {1 index /FID ne {def} {pop pop} ifelse} forall
  /Encoding WinAnsiEncoding def
  currentdict
end
/Courier-BoldOblique exch definefont pop
/Courier-Oblique findfont
dup length dict begin
  {1 index /FID ne {def} {pop pop} ifelse} forall
  /Encoding WinAnsiEncoding def
  currentdict
end
/Courier-Oblique exch definefont pop
/Times-Roman findfont
dup length dict begin
  {1 index /FID ne {def} {pop pop} ifelse} forall
  /Encoding WinAnsiEncoding def
  currentdict
end
/Times-Roman exch definefont pop
/Helvetica-BoldOblique findfont
dup length dict begin
  {1 index /FID ne {def} {pop pop} ifelse} forall
  /Encoding WinAnsiEncoding def
  currentdict
end
/Helvetica-BoldOblique exch definefont pop
/Helvetica-Bold findfont
dup length dict begin
  {1 index /FID ne {def} {pop pop} ifelse} forall
  /Encoding WinAnsiEncoding def
  currentdict
end
/Helvetica-Bold exch definefont pop
/Helvetica-Oblique findfont
dup length dict begin
  {1 index /FID ne {def} {pop pop} ifelse} forall
  /Encoding WinAnsiEncoding def
  currentdict
end
/Helvetica-Oblique exch definefont pop
/Times-BoldItalic findfont
dup length dict begin
  {1 index /FID ne {def} {pop pop} ifelse} forall
  /Encoding WinAnsiEncoding def
  currentdict
end
/Times-BoldItalic exch definefont pop
/Courier findfont
dup length dict begin
  {1 index /FID ne {def} {pop pop} ifelse} forall
  /Encoding WinAnsiEncoding def
  currentdict
end
/Courier exch definefont pop
/Times-Italic findfont
dup length dict begin
  {1 index /FID ne {def} {pop pop} ifelse} forall
  /Encoding WinAnsiEncoding def
  currentdict
end
/Times-Italic exch definefont pop
/Times-Bold findfont
dup length dict begin
  {1 index /FID ne {def} {pop pop} ifelse} forall
  /Encoding WinAnsiEncoding def
  currentdict
end
/Times-Bold exch definefont pop
%FOPEndFontReencode
%%EndProlog
%%Page: 1 1
%%PageBoundingBox: 0 0 678 442
%%BeginPageSetup
[1 0 0 -1 0 442] CT
%%EndPageSetup
GS
[0.75 0 0 0.75 0 0.25] CT
N
0 0 M
904 0 L
904 589 L
0 589 L
0 0 L
cp
clip
1 GC
N
0 0 904 589 re
f
GR
GS
[0.75 0 0 0.75 0 0.25] CT
1 GC
N
0 0 904 589 re
f
GR
GS
[0.75 0 0 0.75 0 0.25] CT
1 GC
N
128 534 M
828 534 L
828 54 L
128 54 L
cp
f
GR
GS
[0.75 0 0 0.75 0 0.25] CT
0.873 GC
2 setlinecap
10.0 ML
N
128 534 M
128 54 L
S
GR
GS
[0.75 0 0 0.75 0 0.25] CT
0.873 GC
2 setlinecap
10.0 ML
N
215.5 534 M
215.5 54 L
S
GR
GS
[0.75 0 0 0.75 0 0.25] CT
0.873 GC
2 setlinecap
10.0 ML
N
303 534 M
303 54 L
S
GR
GS
[0.75 0 0 0.75 0 0.25] CT
0.873 GC
2 setlinecap
10.0 ML
N
390.5 534 M
390.5 54 L
S
GR
GS
[0.75 0 0 0.75 0 0.25] CT
0.873 GC
2 setlinecap
10.0 ML
N
478 534 M
478 54 L
S
GR
GS
[0.75 0 0 0.75 0 0.25] CT
0.873 GC
2 setlinecap
10.0 ML
N
565.5 534 M
565.5 54 L
S
GR
GS
[0.75 0 0 0.75 0 0.25] CT
0.873 GC
2 setlinecap
10.0 ML
N
653 534 M
653 54 L
S
GR
GS
[0.75 0 0 0.75 0 0.25] CT
0.873 GC
2 setlinecap
10.0 ML
N
740.5 534 M
740.5 54 L
S
GR
GS
[0.75 0 0 0.75 0 0.25] CT
0.873 GC
2 setlinecap
10.0 ML
N
828 534 M
828 54 L
S
GR
GS
[0.75 0 0 0.75 0 0.25] CT
0.873 GC
2 setlinecap
10.0 ML
N
828 534 M
128 534 L
S
GR
GS
[0.75 0 0 0.75 0 0.25] CT
0.873 GC
2 setlinecap
10.0 ML
N
828 474 M
128 474 L
S
GR
GS
[0.75 0 0 0.75 0 0.25] CT
0.873 GC
2 setlinecap
10.0 ML
N
828 414 M
128 414 L
S
GR
GS
[0.75 0 0 0.75 0 0.25] CT
0.873 GC
2 setlinecap
10.0 ML
N
828 354 M
128 354 L
S
GR
GS
[0.75 0 0 0.75 0 0.25] CT
0.873 GC
2 setlinecap
10.0 ML
N
828 294 M
128 294 L
S
GR
GS
[0.75 0 0 0.75 0 0.25] CT
0.873 GC
2 setlinecap
10.0 ML
N
828 234 M
128 234 L
S
GR
GS
[0.75 0 0 0.75 0 0.25] CT
0.873 GC
2 setlinecap
10.0 ML
N
828 174 M
128 174 L
S
GR
GS
[0.75 0 0 0.75 0 0.25] CT
0.873 GC
2 setlinecap
10.0 ML
N
828 114 M
128 114 L
S
GR
GS
[0.75 0 0 0.75 0 0.25] CT
0.873 GC
2 setlinecap
10.0 ML
N
828 54 M
128 54 L
S
GR
GS
[0.75 0 0 0.75 358.50025 423.05] CT
0.149 GC
/Times-Roman 21 F
GS
[1 0 0 1 0 0] CT
-129.5 20 moveto 
1 -1 scale
(Index of Incumbent Subcarrier) t 
GR
GR
GS
[0.75 0 0 0.75 0 0.25] CT
0.149 GC
2 setlinecap
10.0 ML
N
128 534 M
828 534 L
S
GR
GS
[0.75 0 0 0.75 0 0.25] CT
0.149 GC
2 setlinecap
10.0 ML
N
128 54 M
828 54 L
S
GR
GS
[0.75 0 0 0.75 0 0.25] CT
0.149 GC
2 setlinecap
10.0 ML
N
128 534 M
128 527 L
S
GR
GS
[0.75 0 0 0.75 0 0.25] CT
0.149 GC
2 setlinecap
10.0 ML
N
215.5 534 M
215.5 527 L
S
GR
GS
[0.75 0 0 0.75 0 0.25] CT
0.149 GC
2 setlinecap
10.0 ML
N
303 534 M
303 527 L
S
GR
GS
[0.75 0 0 0.75 0 0.25] CT
0.149 GC
2 setlinecap
10.0 ML
N
390.5 534 M
390.5 527 L
S
GR
GS
[0.75 0 0 0.75 0 0.25] CT
0.149 GC
2 setlinecap
10.0 ML
N
478 534 M
478 527 L
S
GR
GS
[0.75 0 0 0.75 0 0.25] CT
0.149 GC
2 setlinecap
10.0 ML
N
565.5 534 M
565.5 527 L
S
GR
GS
[0.75 0 0 0.75 0 0.25] CT
0.149 GC
2 setlinecap
10.0 ML
N
653 534 M
653 527 L
S
GR
GS
[0.75 0 0 0.75 0 0.25] CT
0.149 GC
2 setlinecap
10.0 ML
N
740.5 534 M
740.5 527 L
S
GR
GS
[0.75 0 0 0.75 0 0.25] CT
0.149 GC
2 setlinecap
10.0 ML
N
828 534 M
828 527 L
S
GR
GS
[0.75 0 0 0.75 0 0.25] CT
0.149 GC
2 setlinecap
10.0 ML
N
128 54 M
128 61 L
S
GR
GS
[0.75 0 0 0.75 0 0.25] CT
0.149 GC
2 setlinecap
10.0 ML
N
215.5 54 M
215.5 61 L
S
GR
GS
[0.75 0 0 0.75 0 0.25] CT
0.149 GC
2 setlinecap
10.0 ML
N
303 54 M
303 61 L
S
GR
GS
[0.75 0 0 0.75 0 0.25] CT
0.149 GC
2 setlinecap
10.0 ML
N
390.5 54 M
390.5 61 L
S
GR
GS
[0.75 0 0 0.75 0 0.25] CT
0.149 GC
2 setlinecap
10.0 ML
N
478 54 M
478 61 L
S
GR
GS
[0.75 0 0 0.75 0 0.25] CT
0.149 GC
2 setlinecap
10.0 ML
N
565.5 54 M
565.5 61 L
S
GR
GS
[0.75 0 0 0.75 0 0.25] CT
0.149 GC
2 setlinecap
10.0 ML
N
653 54 M
653 61 L
S
GR
GS
[0.75 0 0 0.75 0 0.25] CT
0.149 GC
2 setlinecap
10.0 ML
N
740.5 54 M
740.5 61 L
S
GR
GS
[0.75 0 0 0.75 0 0.25] CT
0.149 GC
2 setlinecap
10.0 ML
N
828 54 M
828 61 L
S
GR
GS
[0.75 0 0 0.75 96 405.55002] CT
0.149 GC
/Times-Roman 19 F
GS
[1 0 0 1 0 0] CT
-13 18 moveto 
1 -1 scale
(-20) t 
GR
GR
GS
[0.75 0 0 0.75 161.625 405.55002] CT
0.149 GC
/Times-Roman 19 F
GS
[1 0 0 1 0 0] CT
-13 18 moveto 
1 -1 scale
(-15) t 
GR
GR
GS
[0.75 0 0 0.75 227.25 405.55002] CT
0.149 GC
/Times-Roman 19 F
GS
[1 0 0 1 0 0] CT
-13 18 moveto 
1 -1 scale
(-10) t 
GR
GR
GS
[0.75 0 0 0.75 292.875 405.55002] CT
0.149 GC
/Times-Roman 19 F
GS
[1 0 0 1 0 0] CT
-8 18 moveto 
1 -1 scale
(-5) t 
GR
GR
GS
[0.75 0 0 0.75 358.5 405.55002] CT
0.149 GC
/Times-Roman 19 F
GS
[1 0 0 1 0 0] CT
-5 18 moveto 
1 -1 scale
(0) t 
GR
GR
GS
[0.75 0 0 0.75 424.125 405.55002] CT
0.149 GC
/Times-Roman 19 F
GS
[1 0 0 1 0 0] CT
-5 18 moveto 
1 -1 scale
(5) t 
GR
GR
GS
[0.75 0 0 0.75 489.75 405.55002] CT
0.149 GC
/Times-Roman 19 F
GS
[1 0 0 1 0 0] CT
-9.5 18 moveto 
1 -1 scale
(10) t 
GR
GR
GS
[0.75 0 0 0.75 555.375 405.55002] CT
0.149 GC
/Times-Roman 19 F
GS
[1 0 0 1 0 0] CT
-9.5 18 moveto 
1 -1 scale
(15) t 
GR
GR
GS
[0.75 0 0 0.75 621 405.55002] CT
0.149 GC
/Times-Roman 19 F
GS
[1 0 0 1 0 0] CT
-9.5 18 moveto 
1 -1 scale
(20) t 
GR
GR
GS
[0 -0.75 0.75 0 68.7 220.74982] CT
0.149 GC
/Times-Roman 21 F
GS
[1 0 0 1 0 0] CT
-126 -5 moveto 
1 -1 scale
(Mean Interference Level \(dB\)) t 
GR
GR
GS
[0.75 0 0 0.75 0 0.25] CT
0.149 GC
2 setlinecap
10.0 ML
N
128 534 M
128 54 L
S
GR
GS
[0.75 0 0 0.75 0 0.25] CT
0.149 GC
2 setlinecap
10.0 ML
N
828 534 M
828 54 L
S
GR
GS
[0.75 0 0 0.75 0 0.25] CT
0.149 GC
2 setlinecap
10.0 ML
N
128 534 M
135 534 L
S
GR
GS
[0.75 0 0 0.75 0 0.25] CT
0.149 GC
2 setlinecap
10.0 ML
N
128 474 M
135 474 L
S
GR
GS
[0.75 0 0 0.75 0 0.25] CT
0.149 GC
2 setlinecap
10.0 ML
N
128 414 M
135 414 L
S
GR
GS
[0.75 0 0 0.75 0 0.25] CT
0.149 GC
2 setlinecap
10.0 ML
N
128 354 M
135 354 L
S
GR
GS
[0.75 0 0 0.75 0 0.25] CT
0.149 GC
2 setlinecap
10.0 ML
N
128 294 M
135 294 L
S
GR
GS
[0.75 0 0 0.75 0 0.25] CT
0.149 GC
2 setlinecap
10.0 ML
N
128 234 M
135 234 L
S
GR
GS
[0.75 0 0 0.75 0 0.25] CT
0.149 GC
2 setlinecap
10.0 ML
N
128 174 M
135 174 L
S
GR
GS
[0.75 0 0 0.75 0 0.25] CT
0.149 GC
2 setlinecap
10.0 ML
N
128 114 M
135 114 L
S
GR
GS
[0.75 0 0 0.75 0 0.25] CT
0.149 GC
2 setlinecap
10.0 ML
N
128 54 M
135 54 L
S
GR
GS
[0.75 0 0 0.75 0 0.25] CT
0.149 GC
2 setlinecap
10.0 ML
N
828 534 M
821 534 L
S
GR
GS
[0.75 0 0 0.75 0 0.25] CT
0.149 GC
2 setlinecap
10.0 ML
N
828 474 M
821 474 L
S
GR
GS
[0.75 0 0 0.75 0 0.25] CT
0.149 GC
2 setlinecap
10.0 ML
N
828 414 M
821 414 L
S
GR
GS
[0.75 0 0 0.75 0 0.25] CT
0.149 GC
2 setlinecap
10.0 ML
N
828 354 M
821 354 L
S
GR
GS
[0.75 0 0 0.75 0 0.25] CT
0.149 GC
2 setlinecap
10.0 ML
N
828 294 M
821 294 L
S
GR
GS
[0.75 0 0 0.75 0 0.25] CT
0.149 GC
2 setlinecap
10.0 ML
N
828 234 M
821 234 L
S
GR
GS
[0.75 0 0 0.75 0 0.25] CT
0.149 GC
2 setlinecap
10.0 ML
N
828 174 M
821 174 L
S
GR
GS
[0.75 0 0 0.75 0 0.25] CT
0.149 GC
2 setlinecap
10.0 ML
N
828 114 M
821 114 L
S
GR
GS
[0.75 0 0 0.75 0 0.25] CT
0.149 GC
2 setlinecap
10.0 ML
N
828 54 M
821 54 L
S
GR
GS
[0.75 0 0 0.75 91.19999 400.75] CT
0.149 GC
/Times-Roman 19 F
GS
[1 0 0 1 0 0] CT
-26 7 moveto 
1 -1 scale
(-40) t 
GR
GR
GS
[0.75 0 0 0.75 91.19999 355.75] CT
0.149 GC
/Times-Roman 19 F
GS
[1 0 0 1 0 0] CT
-26 7 moveto 
1 -1 scale
(-35) t 
GR
GR
GS
[0.75 0 0 0.75 91.19999 310.75] CT
0.149 GC
/Times-Roman 19 F
GS
[1 0 0 1 0 0] CT
-26 7 moveto 
1 -1 scale
(-30) t 
GR
GR
GS
[0.75 0 0 0.75 91.19999 265.75] CT
0.149 GC
/Times-Roman 19 F
GS
[1 0 0 1 0 0] CT
-26 7 moveto 
1 -1 scale
(-25) t 
GR
GR
GS
[0.75 0 0 0.75 91.19999 220.75] CT
0.149 GC
/Times-Roman 19 F
GS
[1 0 0 1 0 0] CT
-26 7 moveto 
1 -1 scale
(-20) t 
GR
GR
GS
[0.75 0 0 0.75 91.19999 175.75] CT
0.149 GC
/Times-Roman 19 F
GS
[1 0 0 1 0 0] CT
-26 7 moveto 
1 -1 scale
(-15) t 
GR
GR
GS
[0.75 0 0 0.75 91.19999 130.75] CT
0.149 GC
/Times-Roman 19 F
GS
[1 0 0 1 0 0] CT
-26 7 moveto 
1 -1 scale
(-10) t 
GR
GR
GS
[0.75 0 0 0.75 91.19999 85.75] CT
0.149 GC
/Times-Roman 19 F
GS
[1 0 0 1 0 0] CT
-16 7 moveto 
1 -1 scale
(-5) t 
GR
GR
GS
[0.75 0 0 0.75 91.19999 40.75] CT
0.149 GC
/Times-Roman 19 F
GS
[1 0 0 1 0 0] CT
-10 7 moveto 
1 -1 scale
(0) t 
GR
GR
GS
[0.75 0 0 0.75 0 0.25] CT
0 0.447 0.741 RC
2 LJ
2.667 LW
N
128 483.414 M
145.5 478.085 L
163 472.423 L
180.5 466.506 L
198 460.141 L
215.5 453.468 L
233 446.223 L
250.5 438.553 L
268 430.164 L
285.5 421.133 L
303 411.176 L
320.5 400.202 L
338 387.937 L
355.5 373.989 L
373 357.973 L
390.5 338.9 L
408 315.73 L
425.5 285.641 L
443 243.496 L
460.5 171.124 L
478 74.096 L
495.5 171.124 L
513 243.496 L
530.5 285.641 L
548 315.73 L
565.5 338.9 L
583 357.973 L
600.5 373.989 L
618 387.937 L
635.5 400.202 L
653 411.176 L
670.5 421.133 L
688 430.164 L
705.5 438.553 L
723 446.223 L
740.5 453.468 L
758 460.141 L
775.5 466.506 L
793 472.423 L
810.5 478.085 L
828 483.414 L
S
GR
GS
[0.75 0 0 0.75 0 0.25] CT
0.929 0.694 0.125 RC
[2 2] 0 setdash
2 LJ
2.667 LW
N
127.93 509.258 M
128 509.238 L
145.5 503.887 L
163 498.246 L
180.5 492.282 L
198 485.956 L
215.5 479.22 L
233 472.017 L
250.5 464.279 L
268 455.919 L
285.5 446.827 L
303 436.863 L
320.5 425.841 L
338 413.509 L
355.5 399.509 L
373 383.316 L
390.5 364.103 L
408 340.458 L
425.5 309.629 L
443 264.899 L
460.5 177.389 L
478 82.154 L
495.5 177.389 L
513 264.899 L
530.5 309.629 L
548 340.458 L
565.5 364.103 L
583 383.316 L
600.5 399.509 L
618 413.509 L
635.5 425.841 L
653 436.863 L
670.5 446.827 L
688 455.919 L
705.5 464.279 L
723 472.017 L
740.5 479.22 L
758 485.956 L
775.5 492.282 L
793 498.246 L
810.5 503.887 L
828 509.238 L
828.07 509.258 L
S
GR
GS
[0.75 0 0 0.75 0 0.25] CT
0.467 0.675 0.188 RC
[8 3 2 3] 0 setdash
2 LJ
1.333 LW
N
127.93 521.64 M
128 521.619 L
145.5 516.266 L
163 510.622 L
180.5 504.654 L
198 498.324 L
215.5 491.582 L
233 484.374 L
250.5 476.628 L
268 468.257 L
285.5 459.153 L
303 449.172 L
320.5 438.127 L
338 425.764 L
355.5 411.717 L
373 395.453 L
390.5 376.121 L
408 352.254 L
425.5 320.939 L
443 274.75 L
460.5 175.775 L
478 69.926 L
495.5 175.775 L
513 274.75 L
530.5 320.939 L
548 352.254 L
565.5 376.121 L
583 395.453 L
600.5 411.717 L
618 425.764 L
635.5 438.127 L
653 449.172 L
670.5 459.153 L
688 468.257 L
705.5 476.628 L
723 484.374 L
740.5 491.582 L
758 498.324 L
775.5 504.654 L
793 510.622 L
810.5 516.266 L
828 521.619 L
828.07 521.64 L
S
GR
GS
[0.75 0 0 0.75 0 0.25] CT
0.851 0.325 0.098 RC
[10 6] 0 setdash
2 LJ
1.333 LW
N
127.93 493.234 M
128 493.213 L
145.5 487.841 L
163 482.219 L
180.5 476.234 L
198 469.926 L
215.5 463.167 L
233 455.983 L
250.5 448.222 L
268 439.877 L
285.5 430.761 L
303 420.811 L
320.5 409.76 L
338 397.435 L
355.5 383.399 L
373 367.197 L
390.5 347.92 L
408 324.206 L
425.5 293.175 L
443 247.876 L
460.5 155.925 L
478 77.747 L
495.5 155.925 L
513 247.876 L
530.5 293.175 L
548 324.206 L
565.5 347.92 L
583 367.197 L
600.5 383.399 L
618 397.435 L
635.5 409.76 L
653 420.811 L
670.5 430.761 L
688 439.877 L
705.5 448.222 L
723 455.983 L
740.5 463.167 L
758 469.926 L
775.5 476.234 L
793 482.219 L
810.5 487.841 L
828 493.213 L
828.07 493.234 L
S
GR
GS
[0.75 0 0 0.75 0 0.25] CT
1 GC
N
580 155 M
580 67 L
815 67 L
815 155 L
cp
f
GR
GS
[0.75 0 0 0.75 474 60.07252] CT
/Times-Roman 17 F
GS
[1 0 0 1 0 0] CT
0 6 moveto 
1 -1 scale
(CP-OFDM secondary) t 
GR
GR
GS
[0.75 0 0 0.75 0 0.25] CT
0 0.447 0.741 RC
2 setlinecap
10.0 ML
2.667 LW
N
588 79.763 M
628 79.763 L
S
GR
GS
[0.75 0 0 0.75 474 75.69084] CT
/Times-Roman 17 F
GS
[1 0 0 1 0 0] CT
0 6 moveto 
1 -1 scale
(FMT secondary) t 
GR
GR
GS
[0.75 0 0 0.75 0 0.25] CT
0.929 0.694 0.125 RC
[2 2] 0 setdash
2 LJ
2.667 LW
N
588 100.588 M
628 100.588 L
S
GR
GS
[0.75 0 0 0.75 474 91.30916] CT
/Times-Roman 17 F
GS
[1 0 0 1 0 0] CT
0 6 moveto 
1 -1 scale
(OFDM/OQAM secondary) t 
GR
GR
GS
[0.75 0 0 0.75 0 0.25] CT
0.467 0.675 0.188 RC
[8 3 2 3] 0 setdash
2 LJ
1.333 LW
N
588 121.412 M
628 121.412 L
S
GR
GS
[0.75 0 0 0.75 474 106.92747] CT
/Times-Roman 17 F
GS
[1 0 0 1 0 0] CT
0 6 moveto 
1 -1 scale
(GFDM secondary) t 
GR
GR
GS
[0.75 0 0 0.75 0 0.25] CT
0.851 0.325 0.098 RC
[10 6] 0 setdash
2 LJ
1.333 LW
N
588 142.237 M
628 142.237 L
S
GR
GS
[0.75 0 0 0.75 0 0.25] CT
0.149 GC
2 setlinecap
10.0 ML
N
580 155 M
580 67 L
815 67 L
815 155 L
580 155 L
S
GR
%%Trailer
%%Pages: 1
%%EOF
