\relax 
\providecommand\hyper@newdestlabel[2]{}
\FN@pp@footnotehinttrue 
\@writefile{toc}{\contentsline {chapter}{\numberline {B}SCEE Testbed}{157}{Appendix.a.B}}
\@writefile{lof}{\addvspace {10\p@ }}
\@writefile{lot}{\addvspace {10\p@ }}
\@writefile{lof}{\contentsline {xchapter}{SCEE Testbed}{157}{Appendix.a.B}}
\@writefile{lot}{\contentsline {xchapter}{SCEE Testbed}{157}{Appendix.a.B}}
\newlabel{app:testbed}{{B}{157}{SCEE Testbed}{Appendix.a.B}{}}
\FN@pp@footnote@aux{14}{157}
\FN@pp@footnote@aux{15}{157}
\FN@pp@footnote@aux{16}{157}
\@writefile{toc}{\contentsline {section}{\numberline {B.1}Testbed presentation and layout}{157}{section.a.B.1}}
\FN@pp@footnote@aux{17}{157}
\@writefile{lot}{\contentsline {table}{\numberline {B.1}{\ignorespaces USRPS available in SCEE Testbed\relax }}{158}{table.caption.158}}
\newlabel{tab:USRPs}{{B.1}{158}{USRPS available in SCEE Testbed\relax }{table.caption.158}{}}
\@writefile{toc}{\contentsline {section}{\numberline {B.2}Available hardware material}{158}{section.a.B.2}}
\@writefile{lof}{\contentsline {figure}{\numberline {B.1}{\ignorespaces Testbed organization and USRP identification\relax }}{159}{figure.caption.160}}
\newlabel{fig:testbed_org}{{B.1}{159}{Testbed organization and USRP identification\relax }{figure.caption.160}{}}
\@writefile{toc}{\contentsline {section}{\numberline {B.3}Testbed organization and network architecture}{159}{section.a.B.3}}
\@writefile{lof}{\contentsline {figure}{\numberline {B.2}{\ignorespaces Ethernet switch cabling\relax }}{160}{figure.caption.161}}
\newlabel{fig:ethernet switch}{{B.2}{160}{Ethernet switch cabling\relax }{figure.caption.161}{}}
\@writefile{lof}{\contentsline {figure}{\numberline {B.3}{\ignorespaces Detailed cabling diagram of all testbed components. USRPs are represented via their id.\relax }}{160}{figure.caption.162}}
\newlabel{fig:cabling}{{B.3}{160}{Detailed cabling diagram of all testbed components. USRPs are represented via their id.\relax }{figure.caption.162}{}}
\@writefile{lof}{\contentsline {figure}{\numberline {B.4}{\ignorespaces Interface of the SCEE testbed monitor.}}{161}{figure.caption.163}}
\newlabel{fig:monitor}{{B.4}{161}{Interface of the SCEE testbed monitor}{figure.caption.163}{}}
\@writefile{toc}{\contentsline {section}{\numberline {B.4}Usage monitoring}{161}{section.a.B.4}}
\FN@pp@footnotehinttrue 
\@writefile{lot}{\contentsline {table}{\numberline {B.2}{\ignorespaces Other hardware\relax }}{163}{table.caption.159}}
\newlabel{tab:other_hw}{{B.2}{163}{Other hardware\relax }{table.caption.159}{}}
\@setckpt{3-Appendices/2-Appendix/appendix2}{
\setcounter{page}{164}
\setcounter{equation}{0}
\setcounter{enumi}{3}
\setcounter{enumii}{0}
\setcounter{enumiii}{0}
\setcounter{enumiv}{0}
\setcounter{footnote}{0}
\setcounter{mpfootnote}{0}
\setcounter{part}{0}
\setcounter{chapter}{2}
\setcounter{section}{4}
\setcounter{subsection}{0}
\setcounter{subsubsection}{0}
\setcounter{paragraph}{0}
\setcounter{subparagraph}{0}
\setcounter{figure}{4}
\setcounter{table}{2}
\setcounter{@pps}{1}
\setcounter{@ppsavesec}{7}
\setcounter{@ppsaveapp}{0}
\setcounter{parentequation}{9}
\setcounter{Item}{48}
\setcounter{Hfootnote}{17}
\setcounter{bookmark@seq@number}{96}
\setcounter{MYtempeqncnt}{0}
\setcounter{pp@next@reset}{18}
\setcounter{@fnserial}{17}
\setcounter{ALG@line}{0}
\setcounter{ALG@rem}{0}
\setcounter{ALG@nested}{0}
\setcounter{ALG@Lnr}{2}
\setcounter{ALG@blocknr}{10}
\setcounter{ALG@storecount}{0}
\setcounter{ALG@tmpcounter}{0}
\setcounter{float@type}{16}
\setcounter{algorithm}{0}
\setcounter{lstnumber}{1}
\setcounter{ContinuedFloat}{0}
\setcounter{KVtest}{1}
\setcounter{subfigure}{0}
\setcounter{subfigure@save}{2}
\setcounter{lofdepth}{1}
\setcounter{subtable}{0}
\setcounter{subtable@save}{2}
\setcounter{lotdepth}{1}
\setcounter{r@tfl@t}{0}
\setcounter{nlinenum}{0}
\setcounter{tabx@nest}{0}
\setcounter{listtotal}{0}
\setcounter{listcount}{0}
\setcounter{liststart}{0}
\setcounter{liststop}{0}
\setcounter{citecount}{0}
\setcounter{citetotal}{0}
\setcounter{multicitecount}{0}
\setcounter{multicitetotal}{0}
\setcounter{instcount}{266}
\setcounter{maxnames}{1}
\setcounter{minnames}{1}
\setcounter{maxitems}{3}
\setcounter{minitems}{1}
\setcounter{citecounter}{0}
\setcounter{savedcitecounter}{0}
\setcounter{uniquelist}{0}
\setcounter{uniquename}{0}
\setcounter{refsection}{0}
\setcounter{refsegment}{0}
\setcounter{maxextrayear}{0}
\setcounter{maxextraalpha}{0}
\setcounter{abbrvpenalty}{50}
\setcounter{highnamepenalty}{50}
\setcounter{lownamepenalty}{25}
\setcounter{maxparens}{3}
\setcounter{parenlevel}{0}
\setcounter{mincomprange}{10}
\setcounter{maxcomprange}{100000}
\setcounter{mincompwidth}{1}
\setcounter{labelname}{0}
\setcounter{savedlabelname}{0}
\setcounter{author}{0}
\setcounter{savedauthor}{0}
\setcounter{shortauthor}{0}
\setcounter{savedshortauthor}{0}
\setcounter{editor}{0}
\setcounter{savededitor}{0}
\setcounter{editora}{0}
\setcounter{savededitora}{0}
\setcounter{editorb}{0}
\setcounter{savededitorb}{0}
\setcounter{editorc}{0}
\setcounter{savededitorc}{0}
\setcounter{shorteditor}{0}
\setcounter{savedshorteditor}{0}
\setcounter{bookauthor}{0}
\setcounter{savedbookauthor}{0}
\setcounter{translator}{0}
\setcounter{savedtranslator}{0}
\setcounter{annotator}{0}
\setcounter{savedannotator}{0}
\setcounter{commentator}{0}
\setcounter{savedcommentator}{0}
\setcounter{introduction}{0}
\setcounter{savedintroduction}{0}
\setcounter{foreword}{0}
\setcounter{savedforeword}{0}
\setcounter{afterword}{0}
\setcounter{savedafterword}{0}
\setcounter{holder}{0}
\setcounter{savedholder}{0}
\setcounter{namea}{0}
\setcounter{savednamea}{0}
\setcounter{nameb}{0}
\setcounter{savednameb}{0}
\setcounter{namec}{0}
\setcounter{savednamec}{0}
\setcounter{institution}{0}
\setcounter{savedinstitution}{0}
\setcounter{language}{0}
\setcounter{savedlanguage}{0}
\setcounter{location}{0}
\setcounter{savedlocation}{0}
\setcounter{organization}{0}
\setcounter{savedorganization}{0}
\setcounter{origlocation}{0}
\setcounter{savedoriglocation}{0}
\setcounter{origpublisher}{0}
\setcounter{savedorigpublisher}{0}
\setcounter{pageref}{0}
\setcounter{savedpageref}{0}
\setcounter{publisher}{0}
\setcounter{savedpublisher}{0}
\setcounter{lista}{0}
\setcounter{savedlista}{0}
\setcounter{listb}{0}
\setcounter{savedlistb}{0}
\setcounter{listc}{0}
\setcounter{savedlistc}{0}
\setcounter{listd}{0}
\setcounter{savedlistd}{0}
\setcounter{liste}{0}
\setcounter{savedliste}{0}
\setcounter{listf}{0}
\setcounter{savedlistf}{0}
\setcounter{textcitecount}{0}
\setcounter{textcitetotal}{0}
\setcounter{textcitemaxnames}{0}
\setcounter{biburlnumpenalty}{0}
\setcounter{biburlucpenalty}{0}
\setcounter{biburllcpenalty}{0}
\setcounter{smartand}{1}
\setcounter{bbx:relatedcount}{0}
\setcounter{bbx:relatedtotal}{0}
\setcounter{cbx@tempcnta}{0}
\setcounter{cbx@tempcntb}{161}
\setcounter{mtc}{14}
\setcounter{minitocdepth}{2}
\setcounter{ptc}{0}
\setcounter{parttocdepth}{2}
\setcounter{cdefi}{0}
\setcounter{cprop}{0}
\setcounter{dblbotnumber}{2}
\setcounter{section@level}{1}
\setcounter{lstlisting}{0}
\setcounter{minilofdepth}{2}
\setcounter{minilotdepth}{2}
\setcounter{partlofdepth}{2}
\setcounter{partlotdepth}{2}
\setcounter{sectlofdepth}{2}
\setcounter{sectlotdepth}{2}
}
