\relax 
\providecommand\hyper@newdestlabel[2]{}
\FN@pp@footnotehinttrue 
\@writefile{toc}{\contentsline {chapter}{\numberline {3}Related work and corresponding contributions}{51}{chapter.3}}
\@writefile{lof}{\addvspace {10\p@ }}
\@writefile{lot}{\addvspace {10\p@ }}
\@writefile{lof}{\contentsline {xchapter}{Related work and corresponding contributions}{51}{chapter.3}}
\@writefile{lot}{\contentsline {xchapter}{Related work and corresponding contributions}{51}{chapter.3}}
\newlabel{chapter:2a}{{3}{51}{Related work and corresponding contributions}{chapter.3}{}}
\@writefile{toc}{\contentsline {section}{\numberline {3.1}Introduction}{51}{section.3.1}}
\@writefile{lof}{\contentsline {figure}{\numberline {3.1}{\ignorespaces Spectral representation of the coexistence scenario}}{52}{figure.caption.56}}
\newlabel{fig:spectral_distribution}{{3.1}{52}{Spectral representation of the coexistence scenario}{figure.caption.56}{}}
\@writefile{toc}{\contentsline {section}{\numberline {3.2}Interference modeling in coexistence scenarios}{52}{section.3.2}}
\newlabel{sec:bcg_interf_model}{{3.2}{52}{Interference modeling in coexistence scenarios}{section.3.2}{}}
\@writefile{toc}{\contentsline {subsection}{\numberline {3.2.1}Spectral coexistence system model}{52}{subsection.3.2.1}}
\@writefile{lof}{\contentsline {figure}{\numberline {3.2}{\ignorespaces Principle of the PSD-based modeling of interference}}{53}{figure.caption.57}}
\newlabel{fig:difference_approach}{{3.2}{53}{Principle of the PSD-based modeling of interference}{figure.caption.57}{}}
\@writefile{toc}{\contentsline {subsection}{\numberline {3.2.2}PSD-based modeling}{54}{subsection.3.2.2}}
\@writefile{toc}{\contentsline {subsubsection}{Model definition}{54}{section*.58}}
\@writefile{lof}{\contentsline {figure}{\numberline {3.3}{\ignorespaces Principle of PSD-based modeling of interference, applied to two waveforms.}}{55}{figure.caption.59}}
\newlabel{fig:PSD_model_principle}{{3.3}{55}{Principle of PSD-based modeling of interference, applied to two waveforms}{figure.caption.59}{}}
\@writefile{lof}{\contentsline {subfigure}{\numberline{(a)}{\ignorespaces {}}}{55}{subfigure.3.1}}
\@writefile{lof}{\contentsline {subfigure}{\numberline{(b)}{\ignorespaces {}}}{55}{subfigure.3.2}}
\@writefile{toc}{\contentsline {subsubsection}{PSD-based model applied to FB-MC waveforms}{55}{section*.60}}
\@writefile{lof}{\contentsline {figure}{\numberline {3.4}{\ignorespaces PSD estimate of studied waveforms}}{56}{figure.caption.61}}
\newlabel{fig:PSD_waveforms}{{3.4}{56}{PSD estimate of studied waveforms}{figure.caption.61}{}}
\@writefile{lot}{\contentsline {table}{\numberline {3.1}{\ignorespaces Interference tables in dB computed according to the PSD-based model for studied waveforms.\relax }}{56}{table.caption.62}}
\newlabel{tab:PSD_model_results}{{3.1}{56}{Interference tables in dB computed according to the PSD-based model for studied waveforms.\relax }{table.caption.62}{}}
\@writefile{toc}{\contentsline {subsubsection}{Limitations of the PSD-based model}{57}{section*.63}}
\@writefile{toc}{\contentsline {subsection}{\numberline {3.2.3}Asynchronous interference modeling}{57}{subsection.3.2.3}}
\@writefile{toc}{\contentsline {subsubsection}{Model definition}{57}{section*.64}}
\@writefile{toc}{\contentsline {subsubsection}{Asynchronous interference modeling applied to FB-MC waveforms}{58}{section*.65}}
\@writefile{toc}{\contentsline {subsubsection}{Limitations of the asynchronous interference model}{59}{section*.66}}
\@writefile{toc}{\contentsline {subsection}{\numberline {3.2.4}Summary}{59}{subsection.3.2.4}}
\@writefile{toc}{\contentsline {section}{\numberline {3.3}Experimental studies}{60}{section.3.3}}
\newlabel{sec:experimental_studies}{{3.3}{60}{Experimental studies}{section.3.3}{}}
\@writefile{toc}{\contentsline {section}{\numberline {3.4}Enhanced waveforms for coexistence with incumbent CP-OFDM systems}{61}{section.3.4}}
\newlabel{sec:5G_coex_OFDM}{{3.4}{61}{Enhanced waveforms for coexistence with incumbent CP-OFDM systems}{section.3.4}{}}
\@writefile{toc}{\contentsline {subsection}{\numberline {3.4.1}CR context}{61}{subsection.3.4.1}}
\@writefile{toc}{\contentsline {subsection}{\numberline {3.4.2}D2D context}{62}{subsection.3.4.2}}
\@writefile{toc}{\contentsline {subsection}{\numberline {3.4.3}Summary}{62}{subsection.3.4.3}}
\@writefile{toc}{\contentsline {section}{\numberline {3.5}Conclusion}{63}{section.3.5}}
\newlabel{sec:litt_lim_and_contrib}{{3.5}{63}{Conclusion}{section.3.5}{}}
\FN@pp@footnotehinttrue 
\@setckpt{2-Chapters/2a-Chapter/chapter2a}{
\setcounter{page}{64}
\setcounter{equation}{12}
\setcounter{enumi}{2}
\setcounter{enumii}{0}
\setcounter{enumiii}{0}
\setcounter{enumiv}{0}
\setcounter{footnote}{0}
\setcounter{mpfootnote}{0}
\setcounter{part}{0}
\setcounter{chapter}{3}
\setcounter{section}{5}
\setcounter{subsection}{0}
\setcounter{subsubsection}{0}
\setcounter{paragraph}{0}
\setcounter{subparagraph}{0}
\setcounter{figure}{4}
\setcounter{table}{1}
\setcounter{@pps}{0}
\setcounter{@ppsavesec}{0}
\setcounter{@ppsaveapp}{0}
\setcounter{parentequation}{0}
\setcounter{Item}{18}
\setcounter{Hfootnote}{10}
\setcounter{bookmark@seq@number}{41}
\setcounter{MYtempeqncnt}{0}
\setcounter{pp@next@reset}{11}
\setcounter{@fnserial}{10}
\setcounter{ALG@line}{0}
\setcounter{ALG@rem}{0}
\setcounter{ALG@nested}{0}
\setcounter{ALG@Lnr}{2}
\setcounter{ALG@blocknr}{10}
\setcounter{ALG@storecount}{0}
\setcounter{ALG@tmpcounter}{0}
\setcounter{float@type}{16}
\setcounter{algorithm}{0}
\setcounter{lstnumber}{1}
\setcounter{ContinuedFloat}{0}
\setcounter{KVtest}{1}
\setcounter{subfigure}{0}
\setcounter{subfigure@save}{2}
\setcounter{lofdepth}{1}
\setcounter{subtable}{0}
\setcounter{subtable@save}{2}
\setcounter{lotdepth}{1}
\setcounter{r@tfl@t}{0}
\setcounter{nlinenum}{0}
\setcounter{tabx@nest}{0}
\setcounter{listtotal}{0}
\setcounter{listcount}{0}
\setcounter{liststart}{0}
\setcounter{liststop}{0}
\setcounter{citecount}{0}
\setcounter{citetotal}{0}
\setcounter{multicitecount}{0}
\setcounter{multicitetotal}{0}
\setcounter{instcount}{214}
\setcounter{maxnames}{1}
\setcounter{minnames}{1}
\setcounter{maxitems}{3}
\setcounter{minitems}{1}
\setcounter{citecounter}{0}
\setcounter{savedcitecounter}{0}
\setcounter{uniquelist}{0}
\setcounter{uniquename}{0}
\setcounter{refsection}{0}
\setcounter{refsegment}{0}
\setcounter{maxextrayear}{0}
\setcounter{maxextraalpha}{0}
\setcounter{abbrvpenalty}{50}
\setcounter{highnamepenalty}{50}
\setcounter{lownamepenalty}{25}
\setcounter{maxparens}{3}
\setcounter{parenlevel}{0}
\setcounter{mincomprange}{10}
\setcounter{maxcomprange}{100000}
\setcounter{mincompwidth}{1}
\setcounter{labelname}{0}
\setcounter{savedlabelname}{0}
\setcounter{author}{0}
\setcounter{savedauthor}{0}
\setcounter{shortauthor}{0}
\setcounter{savedshortauthor}{0}
\setcounter{editor}{0}
\setcounter{savededitor}{0}
\setcounter{editora}{0}
\setcounter{savededitora}{0}
\setcounter{editorb}{0}
\setcounter{savededitorb}{0}
\setcounter{editorc}{0}
\setcounter{savededitorc}{0}
\setcounter{shorteditor}{0}
\setcounter{savedshorteditor}{0}
\setcounter{bookauthor}{0}
\setcounter{savedbookauthor}{0}
\setcounter{translator}{0}
\setcounter{savedtranslator}{0}
\setcounter{annotator}{0}
\setcounter{savedannotator}{0}
\setcounter{commentator}{0}
\setcounter{savedcommentator}{0}
\setcounter{introduction}{0}
\setcounter{savedintroduction}{0}
\setcounter{foreword}{0}
\setcounter{savedforeword}{0}
\setcounter{afterword}{0}
\setcounter{savedafterword}{0}
\setcounter{holder}{0}
\setcounter{savedholder}{0}
\setcounter{namea}{0}
\setcounter{savednamea}{0}
\setcounter{nameb}{0}
\setcounter{savednameb}{0}
\setcounter{namec}{0}
\setcounter{savednamec}{0}
\setcounter{institution}{0}
\setcounter{savedinstitution}{0}
\setcounter{language}{0}
\setcounter{savedlanguage}{0}
\setcounter{location}{0}
\setcounter{savedlocation}{0}
\setcounter{organization}{0}
\setcounter{savedorganization}{0}
\setcounter{origlocation}{0}
\setcounter{savedoriglocation}{0}
\setcounter{origpublisher}{0}
\setcounter{savedorigpublisher}{0}
\setcounter{pageref}{0}
\setcounter{savedpageref}{0}
\setcounter{publisher}{0}
\setcounter{savedpublisher}{0}
\setcounter{lista}{0}
\setcounter{savedlista}{0}
\setcounter{listb}{0}
\setcounter{savedlistb}{0}
\setcounter{listc}{0}
\setcounter{savedlistc}{0}
\setcounter{listd}{0}
\setcounter{savedlistd}{0}
\setcounter{liste}{0}
\setcounter{savedliste}{0}
\setcounter{listf}{0}
\setcounter{savedlistf}{0}
\setcounter{textcitecount}{0}
\setcounter{textcitetotal}{0}
\setcounter{textcitemaxnames}{0}
\setcounter{biburlnumpenalty}{0}
\setcounter{biburlucpenalty}{0}
\setcounter{biburllcpenalty}{0}
\setcounter{smartand}{1}
\setcounter{bbx:relatedcount}{0}
\setcounter{bbx:relatedtotal}{0}
\setcounter{cbx@tempcnta}{0}
\setcounter{cbx@tempcntb}{135}
\setcounter{mtc}{8}
\setcounter{minitocdepth}{2}
\setcounter{ptc}{0}
\setcounter{parttocdepth}{2}
\setcounter{cdefi}{0}
\setcounter{cprop}{0}
\setcounter{dblbotnumber}{2}
\setcounter{section@level}{1}
\setcounter{lstlisting}{0}
\setcounter{minilofdepth}{2}
\setcounter{minilotdepth}{2}
\setcounter{partlofdepth}{2}
\setcounter{partlotdepth}{2}
\setcounter{sectlofdepth}{2}
\setcounter{sectlotdepth}{2}
}
