\relax 
\providecommand\hyper@newdestlabel[2]{}
\FN@pp@footnotehinttrue 
\@writefile{toc}{\contentsline {chapter}{\numberline {1}General Introduction}{3}{chapter.1}}
\@writefile{lof}{\addvspace {10\p@ }}
\@writefile{lot}{\addvspace {10\p@ }}
\@writefile{lof}{\contentsline {xchapter}{General Introduction}{3}{chapter.1}}
\@writefile{lot}{\contentsline {xchapter}{General Introduction}{3}{chapter.1}}
\newlabel{chapter:1}{{1}{3}{General Introduction}{chapter.1}{}}
\@writefile{toc}{\contentsline {section}{\numberline {1.1}Background and Motivations}{3}{section.1.1}}
\@writefile{toc}{\contentsline {subsection}{\numberline {1.1.1}From 4G to 5G: a road towards heterogeneity}{3}{subsection.1.1.1}}
\@writefile{lof}{\contentsline {figure}{\numberline {1.1}{\ignorespaces Radar chart representing some of the foreseen 5G use cases and the relevance of several technical challenges for each of them}}{5}{figure.caption.8}}
\providecommand*\caption@xref[2]{\@setref\relax\@undefined{#1}}
\newlabel{fig:star_diagram_appli_needs}{{1.1}{5}{Radar chart representing some of the foreseen 5G use cases and the relevance of several technical challenges for each of them}{figure.caption.8}{}}
\@writefile{toc}{\contentsline {subsection}{\numberline {1.1.2}Coexistence in heterogeneous networks}{6}{subsection.1.1.2}}
\@writefile{toc}{\contentsline {subsection}{\numberline {1.1.3}Thesis scope}{8}{subsection.1.1.3}}
\@writefile{lof}{\contentsline {figure}{\numberline {1.2}{\ignorespaces Comparison of OFDM and FB-MC in a coexistence scenario}}{9}{figure.caption.9}}
\newlabel{fig:coexistence_example}{{1.2}{9}{Comparison of OFDM and FB-MC in a coexistence scenario}{figure.caption.9}{}}
\@writefile{toc}{\contentsline {section}{\numberline {1.2}Objectives and Contributions}{10}{section.1.2}}
\@writefile{toc}{\contentsline {section}{\numberline {1.3}Thesis outline}{10}{section.1.3}}
\FN@pp@footnote@aux{1}{12}
\FN@pp@footnotehinttrue 
\@setckpt{2-Chapters/1-Chapter/chapter1}{
\setcounter{page}{14}
\setcounter{equation}{0}
\setcounter{enumi}{4}
\setcounter{enumii}{0}
\setcounter{enumiii}{0}
\setcounter{enumiv}{0}
\setcounter{footnote}{0}
\setcounter{mpfootnote}{0}
\setcounter{part}{0}
\setcounter{chapter}{1}
\setcounter{section}{3}
\setcounter{subsection}{0}
\setcounter{subsubsection}{0}
\setcounter{paragraph}{0}
\setcounter{subparagraph}{0}
\setcounter{figure}{2}
\setcounter{table}{0}
\setcounter{@pps}{0}
\setcounter{@ppsavesec}{0}
\setcounter{@ppsaveapp}{0}
\setcounter{parentequation}{0}
\setcounter{Item}{4}
\setcounter{Hfootnote}{1}
\setcounter{bookmark@seq@number}{13}
\setcounter{MYtempeqncnt}{0}
\setcounter{pp@next@reset}{2}
\setcounter{@fnserial}{1}
\setcounter{ALG@line}{0}
\setcounter{ALG@rem}{0}
\setcounter{ALG@nested}{0}
\setcounter{ALG@Lnr}{2}
\setcounter{ALG@blocknr}{10}
\setcounter{ALG@storecount}{0}
\setcounter{ALG@tmpcounter}{0}
\setcounter{float@type}{16}
\setcounter{algorithm}{0}
\setcounter{lstnumber}{1}
\setcounter{ContinuedFloat}{0}
\setcounter{KVtest}{1}
\setcounter{subfigure}{0}
\setcounter{subfigure@save}{0}
\setcounter{lofdepth}{1}
\setcounter{subtable}{0}
\setcounter{subtable@save}{0}
\setcounter{lotdepth}{1}
\setcounter{r@tfl@t}{0}
\setcounter{nlinenum}{0}
\setcounter{tabx@nest}{0}
\setcounter{listtotal}{0}
\setcounter{listcount}{0}
\setcounter{liststart}{0}
\setcounter{liststop}{0}
\setcounter{citecount}{0}
\setcounter{citetotal}{0}
\setcounter{multicitecount}{0}
\setcounter{multicitetotal}{0}
\setcounter{instcount}{25}
\setcounter{maxnames}{1}
\setcounter{minnames}{1}
\setcounter{maxitems}{3}
\setcounter{minitems}{1}
\setcounter{citecounter}{0}
\setcounter{savedcitecounter}{0}
\setcounter{uniquelist}{0}
\setcounter{uniquename}{0}
\setcounter{refsection}{0}
\setcounter{refsegment}{0}
\setcounter{maxextrayear}{0}
\setcounter{maxextraalpha}{0}
\setcounter{abbrvpenalty}{50}
\setcounter{highnamepenalty}{50}
\setcounter{lownamepenalty}{25}
\setcounter{maxparens}{3}
\setcounter{parenlevel}{0}
\setcounter{mincomprange}{10}
\setcounter{maxcomprange}{100000}
\setcounter{mincompwidth}{1}
\setcounter{labelname}{0}
\setcounter{savedlabelname}{0}
\setcounter{author}{0}
\setcounter{savedauthor}{0}
\setcounter{shortauthor}{0}
\setcounter{savedshortauthor}{0}
\setcounter{editor}{0}
\setcounter{savededitor}{0}
\setcounter{editora}{0}
\setcounter{savededitora}{0}
\setcounter{editorb}{0}
\setcounter{savededitorb}{0}
\setcounter{editorc}{0}
\setcounter{savededitorc}{0}
\setcounter{shorteditor}{0}
\setcounter{savedshorteditor}{0}
\setcounter{bookauthor}{0}
\setcounter{savedbookauthor}{0}
\setcounter{translator}{0}
\setcounter{savedtranslator}{0}
\setcounter{annotator}{0}
\setcounter{savedannotator}{0}
\setcounter{commentator}{0}
\setcounter{savedcommentator}{0}
\setcounter{introduction}{0}
\setcounter{savedintroduction}{0}
\setcounter{foreword}{0}
\setcounter{savedforeword}{0}
\setcounter{afterword}{0}
\setcounter{savedafterword}{0}
\setcounter{holder}{0}
\setcounter{savedholder}{0}
\setcounter{namea}{0}
\setcounter{savednamea}{0}
\setcounter{nameb}{0}
\setcounter{savednameb}{0}
\setcounter{namec}{0}
\setcounter{savednamec}{0}
\setcounter{institution}{0}
\setcounter{savedinstitution}{0}
\setcounter{language}{0}
\setcounter{savedlanguage}{0}
\setcounter{location}{0}
\setcounter{savedlocation}{0}
\setcounter{organization}{0}
\setcounter{savedorganization}{0}
\setcounter{origlocation}{0}
\setcounter{savedoriglocation}{0}
\setcounter{origpublisher}{0}
\setcounter{savedorigpublisher}{0}
\setcounter{pageref}{0}
\setcounter{savedpageref}{0}
\setcounter{publisher}{0}
\setcounter{savedpublisher}{0}
\setcounter{lista}{0}
\setcounter{savedlista}{0}
\setcounter{listb}{0}
\setcounter{savedlistb}{0}
\setcounter{listc}{0}
\setcounter{savedlistc}{0}
\setcounter{listd}{0}
\setcounter{savedlistd}{0}
\setcounter{liste}{0}
\setcounter{savedliste}{0}
\setcounter{listf}{0}
\setcounter{savedlistf}{0}
\setcounter{textcitecount}{0}
\setcounter{textcitetotal}{0}
\setcounter{textcitemaxnames}{0}
\setcounter{biburlnumpenalty}{0}
\setcounter{biburlucpenalty}{0}
\setcounter{biburllcpenalty}{0}
\setcounter{smartand}{1}
\setcounter{bbx:relatedcount}{0}
\setcounter{bbx:relatedtotal}{0}
\setcounter{cbx@tempcnta}{0}
\setcounter{cbx@tempcntb}{22}
\setcounter{mtc}{6}
\setcounter{minitocdepth}{2}
\setcounter{ptc}{0}
\setcounter{parttocdepth}{2}
\setcounter{cdefi}{0}
\setcounter{cprop}{0}
\setcounter{dblbotnumber}{2}
\setcounter{section@level}{1}
\setcounter{lstlisting}{0}
\setcounter{minilofdepth}{2}
\setcounter{minilotdepth}{2}
\setcounter{partlofdepth}{2}
\setcounter{partlotdepth}{2}
\setcounter{sectlofdepth}{2}
\setcounter{sectlotdepth}{2}
}
