\relax 
\providecommand\hyper@newdestlabel[2]{}
\FN@pp@footnotehinttrue 
\@writefile{toc}{\contentsline {chapter}{\numberline {6}Asynchronous D2D operation in 5G networks}{105}{chapter.6}}
\@writefile{lof}{\addvspace {10\p@ }}
\@writefile{lot}{\addvspace {10\p@ }}
\@writefile{lof}{\contentsline {xchapter}{Asynchronous D2D operation in 5G networks}{105}{chapter.6}}
\@writefile{lot}{\contentsline {xchapter}{Asynchronous D2D operation in 5G networks}{105}{chapter.6}}
\newlabel{chapter:5}{{6}{105}{Asynchronous D2D operation in 5G networks}{chapter.6}{}}
\@writefile{toc}{\contentsline {section}{\numberline {6.1}Introduction}{105}{section.6.1}}
\newlabel{sec:intro_5}{{6.1}{105}{Introduction}{section.6.1}{}}
\@writefile{toc}{\contentsline {section}{\numberline {6.2}Preliminary mono-cellular analysis}{106}{section.6.2}}
\newlabel{sec:prel_analysis}{{6.2}{106}{Preliminary mono-cellular analysis}{section.6.2}{}}
\@writefile{toc}{\contentsline {subsection}{\numberline {6.2.1}System Model}{106}{subsection.6.2.1}}
\@writefile{lof}{\contentsline {figure}{\numberline {6.1}{\ignorespaces Simplified diagram showing two D2D pairs and one cellular user with both interference channels (dashed lines), and useful channels (solid black lines) outlined.\relax }}{107}{figure.caption.90}}
\newlabel{fig:simple_model}{{6.1}{107}{Simplified diagram showing two D2D pairs and one cellular user with both interference channels (dashed lines), and useful channels (solid black lines) outlined.\relax }{figure.caption.90}{}}
\@writefile{lot}{\contentsline {table}{\numberline {6.1}{\ignorespaces Useful and interference channels for Fig.~\ref  {fig:simple_model}\relax }}{108}{table.caption.91}}
\newlabel{tab:fig1channels}{{6.1}{108}{Useful and interference channels for Fig.~\ref {fig:simple_model}\relax }{table.caption.91}{}}
\@writefile{toc}{\contentsline {subsection}{\numberline {6.2.2}Interference Model and Problem Formulation}{108}{subsection.6.2.2}}
\@writefile{toc}{\contentsline {subsubsection}{Interference Model}{108}{section*.92}}
\@writefile{lof}{\contentsline {figure}{\numberline {6.2}{\ignorespaces Interference tables measuring the value of interference injected between different couples of waveforms according to Chapter \ref  {chapter:3} and \cite {Medjahdi2010a}.\relax }}{109}{figure.caption.93}}
\newlabel{fig:interf_tables}{{6.2}{109}{Interference tables measuring the value of interference injected between different couples of waveforms according to Chapter \ref {chapter:3} and \cite {Medjahdi2010a}.\relax }{figure.caption.93}{}}
\@writefile{toc}{\contentsline {subsubsection}{Optimization Problem Formation}{109}{section*.94}}
\newlabel{omega_1}{{6.2}{109}{Optimization Problem Formation}{equation.6.2.2}{}}
\newlabel{d2dSINR}{{6.3}{110}{Optimization Problem Formation}{equation.6.2.3}{}}
\newlabel{eq:id2d}{{6.5}{110}{Optimization Problem Formation}{equation.6.2.5}{}}
\newlabel{first:main}{{6.6}{110}{Optimization Problem Formation}{equation.6.2.6}{}}
\newlabel{p1:a}{{6.6a}{111}{Optimization Problem Formation}{equation.6.2.6a}{}}
\newlabel{p1:b}{{6.6b}{111}{Optimization Problem Formation}{equation.6.2.6b}{}}
\newlabel{p1:c}{{6.6c}{111}{Optimization Problem Formation}{equation.6.2.6c}{}}
\newlabel{p1:d}{{6.6d}{111}{Optimization Problem Formation}{equation.6.2.6d}{}}
\@writefile{toc}{\contentsline {paragraph}{RB Assignment:}{112}{section*.97}}
\newlabel{I_1}{{6.8}{112}{RB Assignment:}{equation.6.2.8}{}}
\newlabel{first:main2}{{6.9}{112}{RB Assignment:}{equation.6.2.9}{}}
\@writefile{toc}{\contentsline {paragraph}{Power-loading:}{112}{section*.100}}
\newlabel{p2_2}{{6.10}{112}{Power-loading:}{equation.6.2.10}{}}
\@writefile{lof}{\contentsline {figure}{\numberline {6.3}{\ignorespaces Example of clustered scenario consisting of 10 D2D pairs.\relax }}{113}{figure.caption.101}}
\newlabel{fig:example_scenario}{{6.3}{113}{Example of clustered scenario consisting of 10 D2D pairs.\relax }{figure.caption.101}{}}
\@writefile{toc}{\contentsline {subsection}{\numberline {6.2.3}Obtained Results}{113}{subsection.6.2.3}}
\@writefile{lot}{\contentsline {table}{\numberline {6.2}{\ignorespaces Simulation parameters\relax }}{114}{table.caption.102}}
\FN@pp@footnote@aux{11}{114}
\newlabel{tab:sim_params}{{6.2}{114}{Simulation parameters\relax }{table.caption.102}{}}
\@writefile{toc}{\contentsline {paragraph}{Effects of inter-D2D interference for both OFDM/OQAM and CP-OFDM:}{114}{section*.104}}
\newlabel{fig:basic_2}{{6.4a}{115}{Subfigure 6 6.4a}{subfigure.6.4.1}{}}
\newlabel{sub@fig:basic_2}{{(a)}{a}{Subfigure 6 6.4a\relax }{subfigure.6.4.1}{}}
\newlabel{fig:basic_4}{{6.4b}{115}{Subfigure 6 6.4b}{subfigure.6.4.2}{}}
\newlabel{sub@fig:basic_4}{{(b)}{b}{Subfigure 6 6.4b\relax }{subfigure.6.4.2}{}}
\@writefile{lof}{\contentsline {figure}{\numberline {6.4}{\ignorespaces (a) Clustered and (b) non-clustered scenario consisting of 10 D2D pairs.\relax }}{115}{figure.caption.103}}
\@writefile{lof}{\contentsline {subfigure}{\numberline{(a)}{\ignorespaces {}}}{115}{subfigure.4.1}}
\@writefile{lof}{\contentsline {subfigure}{\numberline{(b)}{\ignorespaces {}}}{115}{subfigure.4.2}}
\@writefile{lof}{\contentsline {figure}{\numberline {6.5}{\ignorespaces Average rate per D2D pair for different numbers of D2D pairs.\relax }}{116}{figure.caption.105}}
\newlabel{fig:basic_5}{{6.5}{116}{Average rate per D2D pair for different numbers of D2D pairs.\relax }{figure.caption.105}{}}
\@writefile{lof}{\contentsline {figure}{\numberline {6.6}{\ignorespaces Average rate per D2D pair versus number of D2D users in a cluster of fixed radius of 70m.\relax }}{117}{figure.caption.107}}
\newlabel{fig:cluster_density}{{6.6}{117}{Average rate per D2D pair versus number of D2D users in a cluster of fixed radius of 70m.\relax }{figure.caption.107}{}}
\@writefile{toc}{\contentsline {paragraph}{OFDM/OQAM and CP-OFDM performance in varying scenario set-ups:}{117}{section*.106}}
\@writefile{lof}{\contentsline {figure}{\numberline {6.7}{\ignorespaces Average rate per D2D pair versus cluster radius for a fixed number of D2D pairs.\relax }}{118}{figure.caption.108}}
\newlabel{fig:cluster_radius}{{6.7}{118}{Average rate per D2D pair versus cluster radius for a fixed number of D2D pairs.\relax }{figure.caption.108}{}}
\@writefile{lof}{\contentsline {figure}{\numberline {6.8}{\ignorespaces Average rate per D2D pair versus distance from cluster centre to BS.\relax }}{119}{figure.caption.109}}
\newlabel{fig:cluster_distance}{{6.8}{119}{Average rate per D2D pair versus distance from cluster centre to BS.\relax }{figure.caption.109}{}}
\@writefile{toc}{\contentsline {subsection}{\numberline {6.2.4}Summary of the study}{119}{subsection.6.2.4}}
\@writefile{toc}{\contentsline {section}{\numberline {6.3}Network level study}{120}{section.6.3}}
\newlabel{sec:network_analysis}{{6.3}{120}{Network level study}{section.6.3}{}}
\@writefile{toc}{\contentsline {subsection}{\numberline {6.3.1}System Model}{120}{subsection.6.3.1}}
\newlabel{section:system_model}{{6.3.1}{120}{System Model}{subsection.6.3.1}{}}
\@writefile{toc}{\contentsline {subsubsection}{Network Set-up}{120}{section*.110}}
\@writefile{lof}{\contentsline {figure}{\numberline {6.9}{\ignorespaces Frequency reuse scheme}}{121}{figure.caption.111}}
\newlabel{fig:ffr_allocation}{{6.9}{121}{Frequency reuse scheme}{figure.caption.111}{}}
\@writefile{toc}{\contentsline {subsubsection}{Resource Allocation}{122}{section*.112}}
\newlabel{eq:pc}{{6.13}{122}{Resource Allocation}{equation.6.3.13}{}}
\@writefile{toc}{\contentsline {subsubsection}{Channel Modelling}{123}{section*.113}}
\@writefile{toc}{\contentsline {subsubsection}{Performance Measures}{123}{section*.114}}
\@writefile{toc}{\contentsline {paragraph}{SINR:}{123}{section*.115}}
\newlabel{eqn:cue_sinr}{{6.14}{123}{SINR:}{equation.6.3.14}{}}
\newlabel{eq:Inc}{{6.15}{124}{SINR:}{equation.6.3.15}{}}
\newlabel{eq:Ind}{{6.16}{124}{SINR:}{equation.6.3.16}{}}
\newlabel{eqn:due_sinr}{{6.17}{124}{SINR:}{equation.6.3.17}{}}
\@writefile{toc}{\contentsline {paragraph}{Achieved Rate:}{124}{section*.116}}
\newlabel{eqn:rate}{{6.18}{124}{Achieved Rate:}{equation.6.3.18}{}}
\@writefile{lot}{\contentsline {table}{\numberline {6.3}{\ignorespaces Bandwidth Efficiency of Waveforms\relax }}{125}{table.caption.117}}
\newlabel{tab:speceff}{{6.3}{125}{Bandwidth Efficiency of Waveforms\relax }{table.caption.117}{}}
\@writefile{toc}{\contentsline {subsubsection}{Interference Model}{125}{section*.119}}
\@writefile{lof}{\contentsline {figure}{\numberline {6.10}{\ignorespaces Representative examples of interference tables}}{126}{figure.caption.118}}
\newlabel{fig:interference_tables}{{6.10}{126}{Representative examples of interference tables}{figure.caption.118}{}}
\@writefile{lof}{\contentsline {figure}{\numberline {6.11}{\ignorespaces Example scenario consisting of 19 cells}}{128}{figure.caption.121}}
\newlabel{fig:example_scenario}{{6.11}{128}{Example scenario consisting of 19 cells}{figure.caption.121}{}}
\@writefile{toc}{\contentsline {subsection}{\numberline {6.3.2}Evaluation of System Performance}{128}{subsection.6.3.2}}
\newlabel{section:sim_results}{{6.3.2}{128}{Evaluation of System Performance}{subsection.6.3.2}{}}
\@writefile{toc}{\contentsline {subsubsection}{Scenario Under Investigation}{128}{section*.120}}
\newlabel{subsection:scenario}{{6.3.2}{128}{Scenario Under Investigation}{section*.120}{}}
\@writefile{lot}{\contentsline {table}{\numberline {6.4}{\ignorespaces Simulation parameters\relax }}{129}{table.caption.122}}
\FN@pp@footnote@aux{12}{129}
\newlabel{tab:sim_params2}{{6.4}{129}{Simulation parameters\relax }{table.caption.122}{}}
\FN@pp@footnote@aux{13}{129}
\@writefile{toc}{\contentsline {subsubsection}{System Performance}{130}{section*.123}}
\@writefile{toc}{\contentsline {paragraph}{DUE SINR Performance:}{130}{figure.caption.125}}
\@writefile{lof}{\contentsline {figure}{\numberline {6.12}{\ignorespaces The box plots of DUE SINR show that a large performance increase can be obtained by choosing an appropriate alternative waveform.\relax }}{131}{figure.caption.125}}
\newlabel{fig:basecase_d2d_sinr}{{6.12}{131}{The box plots of DUE SINR show that a large performance increase can be obtained by choosing an appropriate alternative waveform.\relax }{figure.caption.125}{}}
\@writefile{toc}{\contentsline {paragraph}{DUE Rate Performance:}{131}{figure.caption.127}}
\@writefile{lof}{\contentsline {figure}{\numberline {6.13}{\ignorespaces Rate performance of DUEs taking into account bandwidth efficiency.\relax }}{132}{figure.caption.127}}
\newlabel{fig:basecase_d2d_rate}{{6.13}{132}{Rate performance of DUEs taking into account bandwidth efficiency.\relax }{figure.caption.127}{}}
\@writefile{toc}{\contentsline {paragraph}{CUE Performance:}{132}{figure.caption.129}}
\@writefile{lof}{\contentsline {figure}{\numberline {6.14}{\ignorespaces The DUE to CUE interference is similar to the value of noise per resource block for coexistence cases.\relax }}{133}{figure.caption.129}}
\newlabel{fig:basecase_reduction_in_cu_sinr}{{6.14}{133}{The DUE to CUE interference is similar to the value of noise per resource block for coexistence cases.\relax }{figure.caption.129}{}}
\@writefile{lof}{\contentsline {figure}{\numberline {6.15}{\ignorespaces Increasing DUE transmit power results in an increase in DUE SINR at the cost of increased interference to CUEs.\relax }}{134}{figure.caption.131}}
\newlabel{fig:tx_pow_trend}{{6.15}{134}{Increasing DUE transmit power results in an increase in DUE SINR at the cost of increased interference to CUEs.\relax }{figure.caption.131}{}}
\@writefile{toc}{\contentsline {subsubsection}{DUE Transmit Power}{135}{section*.130}}
\@writefile{lof}{\contentsline {figure}{\numberline {6.16}{\ignorespaces As the cell radius increases, DUE SINR increases and reduction in CUE SINR decreases.\relax }}{136}{figure.caption.133}}
\newlabel{fig:cell_radius_trend}{{6.16}{136}{As the cell radius increases, DUE SINR increases and reduction in CUE SINR decreases.\relax }{figure.caption.133}{}}
\@writefile{toc}{\contentsline {subsubsection}{Cell Radius}{136}{section*.132}}
\@writefile{lof}{\contentsline {figure}{\numberline {6.17}{\ignorespaces Employing an appropriate alternative waveform for DUEs yields the greatest benefit in small clusters in which inter-DUE leakage interference is most significant.\relax }}{138}{figure.caption.135}}
\newlabel{fig:cluster_radius_trend}{{6.17}{138}{Employing an appropriate alternative waveform for DUEs yields the greatest benefit in small clusters in which inter-DUE leakage interference is most significant.\relax }{figure.caption.135}{}}
\@writefile{toc}{\contentsline {subsubsection}{Cluster Radius}{138}{section*.134}}
\@writefile{toc}{\contentsline {subsubsection}{Amount of Time and Frequency Misalignment between Devices}{139}{section*.136}}
\@writefile{toc}{\contentsline {paragraph}{Maximum Possible Timing Offset:}{139}{section*.137}}
\@writefile{lof}{\contentsline {figure}{\numberline {6.18}{\ignorespaces DUE SINR performance as the maximum permitted timing offset is varied.\relax }}{140}{figure.caption.138}}
\newlabel{fig:max_to}{{6.18}{140}{DUE SINR performance as the maximum permitted timing offset is varied.\relax }{figure.caption.138}{}}
\@writefile{toc}{\contentsline {paragraph}{Maximum Possible CFO:}{141}{section*.139}}
\@writefile{lof}{\contentsline {figure}{\numberline {6.19}{\ignorespaces DUE SINR performance as the maximum CFO is varied.\relax }}{142}{figure.caption.140}}
\newlabel{fig:cfo_trend}{{6.19}{142}{DUE SINR performance as the maximum CFO is varied.\relax }{figure.caption.140}{}}
\@writefile{toc}{\contentsline {subsection}{\numberline {6.3.3}Concluding Remarks}{143}{subsection.6.3.3}}
\newlabel{section:conclusion}{{6.3.3}{143}{Concluding Remarks}{subsection.6.3.3}{}}
\@writefile{toc}{\contentsline {section}{\numberline {6.4}Conclusion}{144}{section.6.4}}
\newlabel{sec:ccl_5}{{6.4}{144}{Conclusion}{section.6.4}{}}
\FN@pp@footnotehinttrue 
\@setckpt{2-Chapters/5-Chapter/chapter5}{
\setcounter{page}{145}
\setcounter{equation}{18}
\setcounter{enumi}{2}
\setcounter{enumii}{0}
\setcounter{enumiii}{0}
\setcounter{enumiv}{0}
\setcounter{footnote}{0}
\setcounter{mpfootnote}{0}
\setcounter{part}{0}
\setcounter{chapter}{6}
\setcounter{section}{4}
\setcounter{subsection}{0}
\setcounter{subsubsection}{0}
\setcounter{paragraph}{0}
\setcounter{subparagraph}{0}
\setcounter{figure}{19}
\setcounter{table}{4}
\setcounter{@pps}{0}
\setcounter{@ppsavesec}{0}
\setcounter{@ppsaveapp}{0}
\setcounter{parentequation}{9}
\setcounter{Item}{45}
\setcounter{Hfootnote}{13}
\setcounter{bookmark@seq@number}{84}
\setcounter{MYtempeqncnt}{0}
\setcounter{pp@next@reset}{14}
\setcounter{@fnserial}{13}
\setcounter{ALG@line}{0}
\setcounter{ALG@rem}{0}
\setcounter{ALG@nested}{0}
\setcounter{ALG@Lnr}{2}
\setcounter{ALG@blocknr}{10}
\setcounter{ALG@storecount}{0}
\setcounter{ALG@tmpcounter}{0}
\setcounter{float@type}{16}
\setcounter{algorithm}{0}
\setcounter{lstnumber}{1}
\setcounter{ContinuedFloat}{0}
\setcounter{KVtest}{1}
\setcounter{subfigure}{0}
\setcounter{subfigure@save}{2}
\setcounter{lofdepth}{1}
\setcounter{subtable}{0}
\setcounter{subtable@save}{2}
\setcounter{lotdepth}{1}
\setcounter{r@tfl@t}{0}
\setcounter{nlinenum}{0}
\setcounter{tabx@nest}{0}
\setcounter{listtotal}{0}
\setcounter{listcount}{0}
\setcounter{liststart}{0}
\setcounter{liststop}{0}
\setcounter{citecount}{0}
\setcounter{citetotal}{0}
\setcounter{multicitecount}{0}
\setcounter{multicitetotal}{0}
\setcounter{instcount}{261}
\setcounter{maxnames}{1}
\setcounter{minnames}{1}
\setcounter{maxitems}{3}
\setcounter{minitems}{1}
\setcounter{citecounter}{0}
\setcounter{savedcitecounter}{0}
\setcounter{uniquelist}{0}
\setcounter{uniquename}{0}
\setcounter{refsection}{0}
\setcounter{refsegment}{0}
\setcounter{maxextrayear}{0}
\setcounter{maxextraalpha}{0}
\setcounter{abbrvpenalty}{50}
\setcounter{highnamepenalty}{50}
\setcounter{lownamepenalty}{25}
\setcounter{maxparens}{3}
\setcounter{parenlevel}{0}
\setcounter{mincomprange}{10}
\setcounter{maxcomprange}{100000}
\setcounter{mincompwidth}{1}
\setcounter{labelname}{0}
\setcounter{savedlabelname}{0}
\setcounter{author}{0}
\setcounter{savedauthor}{0}
\setcounter{shortauthor}{0}
\setcounter{savedshortauthor}{0}
\setcounter{editor}{0}
\setcounter{savededitor}{0}
\setcounter{editora}{0}
\setcounter{savededitora}{0}
\setcounter{editorb}{0}
\setcounter{savededitorb}{0}
\setcounter{editorc}{0}
\setcounter{savededitorc}{0}
\setcounter{shorteditor}{0}
\setcounter{savedshorteditor}{0}
\setcounter{bookauthor}{0}
\setcounter{savedbookauthor}{0}
\setcounter{translator}{0}
\setcounter{savedtranslator}{0}
\setcounter{annotator}{0}
\setcounter{savedannotator}{0}
\setcounter{commentator}{0}
\setcounter{savedcommentator}{0}
\setcounter{introduction}{0}
\setcounter{savedintroduction}{0}
\setcounter{foreword}{0}
\setcounter{savedforeword}{0}
\setcounter{afterword}{0}
\setcounter{savedafterword}{0}
\setcounter{holder}{0}
\setcounter{savedholder}{0}
\setcounter{namea}{0}
\setcounter{savednamea}{0}
\setcounter{nameb}{0}
\setcounter{savednameb}{0}
\setcounter{namec}{0}
\setcounter{savednamec}{0}
\setcounter{institution}{0}
\setcounter{savedinstitution}{0}
\setcounter{language}{0}
\setcounter{savedlanguage}{0}
\setcounter{location}{0}
\setcounter{savedlocation}{0}
\setcounter{organization}{0}
\setcounter{savedorganization}{0}
\setcounter{origlocation}{0}
\setcounter{savedoriglocation}{0}
\setcounter{origpublisher}{0}
\setcounter{savedorigpublisher}{0}
\setcounter{pageref}{0}
\setcounter{savedpageref}{0}
\setcounter{publisher}{0}
\setcounter{savedpublisher}{0}
\setcounter{lista}{0}
\setcounter{savedlista}{0}
\setcounter{listb}{0}
\setcounter{savedlistb}{0}
\setcounter{listc}{0}
\setcounter{savedlistc}{0}
\setcounter{listd}{0}
\setcounter{savedlistd}{0}
\setcounter{liste}{0}
\setcounter{savedliste}{0}
\setcounter{listf}{0}
\setcounter{savedlistf}{0}
\setcounter{textcitecount}{0}
\setcounter{textcitetotal}{0}
\setcounter{textcitemaxnames}{0}
\setcounter{biburlnumpenalty}{0}
\setcounter{biburlucpenalty}{0}
\setcounter{biburllcpenalty}{0}
\setcounter{smartand}{1}
\setcounter{bbx:relatedcount}{0}
\setcounter{bbx:relatedtotal}{0}
\setcounter{cbx@tempcnta}{0}
\setcounter{cbx@tempcntb}{113}
\setcounter{mtc}{11}
\setcounter{minitocdepth}{2}
\setcounter{ptc}{0}
\setcounter{parttocdepth}{2}
\setcounter{cdefi}{0}
\setcounter{cprop}{0}
\setcounter{dblbotnumber}{2}
\setcounter{section@level}{1}
\setcounter{lstlisting}{0}
\setcounter{minilofdepth}{2}
\setcounter{minilotdepth}{2}
\setcounter{partlofdepth}{2}
\setcounter{partlotdepth}{2}
\setcounter{sectlofdepth}{2}
\setcounter{sectlotdepth}{2}
}
