\relax 
\providecommand\hyper@newdestlabel[2]{}
\FN@pp@footnotehinttrue 
\@writefile{toc}{\contentsline {chapter}{\numberline {4}Analysis of interference between CP-OFDM and FB-MC waveforms}{65}{chapter.4}}
\@writefile{lof}{\addvspace {10\p@ }}
\@writefile{lot}{\addvspace {10\p@ }}
\@writefile{lof}{\contentsline {xchapter}{Analysis of interference between CP-OFDM and FB-MC waveforms}{65}{chapter.4}}
\@writefile{lot}{\contentsline {xchapter}{Analysis of interference between CP-OFDM and FB-MC waveforms}{65}{chapter.4}}
\newlabel{chapter:3}{{4}{65}{Analysis of interference between CP-OFDM and FB-MC waveforms}{chapter.4}{}}
\@writefile{toc}{\contentsline {section}{\numberline {4.1}Introduction}{66}{section.4.1}}
\newlabel{sec:intro}{{4.1}{66}{Introduction}{section.4.1}{}}
\@writefile{toc}{\contentsline {section}{\numberline {4.2}System model}{66}{section.4.2}}
\newlabel{sec:coexistence}{{4.2}{66}{System model}{section.4.2}{}}
\newlabel{sec:sys_model}{{4.2}{66}{System model}{figure.caption.67}{}}
\@writefile{toc}{\contentsline {subsection}{\numberline {4.2.1}Coexistence setup}{66}{subsection.4.2.1}}
\@writefile{lof}{\contentsline {figure}{\numberline {4.1}{\ignorespaces Coexistence system model}}{67}{figure.caption.67}}
\newlabel{fig:sys_model}{{4.1}{67}{Coexistence system model}{figure.caption.67}{}}
\newlabel{eq:sum_in_channel}{{4.1}{68}{Coexistence setup}{equation.4.2.1}{}}
\@writefile{toc}{\contentsline {subsection}{\numberline {4.2.2}Generic multicarrier waveform mathematical model}{68}{subsection.4.2.2}}
\newlabel{sec:generic_mc_model}{{4.2.2}{68}{Generic multicarrier waveform mathematical model}{subsection.4.2.2}{}}
\newlabel{eq:signal_sum_subcarriers}{{4.2}{68}{Generic multicarrier waveform mathematical model}{equation.4.2.2}{}}
\newlabel{eq:flat_chan}{{4.3}{68}{Generic multicarrier waveform mathematical model}{equation.4.2.3}{}}
\newlabel{eq:general_demod}{{4.4}{68}{Generic multicarrier waveform mathematical model}{equation.4.2.4}{}}
\@writefile{toc}{\contentsline {section}{\numberline {4.3}EVM-based measurement of interference}{70}{section.4.3}}
\newlabel{sec:interf}{{4.3}{70}{EVM-based measurement of interference}{section.4.3}{}}
\@writefile{toc}{\contentsline {subsection}{\numberline {4.3.1}Why we need a new model}{70}{subsection.4.3.1}}
\@writefile{lof}{\contentsline {figure}{\numberline {4.2}{\ignorespaces EVM-based measurement of interference}}{71}{figure.caption.68}}
\newlabel{fig:EVM_principle}{{4.2}{71}{EVM-based measurement of interference}{figure.caption.68}{}}
\@writefile{toc}{\contentsline {subsection}{\numberline {4.3.2}Principle of the EVM-based measure of interference}{71}{subsection.4.3.2}}
\newlabel{sec:EVM_principle}{{4.3.2}{71}{Principle of the EVM-based measure of interference}{subsection.4.3.2}{}}
\newlabel{eq:eq14}{{4.8}{72}{Principle of the EVM-based measure of interference}{equation.4.3.8}{}}
\newlabel{eq:eq15}{{4.9}{72}{Principle of the EVM-based measure of interference}{equation.4.3.9}{}}
\newlabel{eq:tau}{{4.10}{72}{Principle of the EVM-based measure of interference}{equation.4.3.10}{}}
\newlabel{eq:nu}{{4.12}{72}{Principle of the EVM-based measure of interference}{equation.4.3.12}{}}
\newlabel{eq:eq21}{{4.15}{72}{Principle of the EVM-based measure of interference}{equation.4.3.15}{}}
\@writefile{lof}{\contentsline {figure}{\numberline {4.3}{\ignorespaces Interference caused onto a CP-OFDM based incumbent system by a secondary system based on multiple waveforms}}{73}{figure.caption.69}}
\newlabel{fig:comp_PSD_EVM}{{4.3}{73}{Interference caused onto a CP-OFDM based incumbent system by a secondary system based on multiple waveforms}{figure.caption.69}{}}
\newlabel{eq:eq22}{{4.16}{73}{Principle of the EVM-based measure of interference}{equation.4.3.16}{}}
\@writefile{toc}{\contentsline {subsection}{\numberline {4.3.3}Simulation setup and obtained results}{73}{subsection.4.3.3}}
\@writefile{lof}{\contentsline {figure}{\numberline {4.4}{\ignorespaces Key phenomenon explaining the difference between the EVM-based measurement of interference and the predictions of the PSD-based model}}{75}{figure.caption.70}}
\newlabel{fig:physical_explanation}{{4.4}{75}{Key phenomenon explaining the difference between the EVM-based measurement of interference and the predictions of the PSD-based model}{figure.caption.70}{}}
\@writefile{lof}{\contentsline {figure}{\numberline {4.5}{\ignorespaces Time axis view of the interference caused by an OFDM/OQAM transmission on CP-OFDM receiving windows $n_\textbf  {i} = 0$ and $n_\textbf  {i} = 1$.\relax }}{75}{figure.caption.71}}
\newlabel{fig:interfering_symbols}{{4.5}{75}{Time axis view of the interference caused by an OFDM/OQAM transmission on CP-OFDM receiving windows $n_\textbf {i} = 0$ and $n_\textbf {i} = 1$.\relax }{figure.caption.71}{}}
\@writefile{toc}{\contentsline {section}{\numberline {4.4}Analytical aspects}{75}{section.4.4}}
\newlabel{sec:analysis}{{4.4}{75}{Analytical aspects}{section.4.4}{}}
\@writefile{toc}{\contentsline {subsection}{\numberline {4.4.1}Statistics of interference signal}{75}{subsection.4.4.1}}
\@writefile{lof}{\contentsline {figure}{\numberline {4.6}{\ignorespaces Representation of the interference signal for the considered parameters}}{77}{figure.caption.72}}
\newlabel{fig:gaussianity}{{4.6}{77}{Representation of the interference signal for the considered parameters}{figure.caption.72}{}}
\@writefile{lof}{\contentsline {subfigure}{\numberline{(a)}{\ignorespaces {4-QAM}}}{77}{subfigure.6.1}}
\@writefile{lof}{\contentsline {subfigure}{\numberline{(b)}{\ignorespaces {16-QAM}}}{77}{subfigure.6.2}}
\@writefile{lof}{\contentsline {subfigure}{\numberline{(c)}{\ignorespaces {64-QAM}}}{77}{subfigure.6.3}}
\@writefile{lof}{\contentsline {figure}{\numberline {4.7}{\ignorespaces BER of the incumbent system for different constellation orders}}{78}{figure.caption.73}}
\newlabel{fig:BER_stat}{{4.7}{78}{BER of the incumbent system for different constellation orders}{figure.caption.73}{}}
\@writefile{toc}{\contentsline {subsection}{\numberline {4.4.2}Closed-form expression of interference power}{78}{subsection.4.4.2}}
\newlabel{eq:A_pi_t_g}{{4.19}{79}{Closed-form expression of interference power}{equation.4.4.19}{}}
\newlabel{eq:eq24}{{4.20}{79}{Closed-form expression of interference power}{equation.4.4.20}{}}
\newlabel{I_OFDM}{{4.8a}{80}{Subfigure 4 4.8a}{subfigure.4.8.1}{}}
\newlabel{sub@I_OFDM}{{(a)}{a}{Subfigure 4 4.8a\relax }{subfigure.4.8.1}{}}
\newlabel{I_FMT}{{4.8b}{80}{Subfigure 4 4.8b}{subfigure.4.8.2}{}}
\newlabel{sub@I_FMT}{{(b)}{b}{Subfigure 4 4.8b\relax }{subfigure.4.8.2}{}}
\newlabel{I_OQAM}{{4.8c}{80}{Subfigure 4 4.8c}{subfigure.4.8.3}{}}
\newlabel{sub@I_OQAM}{{(c)}{c}{Subfigure 4 4.8c\relax }{subfigure.4.8.3}{}}
\newlabel{I_Lapped}{{4.8d}{80}{Subfigure 4 4.8d}{subfigure.4.8.4}{}}
\newlabel{sub@I_Lapped}{{(d)}{d}{Subfigure 4 4.8d\relax }{subfigure.4.8.4}{}}
\newlabel{I_GFDM}{{4.8e}{80}{Subfigure 4 4.8e}{subfigure.4.8.5}{}}
\newlabel{sub@I_GFDM}{{(e)}{e}{Subfigure 4 4.8e\relax }{subfigure.4.8.5}{}}
\newlabel{I_GFDM}{{4.8f}{80}{Subfigure 4 4.8f}{subfigure.4.8.6}{}}
\newlabel{sub@I_GFDM}{{(f)}{f}{Subfigure 4 4.8f\relax }{subfigure.4.8.6}{}}
\@writefile{lof}{\contentsline {figure}{\numberline {4.8}{\ignorespaces Interference in dB caused by an active subcarrier 0 on 20 neighboring CP-OFDM subcarriers of the incumbent in function of $\delta _\text  {t}$ for different waveforms.}}{80}{figure.caption.74}}
\newlabel{fig:IperSub}{{4.8}{80}{Interference in dB caused by an active subcarrier 0 on 20 neighboring CP-OFDM subcarriers of the incumbent in function of $\delta _\text {t}$ for different waveforms}{figure.caption.74}{}}
\@writefile{lof}{\contentsline {subfigure}{\numberline{(a)}{\ignorespaces {CP-OFDM}}}{80}{subfigure.8.1}}
\@writefile{lof}{\contentsline {subfigure}{\numberline{(b)}{\ignorespaces {FMT}}}{80}{subfigure.8.2}}
\@writefile{lof}{\contentsline {subfigure}{\numberline{(c)}{\ignorespaces {OFDM/OQAM}}}{80}{subfigure.8.3}}
\@writefile{lof}{\contentsline {subfigure}{\numberline{(d)}{\ignorespaces {FBMC-PAM}}}{80}{subfigure.8.4}}
\@writefile{lof}{\contentsline {subfigure}{\numberline{(e)}{\ignorespaces {GFDM}}}{80}{subfigure.8.5}}
\@writefile{lof}{\contentsline {subfigure}{\numberline{(f)}{\ignorespaces {COQAM}}}{80}{subfigure.8.6}}
\newlabel{eq:eq25}{{4.22}{80}{Closed-form expression of interference power}{equation.4.4.22}{}}
\@writefile{lof}{\contentsline {figure}{\numberline {4.9}{\ignorespaces Comparison between simulated values of average interference based on EVM (crosses) and analytical approximation of \textup  {\hbox {\mathsurround \z@ \normalfont  (\ignorespaces \ref  {eq:eq25}\unskip \@@italiccorr )}} (solid line) for a) OFDM/OQAM, b) FMT, c) GFDM and d) COQAM.\relax }}{81}{figure.caption.75}}
\newlabel{fig:comp_theo}{{4.9}{81}{Comparison between simulated values of average interference based on EVM (crosses) and analytical approximation of \eqref {eq:eq25} (solid line) for a) OFDM/OQAM, b) FMT, c) GFDM and d) COQAM.\relax }{figure.caption.75}{}}
\@writefile{toc}{\contentsline {subsection}{\numberline {4.4.3}Extension to multipath channels}{82}{subsection.4.4.3}}
\newlabel{eq:28}{{4.23}{82}{Extension to multipath channels}{equation.4.4.23}{}}
\newlabel{eq:eq30}{{4.25}{82}{Extension to multipath channels}{equation.4.4.25}{}}
\@writefile{toc}{\contentsline {subsubsection}{Zero Forcing (ZF) equalization}{82}{section*.76}}
\newlabel{eq:33}{{4.32}{83}{Zero Forcing (ZF) equalization}{equation.4.4.32}{}}
\newlabel{eq:35}{{4.33}{83}{Zero Forcing (ZF) equalization}{equation.4.4.33}{}}
\newlabel{eq:eq37}{{4.34}{84}{Zero Forcing (ZF) equalization}{equation.4.4.34}{}}
\@writefile{toc}{\contentsline {subsubsection}{Minimum Mean Square Error (MMSE) equalization}{84}{section*.77}}
\newlabel{eq:eq38}{{4.35}{84}{Minimum Mean Square Error (MMSE) equalization}{equation.4.4.35}{}}
\@writefile{toc}{\contentsline {subsection}{\numberline {4.4.4}Case study}{84}{subsection.4.4.4}}
\@writefile{lof}{\contentsline {figure}{\numberline {4.10}{\ignorespaces Average sum power of noise and interference in dB on each subcarrier $m_I$ of the incumbent CP-OFDM system.}}{85}{figure.caption.78}}
\newlabel{fig:P_n+i}{{4.10}{85}{Average sum power of noise and interference in dB on each subcarrier $m_I$ of the incumbent CP-OFDM system}{figure.caption.78}{}}
\@writefile{lof}{\contentsline {subfigure}{\numberline{(a)}{\ignorespaces {}}}{85}{subfigure.10.2}}
\@writefile{lof}{\contentsline {subfigure}{\numberline{(b)}{\ignorespaces {}}}{85}{subfigure.10.3}}
\newlabel{eq:40}{{4.36}{85}{Case study}{equation.4.4.36}{}}
\newlabel{eq:41}{{4.37}{85}{Case study}{equation.4.4.37}{}}
\@writefile{lof}{\contentsline {figure}{\numberline {4.11}{\ignorespaces Experimentation setup}}{86}{figure.caption.79}}
\newlabel{fig:experiment_layout}{{4.11}{86}{Experimentation setup}{figure.caption.79}{}}
\@writefile{toc}{\contentsline {section}{\numberline {4.5}Experimental Validation}{86}{section.4.5}}
\newlabel{sec:experiment}{{4.5}{86}{Experimental Validation}{section.4.5}{}}
\@writefile{toc}{\contentsline {subsection}{\numberline {4.5.1}Experimental setup}{86}{subsection.4.5.1}}
\@writefile{toc}{\contentsline {subsection}{\numberline {4.5.2}Developed GUI, obtained results and discussion}{87}{subsection.4.5.2}}
\@writefile{lof}{\contentsline {figure}{\numberline {4.12}{\ignorespaces Comparison of the PSD of tested waveforms as seen on a spectrum analyzer.}}{88}{figure.caption.80}}
\newlabel{fig:spec_analyzer}{{4.12}{88}{Comparison of the PSD of tested waveforms as seen on a spectrum analyzer}{figure.caption.80}{}}
\@writefile{lof}{\contentsline {figure}{\numberline {4.13}{\ignorespaces Developed GUI}}{89}{figure.caption.81}}
\newlabel{fig:experiment}{{4.13}{89}{Developed GUI}{figure.caption.81}{}}
\@writefile{lof}{\contentsline {figure}{\numberline {4.14}{\ignorespaces EVM on each subcarrier of the CP-OFDM incumbent receiver when a secondary user is transmitting on subcarriers $0$ to $35$ with different waveforms.}}{90}{figure.caption.82}}
\newlabel{fig:fOFDM}{{4.14}{90}{EVM on each subcarrier of the CP-OFDM incumbent receiver when a secondary user is transmitting on subcarriers $0$ to $35$ with different waveforms}{figure.caption.82}{}}
\@writefile{toc}{\contentsline {section}{\numberline {4.6}Extension of the EVM-approach to subband-filtered waveforms}{90}{section.4.6}}
\newlabel{sec:application_to_sb_waveforms}{{4.6}{90}{Extension of the EVM-approach to subband-filtered waveforms}{section.4.6}{}}
\@writefile{toc}{\contentsline {section}{\numberline {4.7}Conclusion}{91}{section.4.7}}
\newlabel{sec:ccl}{{4.7}{92}{Conclusion}{section.4.7}{}}
\FN@pp@footnotehinttrue 
\@setckpt{2-Chapters/3-Chapter/chapter3}{
\setcounter{page}{93}
\setcounter{equation}{37}
\setcounter{enumi}{4}
\setcounter{enumii}{0}
\setcounter{enumiii}{0}
\setcounter{enumiv}{0}
\setcounter{footnote}{0}
\setcounter{mpfootnote}{0}
\setcounter{part}{0}
\setcounter{chapter}{4}
\setcounter{section}{7}
\setcounter{subsection}{0}
\setcounter{subsubsection}{0}
\setcounter{paragraph}{0}
\setcounter{subparagraph}{0}
\setcounter{figure}{14}
\setcounter{table}{0}
\setcounter{@pps}{0}
\setcounter{@ppsavesec}{0}
\setcounter{@ppsaveapp}{0}
\setcounter{parentequation}{0}
\setcounter{Item}{28}
\setcounter{Hfootnote}{10}
\setcounter{bookmark@seq@number}{60}
\setcounter{MYtempeqncnt}{0}
\setcounter{pp@next@reset}{11}
\setcounter{@fnserial}{10}
\setcounter{ALG@line}{0}
\setcounter{ALG@rem}{0}
\setcounter{ALG@nested}{0}
\setcounter{ALG@Lnr}{2}
\setcounter{ALG@blocknr}{10}
\setcounter{ALG@storecount}{0}
\setcounter{ALG@tmpcounter}{0}
\setcounter{float@type}{16}
\setcounter{algorithm}{0}
\setcounter{lstnumber}{1}
\setcounter{ContinuedFloat}{0}
\setcounter{KVtest}{1}
\setcounter{subfigure}{0}
\setcounter{subfigure@save}{3}
\setcounter{lofdepth}{1}
\setcounter{subtable}{0}
\setcounter{subtable@save}{2}
\setcounter{lotdepth}{1}
\setcounter{r@tfl@t}{0}
\setcounter{nlinenum}{0}
\setcounter{tabx@nest}{0}
\setcounter{listtotal}{0}
\setcounter{listcount}{0}
\setcounter{liststart}{0}
\setcounter{liststop}{0}
\setcounter{citecount}{0}
\setcounter{citetotal}{0}
\setcounter{multicitecount}{0}
\setcounter{multicitetotal}{0}
\setcounter{instcount}{227}
\setcounter{maxnames}{1}
\setcounter{minnames}{1}
\setcounter{maxitems}{3}
\setcounter{minitems}{1}
\setcounter{citecounter}{0}
\setcounter{savedcitecounter}{0}
\setcounter{uniquelist}{0}
\setcounter{uniquename}{0}
\setcounter{refsection}{0}
\setcounter{refsegment}{0}
\setcounter{maxextrayear}{0}
\setcounter{maxextraalpha}{0}
\setcounter{abbrvpenalty}{50}
\setcounter{highnamepenalty}{50}
\setcounter{lownamepenalty}{25}
\setcounter{maxparens}{3}
\setcounter{parenlevel}{0}
\setcounter{mincomprange}{10}
\setcounter{maxcomprange}{100000}
\setcounter{mincompwidth}{1}
\setcounter{labelname}{0}
\setcounter{savedlabelname}{0}
\setcounter{author}{0}
\setcounter{savedauthor}{0}
\setcounter{shortauthor}{0}
\setcounter{savedshortauthor}{0}
\setcounter{editor}{0}
\setcounter{savededitor}{0}
\setcounter{editora}{0}
\setcounter{savededitora}{0}
\setcounter{editorb}{0}
\setcounter{savededitorb}{0}
\setcounter{editorc}{0}
\setcounter{savededitorc}{0}
\setcounter{shorteditor}{0}
\setcounter{savedshorteditor}{0}
\setcounter{bookauthor}{0}
\setcounter{savedbookauthor}{0}
\setcounter{translator}{0}
\setcounter{savedtranslator}{0}
\setcounter{annotator}{0}
\setcounter{savedannotator}{0}
\setcounter{commentator}{0}
\setcounter{savedcommentator}{0}
\setcounter{introduction}{0}
\setcounter{savedintroduction}{0}
\setcounter{foreword}{0}
\setcounter{savedforeword}{0}
\setcounter{afterword}{0}
\setcounter{savedafterword}{0}
\setcounter{holder}{0}
\setcounter{savedholder}{0}
\setcounter{namea}{0}
\setcounter{savednamea}{0}
\setcounter{nameb}{0}
\setcounter{savednameb}{0}
\setcounter{namec}{0}
\setcounter{savednamec}{0}
\setcounter{institution}{0}
\setcounter{savedinstitution}{0}
\setcounter{language}{0}
\setcounter{savedlanguage}{0}
\setcounter{location}{0}
\setcounter{savedlocation}{0}
\setcounter{organization}{0}
\setcounter{savedorganization}{0}
\setcounter{origlocation}{0}
\setcounter{savedoriglocation}{0}
\setcounter{origpublisher}{0}
\setcounter{savedorigpublisher}{0}
\setcounter{pageref}{0}
\setcounter{savedpageref}{0}
\setcounter{publisher}{0}
\setcounter{savedpublisher}{0}
\setcounter{lista}{0}
\setcounter{savedlista}{0}
\setcounter{listb}{0}
\setcounter{savedlistb}{0}
\setcounter{listc}{0}
\setcounter{savedlistc}{0}
\setcounter{listd}{0}
\setcounter{savedlistd}{0}
\setcounter{liste}{0}
\setcounter{savedliste}{0}
\setcounter{listf}{0}
\setcounter{savedlistf}{0}
\setcounter{textcitecount}{0}
\setcounter{textcitetotal}{0}
\setcounter{textcitemaxnames}{0}
\setcounter{biburlnumpenalty}{0}
\setcounter{biburlucpenalty}{0}
\setcounter{biburllcpenalty}{0}
\setcounter{smartand}{1}
\setcounter{bbx:relatedcount}{0}
\setcounter{bbx:relatedtotal}{0}
\setcounter{cbx@tempcnta}{0}
\setcounter{cbx@tempcntb}{142}
\setcounter{mtc}{9}
\setcounter{minitocdepth}{2}
\setcounter{ptc}{0}
\setcounter{parttocdepth}{2}
\setcounter{cdefi}{0}
\setcounter{cprop}{0}
\setcounter{dblbotnumber}{2}
\setcounter{section@level}{1}
\setcounter{lstlisting}{0}
\setcounter{minilofdepth}{2}
\setcounter{minilotdepth}{2}
\setcounter{partlofdepth}{2}
\setcounter{partlotdepth}{2}
\setcounter{sectlofdepth}{2}
\setcounter{sectlotdepth}{2}
}
