\relax 
\providecommand\hyper@newdestlabel[2]{}
\FN@pp@footnotehinttrue 
\@writefile{toc}{\contentsline {chapter}{\numberline {7}Conclusions and perspectives}{145}{chapter.7}}
\@writefile{lof}{\addvspace {10\p@ }}
\@writefile{lot}{\addvspace {10\p@ }}
\@writefile{lof}{\contentsline {xchapter}{Conclusions and perspectives}{145}{chapter.7}}
\@writefile{lot}{\contentsline {xchapter}{Conclusions and perspectives}{145}{chapter.7}}
\newlabel{chapter:6}{{7}{145}{Conclusions and perspectives}{chapter.7}{}}
\@writefile{toc}{\contentsline {section}{\numberline {7.1}General conclusion}{145}{section.7.1}}
\@writefile{toc}{\contentsline {subsection}{\numberline {7.1.1}Context of the study}{145}{subsection.7.1.1}}
\@writefile{toc}{\contentsline {subsection}{\numberline {7.1.2}Main results and findings of the thesis}{146}{subsection.7.1.2}}
\@writefile{toc}{\contentsline {subsubsection}{Analysis of interference between CP-OFDM and FB-MC waveforms}{146}{section*.141}}
\@writefile{toc}{\contentsline {subsubsection}{Coexistence with CP-OFDM incumbent systems in CR setups}{146}{section*.142}}
\@writefile{toc}{\contentsline {subsubsection}{Asynchronous D2D operation in 5G networks}{147}{section*.143}}
\@writefile{toc}{\contentsline {section}{\numberline {7.2}Perspectives for future work}{147}{section.7.2}}
\@writefile{toc}{\contentsline {paragraph}{Accurate study of the interference distribution:}{147}{section*.144}}
\@writefile{toc}{\contentsline {paragraph}{Design of precoders for incumbent protection:}{148}{section*.145}}
\@writefile{toc}{\contentsline {paragraph}{Analysis of channel coding effects:}{148}{section*.146}}
\@writefile{toc}{\contentsline {paragraph}{Taking into consideration the synchronization procedures of the incumbent:}{148}{section*.147}}
\@writefile{toc}{\contentsline {paragraph}{Taking into account hardware impairments:}{148}{section*.148}}
\@writefile{toc}{\contentsline {paragraph}{Taking into account potential bandpass filtering at the incumbent:}{148}{section*.149}}
\@writefile{toc}{\contentsline {paragraph}{Extending our analysis to coexisting systems with different subcarrier widths:}{148}{section*.150}}
\@writefile{toc}{\contentsline {paragraph}{Extending the FB-MC formalism to subband-filtered waveform:}{149}{section*.151}}
\@writefile{toc}{\contentsline {paragraph}{Correction of the Gaussian approximation in network simulations:}{149}{section*.152}}
\@writefile{toc}{\contentsline {paragraph}{Study of metrics other than SINR in network simulations:}{149}{section*.153}}
\@writefile{toc}{\contentsline {paragraph}{Evaluating the impact of Full Duplex technology on the led studies:}{149}{section*.154}}
\@writefile{toc}{\contentsline {paragraph}{Comparing the gains brought by new waveforms with those achieved by multi-antenna techniques:}{150}{section*.155}}
\@writefile{toc}{\contentsline {paragraph}{Adopting a simulation-driven approach to wireless networks management: }{150}{section*.156}}
\@writefile{toc}{\contentsline {section}{\numberline {7.3}Final words}{150}{section.7.3}}
\FN@pp@footnotehinttrue 
\@setckpt{2-Chapters/6-Chapter/chapter6}{
\setcounter{page}{152}
\setcounter{equation}{0}
\setcounter{enumi}{3}
\setcounter{enumii}{0}
\setcounter{enumiii}{0}
\setcounter{enumiv}{0}
\setcounter{footnote}{0}
\setcounter{mpfootnote}{0}
\setcounter{part}{0}
\setcounter{chapter}{7}
\setcounter{section}{3}
\setcounter{subsection}{0}
\setcounter{subsubsection}{0}
\setcounter{paragraph}{0}
\setcounter{subparagraph}{0}
\setcounter{figure}{0}
\setcounter{table}{0}
\setcounter{@pps}{0}
\setcounter{@ppsavesec}{0}
\setcounter{@ppsaveapp}{0}
\setcounter{parentequation}{9}
\setcounter{Item}{48}
\setcounter{Hfootnote}{13}
\setcounter{bookmark@seq@number}{90}
\setcounter{MYtempeqncnt}{0}
\setcounter{pp@next@reset}{14}
\setcounter{@fnserial}{13}
\setcounter{ALG@line}{0}
\setcounter{ALG@rem}{0}
\setcounter{ALG@nested}{0}
\setcounter{ALG@Lnr}{2}
\setcounter{ALG@blocknr}{10}
\setcounter{ALG@storecount}{0}
\setcounter{ALG@tmpcounter}{0}
\setcounter{float@type}{16}
\setcounter{algorithm}{0}
\setcounter{lstnumber}{1}
\setcounter{ContinuedFloat}{0}
\setcounter{KVtest}{1}
\setcounter{subfigure}{0}
\setcounter{subfigure@save}{2}
\setcounter{lofdepth}{1}
\setcounter{subtable}{0}
\setcounter{subtable@save}{2}
\setcounter{lotdepth}{1}
\setcounter{r@tfl@t}{0}
\setcounter{nlinenum}{0}
\setcounter{tabx@nest}{0}
\setcounter{listtotal}{0}
\setcounter{listcount}{0}
\setcounter{liststart}{0}
\setcounter{liststop}{0}
\setcounter{citecount}{0}
\setcounter{citetotal}{0}
\setcounter{multicitecount}{0}
\setcounter{multicitetotal}{0}
\setcounter{instcount}{263}
\setcounter{maxnames}{1}
\setcounter{minnames}{1}
\setcounter{maxitems}{3}
\setcounter{minitems}{1}
\setcounter{citecounter}{0}
\setcounter{savedcitecounter}{0}
\setcounter{uniquelist}{0}
\setcounter{uniquename}{0}
\setcounter{refsection}{0}
\setcounter{refsegment}{0}
\setcounter{maxextrayear}{0}
\setcounter{maxextraalpha}{0}
\setcounter{abbrvpenalty}{50}
\setcounter{highnamepenalty}{50}
\setcounter{lownamepenalty}{25}
\setcounter{maxparens}{3}
\setcounter{parenlevel}{0}
\setcounter{mincomprange}{10}
\setcounter{maxcomprange}{100000}
\setcounter{mincompwidth}{1}
\setcounter{labelname}{0}
\setcounter{savedlabelname}{0}
\setcounter{author}{0}
\setcounter{savedauthor}{0}
\setcounter{shortauthor}{0}
\setcounter{savedshortauthor}{0}
\setcounter{editor}{0}
\setcounter{savededitor}{0}
\setcounter{editora}{0}
\setcounter{savededitora}{0}
\setcounter{editorb}{0}
\setcounter{savededitorb}{0}
\setcounter{editorc}{0}
\setcounter{savededitorc}{0}
\setcounter{shorteditor}{0}
\setcounter{savedshorteditor}{0}
\setcounter{bookauthor}{0}
\setcounter{savedbookauthor}{0}
\setcounter{translator}{0}
\setcounter{savedtranslator}{0}
\setcounter{annotator}{0}
\setcounter{savedannotator}{0}
\setcounter{commentator}{0}
\setcounter{savedcommentator}{0}
\setcounter{introduction}{0}
\setcounter{savedintroduction}{0}
\setcounter{foreword}{0}
\setcounter{savedforeword}{0}
\setcounter{afterword}{0}
\setcounter{savedafterword}{0}
\setcounter{holder}{0}
\setcounter{savedholder}{0}
\setcounter{namea}{0}
\setcounter{savednamea}{0}
\setcounter{nameb}{0}
\setcounter{savednameb}{0}
\setcounter{namec}{0}
\setcounter{savednamec}{0}
\setcounter{institution}{0}
\setcounter{savedinstitution}{0}
\setcounter{language}{0}
\setcounter{savedlanguage}{0}
\setcounter{location}{0}
\setcounter{savedlocation}{0}
\setcounter{organization}{0}
\setcounter{savedorganization}{0}
\setcounter{origlocation}{0}
\setcounter{savedoriglocation}{0}
\setcounter{origpublisher}{0}
\setcounter{savedorigpublisher}{0}
\setcounter{pageref}{0}
\setcounter{savedpageref}{0}
\setcounter{publisher}{0}
\setcounter{savedpublisher}{0}
\setcounter{lista}{0}
\setcounter{savedlista}{0}
\setcounter{listb}{0}
\setcounter{savedlistb}{0}
\setcounter{listc}{0}
\setcounter{savedlistc}{0}
\setcounter{listd}{0}
\setcounter{savedlistd}{0}
\setcounter{liste}{0}
\setcounter{savedliste}{0}
\setcounter{listf}{0}
\setcounter{savedlistf}{0}
\setcounter{textcitecount}{0}
\setcounter{textcitetotal}{0}
\setcounter{textcitemaxnames}{0}
\setcounter{biburlnumpenalty}{0}
\setcounter{biburlucpenalty}{0}
\setcounter{biburllcpenalty}{0}
\setcounter{smartand}{1}
\setcounter{bbx:relatedcount}{0}
\setcounter{bbx:relatedtotal}{0}
\setcounter{cbx@tempcnta}{0}
\setcounter{cbx@tempcntb}{135}
\setcounter{mtc}{12}
\setcounter{minitocdepth}{2}
\setcounter{ptc}{0}
\setcounter{parttocdepth}{2}
\setcounter{cdefi}{0}
\setcounter{cprop}{0}
\setcounter{dblbotnumber}{2}
\setcounter{section@level}{1}
\setcounter{lstlisting}{0}
\setcounter{minilofdepth}{2}
\setcounter{minilotdepth}{2}
\setcounter{partlofdepth}{2}
\setcounter{partlotdepth}{2}
\setcounter{sectlofdepth}{2}
\setcounter{sectlotdepth}{2}
}
