%!PS-Adobe-3.0 EPSF-3.0
%%Creator: (MATLAB, The Mathworks, Inc. Version 8.5.0.197613 \(R2015a\). Operating System: Windows 7)
%%Title: (Z:/exchange_figures/guard bands.eps)
%%CreationDate: 2016-07-06T14:45:05
%%Pages: (atend)
%%BoundingBox: 0 0 683 442
%%LanguageLevel: 2
%%EndComments
%%BeginProlog
%%BeginResource: procset (Apache XML Graphics Std ProcSet) 1.2 0
%%Version: 1.2 0
%%Copyright: (Copyright 2001-2003,2010 The Apache Software Foundation. License terms: http://www.apache.org/licenses/LICENSE-2.0)
/bd{bind def}bind def
/ld{load def}bd
/GR/grestore ld
/M/moveto ld
/LJ/setlinejoin ld
/C/curveto ld
/f/fill ld
/LW/setlinewidth ld
/GC/setgray ld
/t/show ld
/N/newpath ld
/CT/concat ld
/cp/closepath ld
/S/stroke ld
/L/lineto ld
/CC/setcmykcolor ld
/A/ashow ld
/GS/gsave ld
/RC/setrgbcolor ld
/RM/rmoveto ld
/ML/setmiterlimit ld
/re {4 2 roll M
1 index 0 rlineto
0 exch rlineto
neg 0 rlineto
cp } bd
/_ctm matrix def
/_tm matrix def
/BT { _ctm currentmatrix pop matrix _tm copy pop 0 0 moveto } bd
/ET { _ctm setmatrix } bd
/iTm { _ctm setmatrix _tm concat } bd
/Tm { _tm astore pop iTm 0 0 moveto } bd
/ux 0.0 def
/uy 0.0 def
/F {
  /Tp exch def
  /Tf exch def
  Tf findfont Tp scalefont setfont
  /cf Tf def  /cs Tp def
} bd
/ULS {currentpoint /uy exch def /ux exch def} bd
/ULE {
  /Tcx currentpoint pop def
  gsave
  newpath
  cf findfont cs scalefont dup
  /FontMatrix get 0 get /Ts exch def /FontInfo get dup
  /UnderlinePosition get Ts mul /To exch def
  /UnderlineThickness get Ts mul /Tt exch def
  ux uy To add moveto  Tcx uy To add lineto
  Tt setlinewidth stroke
  grestore
} bd
/OLE {
  /Tcx currentpoint pop def
  gsave
  newpath
  cf findfont cs scalefont dup
  /FontMatrix get 0 get /Ts exch def /FontInfo get dup
  /UnderlinePosition get Ts mul /To exch def
  /UnderlineThickness get Ts mul /Tt exch def
  ux uy To add cs add moveto Tcx uy To add cs add lineto
  Tt setlinewidth stroke
  grestore
} bd
/SOE {
  /Tcx currentpoint pop def
  gsave
  newpath
  cf findfont cs scalefont dup
  /FontMatrix get 0 get /Ts exch def /FontInfo get dup
  /UnderlinePosition get Ts mul /To exch def
  /UnderlineThickness get Ts mul /Tt exch def
  ux uy To add cs 10 mul 26 idiv add moveto Tcx uy To add cs 10 mul 26 idiv add lineto
  Tt setlinewidth stroke
  grestore
} bd
/QT {
/Y22 exch store
/X22 exch store
/Y21 exch store
/X21 exch store
currentpoint
/Y21 load 2 mul add 3 div exch
/X21 load 2 mul add 3 div exch
/X21 load 2 mul /X22 load add 3 div
/Y21 load 2 mul /Y22 load add 3 div
/X22 load /Y22 load curveto
} bd
/SSPD {
dup length /d exch dict def
{
/v exch def
/k exch def
currentpagedevice k known {
/cpdv currentpagedevice k get def
v cpdv ne {
/upd false def
/nullv v type /nulltype eq def
/nullcpdv cpdv type /nulltype eq def
nullv nullcpdv or
{
/upd true def
} {
/sametype v type cpdv type eq def
sametype {
v type /arraytype eq {
/vlen v length def
/cpdvlen cpdv length def
vlen cpdvlen eq {
0 1 vlen 1 sub {
/i exch def
/obj v i get def
/cpdobj cpdv i get def
obj cpdobj ne {
/upd true def
exit
} if
} for
} {
/upd true def
} ifelse
} {
v type /dicttype eq {
v {
/dv exch def
/dk exch def
/cpddv cpdv dk get def
dv cpddv ne {
/upd true def
exit
} if
} forall
} {
/upd true def
} ifelse
} ifelse
} if
} ifelse
upd true eq {
d k v put
} if
} if
} if
} forall
d length 0 gt {
d setpagedevice
} if
} bd
%%EndResource
%%BeginResource: procset (Apache XML Graphics EPS ProcSet) 1.0 0
%%Version: 1.0 0
%%Copyright: (Copyright 2002-2003 The Apache Software Foundation. License terms: http://www.apache.org/licenses/LICENSE-2.0)
/BeginEPSF { %def
/b4_Inc_state save def         % Save state for cleanup
/dict_count countdictstack def % Count objects on dict stack
/op_count count 1 sub def      % Count objects on operand stack
userdict begin                 % Push userdict on dict stack
/showpage { } def              % Redefine showpage, { } = null proc
0 setgray 0 setlinecap         % Prepare graphics state
1 setlinewidth 0 setlinejoin
10 setmiterlimit [ ] 0 setdash newpath
/languagelevel where           % If level not equal to 1 then
{pop languagelevel             % set strokeadjust and
1 ne                           % overprint to their defaults.
{false setstrokeadjust false setoverprint
} if
} if
} bd
/EndEPSF { %def
count op_count sub {pop} repeat            % Clean up stacks
countdictstack dict_count sub {end} repeat
b4_Inc_state restore
} bd
%%EndResource
%FOPBeginFontDict
%%IncludeResource: font Courier-Bold
%%IncludeResource: font Helvetica
%%IncludeResource: font Courier-BoldOblique
%%IncludeResource: font Courier-Oblique
%%IncludeResource: font Times-Roman
%%IncludeResource: font Helvetica-BoldOblique
%%IncludeResource: font Helvetica-Bold
%%IncludeResource: font Helvetica-Oblique
%%IncludeResource: font Times-BoldItalic
%%IncludeResource: font Courier
%%IncludeResource: font Times-Italic
%%IncludeResource: font Times-Bold
%%IncludeResource: font Symbol
%%IncludeResource: font ZapfDingbats
%FOPEndFontDict
%%BeginResource: encoding WinAnsiEncoding
/WinAnsiEncoding [
/.notdef /.notdef /.notdef /.notdef /.notdef
/.notdef /.notdef /.notdef /.notdef /.notdef
/.notdef /.notdef /.notdef /.notdef /.notdef
/.notdef /.notdef /.notdef /.notdef /.notdef
/.notdef /.notdef /.notdef /.notdef /.notdef
/.notdef /.notdef /.notdef /.notdef /.notdef
/.notdef /.notdef /space /exclam /quotedbl
/numbersign /dollar /percent /ampersand /quotesingle
/parenleft /parenright /asterisk /plus /comma
/hyphen /period /slash /zero /one
/two /three /four /five /six
/seven /eight /nine /colon /semicolon
/less /equal /greater /question /at
/A /B /C /D /E
/F /G /H /I /J
/K /L /M /N /O
/P /Q /R /S /T
/U /V /W /X /Y
/Z /bracketleft /backslash /bracketright /asciicircum
/underscore /quoteleft /a /b /c
/d /e /f /g /h
/i /j /k /l /m
/n /o /p /q /r
/s /t /u /v /w
/x /y /z /braceleft /bar
/braceright /asciitilde /bullet /Euro /bullet
/quotesinglbase /florin /quotedblbase /ellipsis /dagger
/daggerdbl /circumflex /perthousand /Scaron /guilsinglleft
/OE /bullet /Zcaron /bullet /bullet
/quoteleft /quoteright /quotedblleft /quotedblright /bullet
/endash /emdash /asciitilde /trademark /scaron
/guilsinglright /oe /bullet /zcaron /Ydieresis
/space /exclamdown /cent /sterling /currency
/yen /brokenbar /section /dieresis /copyright
/ordfeminine /guillemotleft /logicalnot /sfthyphen /registered
/macron /degree /plusminus /twosuperior /threesuperior
/acute /mu /paragraph /middot /cedilla
/onesuperior /ordmasculine /guillemotright /onequarter /onehalf
/threequarters /questiondown /Agrave /Aacute /Acircumflex
/Atilde /Adieresis /Aring /AE /Ccedilla
/Egrave /Eacute /Ecircumflex /Edieresis /Igrave
/Iacute /Icircumflex /Idieresis /Eth /Ntilde
/Ograve /Oacute /Ocircumflex /Otilde /Odieresis
/multiply /Oslash /Ugrave /Uacute /Ucircumflex
/Udieresis /Yacute /Thorn /germandbls /agrave
/aacute /acircumflex /atilde /adieresis /aring
/ae /ccedilla /egrave /eacute /ecircumflex
/edieresis /igrave /iacute /icircumflex /idieresis
/eth /ntilde /ograve /oacute /ocircumflex
/otilde /odieresis /divide /oslash /ugrave
/uacute /ucircumflex /udieresis /yacute /thorn
/ydieresis
] def
%%EndResource
%FOPBeginFontReencode
/Courier-Bold findfont
dup length dict begin
  {1 index /FID ne {def} {pop pop} ifelse} forall
  /Encoding WinAnsiEncoding def
  currentdict
end
/Courier-Bold exch definefont pop
/Helvetica findfont
dup length dict begin
  {1 index /FID ne {def} {pop pop} ifelse} forall
  /Encoding WinAnsiEncoding def
  currentdict
end
/Helvetica exch definefont pop
/Courier-BoldOblique findfont
dup length dict begin
  {1 index /FID ne {def} {pop pop} ifelse} forall
  /Encoding WinAnsiEncoding def
  currentdict
end
/Courier-BoldOblique exch definefont pop
/Courier-Oblique findfont
dup length dict begin
  {1 index /FID ne {def} {pop pop} ifelse} forall
  /Encoding WinAnsiEncoding def
  currentdict
end
/Courier-Oblique exch definefont pop
/Times-Roman findfont
dup length dict begin
  {1 index /FID ne {def} {pop pop} ifelse} forall
  /Encoding WinAnsiEncoding def
  currentdict
end
/Times-Roman exch definefont pop
/Helvetica-BoldOblique findfont
dup length dict begin
  {1 index /FID ne {def} {pop pop} ifelse} forall
  /Encoding WinAnsiEncoding def
  currentdict
end
/Helvetica-BoldOblique exch definefont pop
/Helvetica-Bold findfont
dup length dict begin
  {1 index /FID ne {def} {pop pop} ifelse} forall
  /Encoding WinAnsiEncoding def
  currentdict
end
/Helvetica-Bold exch definefont pop
/Helvetica-Oblique findfont
dup length dict begin
  {1 index /FID ne {def} {pop pop} ifelse} forall
  /Encoding WinAnsiEncoding def
  currentdict
end
/Helvetica-Oblique exch definefont pop
/Times-BoldItalic findfont
dup length dict begin
  {1 index /FID ne {def} {pop pop} ifelse} forall
  /Encoding WinAnsiEncoding def
  currentdict
end
/Times-BoldItalic exch definefont pop
/Courier findfont
dup length dict begin
  {1 index /FID ne {def} {pop pop} ifelse} forall
  /Encoding WinAnsiEncoding def
  currentdict
end
/Courier exch definefont pop
/Times-Italic findfont
dup length dict begin
  {1 index /FID ne {def} {pop pop} ifelse} forall
  /Encoding WinAnsiEncoding def
  currentdict
end
/Times-Italic exch definefont pop
/Times-Bold findfont
dup length dict begin
  {1 index /FID ne {def} {pop pop} ifelse} forall
  /Encoding WinAnsiEncoding def
  currentdict
end
/Times-Bold exch definefont pop
%FOPEndFontReencode
%%EndProlog
%%Page: 1 1
%%PageBoundingBox: 0 0 683 442
%%BeginPageSetup
[1 0 0 -1 0 442] CT
%%EndPageSetup
GS
[0.75 0 0 0.75 0 0.25] CT
N
0 0 M
910 0 L
910 589 L
0 589 L
0 0 L
cp
clip
1 GC
N
0 0 910 589 re
f
GR
GS
[0.75 0 0 0.75 0 0.25] CT
1 GC
N
0 0 910 589 re
f
GR
GS
[0.75 0 0 0.75 0 0.25] CT
1 GC
N
118 524 M
824 524 L
824 44 L
118 44 L
cp
f
GR
GS
[0.75 0 0 0.75 0 0.25] CT
0.873 GC
2 setlinecap
10.0 ML
N
118 524 M
118 44 L
S
GR
GS
[0.75 0 0 0.75 0 0.25] CT
0.873 GC
2 setlinecap
10.0 ML
N
235.667 524 M
235.667 44 L
S
GR
GS
[0.75 0 0 0.75 0 0.25] CT
0.873 GC
2 setlinecap
10.0 ML
N
353.333 524 M
353.333 44 L
S
GR
GS
[0.75 0 0 0.75 0 0.25] CT
0.873 GC
2 setlinecap
10.0 ML
N
471 524 M
471 44 L
S
GR
GS
[0.75 0 0 0.75 0 0.25] CT
0.873 GC
2 setlinecap
10.0 ML
N
588.667 524 M
588.667 44 L
S
GR
GS
[0.75 0 0 0.75 0 0.25] CT
0.873 GC
2 setlinecap
10.0 ML
N
706.333 524 M
706.333 44 L
S
GR
GS
[0.75 0 0 0.75 0 0.25] CT
0.873 GC
2 setlinecap
10.0 ML
N
824 524 M
824 44 L
S
GR
GS
[0.75 0 0 0.75 0 0.25] CT
0.775 GC
[1 3] 0 setdash
2 LJ
N
824 487.876 M
118 487.876 L
S
GR
GS
[0.75 0 0 0.75 0 0.25] CT
0.775 GC
[1 3] 0 setdash
2 LJ
N
824 466.745 M
118 466.745 L
S
GR
GS
[0.75 0 0 0.75 0 0.25] CT
0.775 GC
[1 3] 0 setdash
2 LJ
N
824 451.753 M
118 451.753 L
S
GR
GS
[0.75 0 0 0.75 0 0.25] CT
0.775 GC
[1 3] 0 setdash
2 LJ
N
824 440.124 M
118 440.124 L
S
GR
GS
[0.75 0 0 0.75 0 0.25] CT
0.775 GC
[1 3] 0 setdash
2 LJ
N
824 430.622 M
118 430.622 L
S
GR
GS
[0.75 0 0 0.75 0 0.25] CT
0.775 GC
[1 3] 0 setdash
2 LJ
N
824 422.588 M
118 422.588 L
S
GR
GS
[0.75 0 0 0.75 0 0.25] CT
0.775 GC
[1 3] 0 setdash
2 LJ
N
824 415.629 M
118 415.629 L
S
GR
GS
[0.75 0 0 0.75 0 0.25] CT
0.775 GC
[1 3] 0 setdash
2 LJ
N
824 409.491 M
118 409.491 L
S
GR
GS
[0.75 0 0 0.75 0 0.25] CT
0.775 GC
[1 3] 0 setdash
2 LJ
N
824 367.876 M
118 367.876 L
S
GR
GS
[0.75 0 0 0.75 0 0.25] CT
0.775 GC
[1 3] 0 setdash
2 LJ
N
824 346.745 M
118 346.745 L
S
GR
GS
[0.75 0 0 0.75 0 0.25] CT
0.775 GC
[1 3] 0 setdash
2 LJ
N
824 331.753 M
118 331.753 L
S
GR
GS
[0.75 0 0 0.75 0 0.25] CT
0.775 GC
[1 3] 0 setdash
2 LJ
N
824 320.124 M
118 320.124 L
S
GR
GS
[0.75 0 0 0.75 0 0.25] CT
0.775 GC
[1 3] 0 setdash
2 LJ
N
824 310.622 M
118 310.622 L
S
GR
GS
[0.75 0 0 0.75 0 0.25] CT
0.775 GC
[1 3] 0 setdash
2 LJ
N
824 302.588 M
118 302.588 L
S
GR
GS
[0.75 0 0 0.75 0 0.25] CT
0.775 GC
[1 3] 0 setdash
2 LJ
N
824 295.629 M
118 295.629 L
S
GR
GS
[0.75 0 0 0.75 0 0.25] CT
0.775 GC
[1 3] 0 setdash
2 LJ
N
824 289.491 M
118 289.491 L
S
GR
GS
[0.75 0 0 0.75 0 0.25] CT
0.775 GC
[1 3] 0 setdash
2 LJ
N
824 247.876 M
118 247.876 L
S
GR
GS
[0.75 0 0 0.75 0 0.25] CT
0.775 GC
[1 3] 0 setdash
2 LJ
N
824 226.745 M
118 226.745 L
S
GR
GS
[0.75 0 0 0.75 0 0.25] CT
0.775 GC
[1 3] 0 setdash
2 LJ
N
824 211.753 M
118 211.753 L
S
GR
GS
[0.75 0 0 0.75 0 0.25] CT
0.775 GC
[1 3] 0 setdash
2 LJ
N
824 200.124 M
118 200.124 L
S
GR
GS
[0.75 0 0 0.75 0 0.25] CT
0.775 GC
[1 3] 0 setdash
2 LJ
N
824 190.622 M
118 190.622 L
S
GR
GS
[0.75 0 0 0.75 0 0.25] CT
0.775 GC
[1 3] 0 setdash
2 LJ
N
824 182.588 M
118 182.588 L
S
GR
GS
[0.75 0 0 0.75 0 0.25] CT
0.775 GC
[1 3] 0 setdash
2 LJ
N
824 175.629 M
118 175.629 L
S
GR
GS
[0.75 0 0 0.75 0 0.25] CT
0.775 GC
[1 3] 0 setdash
2 LJ
N
824 169.491 M
118 169.491 L
S
GR
GS
[0.75 0 0 0.75 0 0.25] CT
0.775 GC
[1 3] 0 setdash
2 LJ
N
824 127.876 M
118 127.876 L
S
GR
GS
[0.75 0 0 0.75 0 0.25] CT
0.775 GC
[1 3] 0 setdash
2 LJ
N
824 106.745 M
118 106.745 L
S
GR
GS
[0.75 0 0 0.75 0 0.25] CT
0.775 GC
[1 3] 0 setdash
2 LJ
N
824 91.753 M
118 91.753 L
S
GR
GS
[0.75 0 0 0.75 0 0.25] CT
0.775 GC
[1 3] 0 setdash
2 LJ
N
824 80.124 M
118 80.124 L
S
GR
GS
[0.75 0 0 0.75 0 0.25] CT
0.775 GC
[1 3] 0 setdash
2 LJ
N
824 70.622 M
118 70.622 L
S
GR
GS
[0.75 0 0 0.75 0 0.25] CT
0.775 GC
[1 3] 0 setdash
2 LJ
N
824 62.588 M
118 62.588 L
S
GR
GS
[0.75 0 0 0.75 0 0.25] CT
0.775 GC
[1 3] 0 setdash
2 LJ
N
824 55.629 M
118 55.629 L
S
GR
GS
[0.75 0 0 0.75 0 0.25] CT
0.775 GC
[1 3] 0 setdash
2 LJ
N
824 49.491 M
118 49.491 L
S
GR
GS
[0.75 0 0 0.75 0 0.25] CT
0.873 GC
2 setlinecap
10.0 ML
N
824 524 M
118 524 L
S
GR
GS
[0.75 0 0 0.75 0 0.25] CT
0.873 GC
2 setlinecap
10.0 ML
N
824 404 M
118 404 L
S
GR
GS
[0.75 0 0 0.75 0 0.25] CT
0.873 GC
2 setlinecap
10.0 ML
N
824 284 M
118 284 L
S
GR
GS
[0.75 0 0 0.75 0 0.25] CT
0.873 GC
2 setlinecap
10.0 ML
N
824 164 M
118 164 L
S
GR
GS
[0.75 0 0 0.75 0 0.25] CT
0.873 GC
2 setlinecap
10.0 ML
N
824 44 M
118 44 L
S
GR
GS
[0.75 0 0 0.75 353.25025 418.2] CT
0.149 GC
/Times-Roman 23 F
GS
[1 0 0 1 0 0] CT
-280.5 21 moveto 
1 -1 scale
(Interference constraint set by the CP-OFDM incumbent \(dB\)) t 
GR
GR
GS
[0.75 0 0 0.75 0 0.25] CT
0.149 GC
2 setlinecap
10.0 ML
N
118 524 M
824 524 L
S
GR
GS
[0.75 0 0 0.75 0 0.25] CT
0.149 GC
2 setlinecap
10.0 ML
N
118 44 M
824 44 L
S
GR
GS
[0.75 0 0 0.75 0 0.25] CT
0.149 GC
2 setlinecap
10.0 ML
N
118 524 M
118 516.94 L
S
GR
GS
[0.75 0 0 0.75 0 0.25] CT
0.149 GC
2 setlinecap
10.0 ML
N
235.667 524 M
235.667 516.94 L
S
GR
GS
[0.75 0 0 0.75 0 0.25] CT
0.149 GC
2 setlinecap
10.0 ML
N
353.333 524 M
353.333 516.94 L
S
GR
GS
[0.75 0 0 0.75 0 0.25] CT
0.149 GC
2 setlinecap
10.0 ML
N
471 524 M
471 516.94 L
S
GR
GS
[0.75 0 0 0.75 0 0.25] CT
0.149 GC
2 setlinecap
10.0 ML
N
588.667 524 M
588.667 516.94 L
S
GR
GS
[0.75 0 0 0.75 0 0.25] CT
0.149 GC
2 setlinecap
10.0 ML
N
706.333 524 M
706.333 516.94 L
S
GR
GS
[0.75 0 0 0.75 0 0.25] CT
0.149 GC
2 setlinecap
10.0 ML
N
824 524 M
824 516.94 L
S
GR
GS
[0.75 0 0 0.75 0 0.25] CT
0.149 GC
2 setlinecap
10.0 ML
N
118 44 M
118 51.06 L
S
GR
GS
[0.75 0 0 0.75 0 0.25] CT
0.149 GC
2 setlinecap
10.0 ML
N
235.667 44 M
235.667 51.06 L
S
GR
GS
[0.75 0 0 0.75 0 0.25] CT
0.149 GC
2 setlinecap
10.0 ML
N
353.333 44 M
353.333 51.06 L
S
GR
GS
[0.75 0 0 0.75 0 0.25] CT
0.149 GC
2 setlinecap
10.0 ML
N
471 44 M
471 51.06 L
S
GR
GS
[0.75 0 0 0.75 0 0.25] CT
0.149 GC
2 setlinecap
10.0 ML
N
588.667 44 M
588.667 51.06 L
S
GR
GS
[0.75 0 0 0.75 0 0.25] CT
0.149 GC
2 setlinecap
10.0 ML
N
706.333 44 M
706.333 51.06 L
S
GR
GS
[0.75 0 0 0.75 0 0.25] CT
0.149 GC
2 setlinecap
10.0 ML
N
824 44 M
824 51.06 L
S
GR
GS
[0.75 0 0 0.75 88.5 398.45001] CT
0.149 GC
/Times-Roman 21 F
GS
[1 0 0 1 0 0] CT
-14 20 moveto 
1 -1 scale
(-60) t 
GR
GR
GS
[0.75 0 0 0.75 176.75 398.45001] CT
0.149 GC
/Times-Roman 21 F
GS
[1 0 0 1 0 0] CT
-14 20 moveto 
1 -1 scale
(-50) t 
GR
GR
GS
[0.75 0 0 0.75 265.00001 398.45001] CT
0.149 GC
/Times-Roman 21 F
GS
[1 0 0 1 0 0] CT
-14 20 moveto 
1 -1 scale
(-40) t 
GR
GR
GS
[0.75 0 0 0.75 353.25 398.45001] CT
0.149 GC
/Times-Roman 21 F
GS
[1 0 0 1 0 0] CT
-14 20 moveto 
1 -1 scale
(-30) t 
GR
GR
GS
[0.75 0 0 0.75 441.50002 398.45001] CT
0.149 GC
/Times-Roman 21 F
GS
[1 0 0 1 0 0] CT
-14 20 moveto 
1 -1 scale
(-20) t 
GR
GR
GS
[0.75 0 0 0.75 529.74998 398.45001] CT
0.149 GC
/Times-Roman 21 F
GS
[1 0 0 1 0 0] CT
-14 20 moveto 
1 -1 scale
(-10) t 
GR
GR
GS
[0.75 0 0 0.75 618 398.45001] CT
0.149 GC
/Times-Roman 21 F
GS
[1 0 0 1 0 0] CT
-5.5 20 moveto 
1 -1 scale
(0) t 
GR
GR
GS
[0.75 0 0 0.75 0 0.25] CT
0.149 GC
2 setlinecap
10.0 ML
N
118 487.876 M
121.53 487.876 L
S
GR
GS
[0.75 0 0 0.75 0 0.25] CT
0.149 GC
2 setlinecap
10.0 ML
N
118 466.745 M
121.53 466.745 L
S
GR
GS
[0.75 0 0 0.75 0 0.25] CT
0.149 GC
2 setlinecap
10.0 ML
N
118 451.753 M
121.53 451.753 L
S
GR
GS
[0.75 0 0 0.75 0 0.25] CT
0.149 GC
2 setlinecap
10.0 ML
N
118 440.124 M
121.53 440.124 L
S
GR
GS
[0.75 0 0 0.75 0 0.25] CT
0.149 GC
2 setlinecap
10.0 ML
N
118 430.622 M
121.53 430.622 L
S
GR
GS
[0.75 0 0 0.75 0 0.25] CT
0.149 GC
2 setlinecap
10.0 ML
N
118 422.588 M
121.53 422.588 L
S
GR
GS
[0.75 0 0 0.75 0 0.25] CT
0.149 GC
2 setlinecap
10.0 ML
N
118 415.629 M
121.53 415.629 L
S
GR
GS
[0.75 0 0 0.75 0 0.25] CT
0.149 GC
2 setlinecap
10.0 ML
N
118 409.491 M
121.53 409.491 L
S
GR
GS
[0.75 0 0 0.75 0 0.25] CT
0.149 GC
2 setlinecap
10.0 ML
N
118 367.876 M
121.53 367.876 L
S
GR
GS
[0.75 0 0 0.75 0 0.25] CT
0.149 GC
2 setlinecap
10.0 ML
N
118 346.745 M
121.53 346.745 L
S
GR
GS
[0.75 0 0 0.75 0 0.25] CT
0.149 GC
2 setlinecap
10.0 ML
N
118 331.753 M
121.53 331.753 L
S
GR
GS
[0.75 0 0 0.75 0 0.25] CT
0.149 GC
2 setlinecap
10.0 ML
N
118 320.124 M
121.53 320.124 L
S
GR
GS
[0.75 0 0 0.75 0 0.25] CT
0.149 GC
2 setlinecap
10.0 ML
N
118 310.622 M
121.53 310.622 L
S
GR
GS
[0.75 0 0 0.75 0 0.25] CT
0.149 GC
2 setlinecap
10.0 ML
N
118 302.588 M
121.53 302.588 L
S
GR
GS
[0.75 0 0 0.75 0 0.25] CT
0.149 GC
2 setlinecap
10.0 ML
N
118 295.629 M
121.53 295.629 L
S
GR
GS
[0.75 0 0 0.75 0 0.25] CT
0.149 GC
2 setlinecap
10.0 ML
N
118 289.491 M
121.53 289.491 L
S
GR
GS
[0.75 0 0 0.75 0 0.25] CT
0.149 GC
2 setlinecap
10.0 ML
N
118 247.876 M
121.53 247.876 L
S
GR
GS
[0.75 0 0 0.75 0 0.25] CT
0.149 GC
2 setlinecap
10.0 ML
N
118 226.745 M
121.53 226.745 L
S
GR
GS
[0.75 0 0 0.75 0 0.25] CT
0.149 GC
2 setlinecap
10.0 ML
N
118 211.753 M
121.53 211.753 L
S
GR
GS
[0.75 0 0 0.75 0 0.25] CT
0.149 GC
2 setlinecap
10.0 ML
N
118 200.124 M
121.53 200.124 L
S
GR
GS
[0.75 0 0 0.75 0 0.25] CT
0.149 GC
2 setlinecap
10.0 ML
N
118 190.622 M
121.53 190.622 L
S
GR
GS
[0.75 0 0 0.75 0 0.25] CT
0.149 GC
2 setlinecap
10.0 ML
N
118 182.588 M
121.53 182.588 L
S
GR
GS
[0.75 0 0 0.75 0 0.25] CT
0.149 GC
2 setlinecap
10.0 ML
N
118 175.629 M
121.53 175.629 L
S
GR
GS
[0.75 0 0 0.75 0 0.25] CT
0.149 GC
2 setlinecap
10.0 ML
N
118 169.491 M
121.53 169.491 L
S
GR
GS
[0.75 0 0 0.75 0 0.25] CT
0.149 GC
2 setlinecap
10.0 ML
N
118 127.876 M
121.53 127.876 L
S
GR
GS
[0.75 0 0 0.75 0 0.25] CT
0.149 GC
2 setlinecap
10.0 ML
N
118 106.745 M
121.53 106.745 L
S
GR
GS
[0.75 0 0 0.75 0 0.25] CT
0.149 GC
2 setlinecap
10.0 ML
N
118 91.753 M
121.53 91.753 L
S
GR
GS
[0.75 0 0 0.75 0 0.25] CT
0.149 GC
2 setlinecap
10.0 ML
N
118 80.124 M
121.53 80.124 L
S
GR
GS
[0.75 0 0 0.75 0 0.25] CT
0.149 GC
2 setlinecap
10.0 ML
N
118 70.622 M
121.53 70.622 L
S
GR
GS
[0.75 0 0 0.75 0 0.25] CT
0.149 GC
2 setlinecap
10.0 ML
N
118 62.588 M
121.53 62.588 L
S
GR
GS
[0.75 0 0 0.75 0 0.25] CT
0.149 GC
2 setlinecap
10.0 ML
N
118 55.629 M
121.53 55.629 L
S
GR
GS
[0.75 0 0 0.75 0 0.25] CT
0.149 GC
2 setlinecap
10.0 ML
N
118 49.491 M
121.53 49.491 L
S
GR
GS
[0.75 0 0 0.75 0 0.25] CT
0.149 GC
2 setlinecap
10.0 ML
N
824 487.876 M
820.47 487.876 L
S
GR
GS
[0.75 0 0 0.75 0 0.25] CT
0.149 GC
2 setlinecap
10.0 ML
N
824 466.745 M
820.47 466.745 L
S
GR
GS
[0.75 0 0 0.75 0 0.25] CT
0.149 GC
2 setlinecap
10.0 ML
N
824 451.753 M
820.47 451.753 L
S
GR
GS
[0.75 0 0 0.75 0 0.25] CT
0.149 GC
2 setlinecap
10.0 ML
N
824 440.124 M
820.47 440.124 L
S
GR
GS
[0.75 0 0 0.75 0 0.25] CT
0.149 GC
2 setlinecap
10.0 ML
N
824 430.622 M
820.47 430.622 L
S
GR
GS
[0.75 0 0 0.75 0 0.25] CT
0.149 GC
2 setlinecap
10.0 ML
N
824 422.588 M
820.47 422.588 L
S
GR
GS
[0.75 0 0 0.75 0 0.25] CT
0.149 GC
2 setlinecap
10.0 ML
N
824 415.629 M
820.47 415.629 L
S
GR
GS
[0.75 0 0 0.75 0 0.25] CT
0.149 GC
2 setlinecap
10.0 ML
N
824 409.491 M
820.47 409.491 L
S
GR
GS
[0.75 0 0 0.75 0 0.25] CT
0.149 GC
2 setlinecap
10.0 ML
N
824 367.876 M
820.47 367.876 L
S
GR
GS
[0.75 0 0 0.75 0 0.25] CT
0.149 GC
2 setlinecap
10.0 ML
N
824 346.745 M
820.47 346.745 L
S
GR
GS
[0.75 0 0 0.75 0 0.25] CT
0.149 GC
2 setlinecap
10.0 ML
N
824 331.753 M
820.47 331.753 L
S
GR
GS
[0.75 0 0 0.75 0 0.25] CT
0.149 GC
2 setlinecap
10.0 ML
N
824 320.124 M
820.47 320.124 L
S
GR
GS
[0.75 0 0 0.75 0 0.25] CT
0.149 GC
2 setlinecap
10.0 ML
N
824 310.622 M
820.47 310.622 L
S
GR
GS
[0.75 0 0 0.75 0 0.25] CT
0.149 GC
2 setlinecap
10.0 ML
N
824 302.588 M
820.47 302.588 L
S
GR
GS
[0.75 0 0 0.75 0 0.25] CT
0.149 GC
2 setlinecap
10.0 ML
N
824 295.629 M
820.47 295.629 L
S
GR
GS
[0.75 0 0 0.75 0 0.25] CT
0.149 GC
2 setlinecap
10.0 ML
N
824 289.491 M
820.47 289.491 L
S
GR
GS
[0.75 0 0 0.75 0 0.25] CT
0.149 GC
2 setlinecap
10.0 ML
N
824 247.876 M
820.47 247.876 L
S
GR
GS
[0.75 0 0 0.75 0 0.25] CT
0.149 GC
2 setlinecap
10.0 ML
N
824 226.745 M
820.47 226.745 L
S
GR
GS
[0.75 0 0 0.75 0 0.25] CT
0.149 GC
2 setlinecap
10.0 ML
N
824 211.753 M
820.47 211.753 L
S
GR
GS
[0.75 0 0 0.75 0 0.25] CT
0.149 GC
2 setlinecap
10.0 ML
N
824 200.124 M
820.47 200.124 L
S
GR
GS
[0.75 0 0 0.75 0 0.25] CT
0.149 GC
2 setlinecap
10.0 ML
N
824 190.622 M
820.47 190.622 L
S
GR
GS
[0.75 0 0 0.75 0 0.25] CT
0.149 GC
2 setlinecap
10.0 ML
N
824 182.588 M
820.47 182.588 L
S
GR
GS
[0.75 0 0 0.75 0 0.25] CT
0.149 GC
2 setlinecap
10.0 ML
N
824 175.629 M
820.47 175.629 L
S
GR
GS
[0.75 0 0 0.75 0 0.25] CT
0.149 GC
2 setlinecap
10.0 ML
N
824 169.491 M
820.47 169.491 L
S
GR
GS
[0.75 0 0 0.75 0 0.25] CT
0.149 GC
2 setlinecap
10.0 ML
N
824 127.876 M
820.47 127.876 L
S
GR
GS
[0.75 0 0 0.75 0 0.25] CT
0.149 GC
2 setlinecap
10.0 ML
N
824 106.745 M
820.47 106.745 L
S
GR
GS
[0.75 0 0 0.75 0 0.25] CT
0.149 GC
2 setlinecap
10.0 ML
N
824 91.753 M
820.47 91.753 L
S
GR
GS
[0.75 0 0 0.75 0 0.25] CT
0.149 GC
2 setlinecap
10.0 ML
N
824 80.124 M
820.47 80.124 L
S
GR
GS
[0.75 0 0 0.75 0 0.25] CT
0.149 GC
2 setlinecap
10.0 ML
N
824 70.622 M
820.47 70.622 L
S
GR
GS
[0.75 0 0 0.75 0 0.25] CT
0.149 GC
2 setlinecap
10.0 ML
N
824 62.588 M
820.47 62.588 L
S
GR
GS
[0.75 0 0 0.75 0 0.25] CT
0.149 GC
2 setlinecap
10.0 ML
N
824 55.629 M
820.47 55.629 L
S
GR
GS
[0.75 0 0 0.75 0 0.25] CT
0.149 GC
2 setlinecap
10.0 ML
N
824 49.491 M
820.47 49.491 L
S
GR
GS
[0 -0.75 0.75 0 58.55 213.24982] CT
0.149 GC
/Times-Roman 23 F
GS
[1 0 0 1 0 0] CT
-180.5 -5 moveto 
1 -1 scale
(Amount of guard subcarriers necessary) t 
GR
GR
GS
[0.75 0 0 0.75 0 0.25] CT
0.149 GC
2 setlinecap
10.0 ML
N
118 524 M
118 44 L
S
GR
GS
[0.75 0 0 0.75 0 0.25] CT
0.149 GC
2 setlinecap
10.0 ML
N
824 524 M
824 44 L
S
GR
GS
[0.75 0 0 0.75 0 0.25] CT
0.149 GC
2 setlinecap
10.0 ML
N
118 524 M
125.06 524 L
S
GR
GS
[0.75 0 0 0.75 0 0.25] CT
0.149 GC
2 setlinecap
10.0 ML
N
118 404 M
125.06 404 L
S
GR
GS
[0.75 0 0 0.75 0 0.25] CT
0.149 GC
2 setlinecap
10.0 ML
N
118 284 M
125.06 284 L
S
GR
GS
[0.75 0 0 0.75 0 0.25] CT
0.149 GC
2 setlinecap
10.0 ML
N
118 164 M
125.06 164 L
S
GR
GS
[0.75 0 0 0.75 0 0.25] CT
0.149 GC
2 setlinecap
10.0 ML
N
118 44 M
125.06 44 L
S
GR
GS
[0.75 0 0 0.75 0 0.25] CT
0.149 GC
2 setlinecap
10.0 ML
N
824 524 M
816.94 524 L
S
GR
GS
[0.75 0 0 0.75 0 0.25] CT
0.149 GC
2 setlinecap
10.0 ML
N
824 404 M
816.94 404 L
S
GR
GS
[0.75 0 0 0.75 0 0.25] CT
0.149 GC
2 setlinecap
10.0 ML
N
824 284 M
816.94 284 L
S
GR
GS
[0.75 0 0 0.75 0 0.25] CT
0.149 GC
2 setlinecap
10.0 ML
N
824 164 M
816.94 164 L
S
GR
GS
[0.75 0 0 0.75 0 0.25] CT
0.149 GC
2 setlinecap
10.0 ML
N
824 44 M
816.94 44 L
S
GR
GS
[0.75 0 0 0.75 61.5 400.75] CT
0.149 GC
/Times-Roman 21 F
GS
[1 0 0 1 0 0] CT
0 0 moveto 
1 -1 scale
(10) t 
GR
GR
GS
[0.75 0 0 0.75 77.25 393.25] CT
0.149 GC
/Times-Roman 16 F
GS
[1 0 0 1 0 0] CT
0 0 moveto 
1 -1 scale
(0) t 
GR
GR
GS
[0.75 0 0 0.75 61.5 310.75] CT
0.149 GC
/Times-Roman 21 F
GS
[1 0 0 1 0 0] CT
0 0 moveto 
1 -1 scale
(10) t 
GR
GR
GS
[0.75 0 0 0.75 77.25 303.25] CT
0.149 GC
/Times-Roman 16 F
GS
[1 0 0 1 0 0] CT
0 0 moveto 
1 -1 scale
(1) t 
GR
GR
GS
[0.75 0 0 0.75 61.5 220.75] CT
0.149 GC
/Times-Roman 21 F
GS
[1 0 0 1 0 0] CT
0 0 moveto 
1 -1 scale
(10) t 
GR
GR
GS
[0.75 0 0 0.75 77.25 213.25] CT
0.149 GC
/Times-Roman 16 F
GS
[1 0 0 1 0 0] CT
0 0 moveto 
1 -1 scale
(2) t 
GR
GR
GS
[0.75 0 0 0.75 61.5 130.75] CT
0.149 GC
/Times-Roman 21 F
GS
[1 0 0 1 0 0] CT
0 0 moveto 
1 -1 scale
(10) t 
GR
GR
GS
[0.75 0 0 0.75 77.25 123.25] CT
0.149 GC
/Times-Roman 16 F
GS
[1 0 0 1 0 0] CT
0 0 moveto 
1 -1 scale
(3) t 
GR
GR
GS
[0.75 0 0 0.75 61.5 40.75] CT
0.149 GC
/Times-Roman 21 F
GS
[1 0 0 1 0 0] CT
0 0 moveto 
1 -1 scale
(10) t 
GR
GR
GS
[0.75 0 0 0.75 77.25 33.25] CT
0.149 GC
/Times-Roman 16 F
GS
[1 0 0 1 0 0] CT
0 0 moveto 
1 -1 scale
(4) t 
GR
GR
GS
[0.75 0 0 0.75 0 0.25] CT
0 0.447 0.741 RC
2 LJ
1.333 LW
N
118 182.365 M
129.767 188.494 L
141.533 194.591 L
153.3 200.647 L
165.067 206.786 L
176.833 212.939 L
188.6 219.01 L
200.367 225.205 L
212.133 231.28 L
223.9 237.513 L
235.667 243.866 L
247.433 250.004 L
259.2 256.346 L
270.967 262.523 L
282.733 269.138 L
294.5 275.374 L
306.267 281.956 L
318.033 288.345 L
329.8 294.982 L
341.567 301.849 L
353.333 308.079 L
365.1 315.156 L
376.867 322.251 L
388.633 329.21 L
400.4 335.816 L
412.167 343.382 L
423.933 350.341 L
435.7 358.375 L
447.467 365.334 L
459.233 373.367 L
471 379.506 L
482.767 390.327 L
494.533 394.498 L
506.3 404 L
518.067 415.629 L
529.833 422.588 L
541.6 430.622 L
553.367 440.124 L
565.133 451.753 L
576.9 451.753 L
588.667 466.745 L
600.433 466.745 L
612.2 466.745 L
623.967 487.876 L
635.733 487.876 L
647.5 487.876 L
659.267 487.876 L
671.033 487.876 L
682.8 524 L
694.567 524 L
S
GR
GS
[0.75 0 0 0.75 0 0.25] CT
0 0.447 0.741 RC
2 LJ
1.333 LW
N
694.567 524 M
706.333 524 L
718.1 524 L
729.867 524 L
741.633 524 L
753.4 524 L
765.167 524 L
776.933 524 L
788.7 524 L
800.467 524 L
812.233 524 L
824 524 L
S
GR
GS
[0.75 0 0 0.75 0 0.25] CT
0 0.447 0.741 RC
2 LJ
1.333 LW
N
123.833 182.5 M
122.815 179.365 L
120.148 177.428 L
116.852 177.428 L
114.185 179.365 L
113.167 182.5 L
114.185 185.635 L
116.852 187.572 L
120.148 187.572 L
122.815 185.635 L
123.833 182.5 L
S
GR
GS
[0.75 0 0 0.75 0 0.25] CT
0 0.447 0.741 RC
2 LJ
1.333 LW
N
134.833 188.5 M
133.815 185.365 L
131.148 183.428 L
127.852 183.428 L
125.185 185.365 L
124.167 188.5 L
125.185 191.635 L
127.852 193.572 L
131.148 193.572 L
133.815 191.635 L
134.833 188.5 L
S
GR
GS
[0.75 0 0 0.75 0 0.25] CT
0 0.447 0.741 RC
2 LJ
1.333 LW
N
146.833 194.5 M
145.815 191.365 L
143.148 189.428 L
139.852 189.428 L
137.185 191.365 L
136.167 194.5 L
137.185 197.635 L
139.852 199.572 L
143.148 199.572 L
145.815 197.635 L
146.833 194.5 L
S
GR
GS
[0.75 0 0 0.75 0 0.25] CT
0 0.447 0.741 RC
2 LJ
1.333 LW
N
158.833 200.5 M
157.815 197.365 L
155.148 195.428 L
151.852 195.428 L
149.185 197.365 L
148.167 200.5 L
149.185 203.635 L
151.852 205.572 L
155.148 205.572 L
157.815 203.635 L
158.833 200.5 L
S
GR
GS
[0.75 0 0 0.75 0 0.25] CT
0 0.447 0.741 RC
2 LJ
1.333 LW
N
170.833 206.5 M
169.815 203.365 L
167.148 201.428 L
163.852 201.428 L
161.185 203.365 L
160.167 206.5 L
161.185 209.635 L
163.852 211.572 L
167.148 211.572 L
169.815 209.635 L
170.833 206.5 L
S
GR
GS
[0.75 0 0 0.75 0 0.25] CT
0 0.447 0.741 RC
2 LJ
1.333 LW
N
181.833 212.5 M
180.815 209.365 L
178.148 207.428 L
174.852 207.428 L
172.185 209.365 L
171.167 212.5 L
172.185 215.635 L
174.852 217.572 L
178.148 217.572 L
180.815 215.635 L
181.833 212.5 L
S
GR
GS
[0.75 0 0 0.75 0 0.25] CT
0 0.447 0.741 RC
2 LJ
1.333 LW
N
193.833 219.5 M
192.815 216.365 L
190.148 214.428 L
186.852 214.428 L
184.185 216.365 L
183.167 219.5 L
184.185 222.635 L
186.852 224.572 L
190.148 224.572 L
192.815 222.635 L
193.833 219.5 L
S
GR
GS
[0.75 0 0 0.75 0 0.25] CT
0 0.447 0.741 RC
2 LJ
1.333 LW
N
205.833 225.5 M
204.815 222.365 L
202.148 220.428 L
198.852 220.428 L
196.185 222.365 L
195.167 225.5 L
196.185 228.635 L
198.852 230.572 L
202.148 230.572 L
204.815 228.635 L
205.833 225.5 L
S
GR
GS
[0.75 0 0 0.75 0 0.25] CT
0 0.447 0.741 RC
2 LJ
1.333 LW
N
217.833 231.5 M
216.815 228.365 L
214.148 226.428 L
210.852 226.428 L
208.185 228.365 L
207.167 231.5 L
208.185 234.635 L
210.852 236.572 L
214.148 236.572 L
216.815 234.635 L
217.833 231.5 L
S
GR
GS
[0.75 0 0 0.75 0 0.25] CT
0 0.447 0.741 RC
2 LJ
1.333 LW
N
228.833 237.5 M
227.815 234.365 L
225.148 232.428 L
221.852 232.428 L
219.185 234.365 L
218.167 237.5 L
219.185 240.635 L
221.852 242.572 L
225.148 242.572 L
227.815 240.635 L
228.833 237.5 L
S
GR
GS
[0.75 0 0 0.75 0 0.25] CT
0 0.447 0.741 RC
2 LJ
1.333 LW
N
240.833 243.5 M
239.815 240.365 L
237.148 238.428 L
233.852 238.428 L
231.185 240.365 L
230.167 243.5 L
231.185 246.635 L
233.852 248.572 L
237.148 248.572 L
239.815 246.635 L
240.833 243.5 L
S
GR
GS
[0.75 0 0 0.75 0 0.25] CT
0 0.447 0.741 RC
2 LJ
1.333 LW
N
252.833 250.5 M
251.815 247.365 L
249.148 245.428 L
245.852 245.428 L
243.185 247.365 L
242.167 250.5 L
243.185 253.635 L
245.852 255.572 L
249.148 255.572 L
251.815 253.635 L
252.833 250.5 L
S
GR
GS
[0.75 0 0 0.75 0 0.25] CT
0 0.447 0.741 RC
2 LJ
1.333 LW
N
264.833 256.5 M
263.815 253.365 L
261.148 251.428 L
257.852 251.428 L
255.185 253.365 L
254.167 256.5 L
255.185 259.635 L
257.852 261.572 L
261.148 261.572 L
263.815 259.635 L
264.833 256.5 L
S
GR
GS
[0.75 0 0 0.75 0 0.25] CT
0 0.447 0.741 RC
2 LJ
1.333 LW
N
275.833 262.5 M
274.815 259.365 L
272.148 257.428 L
268.852 257.428 L
266.185 259.365 L
265.167 262.5 L
266.185 265.635 L
268.852 267.572 L
272.148 267.572 L
274.815 265.635 L
275.833 262.5 L
S
GR
GS
[0.75 0 0 0.75 0 0.25] CT
0 0.447 0.741 RC
2 LJ
1.333 LW
N
287.833 269.5 M
286.815 266.365 L
284.148 264.428 L
280.852 264.428 L
278.185 266.365 L
277.167 269.5 L
278.185 272.635 L
280.852 274.572 L
284.148 274.572 L
286.815 272.635 L
287.833 269.5 L
S
GR
GS
[0.75 0 0 0.75 0 0.25] CT
0 0.447 0.741 RC
2 LJ
1.333 LW
N
299.833 275.5 M
298.815 272.365 L
296.148 270.428 L
292.852 270.428 L
290.185 272.365 L
289.167 275.5 L
290.185 278.635 L
292.852 280.572 L
296.148 280.572 L
298.815 278.635 L
299.833 275.5 L
S
GR
GS
[0.75 0 0 0.75 0 0.25] CT
0 0.447 0.741 RC
2 LJ
1.333 LW
N
311.833 281.5 M
310.815 278.365 L
308.148 276.428 L
304.852 276.428 L
302.185 278.365 L
301.167 281.5 L
302.185 284.635 L
304.852 286.572 L
308.148 286.572 L
310.815 284.635 L
311.833 281.5 L
S
GR
GS
[0.75 0 0 0.75 0 0.25] CT
0 0.447 0.741 RC
2 LJ
1.333 LW
N
323.833 288.5 M
322.815 285.365 L
320.148 283.428 L
316.852 283.428 L
314.185 285.365 L
313.167 288.5 L
314.185 291.635 L
316.852 293.572 L
320.148 293.572 L
322.815 291.635 L
323.833 288.5 L
S
GR
GS
[0.75 0 0 0.75 0 0.25] CT
0 0.447 0.741 RC
2 LJ
1.333 LW
N
334.833 294.5 M
333.815 291.365 L
331.148 289.428 L
327.852 289.428 L
325.185 291.365 L
324.167 294.5 L
325.185 297.635 L
327.852 299.572 L
331.148 299.572 L
333.815 297.635 L
334.833 294.5 L
S
GR
GS
[0.75 0 0 0.75 0 0.25] CT
0 0.447 0.741 RC
2 LJ
1.333 LW
N
346.833 301.5 M
345.815 298.365 L
343.148 296.428 L
339.852 296.428 L
337.185 298.365 L
336.167 301.5 L
337.185 304.635 L
339.852 306.572 L
343.148 306.572 L
345.815 304.635 L
346.833 301.5 L
S
GR
GS
[0.75 0 0 0.75 0 0.25] CT
0 0.447 0.741 RC
2 LJ
1.333 LW
N
358.833 308.5 M
357.815 305.365 L
355.148 303.428 L
351.852 303.428 L
349.185 305.365 L
348.167 308.5 L
349.185 311.635 L
351.852 313.572 L
355.148 313.572 L
357.815 311.635 L
358.833 308.5 L
S
GR
GS
[0.75 0 0 0.75 0 0.25] CT
0 0.447 0.741 RC
2 LJ
1.333 LW
N
370.833 315.5 M
369.815 312.365 L
367.148 310.428 L
363.852 310.428 L
361.185 312.365 L
360.167 315.5 L
361.185 318.635 L
363.852 320.572 L
367.148 320.572 L
369.815 318.635 L
370.833 315.5 L
S
GR
GS
[0.75 0 0 0.75 0 0.25] CT
0 0.447 0.741 RC
2 LJ
1.333 LW
N
381.833 322.5 M
380.815 319.365 L
378.148 317.428 L
374.852 317.428 L
372.185 319.365 L
371.167 322.5 L
372.185 325.635 L
374.852 327.572 L
378.148 327.572 L
380.815 325.635 L
381.833 322.5 L
S
GR
GS
[0.75 0 0 0.75 0 0.25] CT
0 0.447 0.741 RC
2 LJ
1.333 LW
N
393.833 329.5 M
392.815 326.365 L
390.148 324.428 L
386.852 324.428 L
384.185 326.365 L
383.167 329.5 L
384.185 332.635 L
386.852 334.572 L
390.148 334.572 L
392.815 332.635 L
393.833 329.5 L
S
GR
GS
[0.75 0 0 0.75 0 0.25] CT
0 0.447 0.741 RC
2 LJ
1.333 LW
N
405.833 335.5 M
404.815 332.365 L
402.148 330.428 L
398.852 330.428 L
396.185 332.365 L
395.167 335.5 L
396.185 338.635 L
398.852 340.572 L
402.148 340.572 L
404.815 338.635 L
405.833 335.5 L
S
GR
GS
[0.75 0 0 0.75 0 0.25] CT
0 0.447 0.741 RC
2 LJ
1.333 LW
N
417.833 343.5 M
416.815 340.365 L
414.148 338.428 L
410.852 338.428 L
408.185 340.365 L
407.167 343.5 L
408.185 346.635 L
410.852 348.572 L
414.148 348.572 L
416.815 346.635 L
417.833 343.5 L
S
GR
GS
[0.75 0 0 0.75 0 0.25] CT
0 0.447 0.741 RC
2 LJ
1.333 LW
N
428.833 350.5 M
427.815 347.365 L
425.148 345.428 L
421.852 345.428 L
419.185 347.365 L
418.167 350.5 L
419.185 353.635 L
421.852 355.572 L
425.148 355.572 L
427.815 353.635 L
428.833 350.5 L
S
GR
GS
[0.75 0 0 0.75 0 0.25] CT
0 0.447 0.741 RC
2 LJ
1.333 LW
N
440.833 358.5 M
439.815 355.365 L
437.148 353.428 L
433.852 353.428 L
431.185 355.365 L
430.167 358.5 L
431.185 361.635 L
433.852 363.572 L
437.148 363.572 L
439.815 361.635 L
440.833 358.5 L
S
GR
GS
[0.75 0 0 0.75 0 0.25] CT
0 0.447 0.741 RC
2 LJ
1.333 LW
N
452.833 365.5 M
451.815 362.365 L
449.148 360.428 L
445.852 360.428 L
443.185 362.365 L
442.167 365.5 L
443.185 368.635 L
445.852 370.572 L
449.148 370.572 L
451.815 368.635 L
452.833 365.5 L
S
GR
GS
[0.75 0 0 0.75 0 0.25] CT
0 0.447 0.741 RC
2 LJ
1.333 LW
N
464.833 373.5 M
463.815 370.365 L
461.148 368.428 L
457.852 368.428 L
455.185 370.365 L
454.167 373.5 L
455.185 376.635 L
457.852 378.572 L
461.148 378.572 L
463.815 376.635 L
464.833 373.5 L
S
GR
GS
[0.75 0 0 0.75 0 0.25] CT
0 0.447 0.741 RC
2 LJ
1.333 LW
N
476.833 379.5 M
475.815 376.365 L
473.148 374.428 L
469.852 374.428 L
467.185 376.365 L
466.167 379.5 L
467.185 382.635 L
469.852 384.572 L
473.148 384.572 L
475.815 382.635 L
476.833 379.5 L
S
GR
GS
[0.75 0 0 0.75 0 0.25] CT
0 0.447 0.741 RC
2 LJ
1.333 LW
N
487.833 390.5 M
486.815 387.365 L
484.148 385.428 L
480.852 385.428 L
478.185 387.365 L
477.167 390.5 L
478.185 393.635 L
480.852 395.572 L
484.148 395.572 L
486.815 393.635 L
487.833 390.5 L
S
GR
GS
[0.75 0 0 0.75 0 0.25] CT
0 0.447 0.741 RC
2 LJ
1.333 LW
N
499.833 394.5 M
498.815 391.365 L
496.148 389.428 L
492.852 389.428 L
490.185 391.365 L
489.167 394.5 L
490.185 397.635 L
492.852 399.572 L
496.148 399.572 L
498.815 397.635 L
499.833 394.5 L
S
GR
GS
[0.75 0 0 0.75 0 0.25] CT
0 0.447 0.741 RC
2 LJ
1.333 LW
N
511.833 403.5 M
510.815 400.365 L
508.148 398.428 L
504.852 398.428 L
502.185 400.365 L
501.167 403.5 L
502.185 406.635 L
504.852 408.572 L
508.148 408.572 L
510.815 406.635 L
511.833 403.5 L
S
GR
GS
[0.75 0 0 0.75 0 0.25] CT
0 0.447 0.741 RC
2 LJ
1.333 LW
N
523.833 415.5 M
522.815 412.365 L
520.148 410.428 L
516.852 410.428 L
514.185 412.365 L
513.167 415.5 L
514.185 418.635 L
516.852 420.572 L
520.148 420.572 L
522.815 418.635 L
523.833 415.5 L
S
GR
GS
[0.75 0 0 0.75 0 0.25] CT
0 0.447 0.741 RC
2 LJ
1.333 LW
N
534.833 422.5 M
533.815 419.365 L
531.148 417.428 L
527.852 417.428 L
525.185 419.365 L
524.167 422.5 L
525.185 425.635 L
527.852 427.572 L
531.148 427.572 L
533.815 425.635 L
534.833 422.5 L
S
GR
GS
[0.75 0 0 0.75 0 0.25] CT
0 0.447 0.741 RC
2 LJ
1.333 LW
N
546.833 430.5 M
545.815 427.365 L
543.148 425.428 L
539.852 425.428 L
537.185 427.365 L
536.167 430.5 L
537.185 433.635 L
539.852 435.572 L
543.148 435.572 L
545.815 433.635 L
546.833 430.5 L
S
GR
GS
[0.75 0 0 0.75 0 0.25] CT
0 0.447 0.741 RC
2 LJ
1.333 LW
N
558.833 440.5 M
557.815 437.365 L
555.148 435.428 L
551.852 435.428 L
549.185 437.365 L
548.167 440.5 L
549.185 443.635 L
551.852 445.572 L
555.148 445.572 L
557.815 443.635 L
558.833 440.5 L
S
GR
GS
[0.75 0 0 0.75 0 0.25] CT
0 0.447 0.741 RC
2 LJ
1.333 LW
N
570.833 451.5 M
569.815 448.365 L
567.148 446.428 L
563.852 446.428 L
561.185 448.365 L
560.167 451.5 L
561.185 454.635 L
563.852 456.572 L
567.148 456.572 L
569.815 454.635 L
570.833 451.5 L
S
GR
GS
[0.75 0 0 0.75 0 0.25] CT
0 0.447 0.741 RC
2 LJ
1.333 LW
N
581.833 451.5 M
580.815 448.365 L
578.148 446.428 L
574.852 446.428 L
572.185 448.365 L
571.167 451.5 L
572.185 454.635 L
574.852 456.572 L
578.148 456.572 L
580.815 454.635 L
581.833 451.5 L
S
GR
GS
[0.75 0 0 0.75 0 0.25] CT
0 0.447 0.741 RC
2 LJ
1.333 LW
N
593.833 466.5 M
592.815 463.365 L
590.148 461.428 L
586.852 461.428 L
584.185 463.365 L
583.167 466.5 L
584.185 469.635 L
586.852 471.572 L
590.148 471.572 L
592.815 469.635 L
593.833 466.5 L
S
GR
GS
[0.75 0 0 0.75 0 0.25] CT
0 0.447 0.741 RC
2 LJ
1.333 LW
N
605.833 466.5 M
604.815 463.365 L
602.148 461.428 L
598.852 461.428 L
596.185 463.365 L
595.167 466.5 L
596.185 469.635 L
598.852 471.572 L
602.148 471.572 L
604.815 469.635 L
605.833 466.5 L
S
GR
GS
[0.75 0 0 0.75 0 0.25] CT
0 0.447 0.741 RC
2 LJ
1.333 LW
N
617.833 466.5 M
616.815 463.365 L
614.148 461.428 L
610.852 461.428 L
608.185 463.365 L
607.167 466.5 L
608.185 469.635 L
610.852 471.572 L
614.148 471.572 L
616.815 469.635 L
617.833 466.5 L
S
GR
GS
[0.75 0 0 0.75 0 0.25] CT
0 0.447 0.741 RC
2 LJ
1.333 LW
N
628.833 487.5 M
627.815 484.365 L
625.148 482.428 L
621.852 482.428 L
619.185 484.365 L
618.167 487.5 L
619.185 490.635 L
621.852 492.572 L
625.148 492.572 L
627.815 490.635 L
628.833 487.5 L
S
GR
GS
[0.75 0 0 0.75 0 0.25] CT
0 0.447 0.741 RC
2 LJ
1.333 LW
N
640.833 487.5 M
639.815 484.365 L
637.148 482.428 L
633.852 482.428 L
631.185 484.365 L
630.167 487.5 L
631.185 490.635 L
633.852 492.572 L
637.148 492.572 L
639.815 490.635 L
640.833 487.5 L
S
GR
GS
[0.75 0 0 0.75 0 0.25] CT
0 0.447 0.741 RC
2 LJ
1.333 LW
N
652.833 487.5 M
651.815 484.365 L
649.148 482.428 L
645.852 482.428 L
643.185 484.365 L
642.167 487.5 L
643.185 490.635 L
645.852 492.572 L
649.148 492.572 L
651.815 490.635 L
652.833 487.5 L
S
GR
GS
[0.75 0 0 0.75 0 0.25] CT
0 0.447 0.741 RC
2 LJ
1.333 LW
N
664.833 487.5 M
663.815 484.365 L
661.148 482.428 L
657.852 482.428 L
655.185 484.365 L
654.167 487.5 L
655.185 490.635 L
657.852 492.572 L
661.148 492.572 L
663.815 490.635 L
664.833 487.5 L
S
GR
GS
[0.75 0 0 0.75 0 0.25] CT
0 0.447 0.741 RC
2 LJ
1.333 LW
N
676.833 487.5 M
675.815 484.365 L
673.148 482.428 L
669.852 482.428 L
667.185 484.365 L
666.167 487.5 L
667.185 490.635 L
669.852 492.572 L
673.148 492.572 L
675.815 490.635 L
676.833 487.5 L
S
GR
GS
[0.75 0 0 0.75 0 0.25] CT
0 0.447 0.741 RC
2 LJ
1.333 LW
N
687.833 523.5 M
686.815 520.365 L
684.148 518.428 L
680.852 518.428 L
678.185 520.365 L
677.167 523.5 L
678.185 526.635 L
680.852 528.572 L
684.148 528.572 L
686.815 526.635 L
687.833 523.5 L
S
GR
GS
[0.75 0 0 0.75 0 0.25] CT
0 0.447 0.741 RC
2 LJ
1.333 LW
N
699.833 523.5 M
698.815 520.365 L
696.148 518.428 L
692.852 518.428 L
690.185 520.365 L
689.167 523.5 L
690.185 526.635 L
692.852 528.572 L
696.148 528.572 L
698.815 526.635 L
699.833 523.5 L
S
GR
GS
[0.75 0 0 0.75 0 0.25] CT
0 0.447 0.741 RC
2 LJ
1.333 LW
N
711.833 523.5 M
710.815 520.365 L
708.148 518.428 L
704.852 518.428 L
702.185 520.365 L
701.167 523.5 L
702.185 526.635 L
704.852 528.572 L
708.148 528.572 L
710.815 526.635 L
711.833 523.5 L
S
GR
GS
[0.75 0 0 0.75 0 0.25] CT
0 0.447 0.741 RC
2 LJ
1.333 LW
N
723.833 523.5 M
722.815 520.365 L
720.148 518.428 L
716.852 518.428 L
714.185 520.365 L
713.167 523.5 L
714.185 526.635 L
716.852 528.572 L
720.148 528.572 L
722.815 526.635 L
723.833 523.5 L
S
GR
GS
[0.75 0 0 0.75 0 0.25] CT
0 0.447 0.741 RC
2 LJ
1.333 LW
N
734.833 523.5 M
733.815 520.365 L
731.148 518.428 L
727.852 518.428 L
725.185 520.365 L
724.167 523.5 L
725.185 526.635 L
727.852 528.572 L
731.148 528.572 L
733.815 526.635 L
734.833 523.5 L
S
GR
GS
[0.75 0 0 0.75 0 0.25] CT
0 0.447 0.741 RC
2 LJ
1.333 LW
N
746.833 523.5 M
745.815 520.365 L
743.148 518.428 L
739.852 518.428 L
737.185 520.365 L
736.167 523.5 L
737.185 526.635 L
739.852 528.572 L
743.148 528.572 L
745.815 526.635 L
746.833 523.5 L
S
GR
GS
[0.75 0 0 0.75 0 0.25] CT
0 0.447 0.741 RC
2 LJ
1.333 LW
N
758.833 523.5 M
757.815 520.365 L
755.148 518.428 L
751.852 518.428 L
749.185 520.365 L
748.167 523.5 L
749.185 526.635 L
751.852 528.572 L
755.148 528.572 L
757.815 526.635 L
758.833 523.5 L
S
GR
GS
[0.75 0 0 0.75 0 0.25] CT
0 0.447 0.741 RC
2 LJ
1.333 LW
N
770.833 523.5 M
769.815 520.365 L
767.148 518.428 L
763.852 518.428 L
761.185 520.365 L
760.167 523.5 L
761.185 526.635 L
763.852 528.572 L
767.148 528.572 L
769.815 526.635 L
770.833 523.5 L
S
GR
GS
[0.75 0 0 0.75 0 0.25] CT
0 0.447 0.741 RC
2 LJ
1.333 LW
N
781.833 523.5 M
780.815 520.365 L
778.148 518.428 L
774.852 518.428 L
772.185 520.365 L
771.167 523.5 L
772.185 526.635 L
774.852 528.572 L
778.148 528.572 L
780.815 526.635 L
781.833 523.5 L
S
GR
GS
[0.75 0 0 0.75 0 0.25] CT
0 0.447 0.741 RC
2 LJ
1.333 LW
N
793.833 523.5 M
792.815 520.365 L
790.148 518.428 L
786.852 518.428 L
784.185 520.365 L
783.167 523.5 L
784.185 526.635 L
786.852 528.572 L
790.148 528.572 L
792.815 526.635 L
793.833 523.5 L
S
GR
GS
[0.75 0 0 0.75 0 0.25] CT
0 0.447 0.741 RC
2 LJ
1.333 LW
N
805.833 523.5 M
804.815 520.365 L
802.148 518.428 L
798.852 518.428 L
796.185 520.365 L
795.167 523.5 L
796.185 526.635 L
798.852 528.572 L
802.148 528.572 L
804.815 526.635 L
805.833 523.5 L
S
GR
GS
[0.75 0 0 0.75 0 0.25] CT
0 0.447 0.741 RC
2 LJ
1.333 LW
N
817.833 523.5 M
816.815 520.365 L
814.148 518.428 L
810.852 518.428 L
808.185 520.365 L
807.167 523.5 L
808.185 526.635 L
810.852 528.572 L
814.148 528.572 L
816.815 526.635 L
817.833 523.5 L
S
GR
GS
[0.75 0 0 0.75 0 0.25] CT
0 0.447 0.741 RC
2 LJ
1.333 LW
N
829.833 523.5 M
828.815 520.365 L
826.148 518.428 L
822.852 518.428 L
820.185 520.365 L
819.167 523.5 L
820.185 526.635 L
822.852 528.572 L
826.148 528.572 L
828.815 526.635 L
829.833 523.5 L
S
GR
GS
[0.75 0 0 0.75 0 0.25] CT
0 0.447 0.741 RC
[10 6] 0 setdash
2 LJ
1.333 LW
N
118 149.334 M
129.767 155.418 L
141.533 161.507 L
153.3 167.614 L
165.067 173.773 L
176.833 179.904 L
188.6 186.051 L
200.367 192.209 L
212.133 198.381 L
223.9 204.582 L
235.667 210.849 L
247.433 217.099 L
259.2 223.382 L
270.967 229.786 L
282.733 236.039 L
294.5 242.438 L
306.267 248.929 L
318.033 255.434 L
329.8 262.179 L
341.567 268.747 L
353.333 275.818 L
365.1 282.46 L
376.867 289.491 L
388.633 296.285 L
400.4 304.099 L
412.167 311.498 L
423.933 319.092 L
435.7 326.786 L
447.467 334.426 L
459.233 343.382 L
471 352.236 L
482.767 360.593 L
494.533 370.55 L
506.3 379.506 L
518.067 390.327 L
529.833 399.033 L
541.6 409.491 L
553.367 422.588 L
565.133 430.622 L
576.9 451.753 L
588.667 451.753 L
600.433 466.745 L
612.2 466.745 L
623.967 487.876 L
635.733 487.876 L
647.5 487.876 L
659.267 487.876 L
671.033 487.876 L
682.8 524 L
694.567 524 L
706.333 524 L
718.1 524 L
729.867 524 L
741.633 524 L
753.4 524 L
765.167 524 L
776.933 524 L
788.7 524 L
800.467 524 L
812.233 524 L
824 524 L
S
GR
GS
[0.75 0 0 0.75 0 0.25] CT
0 0.447 0.741 RC
2 setlinecap
10.0 ML
1.333 LW
N
118.5 154.832 M
122.5 149.5 L
118.5 144.168 L
114.5 149.5 L
118.5 154.832 L
S
GR
GS
[0.75 0 0 0.75 0 0.25] CT
0 0.447 0.741 RC
2 setlinecap
10.0 ML
1.333 LW
N
129.5 160.832 M
133.5 155.5 L
129.5 150.168 L
125.5 155.5 L
129.5 160.832 L
S
GR
GS
[0.75 0 0 0.75 0 0.25] CT
0 0.447 0.741 RC
2 setlinecap
10.0 ML
1.333 LW
N
141.5 166.832 M
145.5 161.5 L
141.5 156.168 L
137.5 161.5 L
141.5 166.832 L
S
GR
GS
[0.75 0 0 0.75 0 0.25] CT
0 0.447 0.741 RC
2 setlinecap
10.0 ML
1.333 LW
N
153.5 172.832 M
157.5 167.5 L
153.5 162.168 L
149.5 167.5 L
153.5 172.832 L
S
GR
GS
[0.75 0 0 0.75 0 0.25] CT
0 0.447 0.741 RC
2 setlinecap
10.0 ML
1.333 LW
N
165.5 178.832 M
169.5 173.5 L
165.5 168.168 L
161.5 173.5 L
165.5 178.832 L
S
GR
GS
[0.75 0 0 0.75 0 0.25] CT
0 0.447 0.741 RC
2 setlinecap
10.0 ML
1.333 LW
N
176.5 184.832 M
180.5 179.5 L
176.5 174.168 L
172.5 179.5 L
176.5 184.832 L
S
GR
GS
[0.75 0 0 0.75 0 0.25] CT
0 0.447 0.741 RC
2 setlinecap
10.0 ML
1.333 LW
N
188.5 191.832 M
192.5 186.5 L
188.5 181.168 L
184.5 186.5 L
188.5 191.832 L
S
GR
GS
[0.75 0 0 0.75 0 0.25] CT
0 0.447 0.741 RC
2 setlinecap
10.0 ML
1.333 LW
N
200.5 197.832 M
204.5 192.5 L
200.5 187.168 L
196.5 192.5 L
200.5 197.832 L
S
GR
GS
[0.75 0 0 0.75 0 0.25] CT
0 0.447 0.741 RC
2 setlinecap
10.0 ML
1.333 LW
N
212.5 203.832 M
216.5 198.5 L
212.5 193.168 L
208.5 198.5 L
212.5 203.832 L
S
GR
GS
[0.75 0 0 0.75 0 0.25] CT
0 0.447 0.741 RC
2 setlinecap
10.0 ML
1.333 LW
N
223.5 209.832 M
227.5 204.5 L
223.5 199.168 L
219.5 204.5 L
223.5 209.832 L
S
GR
GS
[0.75 0 0 0.75 0 0.25] CT
0 0.447 0.741 RC
2 setlinecap
10.0 ML
1.333 LW
N
235.5 215.832 M
239.5 210.5 L
235.5 205.168 L
231.5 210.5 L
235.5 215.832 L
S
GR
GS
[0.75 0 0 0.75 0 0.25] CT
0 0.447 0.741 RC
2 setlinecap
10.0 ML
1.333 LW
N
247.5 222.832 M
251.5 217.5 L
247.5 212.168 L
243.5 217.5 L
247.5 222.832 L
S
GR
GS
[0.75 0 0 0.75 0 0.25] CT
0 0.447 0.741 RC
2 setlinecap
10.0 ML
1.333 LW
N
259.5 228.832 M
263.5 223.5 L
259.5 218.168 L
255.5 223.5 L
259.5 228.832 L
S
GR
GS
[0.75 0 0 0.75 0 0.25] CT
0 0.447 0.741 RC
2 setlinecap
10.0 ML
1.333 LW
N
270.5 234.832 M
274.5 229.5 L
270.5 224.168 L
266.5 229.5 L
270.5 234.832 L
S
GR
GS
[0.75 0 0 0.75 0 0.25] CT
0 0.447 0.741 RC
2 setlinecap
10.0 ML
1.333 LW
N
282.5 241.832 M
286.5 236.5 L
282.5 231.168 L
278.5 236.5 L
282.5 241.832 L
S
GR
GS
[0.75 0 0 0.75 0 0.25] CT
0 0.447 0.741 RC
2 setlinecap
10.0 ML
1.333 LW
N
294.5 247.832 M
298.5 242.5 L
294.5 237.168 L
290.5 242.5 L
294.5 247.832 L
S
GR
GS
[0.75 0 0 0.75 0 0.25] CT
0 0.447 0.741 RC
2 setlinecap
10.0 ML
1.333 LW
N
306.5 253.832 M
310.5 248.5 L
306.5 243.168 L
302.5 248.5 L
306.5 253.832 L
S
GR
GS
[0.75 0 0 0.75 0 0.25] CT
0 0.447 0.741 RC
2 setlinecap
10.0 ML
1.333 LW
N
318.5 260.832 M
322.5 255.5 L
318.5 250.168 L
314.5 255.5 L
318.5 260.832 L
S
GR
GS
[0.75 0 0 0.75 0 0.25] CT
0 0.447 0.741 RC
2 setlinecap
10.0 ML
1.333 LW
N
329.5 267.832 M
333.5 262.5 L
329.5 257.168 L
325.5 262.5 L
329.5 267.832 L
S
GR
GS
[0.75 0 0 0.75 0 0.25] CT
0 0.447 0.741 RC
2 setlinecap
10.0 ML
1.333 LW
N
341.5 273.832 M
345.5 268.5 L
341.5 263.168 L
337.5 268.5 L
341.5 273.832 L
S
GR
GS
[0.75 0 0 0.75 0 0.25] CT
0 0.447 0.741 RC
2 setlinecap
10.0 ML
1.333 LW
N
353.5 280.832 M
357.5 275.5 L
353.5 270.168 L
349.5 275.5 L
353.5 280.832 L
S
GR
GS
[0.75 0 0 0.75 0 0.25] CT
0 0.447 0.741 RC
2 setlinecap
10.0 ML
1.333 LW
N
365.5 287.832 M
369.5 282.5 L
365.5 277.168 L
361.5 282.5 L
365.5 287.832 L
S
GR
GS
[0.75 0 0 0.75 0 0.25] CT
0 0.447 0.741 RC
2 setlinecap
10.0 ML
1.333 LW
N
376.5 294.832 M
380.5 289.5 L
376.5 284.168 L
372.5 289.5 L
376.5 294.832 L
S
GR
GS
[0.75 0 0 0.75 0 0.25] CT
0 0.447 0.741 RC
2 setlinecap
10.0 ML
1.333 LW
N
388.5 301.832 M
392.5 296.5 L
388.5 291.168 L
384.5 296.5 L
388.5 301.832 L
S
GR
GS
[0.75 0 0 0.75 0 0.25] CT
0 0.447 0.741 RC
2 setlinecap
10.0 ML
1.333 LW
N
400.5 309.832 M
404.5 304.5 L
400.5 299.168 L
396.5 304.5 L
400.5 309.832 L
S
GR
GS
[0.75 0 0 0.75 0 0.25] CT
0 0.447 0.741 RC
2 setlinecap
10.0 ML
1.333 LW
N
412.5 316.832 M
416.5 311.5 L
412.5 306.168 L
408.5 311.5 L
412.5 316.832 L
S
GR
GS
[0.75 0 0 0.75 0 0.25] CT
0 0.447 0.741 RC
2 setlinecap
10.0 ML
1.333 LW
N
423.5 324.832 M
427.5 319.5 L
423.5 314.168 L
419.5 319.5 L
423.5 324.832 L
S
GR
GS
[0.75 0 0 0.75 0 0.25] CT
0 0.447 0.741 RC
2 setlinecap
10.0 ML
1.333 LW
N
435.5 331.832 M
439.5 326.5 L
435.5 321.168 L
431.5 326.5 L
435.5 331.832 L
S
GR
GS
[0.75 0 0 0.75 0 0.25] CT
0 0.447 0.741 RC
2 setlinecap
10.0 ML
1.333 LW
N
447.5 339.832 M
451.5 334.5 L
447.5 329.168 L
443.5 334.5 L
447.5 339.832 L
S
GR
GS
[0.75 0 0 0.75 0 0.25] CT
0 0.447 0.741 RC
2 setlinecap
10.0 ML
1.333 LW
N
459.5 348.832 M
463.5 343.5 L
459.5 338.168 L
455.5 343.5 L
459.5 348.832 L
S
GR
GS
[0.75 0 0 0.75 0 0.25] CT
0 0.447 0.741 RC
2 setlinecap
10.0 ML
1.333 LW
N
471.5 357.832 M
475.5 352.5 L
471.5 347.168 L
467.5 352.5 L
471.5 357.832 L
S
GR
GS
[0.75 0 0 0.75 0 0.25] CT
0 0.447 0.741 RC
2 setlinecap
10.0 ML
1.333 LW
N
482.5 365.832 M
486.5 360.5 L
482.5 355.168 L
478.5 360.5 L
482.5 365.832 L
S
GR
GS
[0.75 0 0 0.75 0 0.25] CT
0 0.447 0.741 RC
2 setlinecap
10.0 ML
1.333 LW
N
494.5 375.832 M
498.5 370.5 L
494.5 365.168 L
490.5 370.5 L
494.5 375.832 L
S
GR
GS
[0.75 0 0 0.75 0 0.25] CT
0 0.447 0.741 RC
2 setlinecap
10.0 ML
1.333 LW
N
506.5 384.832 M
510.5 379.5 L
506.5 374.168 L
502.5 379.5 L
506.5 384.832 L
S
GR
GS
[0.75 0 0 0.75 0 0.25] CT
0 0.447 0.741 RC
2 setlinecap
10.0 ML
1.333 LW
N
518.5 395.832 M
522.5 390.5 L
518.5 385.168 L
514.5 390.5 L
518.5 395.832 L
S
GR
GS
[0.75 0 0 0.75 0 0.25] CT
0 0.447 0.741 RC
2 setlinecap
10.0 ML
1.333 LW
N
529.5 404.832 M
533.5 399.5 L
529.5 394.168 L
525.5 399.5 L
529.5 404.832 L
S
GR
GS
[0.75 0 0 0.75 0 0.25] CT
0 0.447 0.741 RC
2 setlinecap
10.0 ML
1.333 LW
N
541.5 414.832 M
545.5 409.5 L
541.5 404.168 L
537.5 409.5 L
541.5 414.832 L
S
GR
GS
[0.75 0 0 0.75 0 0.25] CT
0 0.447 0.741 RC
2 setlinecap
10.0 ML
1.333 LW
N
553.5 427.832 M
557.5 422.5 L
553.5 417.168 L
549.5 422.5 L
553.5 427.832 L
S
GR
GS
[0.75 0 0 0.75 0 0.25] CT
0 0.447 0.741 RC
2 setlinecap
10.0 ML
1.333 LW
N
565.5 435.832 M
569.5 430.5 L
565.5 425.168 L
561.5 430.5 L
565.5 435.832 L
S
GR
GS
[0.75 0 0 0.75 0 0.25] CT
0 0.447 0.741 RC
2 setlinecap
10.0 ML
1.333 LW
N
576.5 456.832 M
580.5 451.5 L
576.5 446.168 L
572.5 451.5 L
576.5 456.832 L
S
GR
GS
[0.75 0 0 0.75 0 0.25] CT
0 0.447 0.741 RC
2 setlinecap
10.0 ML
1.333 LW
N
588.5 456.832 M
592.5 451.5 L
588.5 446.168 L
584.5 451.5 L
588.5 456.832 L
S
GR
GS
[0.75 0 0 0.75 0 0.25] CT
0 0.447 0.741 RC
2 setlinecap
10.0 ML
1.333 LW
N
600.5 471.832 M
604.5 466.5 L
600.5 461.168 L
596.5 466.5 L
600.5 471.832 L
S
GR
GS
[0.75 0 0 0.75 0 0.25] CT
0 0.447 0.741 RC
2 setlinecap
10.0 ML
1.333 LW
N
612.5 471.832 M
616.5 466.5 L
612.5 461.168 L
608.5 466.5 L
612.5 471.832 L
S
GR
GS
[0.75 0 0 0.75 0 0.25] CT
0 0.447 0.741 RC
2 setlinecap
10.0 ML
1.333 LW
N
623.5 492.832 M
627.5 487.5 L
623.5 482.168 L
619.5 487.5 L
623.5 492.832 L
S
GR
GS
[0.75 0 0 0.75 0 0.25] CT
0 0.447 0.741 RC
2 setlinecap
10.0 ML
1.333 LW
N
635.5 492.832 M
639.5 487.5 L
635.5 482.168 L
631.5 487.5 L
635.5 492.832 L
S
GR
GS
[0.75 0 0 0.75 0 0.25] CT
0 0.447 0.741 RC
2 setlinecap
10.0 ML
1.333 LW
N
647.5 492.832 M
651.5 487.5 L
647.5 482.168 L
643.5 487.5 L
647.5 492.832 L
S
GR
GS
[0.75 0 0 0.75 0 0.25] CT
0 0.447 0.741 RC
2 setlinecap
10.0 ML
1.333 LW
N
659.5 492.832 M
663.5 487.5 L
659.5 482.168 L
655.5 487.5 L
659.5 492.832 L
S
GR
GS
[0.75 0 0 0.75 0 0.25] CT
0 0.447 0.741 RC
2 setlinecap
10.0 ML
1.333 LW
N
671.5 492.832 M
675.5 487.5 L
671.5 482.168 L
667.5 487.5 L
671.5 492.832 L
S
GR
GS
[0.75 0 0 0.75 0 0.25] CT
0 0.447 0.741 RC
2 setlinecap
10.0 ML
1.333 LW
N
682.5 528.832 M
686.5 523.5 L
682.5 518.168 L
678.5 523.5 L
682.5 528.832 L
S
GR
GS
[0.75 0 0 0.75 0 0.25] CT
0 0.447 0.741 RC
2 setlinecap
10.0 ML
1.333 LW
N
694.5 528.832 M
698.5 523.5 L
694.5 518.168 L
690.5 523.5 L
694.5 528.832 L
S
GR
GS
[0.75 0 0 0.75 0 0.25] CT
0 0.447 0.741 RC
2 setlinecap
10.0 ML
1.333 LW
N
706.5 528.832 M
710.5 523.5 L
706.5 518.168 L
702.5 523.5 L
706.5 528.832 L
S
GR
GS
[0.75 0 0 0.75 0 0.25] CT
0 0.447 0.741 RC
2 setlinecap
10.0 ML
1.333 LW
N
718.5 528.832 M
722.5 523.5 L
718.5 518.168 L
714.5 523.5 L
718.5 528.832 L
S
GR
GS
[0.75 0 0 0.75 0 0.25] CT
0 0.447 0.741 RC
2 setlinecap
10.0 ML
1.333 LW
N
729.5 528.832 M
733.5 523.5 L
729.5 518.168 L
725.5 523.5 L
729.5 528.832 L
S
GR
GS
[0.75 0 0 0.75 0 0.25] CT
0 0.447 0.741 RC
2 setlinecap
10.0 ML
1.333 LW
N
741.5 528.832 M
745.5 523.5 L
741.5 518.168 L
737.5 523.5 L
741.5 528.832 L
S
GR
GS
[0.75 0 0 0.75 0 0.25] CT
0 0.447 0.741 RC
2 setlinecap
10.0 ML
1.333 LW
N
753.5 528.832 M
757.5 523.5 L
753.5 518.168 L
749.5 523.5 L
753.5 528.832 L
S
GR
GS
[0.75 0 0 0.75 0 0.25] CT
0 0.447 0.741 RC
2 setlinecap
10.0 ML
1.333 LW
N
765.5 528.832 M
769.5 523.5 L
765.5 518.168 L
761.5 523.5 L
765.5 528.832 L
S
GR
GS
[0.75 0 0 0.75 0 0.25] CT
0 0.447 0.741 RC
2 setlinecap
10.0 ML
1.333 LW
N
776.5 528.832 M
780.5 523.5 L
776.5 518.168 L
772.5 523.5 L
776.5 528.832 L
S
GR
GS
[0.75 0 0 0.75 0 0.25] CT
0 0.447 0.741 RC
2 setlinecap
10.0 ML
1.333 LW
N
788.5 528.832 M
792.5 523.5 L
788.5 518.168 L
784.5 523.5 L
788.5 528.832 L
S
GR
GS
[0.75 0 0 0.75 0 0.25] CT
0 0.447 0.741 RC
2 setlinecap
10.0 ML
1.333 LW
N
800.5 528.832 M
804.5 523.5 L
800.5 518.168 L
796.5 523.5 L
800.5 528.832 L
S
GR
GS
[0.75 0 0 0.75 0 0.25] CT
0 0.447 0.741 RC
2 setlinecap
10.0 ML
1.333 LW
N
812.5 528.832 M
816.5 523.5 L
812.5 518.168 L
808.5 523.5 L
812.5 528.832 L
S
GR
GS
[0.75 0 0 0.75 0 0.25] CT
0 0.447 0.741 RC
2 setlinecap
10.0 ML
1.333 LW
N
824.5 528.832 M
828.5 523.5 L
824.5 518.168 L
820.5 523.5 L
824.5 528.832 L
S
GR
GS
[0.75 0 0 0.75 0 0.25] CT
0.851 0.325 0.098 RC
2 setlinecap
10.0 ML
1.333 LW
N
118 466.745 M
129.767 466.745 L
141.533 466.745 L
153.3 466.745 L
165.067 466.745 L
176.833 466.745 L
188.6 466.745 L
200.367 466.745 L
212.133 466.745 L
223.9 466.745 L
235.667 466.745 L
247.433 466.745 L
259.2 466.745 L
270.967 466.745 L
282.733 466.745 L
294.5 466.745 L
306.267 466.745 L
318.033 466.745 L
329.8 466.745 L
341.567 466.745 L
353.333 466.745 L
365.1 466.745 L
376.867 466.745 L
388.633 466.745 L
400.4 466.745 L
412.167 466.745 L
423.933 466.745 L
435.7 466.745 L
447.467 466.745 L
459.233 466.745 L
471 466.745 L
482.767 466.745 L
494.533 466.745 L
506.3 466.745 L
518.067 466.745 L
529.833 466.745 L
541.6 487.876 L
553.367 487.876 L
565.133 487.876 L
576.9 487.876 L
588.667 487.876 L
600.433 487.876 L
612.2 487.876 L
623.967 487.876 L
635.733 487.876 L
647.5 487.876 L
659.267 487.876 L
671.033 524 L
682.8 524 L
694.567 524 L
S
GR
GS
[0.75 0 0 0.75 0 0.25] CT
0.851 0.325 0.098 RC
2 setlinecap
10.0 ML
1.333 LW
N
694.567 524 M
706.333 524 L
718.1 524 L
729.867 524 L
741.633 524 L
753.4 524 L
765.167 524 L
776.933 524 L
788.7 524 L
800.467 524 L
812.233 524 L
824 524 L
S
GR
GS
[0.75 0 0 0.75 0 0.25] CT
0.851 0.325 0.098 RC
2 setlinecap
10.0 ML
1.333 LW
N
118.5 471.832 M
123.118 463.834 L
113.882 463.834 L
118.5 471.832 L
S
GR
GS
[0.75 0 0 0.75 0 0.25] CT
0.851 0.325 0.098 RC
2 setlinecap
10.0 ML
1.333 LW
N
129.5 471.832 M
134.118 463.834 L
124.882 463.834 L
129.5 471.832 L
S
GR
GS
[0.75 0 0 0.75 0 0.25] CT
0.851 0.325 0.098 RC
2 setlinecap
10.0 ML
1.333 LW
N
141.5 471.832 M
146.118 463.834 L
136.882 463.834 L
141.5 471.832 L
S
GR
GS
[0.75 0 0 0.75 0 0.25] CT
0.851 0.325 0.098 RC
2 setlinecap
10.0 ML
1.333 LW
N
153.5 471.832 M
158.118 463.834 L
148.882 463.834 L
153.5 471.832 L
S
GR
GS
[0.75 0 0 0.75 0 0.25] CT
0.851 0.325 0.098 RC
2 setlinecap
10.0 ML
1.333 LW
N
165.5 471.832 M
170.118 463.834 L
160.882 463.834 L
165.5 471.832 L
S
GR
GS
[0.75 0 0 0.75 0 0.25] CT
0.851 0.325 0.098 RC
2 setlinecap
10.0 ML
1.333 LW
N
176.5 471.832 M
181.118 463.834 L
171.882 463.834 L
176.5 471.832 L
S
GR
GS
[0.75 0 0 0.75 0 0.25] CT
0.851 0.325 0.098 RC
2 setlinecap
10.0 ML
1.333 LW
N
188.5 471.832 M
193.118 463.834 L
183.882 463.834 L
188.5 471.832 L
S
GR
GS
[0.75 0 0 0.75 0 0.25] CT
0.851 0.325 0.098 RC
2 setlinecap
10.0 ML
1.333 LW
N
200.5 471.832 M
205.118 463.834 L
195.882 463.834 L
200.5 471.832 L
S
GR
GS
[0.75 0 0 0.75 0 0.25] CT
0.851 0.325 0.098 RC
2 setlinecap
10.0 ML
1.333 LW
N
212.5 471.832 M
217.118 463.834 L
207.882 463.834 L
212.5 471.832 L
S
GR
GS
[0.75 0 0 0.75 0 0.25] CT
0.851 0.325 0.098 RC
2 setlinecap
10.0 ML
1.333 LW
N
223.5 471.832 M
228.118 463.834 L
218.882 463.834 L
223.5 471.832 L
S
GR
GS
[0.75 0 0 0.75 0 0.25] CT
0.851 0.325 0.098 RC
2 setlinecap
10.0 ML
1.333 LW
N
235.5 471.832 M
240.118 463.834 L
230.882 463.834 L
235.5 471.832 L
S
GR
GS
[0.75 0 0 0.75 0 0.25] CT
0.851 0.325 0.098 RC
2 setlinecap
10.0 ML
1.333 LW
N
247.5 471.832 M
252.118 463.834 L
242.882 463.834 L
247.5 471.832 L
S
GR
GS
[0.75 0 0 0.75 0 0.25] CT
0.851 0.325 0.098 RC
2 setlinecap
10.0 ML
1.333 LW
N
259.5 471.832 M
264.118 463.834 L
254.882 463.834 L
259.5 471.832 L
S
GR
GS
[0.75 0 0 0.75 0 0.25] CT
0.851 0.325 0.098 RC
2 setlinecap
10.0 ML
1.333 LW
N
270.5 471.832 M
275.118 463.834 L
265.882 463.834 L
270.5 471.832 L
S
GR
GS
[0.75 0 0 0.75 0 0.25] CT
0.851 0.325 0.098 RC
2 setlinecap
10.0 ML
1.333 LW
N
282.5 471.832 M
287.118 463.834 L
277.882 463.834 L
282.5 471.832 L
S
GR
GS
[0.75 0 0 0.75 0 0.25] CT
0.851 0.325 0.098 RC
2 setlinecap
10.0 ML
1.333 LW
N
294.5 471.832 M
299.118 463.834 L
289.882 463.834 L
294.5 471.832 L
S
GR
GS
[0.75 0 0 0.75 0 0.25] CT
0.851 0.325 0.098 RC
2 setlinecap
10.0 ML
1.333 LW
N
306.5 471.832 M
311.118 463.834 L
301.882 463.834 L
306.5 471.832 L
S
GR
GS
[0.75 0 0 0.75 0 0.25] CT
0.851 0.325 0.098 RC
2 setlinecap
10.0 ML
1.333 LW
N
318.5 471.832 M
323.118 463.834 L
313.882 463.834 L
318.5 471.832 L
S
GR
GS
[0.75 0 0 0.75 0 0.25] CT
0.851 0.325 0.098 RC
2 setlinecap
10.0 ML
1.333 LW
N
329.5 471.832 M
334.118 463.834 L
324.882 463.834 L
329.5 471.832 L
S
GR
GS
[0.75 0 0 0.75 0 0.25] CT
0.851 0.325 0.098 RC
2 setlinecap
10.0 ML
1.333 LW
N
341.5 471.832 M
346.118 463.834 L
336.882 463.834 L
341.5 471.832 L
S
GR
GS
[0.75 0 0 0.75 0 0.25] CT
0.851 0.325 0.098 RC
2 setlinecap
10.0 ML
1.333 LW
N
353.5 471.832 M
358.118 463.834 L
348.882 463.834 L
353.5 471.832 L
S
GR
GS
[0.75 0 0 0.75 0 0.25] CT
0.851 0.325 0.098 RC
2 setlinecap
10.0 ML
1.333 LW
N
365.5 471.832 M
370.118 463.834 L
360.882 463.834 L
365.5 471.832 L
S
GR
GS
[0.75 0 0 0.75 0 0.25] CT
0.851 0.325 0.098 RC
2 setlinecap
10.0 ML
1.333 LW
N
376.5 471.832 M
381.118 463.834 L
371.882 463.834 L
376.5 471.832 L
S
GR
GS
[0.75 0 0 0.75 0 0.25] CT
0.851 0.325 0.098 RC
2 setlinecap
10.0 ML
1.333 LW
N
388.5 471.832 M
393.118 463.834 L
383.882 463.834 L
388.5 471.832 L
S
GR
GS
[0.75 0 0 0.75 0 0.25] CT
0.851 0.325 0.098 RC
2 setlinecap
10.0 ML
1.333 LW
N
400.5 471.832 M
405.118 463.834 L
395.882 463.834 L
400.5 471.832 L
S
GR
GS
[0.75 0 0 0.75 0 0.25] CT
0.851 0.325 0.098 RC
2 setlinecap
10.0 ML
1.333 LW
N
412.5 471.832 M
417.118 463.834 L
407.882 463.834 L
412.5 471.832 L
S
GR
GS
[0.75 0 0 0.75 0 0.25] CT
0.851 0.325 0.098 RC
2 setlinecap
10.0 ML
1.333 LW
N
423.5 471.832 M
428.118 463.834 L
418.882 463.834 L
423.5 471.832 L
S
GR
GS
[0.75 0 0 0.75 0 0.25] CT
0.851 0.325 0.098 RC
2 setlinecap
10.0 ML
1.333 LW
N
435.5 471.832 M
440.118 463.834 L
430.882 463.834 L
435.5 471.832 L
S
GR
GS
[0.75 0 0 0.75 0 0.25] CT
0.851 0.325 0.098 RC
2 setlinecap
10.0 ML
1.333 LW
N
447.5 471.832 M
452.118 463.834 L
442.882 463.834 L
447.5 471.832 L
S
GR
GS
[0.75 0 0 0.75 0 0.25] CT
0.851 0.325 0.098 RC
2 setlinecap
10.0 ML
1.333 LW
N
459.5 471.832 M
464.118 463.834 L
454.882 463.834 L
459.5 471.832 L
S
GR
GS
[0.75 0 0 0.75 0 0.25] CT
0.851 0.325 0.098 RC
2 setlinecap
10.0 ML
1.333 LW
N
471.5 471.832 M
476.118 463.834 L
466.882 463.834 L
471.5 471.832 L
S
GR
GS
[0.75 0 0 0.75 0 0.25] CT
0.851 0.325 0.098 RC
2 setlinecap
10.0 ML
1.333 LW
N
482.5 471.832 M
487.118 463.834 L
477.882 463.834 L
482.5 471.832 L
S
GR
GS
[0.75 0 0 0.75 0 0.25] CT
0.851 0.325 0.098 RC
2 setlinecap
10.0 ML
1.333 LW
N
494.5 471.832 M
499.118 463.834 L
489.882 463.834 L
494.5 471.832 L
S
GR
GS
[0.75 0 0 0.75 0 0.25] CT
0.851 0.325 0.098 RC
2 setlinecap
10.0 ML
1.333 LW
N
506.5 471.832 M
511.118 463.834 L
501.882 463.834 L
506.5 471.832 L
S
GR
GS
[0.75 0 0 0.75 0 0.25] CT
0.851 0.325 0.098 RC
2 setlinecap
10.0 ML
1.333 LW
N
518.5 471.832 M
523.117 463.834 L
513.883 463.834 L
518.5 471.832 L
S
GR
GS
[0.75 0 0 0.75 0 0.25] CT
0.851 0.325 0.098 RC
2 setlinecap
10.0 ML
1.333 LW
N
529.5 471.832 M
534.117 463.834 L
524.883 463.834 L
529.5 471.832 L
S
GR
GS
[0.75 0 0 0.75 0 0.25] CT
0.851 0.325 0.098 RC
2 setlinecap
10.0 ML
1.333 LW
N
541.5 492.832 M
546.117 484.834 L
536.883 484.834 L
541.5 492.832 L
S
GR
GS
[0.75 0 0 0.75 0 0.25] CT
0.851 0.325 0.098 RC
2 setlinecap
10.0 ML
1.333 LW
N
553.5 492.832 M
558.117 484.834 L
548.883 484.834 L
553.5 492.832 L
S
GR
GS
[0.75 0 0 0.75 0 0.25] CT
0.851 0.325 0.098 RC
2 setlinecap
10.0 ML
1.333 LW
N
565.5 492.832 M
570.117 484.834 L
560.883 484.834 L
565.5 492.832 L
S
GR
GS
[0.75 0 0 0.75 0 0.25] CT
0.851 0.325 0.098 RC
2 setlinecap
10.0 ML
1.333 LW
N
576.5 492.832 M
581.117 484.834 L
571.883 484.834 L
576.5 492.832 L
S
GR
GS
[0.75 0 0 0.75 0 0.25] CT
0.851 0.325 0.098 RC
2 setlinecap
10.0 ML
1.333 LW
N
588.5 492.832 M
593.117 484.834 L
583.883 484.834 L
588.5 492.832 L
S
GR
GS
[0.75 0 0 0.75 0 0.25] CT
0.851 0.325 0.098 RC
2 setlinecap
10.0 ML
1.333 LW
N
600.5 492.832 M
605.117 484.834 L
595.883 484.834 L
600.5 492.832 L
S
GR
GS
[0.75 0 0 0.75 0 0.25] CT
0.851 0.325 0.098 RC
2 setlinecap
10.0 ML
1.333 LW
N
612.5 492.832 M
617.117 484.834 L
607.883 484.834 L
612.5 492.832 L
S
GR
GS
[0.75 0 0 0.75 0 0.25] CT
0.851 0.325 0.098 RC
2 setlinecap
10.0 ML
1.333 LW
N
623.5 492.832 M
628.117 484.834 L
618.883 484.834 L
623.5 492.832 L
S
GR
GS
[0.75 0 0 0.75 0 0.25] CT
0.851 0.325 0.098 RC
2 setlinecap
10.0 ML
1.333 LW
N
635.5 492.832 M
640.117 484.834 L
630.883 484.834 L
635.5 492.832 L
S
GR
GS
[0.75 0 0 0.75 0 0.25] CT
0.851 0.325 0.098 RC
2 setlinecap
10.0 ML
1.333 LW
N
647.5 492.832 M
652.117 484.834 L
642.883 484.834 L
647.5 492.832 L
S
GR
GS
[0.75 0 0 0.75 0 0.25] CT
0.851 0.325 0.098 RC
2 setlinecap
10.0 ML
1.333 LW
N
659.5 492.832 M
664.117 484.834 L
654.883 484.834 L
659.5 492.832 L
S
GR
GS
[0.75 0 0 0.75 0 0.25] CT
0.851 0.325 0.098 RC
2 setlinecap
10.0 ML
1.333 LW
N
671.5 528.832 M
676.117 520.834 L
666.883 520.834 L
671.5 528.832 L
S
GR
GS
[0.75 0 0 0.75 0 0.25] CT
0.851 0.325 0.098 RC
2 setlinecap
10.0 ML
1.333 LW
N
682.5 528.832 M
687.117 520.834 L
677.883 520.834 L
682.5 528.832 L
S
GR
GS
[0.75 0 0 0.75 0 0.25] CT
0.851 0.325 0.098 RC
2 setlinecap
10.0 ML
1.333 LW
N
694.5 528.832 M
699.117 520.834 L
689.883 520.834 L
694.5 528.832 L
S
GR
GS
[0.75 0 0 0.75 0 0.25] CT
0.851 0.325 0.098 RC
2 setlinecap
10.0 ML
1.333 LW
N
706.5 528.832 M
711.117 520.834 L
701.883 520.834 L
706.5 528.832 L
S
GR
GS
[0.75 0 0 0.75 0 0.25] CT
0.851 0.325 0.098 RC
2 setlinecap
10.0 ML
1.333 LW
N
718.5 528.832 M
723.117 520.834 L
713.883 520.834 L
718.5 528.832 L
S
GR
GS
[0.75 0 0 0.75 0 0.25] CT
0.851 0.325 0.098 RC
2 setlinecap
10.0 ML
1.333 LW
N
729.5 528.832 M
734.117 520.834 L
724.883 520.834 L
729.5 528.832 L
S
GR
GS
[0.75 0 0 0.75 0 0.25] CT
0.851 0.325 0.098 RC
2 setlinecap
10.0 ML
1.333 LW
N
741.5 528.832 M
746.117 520.834 L
736.883 520.834 L
741.5 528.832 L
S
GR
GS
[0.75 0 0 0.75 0 0.25] CT
0.851 0.325 0.098 RC
2 setlinecap
10.0 ML
1.333 LW
N
753.5 528.832 M
758.117 520.834 L
748.883 520.834 L
753.5 528.832 L
S
GR
GS
[0.75 0 0 0.75 0 0.25] CT
0.851 0.325 0.098 RC
2 setlinecap
10.0 ML
1.333 LW
N
765.5 528.832 M
770.117 520.834 L
760.883 520.834 L
765.5 528.832 L
S
GR
GS
[0.75 0 0 0.75 0 0.25] CT
0.851 0.325 0.098 RC
2 setlinecap
10.0 ML
1.333 LW
N
776.5 528.832 M
781.117 520.834 L
771.883 520.834 L
776.5 528.832 L
S
GR
GS
[0.75 0 0 0.75 0 0.25] CT
0.851 0.325 0.098 RC
2 setlinecap
10.0 ML
1.333 LW
N
788.5 528.832 M
793.117 520.834 L
783.883 520.834 L
788.5 528.832 L
S
GR
GS
[0.75 0 0 0.75 0 0.25] CT
0.851 0.325 0.098 RC
2 setlinecap
10.0 ML
1.333 LW
N
800.5 528.832 M
805.117 520.834 L
795.883 520.834 L
800.5 528.832 L
S
GR
GS
[0.75 0 0 0.75 0 0.25] CT
0.851 0.325 0.098 RC
2 setlinecap
10.0 ML
1.333 LW
N
812.5 528.832 M
817.117 520.834 L
807.883 520.834 L
812.5 528.832 L
S
GR
GS
[0.75 0 0 0.75 0 0.25] CT
0.851 0.325 0.098 RC
2 setlinecap
10.0 ML
1.333 LW
N
824.5 528.832 M
829.117 520.834 L
819.883 520.834 L
824.5 528.832 L
S
GR
GS
[0.75 0 0 0.75 0 0.25] CT
0.851 0.325 0.098 RC
[10 6] 0 setdash
2 LJ
1.333 LW
N
118 164.576 M
129.767 170.662 L
141.533 176.815 L
153.3 182.962 L
165.067 189.081 L
176.833 195.251 L
188.6 201.497 L
200.367 207.742 L
212.133 214.016 L
223.9 220.223 L
235.667 226.572 L
247.433 232.819 L
259.2 239.251 L
270.967 245.832 L
282.733 252.222 L
294.5 258.858 L
306.267 265.36 L
318.033 272.371 L
329.8 279.033 L
341.567 286.127 L
353.333 293.086 L
365.1 300.401 L
376.867 307.258 L
388.633 315.156 L
400.4 322.251 L
412.167 330.466 L
423.933 338.712 L
435.7 346.745 L
447.467 356.247 L
459.233 365.334 L
471 373.367 L
482.767 386.465 L
494.533 394.498 L
506.3 404 L
518.067 415.629 L
529.833 430.622 L
541.6 440.124 L
553.367 451.753 L
565.133 466.745 L
576.9 466.745 L
588.667 466.745 L
600.433 487.876 L
612.2 487.876 L
623.967 487.876 L
635.733 487.876 L
647.5 487.876 L
659.267 487.876 L
671.033 487.876 L
682.8 524 L
694.567 524 L
706.333 524 L
718.1 524 L
729.867 524 L
741.633 524 L
753.4 524 L
765.167 524 L
776.933 524 L
788.7 524 L
800.467 524 L
812.233 524 L
824 524 L
S
GR
GS
[0.75 0 0 0.75 0 0.25] CT
0.851 0.325 0.098 RC
2 setlinecap
10.0 ML
1.333 LW
N
114 164.5 M
123 164.5 L
S
GR
GS
[0.75 0 0 0.75 0 0.25] CT
0.851 0.325 0.098 RC
2 setlinecap
10.0 ML
1.333 LW
N
118.5 169 M
118.5 160 L
S
GR
GS
[0.75 0 0 0.75 0 0.25] CT
0.851 0.325 0.098 RC
2 setlinecap
10.0 ML
1.333 LW
N
125 170.5 M
134 170.5 L
S
GR
GS
[0.75 0 0 0.75 0 0.25] CT
0.851 0.325 0.098 RC
2 setlinecap
10.0 ML
1.333 LW
N
129.5 175 M
129.5 166 L
S
GR
GS
[0.75 0 0 0.75 0 0.25] CT
0.851 0.325 0.098 RC
2 setlinecap
10.0 ML
1.333 LW
N
137 176.5 M
146 176.5 L
S
GR
GS
[0.75 0 0 0.75 0 0.25] CT
0.851 0.325 0.098 RC
2 setlinecap
10.0 ML
1.333 LW
N
141.5 181 M
141.5 172 L
S
GR
GS
[0.75 0 0 0.75 0 0.25] CT
0.851 0.325 0.098 RC
2 setlinecap
10.0 ML
1.333 LW
N
149 182.5 M
158 182.5 L
S
GR
GS
[0.75 0 0 0.75 0 0.25] CT
0.851 0.325 0.098 RC
2 setlinecap
10.0 ML
1.333 LW
N
153.5 187 M
153.5 178 L
S
GR
GS
[0.75 0 0 0.75 0 0.25] CT
0.851 0.325 0.098 RC
2 setlinecap
10.0 ML
1.333 LW
N
161 189.5 M
170 189.5 L
S
GR
GS
[0.75 0 0 0.75 0 0.25] CT
0.851 0.325 0.098 RC
2 setlinecap
10.0 ML
1.333 LW
N
165.5 194 M
165.5 185 L
S
GR
GS
[0.75 0 0 0.75 0 0.25] CT
0.851 0.325 0.098 RC
2 setlinecap
10.0 ML
1.333 LW
N
172 195.5 M
181 195.5 L
S
GR
GS
[0.75 0 0 0.75 0 0.25] CT
0.851 0.325 0.098 RC
2 setlinecap
10.0 ML
1.333 LW
N
176.5 200 M
176.5 191 L
S
GR
GS
[0.75 0 0 0.75 0 0.25] CT
0.851 0.325 0.098 RC
2 setlinecap
10.0 ML
1.333 LW
N
184 201.5 M
193 201.5 L
S
GR
GS
[0.75 0 0 0.75 0 0.25] CT
0.851 0.325 0.098 RC
2 setlinecap
10.0 ML
1.333 LW
N
188.5 206 M
188.5 197 L
S
GR
GS
[0.75 0 0 0.75 0 0.25] CT
0.851 0.325 0.098 RC
2 setlinecap
10.0 ML
1.333 LW
N
196 207.5 M
205 207.5 L
S
GR
GS
[0.75 0 0 0.75 0 0.25] CT
0.851 0.325 0.098 RC
2 setlinecap
10.0 ML
1.333 LW
N
200.5 212 M
200.5 203 L
S
GR
GS
[0.75 0 0 0.75 0 0.25] CT
0.851 0.325 0.098 RC
2 setlinecap
10.0 ML
1.333 LW
N
208 214.5 M
217 214.5 L
S
GR
GS
[0.75 0 0 0.75 0 0.25] CT
0.851 0.325 0.098 RC
2 setlinecap
10.0 ML
1.333 LW
N
212.5 219 M
212.5 210 L
S
GR
GS
[0.75 0 0 0.75 0 0.25] CT
0.851 0.325 0.098 RC
2 setlinecap
10.0 ML
1.333 LW
N
219 220.5 M
228 220.5 L
S
GR
GS
[0.75 0 0 0.75 0 0.25] CT
0.851 0.325 0.098 RC
2 setlinecap
10.0 ML
1.333 LW
N
223.5 225 M
223.5 216 L
S
GR
GS
[0.75 0 0 0.75 0 0.25] CT
0.851 0.325 0.098 RC
2 setlinecap
10.0 ML
1.333 LW
N
231 226.5 M
240 226.5 L
S
GR
GS
[0.75 0 0 0.75 0 0.25] CT
0.851 0.325 0.098 RC
2 setlinecap
10.0 ML
1.333 LW
N
235.5 231 M
235.5 222 L
S
GR
GS
[0.75 0 0 0.75 0 0.25] CT
0.851 0.325 0.098 RC
2 setlinecap
10.0 ML
1.333 LW
N
243 232.5 M
252 232.5 L
S
GR
GS
[0.75 0 0 0.75 0 0.25] CT
0.851 0.325 0.098 RC
2 setlinecap
10.0 ML
1.333 LW
N
247.5 237 M
247.5 228 L
S
GR
GS
[0.75 0 0 0.75 0 0.25] CT
0.851 0.325 0.098 RC
2 setlinecap
10.0 ML
1.333 LW
N
255 239.5 M
264 239.5 L
S
GR
GS
[0.75 0 0 0.75 0 0.25] CT
0.851 0.325 0.098 RC
2 setlinecap
10.0 ML
1.333 LW
N
259.5 244 M
259.5 235 L
S
GR
GS
[0.75 0 0 0.75 0 0.25] CT
0.851 0.325 0.098 RC
2 setlinecap
10.0 ML
1.333 LW
N
266 245.5 M
275 245.5 L
S
GR
GS
[0.75 0 0 0.75 0 0.25] CT
0.851 0.325 0.098 RC
2 setlinecap
10.0 ML
1.333 LW
N
270.5 250 M
270.5 241 L
S
GR
GS
[0.75 0 0 0.75 0 0.25] CT
0.851 0.325 0.098 RC
2 setlinecap
10.0 ML
1.333 LW
N
278 252.5 M
287 252.5 L
S
GR
GS
[0.75 0 0 0.75 0 0.25] CT
0.851 0.325 0.098 RC
2 setlinecap
10.0 ML
1.333 LW
N
282.5 257 M
282.5 248 L
S
GR
GS
[0.75 0 0 0.75 0 0.25] CT
0.851 0.325 0.098 RC
2 setlinecap
10.0 ML
1.333 LW
N
290 258.5 M
299 258.5 L
S
GR
GS
[0.75 0 0 0.75 0 0.25] CT
0.851 0.325 0.098 RC
2 setlinecap
10.0 ML
1.333 LW
N
294.5 263 M
294.5 254 L
S
GR
GS
[0.75 0 0 0.75 0 0.25] CT
0.851 0.325 0.098 RC
2 setlinecap
10.0 ML
1.333 LW
N
302 265.5 M
311 265.5 L
S
GR
GS
[0.75 0 0 0.75 0 0.25] CT
0.851 0.325 0.098 RC
2 setlinecap
10.0 ML
1.333 LW
N
306.5 270 M
306.5 261 L
S
GR
GS
[0.75 0 0 0.75 0 0.25] CT
0.851 0.325 0.098 RC
2 setlinecap
10.0 ML
1.333 LW
N
314 272.5 M
323 272.5 L
S
GR
GS
[0.75 0 0 0.75 0 0.25] CT
0.851 0.325 0.098 RC
2 setlinecap
10.0 ML
1.333 LW
N
318.5 277 M
318.5 268 L
S
GR
GS
[0.75 0 0 0.75 0 0.25] CT
0.851 0.325 0.098 RC
2 setlinecap
10.0 ML
1.333 LW
N
325 279.5 M
334 279.5 L
S
GR
GS
[0.75 0 0 0.75 0 0.25] CT
0.851 0.325 0.098 RC
2 setlinecap
10.0 ML
1.333 LW
N
329.5 284 M
329.5 275 L
S
GR
GS
[0.75 0 0 0.75 0 0.25] CT
0.851 0.325 0.098 RC
2 setlinecap
10.0 ML
1.333 LW
N
337 286.5 M
346 286.5 L
S
GR
GS
[0.75 0 0 0.75 0 0.25] CT
0.851 0.325 0.098 RC
2 setlinecap
10.0 ML
1.333 LW
N
341.5 291 M
341.5 282 L
S
GR
GS
[0.75 0 0 0.75 0 0.25] CT
0.851 0.325 0.098 RC
2 setlinecap
10.0 ML
1.333 LW
N
349 293.5 M
358 293.5 L
S
GR
GS
[0.75 0 0 0.75 0 0.25] CT
0.851 0.325 0.098 RC
2 setlinecap
10.0 ML
1.333 LW
N
353.5 298 M
353.5 289 L
S
GR
GS
[0.75 0 0 0.75 0 0.25] CT
0.851 0.325 0.098 RC
2 setlinecap
10.0 ML
1.333 LW
N
361 300.5 M
370 300.5 L
S
GR
GS
[0.75 0 0 0.75 0 0.25] CT
0.851 0.325 0.098 RC
2 setlinecap
10.0 ML
1.333 LW
N
365.5 305 M
365.5 296 L
S
GR
GS
[0.75 0 0 0.75 0 0.25] CT
0.851 0.325 0.098 RC
2 setlinecap
10.0 ML
1.333 LW
N
372 307.5 M
381 307.5 L
S
GR
GS
[0.75 0 0 0.75 0 0.25] CT
0.851 0.325 0.098 RC
2 setlinecap
10.0 ML
1.333 LW
N
376.5 312 M
376.5 303 L
S
GR
GS
[0.75 0 0 0.75 0 0.25] CT
0.851 0.325 0.098 RC
2 setlinecap
10.0 ML
1.333 LW
N
384 315.5 M
393 315.5 L
S
GR
GS
[0.75 0 0 0.75 0 0.25] CT
0.851 0.325 0.098 RC
2 setlinecap
10.0 ML
1.333 LW
N
388.5 320 M
388.5 311 L
S
GR
GS
[0.75 0 0 0.75 0 0.25] CT
0.851 0.325 0.098 RC
2 setlinecap
10.0 ML
1.333 LW
N
396 322.5 M
405 322.5 L
S
GR
GS
[0.75 0 0 0.75 0 0.25] CT
0.851 0.325 0.098 RC
2 setlinecap
10.0 ML
1.333 LW
N
400.5 327 M
400.5 318 L
S
GR
GS
[0.75 0 0 0.75 0 0.25] CT
0.851 0.325 0.098 RC
2 setlinecap
10.0 ML
1.333 LW
N
408 330.5 M
417 330.5 L
S
GR
GS
[0.75 0 0 0.75 0 0.25] CT
0.851 0.325 0.098 RC
2 setlinecap
10.0 ML
1.333 LW
N
412.5 335 M
412.5 326 L
S
GR
GS
[0.75 0 0 0.75 0 0.25] CT
0.851 0.325 0.098 RC
2 setlinecap
10.0 ML
1.333 LW
N
419 338.5 M
428 338.5 L
S
GR
GS
[0.75 0 0 0.75 0 0.25] CT
0.851 0.325 0.098 RC
2 setlinecap
10.0 ML
1.333 LW
N
423.5 343 M
423.5 334 L
S
GR
GS
[0.75 0 0 0.75 0 0.25] CT
0.851 0.325 0.098 RC
2 setlinecap
10.0 ML
1.333 LW
N
431 346.5 M
440 346.5 L
S
GR
GS
[0.75 0 0 0.75 0 0.25] CT
0.851 0.325 0.098 RC
2 setlinecap
10.0 ML
1.333 LW
N
435.5 351 M
435.5 342 L
S
GR
GS
[0.75 0 0 0.75 0 0.25] CT
0.851 0.325 0.098 RC
2 setlinecap
10.0 ML
1.333 LW
N
443 356.5 M
452 356.5 L
S
GR
GS
[0.75 0 0 0.75 0 0.25] CT
0.851 0.325 0.098 RC
2 setlinecap
10.0 ML
1.333 LW
N
447.5 361 M
447.5 352 L
S
GR
GS
[0.75 0 0 0.75 0 0.25] CT
0.851 0.325 0.098 RC
2 setlinecap
10.0 ML
1.333 LW
N
455 365.5 M
464 365.5 L
S
GR
GS
[0.75 0 0 0.75 0 0.25] CT
0.851 0.325 0.098 RC
2 setlinecap
10.0 ML
1.333 LW
N
459.5 370 M
459.5 361 L
S
GR
GS
[0.75 0 0 0.75 0 0.25] CT
0.851 0.325 0.098 RC
2 setlinecap
10.0 ML
1.333 LW
N
467 373.5 M
476 373.5 L
S
GR
GS
[0.75 0 0 0.75 0 0.25] CT
0.851 0.325 0.098 RC
2 setlinecap
10.0 ML
1.333 LW
N
471.5 378 M
471.5 369 L
S
GR
GS
[0.75 0 0 0.75 0 0.25] CT
0.851 0.325 0.098 RC
2 setlinecap
10.0 ML
1.333 LW
N
478 386.5 M
487 386.5 L
S
GR
GS
[0.75 0 0 0.75 0 0.25] CT
0.851 0.325 0.098 RC
2 setlinecap
10.0 ML
1.333 LW
N
482.5 391 M
482.5 382 L
S
GR
GS
[0.75 0 0 0.75 0 0.25] CT
0.851 0.325 0.098 RC
2 setlinecap
10.0 ML
1.333 LW
N
490 394.5 M
499 394.5 L
S
GR
GS
[0.75 0 0 0.75 0 0.25] CT
0.851 0.325 0.098 RC
2 setlinecap
10.0 ML
1.333 LW
N
494.5 399 M
494.5 390 L
S
GR
GS
[0.75 0 0 0.75 0 0.25] CT
0.851 0.325 0.098 RC
2 setlinecap
10.0 ML
1.333 LW
N
502 403.5 M
511 403.5 L
S
GR
GS
[0.75 0 0 0.75 0 0.25] CT
0.851 0.325 0.098 RC
2 setlinecap
10.0 ML
1.333 LW
N
506.5 408 M
506.5 399 L
S
GR
GS
[0.75 0 0 0.75 0 0.25] CT
0.851 0.325 0.098 RC
2 setlinecap
10.0 ML
1.333 LW
N
514 415.5 M
523 415.5 L
S
GR
GS
[0.75 0 0 0.75 0 0.25] CT
0.851 0.325 0.098 RC
2 setlinecap
10.0 ML
1.333 LW
N
518.5 420 M
518.5 411 L
S
GR
GS
[0.75 0 0 0.75 0 0.25] CT
0.851 0.325 0.098 RC
2 setlinecap
10.0 ML
1.333 LW
N
525 430.5 M
534 430.5 L
S
GR
GS
[0.75 0 0 0.75 0 0.25] CT
0.851 0.325 0.098 RC
2 setlinecap
10.0 ML
1.333 LW
N
529.5 435 M
529.5 426 L
S
GR
GS
[0.75 0 0 0.75 0 0.25] CT
0.851 0.325 0.098 RC
2 setlinecap
10.0 ML
1.333 LW
N
537 440.5 M
546 440.5 L
S
GR
GS
[0.75 0 0 0.75 0 0.25] CT
0.851 0.325 0.098 RC
2 setlinecap
10.0 ML
1.333 LW
N
541.5 445 M
541.5 436 L
S
GR
GS
[0.75 0 0 0.75 0 0.25] CT
0.851 0.325 0.098 RC
2 setlinecap
10.0 ML
1.333 LW
N
549 451.5 M
558 451.5 L
S
GR
GS
[0.75 0 0 0.75 0 0.25] CT
0.851 0.325 0.098 RC
2 setlinecap
10.0 ML
1.333 LW
N
553.5 456 M
553.5 447 L
S
GR
GS
[0.75 0 0 0.75 0 0.25] CT
0.851 0.325 0.098 RC
2 setlinecap
10.0 ML
1.333 LW
N
561 466.5 M
570 466.5 L
S
GR
GS
[0.75 0 0 0.75 0 0.25] CT
0.851 0.325 0.098 RC
2 setlinecap
10.0 ML
1.333 LW
N
565.5 471 M
565.5 462 L
S
GR
GS
[0.75 0 0 0.75 0 0.25] CT
0.851 0.325 0.098 RC
2 setlinecap
10.0 ML
1.333 LW
N
572 466.5 M
581 466.5 L
S
GR
GS
[0.75 0 0 0.75 0 0.25] CT
0.851 0.325 0.098 RC
2 setlinecap
10.0 ML
1.333 LW
N
576.5 471 M
576.5 462 L
S
GR
GS
[0.75 0 0 0.75 0 0.25] CT
0.851 0.325 0.098 RC
2 setlinecap
10.0 ML
1.333 LW
N
584 466.5 M
593 466.5 L
S
GR
GS
[0.75 0 0 0.75 0 0.25] CT
0.851 0.325 0.098 RC
2 setlinecap
10.0 ML
1.333 LW
N
588.5 471 M
588.5 462 L
S
GR
GS
[0.75 0 0 0.75 0 0.25] CT
0.851 0.325 0.098 RC
2 setlinecap
10.0 ML
1.333 LW
N
596 487.5 M
605 487.5 L
S
GR
GS
[0.75 0 0 0.75 0 0.25] CT
0.851 0.325 0.098 RC
2 setlinecap
10.0 ML
1.333 LW
N
600.5 492 M
600.5 483 L
S
GR
GS
[0.75 0 0 0.75 0 0.25] CT
0.851 0.325 0.098 RC
2 setlinecap
10.0 ML
1.333 LW
N
608 487.5 M
617 487.5 L
S
GR
GS
[0.75 0 0 0.75 0 0.25] CT
0.851 0.325 0.098 RC
2 setlinecap
10.0 ML
1.333 LW
N
612.5 492 M
612.5 483 L
S
GR
GS
[0.75 0 0 0.75 0 0.25] CT
0.851 0.325 0.098 RC
2 setlinecap
10.0 ML
1.333 LW
N
619 487.5 M
628 487.5 L
S
GR
GS
[0.75 0 0 0.75 0 0.25] CT
0.851 0.325 0.098 RC
2 setlinecap
10.0 ML
1.333 LW
N
623.5 492 M
623.5 483 L
S
GR
GS
[0.75 0 0 0.75 0 0.25] CT
0.851 0.325 0.098 RC
2 setlinecap
10.0 ML
1.333 LW
N
631 487.5 M
640 487.5 L
S
GR
GS
[0.75 0 0 0.75 0 0.25] CT
0.851 0.325 0.098 RC
2 setlinecap
10.0 ML
1.333 LW
N
635.5 492 M
635.5 483 L
S
GR
GS
[0.75 0 0 0.75 0 0.25] CT
0.851 0.325 0.098 RC
2 setlinecap
10.0 ML
1.333 LW
N
643 487.5 M
652 487.5 L
S
GR
GS
[0.75 0 0 0.75 0 0.25] CT
0.851 0.325 0.098 RC
2 setlinecap
10.0 ML
1.333 LW
N
647.5 492 M
647.5 483 L
S
GR
GS
[0.75 0 0 0.75 0 0.25] CT
0.851 0.325 0.098 RC
2 setlinecap
10.0 ML
1.333 LW
N
655 487.5 M
664 487.5 L
S
GR
GS
[0.75 0 0 0.75 0 0.25] CT
0.851 0.325 0.098 RC
2 setlinecap
10.0 ML
1.333 LW
N
659.5 492 M
659.5 483 L
S
GR
GS
[0.75 0 0 0.75 0 0.25] CT
0.851 0.325 0.098 RC
2 setlinecap
10.0 ML
1.333 LW
N
667 487.5 M
676 487.5 L
S
GR
GS
[0.75 0 0 0.75 0 0.25] CT
0.851 0.325 0.098 RC
2 setlinecap
10.0 ML
1.333 LW
N
671.5 492 M
671.5 483 L
S
GR
GS
[0.75 0 0 0.75 0 0.25] CT
0.851 0.325 0.098 RC
2 setlinecap
10.0 ML
1.333 LW
N
678 523.5 M
687 523.5 L
S
GR
GS
[0.75 0 0 0.75 0 0.25] CT
0.851 0.325 0.098 RC
2 setlinecap
10.0 ML
1.333 LW
N
682.5 528 M
682.5 519 L
S
GR
GS
[0.75 0 0 0.75 0 0.25] CT
0.851 0.325 0.098 RC
2 setlinecap
10.0 ML
1.333 LW
N
690 523.5 M
699 523.5 L
S
GR
GS
[0.75 0 0 0.75 0 0.25] CT
0.851 0.325 0.098 RC
2 setlinecap
10.0 ML
1.333 LW
N
694.5 528 M
694.5 519 L
S
GR
GS
[0.75 0 0 0.75 0 0.25] CT
0.851 0.325 0.098 RC
2 setlinecap
10.0 ML
1.333 LW
N
702 523.5 M
711 523.5 L
S
GR
GS
[0.75 0 0 0.75 0 0.25] CT
0.851 0.325 0.098 RC
2 setlinecap
10.0 ML
1.333 LW
N
706.5 528 M
706.5 519 L
S
GR
GS
[0.75 0 0 0.75 0 0.25] CT
0.851 0.325 0.098 RC
2 setlinecap
10.0 ML
1.333 LW
N
714 523.5 M
723 523.5 L
S
GR
GS
[0.75 0 0 0.75 0 0.25] CT
0.851 0.325 0.098 RC
2 setlinecap
10.0 ML
1.333 LW
N
718.5 528 M
718.5 519 L
S
GR
GS
[0.75 0 0 0.75 0 0.25] CT
0.851 0.325 0.098 RC
2 setlinecap
10.0 ML
1.333 LW
N
725 523.5 M
734 523.5 L
S
GR
GS
[0.75 0 0 0.75 0 0.25] CT
0.851 0.325 0.098 RC
2 setlinecap
10.0 ML
1.333 LW
N
729.5 528 M
729.5 519 L
S
GR
GS
[0.75 0 0 0.75 0 0.25] CT
0.851 0.325 0.098 RC
2 setlinecap
10.0 ML
1.333 LW
N
737 523.5 M
746 523.5 L
S
GR
GS
[0.75 0 0 0.75 0 0.25] CT
0.851 0.325 0.098 RC
2 setlinecap
10.0 ML
1.333 LW
N
741.5 528 M
741.5 519 L
S
GR
GS
[0.75 0 0 0.75 0 0.25] CT
0.851 0.325 0.098 RC
2 setlinecap
10.0 ML
1.333 LW
N
749 523.5 M
758 523.5 L
S
GR
GS
[0.75 0 0 0.75 0 0.25] CT
0.851 0.325 0.098 RC
2 setlinecap
10.0 ML
1.333 LW
N
753.5 528 M
753.5 519 L
S
GR
GS
[0.75 0 0 0.75 0 0.25] CT
0.851 0.325 0.098 RC
2 setlinecap
10.0 ML
1.333 LW
N
761 523.5 M
770 523.5 L
S
GR
GS
[0.75 0 0 0.75 0 0.25] CT
0.851 0.325 0.098 RC
2 setlinecap
10.0 ML
1.333 LW
N
765.5 528 M
765.5 519 L
S
GR
GS
[0.75 0 0 0.75 0 0.25] CT
0.851 0.325 0.098 RC
2 setlinecap
10.0 ML
1.333 LW
N
772 523.5 M
781 523.5 L
S
GR
GS
[0.75 0 0 0.75 0 0.25] CT
0.851 0.325 0.098 RC
2 setlinecap
10.0 ML
1.333 LW
N
776.5 528 M
776.5 519 L
S
GR
GS
[0.75 0 0 0.75 0 0.25] CT
0.851 0.325 0.098 RC
2 setlinecap
10.0 ML
1.333 LW
N
784 523.5 M
793 523.5 L
S
GR
GS
[0.75 0 0 0.75 0 0.25] CT
0.851 0.325 0.098 RC
2 setlinecap
10.0 ML
1.333 LW
N
788.5 528 M
788.5 519 L
S
GR
GS
[0.75 0 0 0.75 0 0.25] CT
0.851 0.325 0.098 RC
2 setlinecap
10.0 ML
1.333 LW
N
796 523.5 M
805 523.5 L
S
GR
GS
[0.75 0 0 0.75 0 0.25] CT
0.851 0.325 0.098 RC
2 setlinecap
10.0 ML
1.333 LW
N
800.5 528 M
800.5 519 L
S
GR
GS
[0.75 0 0 0.75 0 0.25] CT
0.851 0.325 0.098 RC
2 setlinecap
10.0 ML
1.333 LW
N
808 523.5 M
817 523.5 L
S
GR
GS
[0.75 0 0 0.75 0 0.25] CT
0.851 0.325 0.098 RC
2 setlinecap
10.0 ML
1.333 LW
N
812.5 528 M
812.5 519 L
S
GR
GS
[0.75 0 0 0.75 0 0.25] CT
0.851 0.325 0.098 RC
2 setlinecap
10.0 ML
1.333 LW
N
820 523.5 M
829 523.5 L
S
GR
GS
[0.75 0 0 0.75 0 0.25] CT
0.851 0.325 0.098 RC
2 setlinecap
10.0 ML
1.333 LW
N
824.5 528 M
824.5 519 L
S
GR
GS
[0.75 0 0 0.75 0 0.25] CT
1 GC
N
302 153 M
302 57 L
811 57 L
811 153 L
cp
f
GR
GS
[0.75 0 0 0.75 265.5 53.32168] CT
/Times-Roman 19 F
GS
[1 0 0 1 0 0] CT
0 7 moveto 
1 -1 scale
(CP-OFDM secondary, PSD-based measure of Interference) t 
GR
GR
GS
[0.75 0 0 0.75 0 0.25] CT
0 0.447 0.741 RC
2 setlinecap
10.0 ML
1.333 LW
N
310 70.762 M
350 70.762 L
S
GR
GS
[0.75 0 0 0.75 0 0.25] CT
0 0.447 0.741 RC
2 setlinecap
10.0 ML
1.333 LW
N
335.833 70.5 M
334.815 67.365 L
332.148 65.428 L
328.852 65.428 L
326.185 67.365 L
325.167 70.5 L
326.185 73.635 L
328.852 75.572 L
332.148 75.572 L
334.815 73.635 L
335.833 70.5 L
S
GR
GS
[0.75 0 0 0.75 265.5 70.44056] CT
/Times-Roman 19 F
GS
[1 0 0 1 0 0] CT
0 7 moveto 
1 -1 scale
(CP-OFDM secondary, EVM-based measure of Interference) t 
GR
GR
GS
[0.75 0 0 0.75 0 0.25] CT
0 0.447 0.741 RC
[10 6] 0 setdash
2 LJ
1.333 LW
N
310 93.587 M
350 93.587 L
S
GR
GS
[0.75 0 0 0.75 0 0.25] CT
0 0.447 0.741 RC
2 setlinecap
10.0 ML
1.333 LW
N
330.5 98.832 M
334.5 93.5 L
330.5 88.168 L
326.5 93.5 L
330.5 98.832 L
S
GR
GS
[0.75 0 0 0.75 265.5 87.55944] CT
/Times-Roman 19 F
GS
[1 0 0 1 0 0] CT
0 7 moveto 
1 -1 scale
(FB secondary, PSD-based measure of Interference) t 
GR
GR
GS
[0.75 0 0 0.75 0 0.25] CT
0.851 0.325 0.098 RC
2 setlinecap
10.0 ML
1.333 LW
N
310 116.413 M
350 116.413 L
S
GR
GS
[0.75 0 0 0.75 0 0.25] CT
0.851 0.325 0.098 RC
2 setlinecap
10.0 ML
1.333 LW
N
330.5 121.832 M
335.118 113.834 L
325.882 113.834 L
330.5 121.832 L
S
GR
GS
[0.75 0 0 0.75 265.5 104.67832] CT
/Times-Roman 19 F
GS
[1 0 0 1 0 0] CT
0 7 moveto 
1 -1 scale
(FB secondary, EVM-based measure of Interference) t 
GR
GR
GS
[0.75 0 0 0.75 0 0.25] CT
0.851 0.325 0.098 RC
[10 6] 0 setdash
2 LJ
1.333 LW
N
310 139.238 M
350 139.238 L
S
GR
GS
[0.75 0 0 0.75 0 0.25] CT
0.851 0.325 0.098 RC
2 setlinecap
10.0 ML
1.333 LW
N
326 139.5 M
335 139.5 L
S
GR
GS
[0.75 0 0 0.75 0 0.25] CT
0.851 0.325 0.098 RC
2 setlinecap
10.0 ML
1.333 LW
N
330.5 144 M
330.5 135 L
S
GR
GS
[0.75 0 0 0.75 0 0.25] CT
0.149 GC
2 setlinecap
10.0 ML
N
302 153 M
302 57 L
811 57 L
811 153 L
302 153 L
S
GR
%%Trailer
%%Pages: 1
%%EOF
