%!PS-Adobe-3.0 EPSF-3.0
%%Creator: (MATLAB, The Mathworks, Inc. Version 8.5.0.197613 \(R2015a\). Operating System: Windows 7)
%%Title: C:/Users/quentin_bodinier/Documents/MATLAB/RB_leakage/MSE1SubC/maxMSEcomp1subC.eps
%%CreationDate: 2015-10-16T18:08:34
%%Pages: (atend)
%%BoundingBox: 0 0 500 421
%%LanguageLevel: 2
%%EndComments
%%BeginProlog
%%BeginResource: procset (Apache XML Graphics Std ProcSet) 1.2 0
%%Version: 1.2 0
%%Copyright: (Copyright 2001-2003,2010 The Apache Software Foundation. License terms: http://www.apache.org/licenses/LICENSE-2.0)
/bd{bind def}bind def
/ld{load def}bd
/GR/grestore ld
/M/moveto ld
/LJ/setlinejoin ld
/C/curveto ld
/f/fill ld
/LW/setlinewidth ld
/GC/setgray ld
/t/show ld
/N/newpath ld
/CT/concat ld
/cp/closepath ld
/S/stroke ld
/L/lineto ld
/CC/setcmykcolor ld
/A/ashow ld
/GS/gsave ld
/RC/setrgbcolor ld
/RM/rmoveto ld
/ML/setmiterlimit ld
/re {4 2 roll M
1 index 0 rlineto
0 exch rlineto
neg 0 rlineto
cp } bd
/_ctm matrix def
/_tm matrix def
/BT { _ctm currentmatrix pop matrix _tm copy pop 0 0 moveto } bd
/ET { _ctm setmatrix } bd
/iTm { _ctm setmatrix _tm concat } bd
/Tm { _tm astore pop iTm 0 0 moveto } bd
/ux 0.0 def
/uy 0.0 def
/F {
  /Tp exch def
  /Tf exch def
  Tf findfont Tp scalefont setfont
  /cf Tf def  /cs Tp def
} bd
/ULS {currentpoint /uy exch def /ux exch def} bd
/ULE {
  /Tcx currentpoint pop def
  gsave
  newpath
  cf findfont cs scalefont dup
  /FontMatrix get 0 get /Ts exch def /FontInfo get dup
  /UnderlinePosition get Ts mul /To exch def
  /UnderlineThickness get Ts mul /Tt exch def
  ux uy To add moveto  Tcx uy To add lineto
  Tt setlinewidth stroke
  grestore
} bd
/OLE {
  /Tcx currentpoint pop def
  gsave
  newpath
  cf findfont cs scalefont dup
  /FontMatrix get 0 get /Ts exch def /FontInfo get dup
  /UnderlinePosition get Ts mul /To exch def
  /UnderlineThickness get Ts mul /Tt exch def
  ux uy To add cs add moveto Tcx uy To add cs add lineto
  Tt setlinewidth stroke
  grestore
} bd
/SOE {
  /Tcx currentpoint pop def
  gsave
  newpath
  cf findfont cs scalefont dup
  /FontMatrix get 0 get /Ts exch def /FontInfo get dup
  /UnderlinePosition get Ts mul /To exch def
  /UnderlineThickness get Ts mul /Tt exch def
  ux uy To add cs 10 mul 26 idiv add moveto Tcx uy To add cs 10 mul 26 idiv add lineto
  Tt setlinewidth stroke
  grestore
} bd
/QT {
/Y22 exch store
/X22 exch store
/Y21 exch store
/X21 exch store
currentpoint
/Y21 load 2 mul add 3 div exch
/X21 load 2 mul add 3 div exch
/X21 load 2 mul /X22 load add 3 div
/Y21 load 2 mul /Y22 load add 3 div
/X22 load /Y22 load curveto
} bd
/SSPD {
dup length /d exch dict def
{
/v exch def
/k exch def
currentpagedevice k known {
/cpdv currentpagedevice k get def
v cpdv ne {
/upd false def
/nullv v type /nulltype eq def
/nullcpdv cpdv type /nulltype eq def
nullv nullcpdv or
{
/upd true def
} {
/sametype v type cpdv type eq def
sametype {
v type /arraytype eq {
/vlen v length def
/cpdvlen cpdv length def
vlen cpdvlen eq {
0 1 vlen 1 sub {
/i exch def
/obj v i get def
/cpdobj cpdv i get def
obj cpdobj ne {
/upd true def
exit
} if
} for
} {
/upd true def
} ifelse
} {
v type /dicttype eq {
v {
/dv exch def
/dk exch def
/cpddv cpdv dk get def
dv cpddv ne {
/upd true def
exit
} if
} forall
} {
/upd true def
} ifelse
} ifelse
} if
} ifelse
upd true eq {
d k v put
} if
} if
} if
} forall
d length 0 gt {
d setpagedevice
} if
} bd
%%EndResource
%%BeginResource: procset (Apache XML Graphics EPS ProcSet) 1.0 0
%%Version: 1.0 0
%%Copyright: (Copyright 2002-2003 The Apache Software Foundation. License terms: http://www.apache.org/licenses/LICENSE-2.0)
/BeginEPSF { %def
/b4_Inc_state save def         % Save state for cleanup
/dict_count countdictstack def % Count objects on dict stack
/op_count count 1 sub def      % Count objects on operand stack
userdict begin                 % Push userdict on dict stack
/showpage { } def              % Redefine showpage, { } = null proc
0 setgray 0 setlinecap         % Prepare graphics state
1 setlinewidth 0 setlinejoin
10 setmiterlimit [ ] 0 setdash newpath
/languagelevel where           % If level not equal to 1 then
{pop languagelevel             % set strokeadjust and
1 ne                           % overprint to their defaults.
{false setstrokeadjust false setoverprint
} if
} if
} bd
/EndEPSF { %def
count op_count sub {pop} repeat            % Clean up stacks
countdictstack dict_count sub {end} repeat
b4_Inc_state restore
} bd
%%EndResource
%FOPBeginFontDict
%%IncludeResource: font Courier-Bold
%%IncludeResource: font Helvetica
%%IncludeResource: font Courier-BoldOblique
%%IncludeResource: font Courier-Oblique
%%IncludeResource: font Times-Roman
%%IncludeResource: font Helvetica-BoldOblique
%%IncludeResource: font Helvetica-Bold
%%IncludeResource: font Helvetica-Oblique
%%IncludeResource: font Times-BoldItalic
%%IncludeResource: font Courier
%%IncludeResource: font Times-Italic
%%IncludeResource: font Times-Bold
%%IncludeResource: font Symbol
%%IncludeResource: font ZapfDingbats
%FOPEndFontDict
%%BeginResource: encoding WinAnsiEncoding
/WinAnsiEncoding [
/.notdef /.notdef /.notdef /.notdef /.notdef
/.notdef /.notdef /.notdef /.notdef /.notdef
/.notdef /.notdef /.notdef /.notdef /.notdef
/.notdef /.notdef /.notdef /.notdef /.notdef
/.notdef /.notdef /.notdef /.notdef /.notdef
/.notdef /.notdef /.notdef /.notdef /.notdef
/.notdef /.notdef /space /exclam /quotedbl
/numbersign /dollar /percent /ampersand /quotesingle
/parenleft /parenright /asterisk /plus /comma
/hyphen /period /slash /zero /one
/two /three /four /five /six
/seven /eight /nine /colon /semicolon
/less /equal /greater /question /at
/A /B /C /D /E
/F /G /H /I /J
/K /L /M /N /O
/P /Q /R /S /T
/U /V /W /X /Y
/Z /bracketleft /backslash /bracketright /asciicircum
/underscore /quoteleft /a /b /c
/d /e /f /g /h
/i /j /k /l /m
/n /o /p /q /r
/s /t /u /v /w
/x /y /z /braceleft /bar
/braceright /asciitilde /bullet /Euro /bullet
/quotesinglbase /florin /quotedblbase /ellipsis /dagger
/daggerdbl /circumflex /perthousand /Scaron /guilsinglleft
/OE /bullet /Zcaron /bullet /bullet
/quoteleft /quoteright /quotedblleft /quotedblright /bullet
/endash /emdash /asciitilde /trademark /scaron
/guilsinglright /oe /bullet /zcaron /Ydieresis
/space /exclamdown /cent /sterling /currency
/yen /brokenbar /section /dieresis /copyright
/ordfeminine /guillemotleft /logicalnot /sfthyphen /registered
/macron /degree /plusminus /twosuperior /threesuperior
/acute /mu /paragraph /middot /cedilla
/onesuperior /ordmasculine /guillemotright /onequarter /onehalf
/threequarters /questiondown /Agrave /Aacute /Acircumflex
/Atilde /Adieresis /Aring /AE /Ccedilla
/Egrave /Eacute /Ecircumflex /Edieresis /Igrave
/Iacute /Icircumflex /Idieresis /Eth /Ntilde
/Ograve /Oacute /Ocircumflex /Otilde /Odieresis
/multiply /Oslash /Ugrave /Uacute /Ucircumflex
/Udieresis /Yacute /Thorn /germandbls /agrave
/aacute /acircumflex /atilde /adieresis /aring
/ae /ccedilla /egrave /eacute /ecircumflex
/edieresis /igrave /iacute /icircumflex /idieresis
/eth /ntilde /ograve /oacute /ocircumflex
/otilde /odieresis /divide /oslash /ugrave
/uacute /ucircumflex /udieresis /yacute /thorn
/ydieresis
] def
%%EndResource
%FOPBeginFontReencode
/Courier-Bold findfont
dup length dict begin
  {1 index /FID ne {def} {pop pop} ifelse} forall
  /Encoding WinAnsiEncoding def
  currentdict
end
/Courier-Bold exch definefont pop
/Helvetica findfont
dup length dict begin
  {1 index /FID ne {def} {pop pop} ifelse} forall
  /Encoding WinAnsiEncoding def
  currentdict
end
/Helvetica exch definefont pop
/Courier-BoldOblique findfont
dup length dict begin
  {1 index /FID ne {def} {pop pop} ifelse} forall
  /Encoding WinAnsiEncoding def
  currentdict
end
/Courier-BoldOblique exch definefont pop
/Courier-Oblique findfont
dup length dict begin
  {1 index /FID ne {def} {pop pop} ifelse} forall
  /Encoding WinAnsiEncoding def
  currentdict
end
/Courier-Oblique exch definefont pop
/Times-Roman findfont
dup length dict begin
  {1 index /FID ne {def} {pop pop} ifelse} forall
  /Encoding WinAnsiEncoding def
  currentdict
end
/Times-Roman exch definefont pop
/Helvetica-BoldOblique findfont
dup length dict begin
  {1 index /FID ne {def} {pop pop} ifelse} forall
  /Encoding WinAnsiEncoding def
  currentdict
end
/Helvetica-BoldOblique exch definefont pop
/Helvetica-Bold findfont
dup length dict begin
  {1 index /FID ne {def} {pop pop} ifelse} forall
  /Encoding WinAnsiEncoding def
  currentdict
end
/Helvetica-Bold exch definefont pop
/Helvetica-Oblique findfont
dup length dict begin
  {1 index /FID ne {def} {pop pop} ifelse} forall
  /Encoding WinAnsiEncoding def
  currentdict
end
/Helvetica-Oblique exch definefont pop
/Times-BoldItalic findfont
dup length dict begin
  {1 index /FID ne {def} {pop pop} ifelse} forall
  /Encoding WinAnsiEncoding def
  currentdict
end
/Times-BoldItalic exch definefont pop
/Courier findfont
dup length dict begin
  {1 index /FID ne {def} {pop pop} ifelse} forall
  /Encoding WinAnsiEncoding def
  currentdict
end
/Courier exch definefont pop
/Times-Italic findfont
dup length dict begin
  {1 index /FID ne {def} {pop pop} ifelse} forall
  /Encoding WinAnsiEncoding def
  currentdict
end
/Times-Italic exch definefont pop
/Times-Bold findfont
dup length dict begin
  {1 index /FID ne {def} {pop pop} ifelse} forall
  /Encoding WinAnsiEncoding def
  currentdict
end
/Times-Bold exch definefont pop
%FOPEndFontReencode
%%EndProlog
%%Page: 1 1
%%PageBoundingBox: 0 0 500 421
%%BeginPageSetup
[1 0 0 -1 0 421] CT
%%EndPageSetup
GS
[0.75 0 0 0.75 0 0.25] CT
N
0 0 M
666 0 L
666 561 L
0 561 L
0 0 L
cp
clip
1 GC
N
0 0 666 561 re
f
GR
GS
[0.75 0 0 0.75 0 0.25] CT
1 GC
N
0 0 666 561 re
f
GR
GS
[0.75 0 0 0.75 0 0.25] CT
1 GC
N
87 499 M
603 499 L
603 42 L
87 42 L
cp
f
GR
GS
[0.75 0 0 0.75 0 0.25] CT
0.873 GC
2 setlinecap
10.0 ML
N
87 499 M
87 42 L
S
GR
GS
[0.75 0 0 0.75 0 0.25] CT
0.873 GC
2 setlinecap
10.0 ML
N
138.6 499 M
138.6 42 L
S
GR
GS
[0.75 0 0 0.75 0 0.25] CT
0.873 GC
2 setlinecap
10.0 ML
N
190.2 499 M
190.2 42 L
S
GR
GS
[0.75 0 0 0.75 0 0.25] CT
0.873 GC
2 setlinecap
10.0 ML
N
241.8 499 M
241.8 42 L
S
GR
GS
[0.75 0 0 0.75 0 0.25] CT
0.873 GC
2 setlinecap
10.0 ML
N
293.4 499 M
293.4 42 L
S
GR
GS
[0.75 0 0 0.75 0 0.25] CT
0.873 GC
2 setlinecap
10.0 ML
N
345 499 M
345 42 L
S
GR
GS
[0.75 0 0 0.75 0 0.25] CT
0.873 GC
2 setlinecap
10.0 ML
N
396.6 499 M
396.6 42 L
S
GR
GS
[0.75 0 0 0.75 0 0.25] CT
0.873 GC
2 setlinecap
10.0 ML
N
448.2 499 M
448.2 42 L
S
GR
GS
[0.75 0 0 0.75 0 0.25] CT
0.873 GC
2 setlinecap
10.0 ML
N
499.8 499 M
499.8 42 L
S
GR
GS
[0.75 0 0 0.75 0 0.25] CT
0.873 GC
2 setlinecap
10.0 ML
N
551.4 499 M
551.4 42 L
S
GR
GS
[0.75 0 0 0.75 0 0.25] CT
0.873 GC
2 setlinecap
10.0 ML
N
603 499 M
603 42 L
S
GR
GS
[0.75 0 0 0.75 0 0.25] CT
0.873 GC
2 setlinecap
10.0 ML
N
603 499 M
87 499 L
S
GR
GS
[0.75 0 0 0.75 0 0.25] CT
0.873 GC
2 setlinecap
10.0 ML
N
603 435.528 M
87 435.528 L
S
GR
GS
[0.75 0 0 0.75 0 0.25] CT
0.873 GC
2 setlinecap
10.0 ML
N
603 372.056 M
87 372.056 L
S
GR
GS
[0.75 0 0 0.75 0 0.25] CT
0.873 GC
2 setlinecap
10.0 ML
N
603 308.583 M
87 308.583 L
S
GR
GS
[0.75 0 0 0.75 0 0.25] CT
0.873 GC
2 setlinecap
10.0 ML
N
603 245.111 M
87 245.111 L
S
GR
GS
[0.75 0 0 0.75 0 0.25] CT
0.873 GC
2 setlinecap
10.0 ML
N
603 181.639 M
87 181.639 L
S
GR
GS
[0.75 0 0 0.75 0 0.25] CT
0.873 GC
2 setlinecap
10.0 ML
N
603 118.167 M
87 118.167 L
S
GR
GS
[0.75 0 0 0.75 0 0.25] CT
0.873 GC
2 setlinecap
10.0 ML
N
603 54.694 M
87 54.694 L
S
GR
GS
[0.75 0 0 0.75 258.75014 396.8] CT
0.149 GC
/Times-Roman 19 F
GS
[1 0 0 1 0 0] CT
-75.5 18 moveto 
1 -1 scale
(Subcarrier Distance) t 
GR
GR
GS
[0.75 0 0 0.75 0 0.25] CT
0.149 GC
2 setlinecap
10.0 ML
N
87 499 M
603 499 L
S
GR
GS
[0.75 0 0 0.75 0 0.25] CT
0.149 GC
2 setlinecap
10.0 ML
N
87 42 M
603 42 L
S
GR
GS
[0.75 0 0 0.75 0 0.25] CT
0.149 GC
2 setlinecap
10.0 ML
N
87 499 M
87 493.84 L
S
GR
GS
[0.75 0 0 0.75 0 0.25] CT
0.149 GC
2 setlinecap
10.0 ML
N
138.6 499 M
138.6 493.84 L
S
GR
GS
[0.75 0 0 0.75 0 0.25] CT
0.149 GC
2 setlinecap
10.0 ML
N
190.2 499 M
190.2 493.84 L
S
GR
GS
[0.75 0 0 0.75 0 0.25] CT
0.149 GC
2 setlinecap
10.0 ML
N
241.8 499 M
241.8 493.84 L
S
GR
GS
[0.75 0 0 0.75 0 0.25] CT
0.149 GC
2 setlinecap
10.0 ML
N
293.4 499 M
293.4 493.84 L
S
GR
GS
[0.75 0 0 0.75 0 0.25] CT
0.149 GC
2 setlinecap
10.0 ML
N
345 499 M
345 493.84 L
S
GR
GS
[0.75 0 0 0.75 0 0.25] CT
0.149 GC
2 setlinecap
10.0 ML
N
396.6 499 M
396.6 493.84 L
S
GR
GS
[0.75 0 0 0.75 0 0.25] CT
0.149 GC
2 setlinecap
10.0 ML
N
448.2 499 M
448.2 493.84 L
S
GR
GS
[0.75 0 0 0.75 0 0.25] CT
0.149 GC
2 setlinecap
10.0 ML
N
499.8 499 M
499.8 493.84 L
S
GR
GS
[0.75 0 0 0.75 0 0.25] CT
0.149 GC
2 setlinecap
10.0 ML
N
551.4 499 M
551.4 493.84 L
S
GR
GS
[0.75 0 0 0.75 0 0.25] CT
0.149 GC
2 setlinecap
10.0 ML
N
603 499 M
603 493.84 L
S
GR
GS
[0.75 0 0 0.75 0 0.25] CT
0.149 GC
2 setlinecap
10.0 ML
N
87 42 M
87 47.16 L
S
GR
GS
[0.75 0 0 0.75 0 0.25] CT
0.149 GC
2 setlinecap
10.0 ML
N
138.6 42 M
138.6 47.16 L
S
GR
GS
[0.75 0 0 0.75 0 0.25] CT
0.149 GC
2 setlinecap
10.0 ML
N
190.2 42 M
190.2 47.16 L
S
GR
GS
[0.75 0 0 0.75 0 0.25] CT
0.149 GC
2 setlinecap
10.0 ML
N
241.8 42 M
241.8 47.16 L
S
GR
GS
[0.75 0 0 0.75 0 0.25] CT
0.149 GC
2 setlinecap
10.0 ML
N
293.4 42 M
293.4 47.16 L
S
GR
GS
[0.75 0 0 0.75 0 0.25] CT
0.149 GC
2 setlinecap
10.0 ML
N
345 42 M
345 47.16 L
S
GR
GS
[0.75 0 0 0.75 0 0.25] CT
0.149 GC
2 setlinecap
10.0 ML
N
396.6 42 M
396.6 47.16 L
S
GR
GS
[0.75 0 0 0.75 0 0.25] CT
0.149 GC
2 setlinecap
10.0 ML
N
448.2 42 M
448.2 47.16 L
S
GR
GS
[0.75 0 0 0.75 0 0.25] CT
0.149 GC
2 setlinecap
10.0 ML
N
499.8 42 M
499.8 47.16 L
S
GR
GS
[0.75 0 0 0.75 0 0.25] CT
0.149 GC
2 setlinecap
10.0 ML
N
551.4 42 M
551.4 47.16 L
S
GR
GS
[0.75 0 0 0.75 0 0.25] CT
0.149 GC
2 setlinecap
10.0 ML
N
603 42 M
603 47.16 L
S
GR
GS
[0.75 0 0 0.75 65.25 379.3] CT
0.149 GC
/Times-Roman 19 F
GS
[1 0 0 1 0 0] CT
-13 18 moveto 
1 -1 scale
(-10) t 
GR
GR
GS
[0.75 0 0 0.75 103.95 379.3] CT
0.149 GC
/Times-Roman 19 F
GS
[1 0 0 1 0 0] CT
-8 18 moveto 
1 -1 scale
(-8) t 
GR
GR
GS
[0.75 0 0 0.75 142.65 379.3] CT
0.149 GC
/Times-Roman 19 F
GS
[1 0 0 1 0 0] CT
-8 18 moveto 
1 -1 scale
(-6) t 
GR
GR
GS
[0.75 0 0 0.75 181.35 379.3] CT
0.149 GC
/Times-Roman 19 F
GS
[1 0 0 1 0 0] CT
-8 18 moveto 
1 -1 scale
(-4) t 
GR
GR
GS
[0.75 0 0 0.75 220.05 379.3] CT
0.149 GC
/Times-Roman 19 F
GS
[1 0 0 1 0 0] CT
-8 18 moveto 
1 -1 scale
(-2) t 
GR
GR
GS
[0.75 0 0 0.75 258.75 379.3] CT
0.149 GC
/Times-Roman 19 F
GS
[1 0 0 1 0 0] CT
-5 18 moveto 
1 -1 scale
(0) t 
GR
GR
GS
[0.75 0 0 0.75 297.45 379.3] CT
0.149 GC
/Times-Roman 19 F
GS
[1 0 0 1 0 0] CT
-5 18 moveto 
1 -1 scale
(2) t 
GR
GR
GS
[0.75 0 0 0.75 336.15001 379.3] CT
0.149 GC
/Times-Roman 19 F
GS
[1 0 0 1 0 0] CT
-5 18 moveto 
1 -1 scale
(4) t 
GR
GR
GS
[0.75 0 0 0.75 374.84999 379.3] CT
0.149 GC
/Times-Roman 19 F
GS
[1 0 0 1 0 0] CT
-5 18 moveto 
1 -1 scale
(6) t 
GR
GR
GS
[0.75 0 0 0.75 413.55002 379.3] CT
0.149 GC
/Times-Roman 19 F
GS
[1 0 0 1 0 0] CT
-5 18 moveto 
1 -1 scale
(8) t 
GR
GR
GS
[0.75 0 0 0.75 452.25 379.3] CT
0.149 GC
/Times-Roman 19 F
GS
[1 0 0 1 0 0] CT
-9.5 18 moveto 
1 -1 scale
(10) t 
GR
GR
GS
[0 -0.75 0.75 0 37.95004 203.12484] CT
0.149 GC
/Times-Roman 19 F
GS
[1 0 0 1 0 0] CT
-143 -4 moveto 
1 -1 scale
(Maximum injected interference in dB) t 
GR
GR
GS
[0.75 0 0 0.75 0 0.25] CT
0.149 GC
2 setlinecap
10.0 ML
N
87 499 M
87 42 L
S
GR
GS
[0.75 0 0 0.75 0 0.25] CT
0.149 GC
2 setlinecap
10.0 ML
N
603 499 M
603 42 L
S
GR
GS
[0.75 0 0 0.75 0 0.25] CT
0.149 GC
2 setlinecap
10.0 ML
N
87 499 M
92.16 499 L
S
GR
GS
[0.75 0 0 0.75 0 0.25] CT
0.149 GC
2 setlinecap
10.0 ML
N
87 435.528 M
92.16 435.528 L
S
GR
GS
[0.75 0 0 0.75 0 0.25] CT
0.149 GC
2 setlinecap
10.0 ML
N
87 372.056 M
92.16 372.056 L
S
GR
GS
[0.75 0 0 0.75 0 0.25] CT
0.149 GC
2 setlinecap
10.0 ML
N
87 308.583 M
92.16 308.583 L
S
GR
GS
[0.75 0 0 0.75 0 0.25] CT
0.149 GC
2 setlinecap
10.0 ML
N
87 245.111 M
92.16 245.111 L
S
GR
GS
[0.75 0 0 0.75 0 0.25] CT
0.149 GC
2 setlinecap
10.0 ML
N
87 181.639 M
92.16 181.639 L
S
GR
GS
[0.75 0 0 0.75 0 0.25] CT
0.149 GC
2 setlinecap
10.0 ML
N
87 118.167 M
92.16 118.167 L
S
GR
GS
[0.75 0 0 0.75 0 0.25] CT
0.149 GC
2 setlinecap
10.0 ML
N
87 54.694 M
92.16 54.694 L
S
GR
GS
[0.75 0 0 0.75 0 0.25] CT
0.149 GC
2 setlinecap
10.0 ML
N
603 499 M
597.84 499 L
S
GR
GS
[0.75 0 0 0.75 0 0.25] CT
0.149 GC
2 setlinecap
10.0 ML
N
603 435.528 M
597.84 435.528 L
S
GR
GS
[0.75 0 0 0.75 0 0.25] CT
0.149 GC
2 setlinecap
10.0 ML
N
603 372.056 M
597.84 372.056 L
S
GR
GS
[0.75 0 0 0.75 0 0.25] CT
0.149 GC
2 setlinecap
10.0 ML
N
603 308.583 M
597.84 308.583 L
S
GR
GS
[0.75 0 0 0.75 0 0.25] CT
0.149 GC
2 setlinecap
10.0 ML
N
603 245.111 M
597.84 245.111 L
S
GR
GS
[0.75 0 0 0.75 0 0.25] CT
0.149 GC
2 setlinecap
10.0 ML
N
603 181.639 M
597.84 181.639 L
S
GR
GS
[0.75 0 0 0.75 0 0.25] CT
0.149 GC
2 setlinecap
10.0 ML
N
603 118.167 M
597.84 118.167 L
S
GR
GS
[0.75 0 0 0.75 0 0.25] CT
0.149 GC
2 setlinecap
10.0 ML
N
603 54.694 M
597.84 54.694 L
S
GR
GS
[0.75 0 0 0.75 60.45 374.5] CT
0.149 GC
/Times-Roman 19 F
GS
[1 0 0 1 0 0] CT
-26 7 moveto 
1 -1 scale
(-35) t 
GR
GR
GS
[0.75 0 0 0.75 60.45 326.89583] CT
0.149 GC
/Times-Roman 19 F
GS
[1 0 0 1 0 0] CT
-26 7 moveto 
1 -1 scale
(-30) t 
GR
GR
GS
[0.75 0 0 0.75 60.45 279.29166] CT
0.149 GC
/Times-Roman 19 F
GS
[1 0 0 1 0 0] CT
-26 7 moveto 
1 -1 scale
(-25) t 
GR
GR
GS
[0.75 0 0 0.75 60.45 231.68751] CT
0.149 GC
/Times-Roman 19 F
GS
[1 0 0 1 0 0] CT
-26 7 moveto 
1 -1 scale
(-20) t 
GR
GR
GS
[0.75 0 0 0.75 60.45 184.08334] CT
0.149 GC
/Times-Roman 19 F
GS
[1 0 0 1 0 0] CT
-26 7 moveto 
1 -1 scale
(-15) t 
GR
GR
GS
[0.75 0 0 0.75 60.45 136.47916] CT
0.149 GC
/Times-Roman 19 F
GS
[1 0 0 1 0 0] CT
-26 7 moveto 
1 -1 scale
(-10) t 
GR
GR
GS
[0.75 0 0 0.75 60.45 88.875] CT
0.149 GC
/Times-Roman 19 F
GS
[1 0 0 1 0 0] CT
-16 7 moveto 
1 -1 scale
(-5) t 
GR
GR
GS
[0.75 0 0 0.75 60.45 41.27083] CT
0.149 GC
/Times-Roman 19 F
GS
[1 0 0 1 0 0] CT
-10 7 moveto 
1 -1 scale
(0) t 
GR
GR
GS
[0.75 0 0 0.75 0 0.25] CT
0 0.447 0.741 RC
2 setlinecap
10.0 ML
2.667 LW
N
86.948 467.344 M
87 467.323 L
112.8 455.776 L
138.6 442.832 L
164.4 428.115 L
190.2 411.069 L
216 390.821 L
241.8 365.879 L
267.6 333.338 L
293.4 286.116 L
319.2 194.338 L
345 66.676 L
370.8 193.302 L
396.6 285.54 L
422.4 332.948 L
448.2 365.585 L
474 390.585 L
499.8 410.872 L
525.6 427.947 L
551.4 442.685 L
577.2 455.645 L
603 467.206 L
603.052 467.227 L
S
GR
GS
[0.75 0 0 0.75 0 0.25] CT
0 0.447 0.741 RC
2 setlinecap
10.0 ML
2.667 LW
N
87.5 472.832 M
92.118 464.834 L
82.882 464.834 L
87.5 472.832 L
S
GR
GS
[0.75 0 0 0.75 0 0.25] CT
0 0.447 0.741 RC
2 setlinecap
10.0 ML
2.667 LW
N
112.5 460.832 M
117.118 452.834 L
107.882 452.834 L
112.5 460.832 L
S
GR
GS
[0.75 0 0 0.75 0 0.25] CT
0 0.447 0.741 RC
2 setlinecap
10.0 ML
2.667 LW
N
138.5 447.832 M
143.118 439.834 L
133.882 439.834 L
138.5 447.832 L
S
GR
GS
[0.75 0 0 0.75 0 0.25] CT
0 0.447 0.741 RC
2 setlinecap
10.0 ML
2.667 LW
N
164.5 433.832 M
169.118 425.834 L
159.882 425.834 L
164.5 433.832 L
S
GR
GS
[0.75 0 0 0.75 0 0.25] CT
0 0.447 0.741 RC
2 setlinecap
10.0 ML
2.667 LW
N
190.5 416.832 M
195.118 408.834 L
185.882 408.834 L
190.5 416.832 L
S
GR
GS
[0.75 0 0 0.75 0 0.25] CT
0 0.447 0.741 RC
2 setlinecap
10.0 ML
2.667 LW
N
216.5 395.832 M
221.118 387.834 L
211.882 387.834 L
216.5 395.832 L
S
GR
GS
[0.75 0 0 0.75 0 0.25] CT
0 0.447 0.741 RC
2 setlinecap
10.0 ML
2.667 LW
N
241.5 370.832 M
246.118 362.834 L
236.882 362.834 L
241.5 370.832 L
S
GR
GS
[0.75 0 0 0.75 0 0.25] CT
0 0.447 0.741 RC
2 setlinecap
10.0 ML
2.667 LW
N
267.5 338.832 M
272.118 330.834 L
262.882 330.834 L
267.5 338.832 L
S
GR
GS
[0.75 0 0 0.75 0 0.25] CT
0 0.447 0.741 RC
2 setlinecap
10.0 ML
2.667 LW
N
293.5 291.832 M
298.118 283.834 L
288.882 283.834 L
293.5 291.832 L
S
GR
GS
[0.75 0 0 0.75 0 0.25] CT
0 0.447 0.741 RC
2 setlinecap
10.0 ML
2.667 LW
N
319.5 199.832 M
324.118 191.834 L
314.882 191.834 L
319.5 199.832 L
S
GR
GS
[0.75 0 0 0.75 0 0.25] CT
0 0.447 0.741 RC
2 setlinecap
10.0 ML
2.667 LW
N
345.5 71.832 M
350.118 63.834 L
340.882 63.834 L
345.5 71.832 L
S
GR
GS
[0.75 0 0 0.75 0 0.25] CT
0 0.447 0.741 RC
2 setlinecap
10.0 ML
2.667 LW
N
370.5 198.832 M
375.118 190.834 L
365.882 190.834 L
370.5 198.832 L
S
GR
GS
[0.75 0 0 0.75 0 0.25] CT
0 0.447 0.741 RC
2 setlinecap
10.0 ML
2.667 LW
N
396.5 290.832 M
401.118 282.834 L
391.882 282.834 L
396.5 290.832 L
S
GR
GS
[0.75 0 0 0.75 0 0.25] CT
0 0.447 0.741 RC
2 setlinecap
10.0 ML
2.667 LW
N
422.5 337.832 M
427.118 329.834 L
417.882 329.834 L
422.5 337.832 L
S
GR
GS
[0.75 0 0 0.75 0 0.25] CT
0 0.447 0.741 RC
2 setlinecap
10.0 ML
2.667 LW
N
448.5 370.832 M
453.118 362.834 L
443.882 362.834 L
448.5 370.832 L
S
GR
GS
[0.75 0 0 0.75 0 0.25] CT
0 0.447 0.741 RC
2 setlinecap
10.0 ML
2.667 LW
N
474.5 395.832 M
479.118 387.834 L
469.882 387.834 L
474.5 395.832 L
S
GR
GS
[0.75 0 0 0.75 0 0.25] CT
0 0.447 0.741 RC
2 setlinecap
10.0 ML
2.667 LW
N
499.5 415.832 M
504.118 407.834 L
494.882 407.834 L
499.5 415.832 L
S
GR
GS
[0.75 0 0 0.75 0 0.25] CT
0 0.447 0.741 RC
2 setlinecap
10.0 ML
2.667 LW
N
525.5 432.832 M
530.117 424.834 L
520.883 424.834 L
525.5 432.832 L
S
GR
GS
[0.75 0 0 0.75 0 0.25] CT
0 0.447 0.741 RC
2 setlinecap
10.0 ML
2.667 LW
N
551.5 447.832 M
556.117 439.834 L
546.883 439.834 L
551.5 447.832 L
S
GR
GS
[0.75 0 0 0.75 0 0.25] CT
0 0.447 0.741 RC
2 setlinecap
10.0 ML
2.667 LW
N
577.5 460.832 M
582.117 452.834 L
572.883 452.834 L
577.5 460.832 L
S
GR
GS
[0.75 0 0 0.75 0 0.25] CT
0 0.447 0.741 RC
2 setlinecap
10.0 ML
2.667 LW
N
603.5 472.832 M
608.117 464.834 L
598.883 464.834 L
603.5 472.832 L
S
GR
GS
[0.75 0 0 0.75 0 0.25] CT
0.851 0.325 0.098 RC
2 setlinecap
10.0 ML
2.667 LW
N
86.948 416.487 M
87 416.499 L
112.8 404.177 L
138.6 380.932 L
164.4 366.666 L
190.2 360.43 L
216 339.935 L
241.8 298.611 L
267.6 282.646 L
293.4 241.349 L
319.2 152.195 L
345 82.776 L
370.8 152.373 L
396.6 241.213 L
422.4 282.385 L
448.2 298.718 L
474 340.328 L
499.8 359.604 L
525.6 366.487 L
551.4 381.061 L
577.2 404.897 L
603 416.294 L
603.052 416.282 L
S
GR
GS
[0.75 0 0 0.75 0 0.25] CT
0.851 0.325 0.098 RC
2 setlinecap
10.0 ML
2.667 LW
N
91.5 416.5 M
90.736 414.149 L
88.736 412.696 L
86.264 412.696 L
84.264 414.149 L
83.5 416.5 L
84.264 418.851 L
86.264 420.304 L
88.736 420.304 L
90.736 418.851 L
91.5 416.5 L
S
GR
GS
[0.75 0 0 0.75 0 0.25] CT
0.851 0.325 0.098 RC
2 setlinecap
10.0 ML
2.667 LW
N
116.5 404.5 M
115.736 402.149 L
113.736 400.696 L
111.264 400.696 L
109.264 402.149 L
108.5 404.5 L
109.264 406.851 L
111.264 408.304 L
113.736 408.304 L
115.736 406.851 L
116.5 404.5 L
S
GR
GS
[0.75 0 0 0.75 0 0.25] CT
0.851 0.325 0.098 RC
2 setlinecap
10.0 ML
2.667 LW
N
142.5 380.5 M
141.736 378.149 L
139.736 376.696 L
137.264 376.696 L
135.264 378.149 L
134.5 380.5 L
135.264 382.851 L
137.264 384.304 L
139.736 384.304 L
141.736 382.851 L
142.5 380.5 L
S
GR
GS
[0.75 0 0 0.75 0 0.25] CT
0.851 0.325 0.098 RC
2 setlinecap
10.0 ML
2.667 LW
N
168.5 366.5 M
167.736 364.149 L
165.736 362.696 L
163.264 362.696 L
161.264 364.149 L
160.5 366.5 L
161.264 368.851 L
163.264 370.304 L
165.736 370.304 L
167.736 368.851 L
168.5 366.5 L
S
GR
GS
[0.75 0 0 0.75 0 0.25] CT
0.851 0.325 0.098 RC
2 setlinecap
10.0 ML
2.667 LW
N
194.5 360.5 M
193.736 358.149 L
191.736 356.696 L
189.264 356.696 L
187.264 358.149 L
186.5 360.5 L
187.264 362.851 L
189.264 364.304 L
191.736 364.304 L
193.736 362.851 L
194.5 360.5 L
S
GR
GS
[0.75 0 0 0.75 0 0.25] CT
0.851 0.325 0.098 RC
2 setlinecap
10.0 ML
2.667 LW
N
220.5 339.5 M
219.736 337.149 L
217.736 335.696 L
215.264 335.696 L
213.264 337.149 L
212.5 339.5 L
213.264 341.851 L
215.264 343.304 L
217.736 343.304 L
219.736 341.851 L
220.5 339.5 L
S
GR
GS
[0.75 0 0 0.75 0 0.25] CT
0.851 0.325 0.098 RC
2 setlinecap
10.0 ML
2.667 LW
N
245.5 298.5 M
244.736 296.149 L
242.736 294.696 L
240.264 294.696 L
238.264 296.149 L
237.5 298.5 L
238.264 300.851 L
240.264 302.304 L
242.736 302.304 L
244.736 300.851 L
245.5 298.5 L
S
GR
GS
[0.75 0 0 0.75 0 0.25] CT
0.851 0.325 0.098 RC
2 setlinecap
10.0 ML
2.667 LW
N
271.5 282.5 M
270.736 280.149 L
268.736 278.696 L
266.264 278.696 L
264.264 280.149 L
263.5 282.5 L
264.264 284.851 L
266.264 286.304 L
268.736 286.304 L
270.736 284.851 L
271.5 282.5 L
S
GR
GS
[0.75 0 0 0.75 0 0.25] CT
0.851 0.325 0.098 RC
2 setlinecap
10.0 ML
2.667 LW
N
297.5 241.5 M
296.736 239.149 L
294.736 237.696 L
292.264 237.696 L
290.264 239.149 L
289.5 241.5 L
290.264 243.851 L
292.264 245.304 L
294.736 245.304 L
296.736 243.851 L
297.5 241.5 L
S
GR
GS
[0.75 0 0 0.75 0 0.25] CT
0.851 0.325 0.098 RC
2 setlinecap
10.0 ML
2.667 LW
N
323.5 152.5 M
322.736 150.149 L
320.736 148.696 L
318.264 148.696 L
316.264 150.149 L
315.5 152.5 L
316.264 154.851 L
318.264 156.304 L
320.736 156.304 L
322.736 154.851 L
323.5 152.5 L
S
GR
GS
[0.75 0 0 0.75 0 0.25] CT
0.851 0.325 0.098 RC
2 setlinecap
10.0 ML
2.667 LW
N
349.5 82.5 M
348.736 80.149 L
346.736 78.696 L
344.264 78.696 L
342.264 80.149 L
341.5 82.5 L
342.264 84.851 L
344.264 86.304 L
346.736 86.304 L
348.736 84.851 L
349.5 82.5 L
S
GR
GS
[0.75 0 0 0.75 0 0.25] CT
0.851 0.325 0.098 RC
2 setlinecap
10.0 ML
2.667 LW
N
374.5 152.5 M
373.736 150.149 L
371.736 148.696 L
369.264 148.696 L
367.264 150.149 L
366.5 152.5 L
367.264 154.851 L
369.264 156.304 L
371.736 156.304 L
373.736 154.851 L
374.5 152.5 L
S
GR
GS
[0.75 0 0 0.75 0 0.25] CT
0.851 0.325 0.098 RC
2 setlinecap
10.0 ML
2.667 LW
N
400.5 241.5 M
399.736 239.149 L
397.736 237.696 L
395.264 237.696 L
393.264 239.149 L
392.5 241.5 L
393.264 243.851 L
395.264 245.304 L
397.736 245.304 L
399.736 243.851 L
400.5 241.5 L
S
GR
GS
[0.75 0 0 0.75 0 0.25] CT
0.851 0.325 0.098 RC
2 setlinecap
10.0 ML
2.667 LW
N
426.5 282.5 M
425.736 280.149 L
423.736 278.696 L
421.264 278.696 L
419.264 280.149 L
418.5 282.5 L
419.264 284.851 L
421.264 286.304 L
423.736 286.304 L
425.736 284.851 L
426.5 282.5 L
S
GR
GS
[0.75 0 0 0.75 0 0.25] CT
0.851 0.325 0.098 RC
2 setlinecap
10.0 ML
2.667 LW
N
452.5 298.5 M
451.736 296.149 L
449.736 294.696 L
447.264 294.696 L
445.264 296.149 L
444.5 298.5 L
445.264 300.851 L
447.264 302.304 L
449.736 302.304 L
451.736 300.851 L
452.5 298.5 L
S
GR
GS
[0.75 0 0 0.75 0 0.25] CT
0.851 0.325 0.098 RC
2 setlinecap
10.0 ML
2.667 LW
N
478.5 340.5 M
477.736 338.149 L
475.736 336.696 L
473.264 336.696 L
471.264 338.149 L
470.5 340.5 L
471.264 342.851 L
473.264 344.304 L
475.736 344.304 L
477.736 342.851 L
478.5 340.5 L
S
GR
GS
[0.75 0 0 0.75 0 0.25] CT
0.851 0.325 0.098 RC
2 setlinecap
10.0 ML
2.667 LW
N
503.5 359.5 M
502.736 357.149 L
500.736 355.696 L
498.264 355.696 L
496.264 357.149 L
495.5 359.5 L
496.264 361.851 L
498.264 363.304 L
500.736 363.304 L
502.736 361.851 L
503.5 359.5 L
S
GR
GS
[0.75 0 0 0.75 0 0.25] CT
0.851 0.325 0.098 RC
2 setlinecap
10.0 ML
2.667 LW
N
529.5 366.5 M
528.736 364.149 L
526.736 362.696 L
524.264 362.696 L
522.264 364.149 L
521.5 366.5 L
522.264 368.851 L
524.264 370.304 L
526.736 370.304 L
528.736 368.851 L
529.5 366.5 L
S
GR
GS
[0.75 0 0 0.75 0 0.25] CT
0.851 0.325 0.098 RC
2 setlinecap
10.0 ML
2.667 LW
N
555.5 381.5 M
554.736 379.149 L
552.736 377.696 L
550.264 377.696 L
548.264 379.149 L
547.5 381.5 L
548.264 383.851 L
550.264 385.304 L
552.736 385.304 L
554.736 383.851 L
555.5 381.5 L
S
GR
GS
[0.75 0 0 0.75 0 0.25] CT
0.851 0.325 0.098 RC
2 setlinecap
10.0 ML
2.667 LW
N
581.5 404.5 M
580.736 402.149 L
578.736 400.696 L
576.264 400.696 L
574.264 402.149 L
573.5 404.5 L
574.264 406.851 L
576.264 408.304 L
578.736 408.304 L
580.736 406.851 L
581.5 404.5 L
S
GR
GS
[0.75 0 0 0.75 0 0.25] CT
0.851 0.325 0.098 RC
2 setlinecap
10.0 ML
2.667 LW
N
607.5 416.5 M
606.736 414.149 L
604.736 412.696 L
602.264 412.696 L
600.264 414.149 L
599.5 416.5 L
600.264 418.851 L
602.264 420.304 L
604.736 420.304 L
606.736 418.851 L
607.5 416.5 L
S
GR
GS
[0.75 0 0 0.75 0 0.25] CT
0.929 0.694 0.125 RC
2 setlinecap
10.0 ML
2.667 LW
N
86.948 471.323 M
87 471.301 L
112.8 459.784 L
138.6 446.779 L
164.4 431.853 L
190.2 414.751 L
216 394.228 L
241.8 368.843 L
267.6 335.328 L
293.4 285.599 L
319.2 178.466 L
345 72.691 L
370.8 179.439 L
396.6 286.325 L
422.4 335.87 L
448.2 369.272 L
474 394.315 L
499.8 414.936 L
525.6 432.141 L
551.4 446.8 L
577.2 459.909 L
603 471.491 L
603.052 471.512 L
S
GR
GS
[0.75 0 0 0.75 0 0.25] CT
0.929 0.694 0.125 RC
2 setlinecap
10.0 ML
2.667 LW
N
84 475 M
91 468 L
S
GR
GS
[0.75 0 0 0.75 0 0.25] CT
0.929 0.694 0.125 RC
2 setlinecap
10.0 ML
2.667 LW
N
84 468 M
91 475 L
S
GR
GS
[0.75 0 0 0.75 0 0.25] CT
0.929 0.694 0.125 RC
2 setlinecap
10.0 ML
2.667 LW
N
109 463 M
116 456 L
S
GR
GS
[0.75 0 0 0.75 0 0.25] CT
0.929 0.694 0.125 RC
2 setlinecap
10.0 ML
2.667 LW
N
109 456 M
116 463 L
S
GR
GS
[0.75 0 0 0.75 0 0.25] CT
0.929 0.694 0.125 RC
2 setlinecap
10.0 ML
2.667 LW
N
135 450 M
142 443 L
S
GR
GS
[0.75 0 0 0.75 0 0.25] CT
0.929 0.694 0.125 RC
2 setlinecap
10.0 ML
2.667 LW
N
135 443 M
142 450 L
S
GR
GS
[0.75 0 0 0.75 0 0.25] CT
0.929 0.694 0.125 RC
2 setlinecap
10.0 ML
2.667 LW
N
161 435 M
168 428 L
S
GR
GS
[0.75 0 0 0.75 0 0.25] CT
0.929 0.694 0.125 RC
2 setlinecap
10.0 ML
2.667 LW
N
161 428 M
168 435 L
S
GR
GS
[0.75 0 0 0.75 0 0.25] CT
0.929 0.694 0.125 RC
2 setlinecap
10.0 ML
2.667 LW
N
187 418 M
194 411 L
S
GR
GS
[0.75 0 0 0.75 0 0.25] CT
0.929 0.694 0.125 RC
2 setlinecap
10.0 ML
2.667 LW
N
187 411 M
194 418 L
S
GR
GS
[0.75 0 0 0.75 0 0.25] CT
0.929 0.694 0.125 RC
2 setlinecap
10.0 ML
2.667 LW
N
213 398 M
220 391 L
S
GR
GS
[0.75 0 0 0.75 0 0.25] CT
0.929 0.694 0.125 RC
2 setlinecap
10.0 ML
2.667 LW
N
213 391 M
220 398 L
S
GR
GS
[0.75 0 0 0.75 0 0.25] CT
0.929 0.694 0.125 RC
2 setlinecap
10.0 ML
2.667 LW
N
238 372 M
245 365 L
S
GR
GS
[0.75 0 0 0.75 0 0.25] CT
0.929 0.694 0.125 RC
2 setlinecap
10.0 ML
2.667 LW
N
238 365 M
245 372 L
S
GR
GS
[0.75 0 0 0.75 0 0.25] CT
0.929 0.694 0.125 RC
2 setlinecap
10.0 ML
2.667 LW
N
264 339 M
271 332 L
S
GR
GS
[0.75 0 0 0.75 0 0.25] CT
0.929 0.694 0.125 RC
2 setlinecap
10.0 ML
2.667 LW
N
264 332 M
271 339 L
S
GR
GS
[0.75 0 0 0.75 0 0.25] CT
0.929 0.694 0.125 RC
2 setlinecap
10.0 ML
2.667 LW
N
290 289 M
297 282 L
S
GR
GS
[0.75 0 0 0.75 0 0.25] CT
0.929 0.694 0.125 RC
2 setlinecap
10.0 ML
2.667 LW
N
290 282 M
297 289 L
S
GR
GS
[0.75 0 0 0.75 0 0.25] CT
0.929 0.694 0.125 RC
2 setlinecap
10.0 ML
2.667 LW
N
316 182 M
323 175 L
S
GR
GS
[0.75 0 0 0.75 0 0.25] CT
0.929 0.694 0.125 RC
2 setlinecap
10.0 ML
2.667 LW
N
316 175 M
323 182 L
S
GR
GS
[0.75 0 0 0.75 0 0.25] CT
0.929 0.694 0.125 RC
2 setlinecap
10.0 ML
2.667 LW
N
342 76 M
349 69 L
S
GR
GS
[0.75 0 0 0.75 0 0.25] CT
0.929 0.694 0.125 RC
2 setlinecap
10.0 ML
2.667 LW
N
342 69 M
349 76 L
S
GR
GS
[0.75 0 0 0.75 0 0.25] CT
0.929 0.694 0.125 RC
2 setlinecap
10.0 ML
2.667 LW
N
367 183 M
374 176 L
S
GR
GS
[0.75 0 0 0.75 0 0.25] CT
0.929 0.694 0.125 RC
2 setlinecap
10.0 ML
2.667 LW
N
367 176 M
374 183 L
S
GR
GS
[0.75 0 0 0.75 0 0.25] CT
0.929 0.694 0.125 RC
2 setlinecap
10.0 ML
2.667 LW
N
393 290 M
400 283 L
S
GR
GS
[0.75 0 0 0.75 0 0.25] CT
0.929 0.694 0.125 RC
2 setlinecap
10.0 ML
2.667 LW
N
393 283 M
400 290 L
S
GR
GS
[0.75 0 0 0.75 0 0.25] CT
0.929 0.694 0.125 RC
2 setlinecap
10.0 ML
2.667 LW
N
419 339 M
426 332 L
S
GR
GS
[0.75 0 0 0.75 0 0.25] CT
0.929 0.694 0.125 RC
2 setlinecap
10.0 ML
2.667 LW
N
419 332 M
426 339 L
S
GR
GS
[0.75 0 0 0.75 0 0.25] CT
0.929 0.694 0.125 RC
2 setlinecap
10.0 ML
2.667 LW
N
445 373 M
452 366 L
S
GR
GS
[0.75 0 0 0.75 0 0.25] CT
0.929 0.694 0.125 RC
2 setlinecap
10.0 ML
2.667 LW
N
445 366 M
452 373 L
S
GR
GS
[0.75 0 0 0.75 0 0.25] CT
0.929 0.694 0.125 RC
2 setlinecap
10.0 ML
2.667 LW
N
471 398 M
478 391 L
S
GR
GS
[0.75 0 0 0.75 0 0.25] CT
0.929 0.694 0.125 RC
2 setlinecap
10.0 ML
2.667 LW
N
471 391 M
478 398 L
S
GR
GS
[0.75 0 0 0.75 0 0.25] CT
0.929 0.694 0.125 RC
2 setlinecap
10.0 ML
2.667 LW
N
496 418 M
503 411 L
S
GR
GS
[0.75 0 0 0.75 0 0.25] CT
0.929 0.694 0.125 RC
2 setlinecap
10.0 ML
2.667 LW
N
496 411 M
503 418 L
S
GR
GS
[0.75 0 0 0.75 0 0.25] CT
0.929 0.694 0.125 RC
2 setlinecap
10.0 ML
2.667 LW
N
522 436 M
529 429 L
S
GR
GS
[0.75 0 0 0.75 0 0.25] CT
0.929 0.694 0.125 RC
2 setlinecap
10.0 ML
2.667 LW
N
522 429 M
529 436 L
S
GR
GS
[0.75 0 0 0.75 0 0.25] CT
0.929 0.694 0.125 RC
2 setlinecap
10.0 ML
2.667 LW
N
548 450 M
555 443 L
S
GR
GS
[0.75 0 0 0.75 0 0.25] CT
0.929 0.694 0.125 RC
2 setlinecap
10.0 ML
2.667 LW
N
548 443 M
555 450 L
S
GR
GS
[0.75 0 0 0.75 0 0.25] CT
0.929 0.694 0.125 RC
2 setlinecap
10.0 ML
2.667 LW
N
574 463 M
581 456 L
S
GR
GS
[0.75 0 0 0.75 0 0.25] CT
0.929 0.694 0.125 RC
2 setlinecap
10.0 ML
2.667 LW
N
574 456 M
581 463 L
S
GR
GS
[0.75 0 0 0.75 0 0.25] CT
0.929 0.694 0.125 RC
2 setlinecap
10.0 ML
2.667 LW
N
600 475 M
607 468 L
S
GR
GS
[0.75 0 0 0.75 0 0.25] CT
0.929 0.694 0.125 RC
2 setlinecap
10.0 ML
2.667 LW
N
600 468 M
607 475 L
S
GR
GS
[0.75 0 0 0.75 0 0.25] CT
0.494 0.184 0.557 RC
2 setlinecap
10.0 ML
2.667 LW
N
86.948 396.107 M
87 396.086 L
112.8 384.576 L
138.6 371.751 L
164.4 357.044 L
190.2 340.12 L
216 320.079 L
241.8 295.592 L
267.6 263.843 L
293.4 219.164 L
319.2 142.752 L
345 54.387 L
370.8 142.752 L
396.6 219.164 L
422.4 263.843 L
448.2 295.592 L
474 320.079 L
499.8 340.12 L
525.6 357.044 L
551.4 371.751 L
577.2 384.576 L
603 396.086 L
603.052 396.107 L
S
GR
GS
[0.75 0 0 0.75 0 0.25] CT
0.494 0.184 0.557 RC
2 setlinecap
10.0 ML
2.667 LW
N
83 396.5 M
92 396.5 L
S
GR
GS
[0.75 0 0 0.75 0 0.25] CT
0.494 0.184 0.557 RC
2 setlinecap
10.0 ML
2.667 LW
N
87.5 401 M
87.5 392 L
S
GR
GS
[0.75 0 0 0.75 0 0.25] CT
0.494 0.184 0.557 RC
2 setlinecap
10.0 ML
2.667 LW
N
108 384.5 M
117 384.5 L
S
GR
GS
[0.75 0 0 0.75 0 0.25] CT
0.494 0.184 0.557 RC
2 setlinecap
10.0 ML
2.667 LW
N
112.5 389 M
112.5 380 L
S
GR
GS
[0.75 0 0 0.75 0 0.25] CT
0.494 0.184 0.557 RC
2 setlinecap
10.0 ML
2.667 LW
N
134 371.5 M
143 371.5 L
S
GR
GS
[0.75 0 0 0.75 0 0.25] CT
0.494 0.184 0.557 RC
2 setlinecap
10.0 ML
2.667 LW
N
138.5 376 M
138.5 367 L
S
GR
GS
[0.75 0 0 0.75 0 0.25] CT
0.494 0.184 0.557 RC
2 setlinecap
10.0 ML
2.667 LW
N
160 357.5 M
169 357.5 L
S
GR
GS
[0.75 0 0 0.75 0 0.25] CT
0.494 0.184 0.557 RC
2 setlinecap
10.0 ML
2.667 LW
N
164.5 362 M
164.5 353 L
S
GR
GS
[0.75 0 0 0.75 0 0.25] CT
0.494 0.184 0.557 RC
2 setlinecap
10.0 ML
2.667 LW
N
186 340.5 M
195 340.5 L
S
GR
GS
[0.75 0 0 0.75 0 0.25] CT
0.494 0.184 0.557 RC
2 setlinecap
10.0 ML
2.667 LW
N
190.5 345 M
190.5 336 L
S
GR
GS
[0.75 0 0 0.75 0 0.25] CT
0.494 0.184 0.557 RC
2 setlinecap
10.0 ML
2.667 LW
N
212 320.5 M
221 320.5 L
S
GR
GS
[0.75 0 0 0.75 0 0.25] CT
0.494 0.184 0.557 RC
2 setlinecap
10.0 ML
2.667 LW
N
216.5 325 M
216.5 316 L
S
GR
GS
[0.75 0 0 0.75 0 0.25] CT
0.494 0.184 0.557 RC
2 setlinecap
10.0 ML
2.667 LW
N
237 295.5 M
246 295.5 L
S
GR
GS
[0.75 0 0 0.75 0 0.25] CT
0.494 0.184 0.557 RC
2 setlinecap
10.0 ML
2.667 LW
N
241.5 300 M
241.5 291 L
S
GR
GS
[0.75 0 0 0.75 0 0.25] CT
0.494 0.184 0.557 RC
2 setlinecap
10.0 ML
2.667 LW
N
263 263.5 M
272 263.5 L
S
GR
GS
[0.75 0 0 0.75 0 0.25] CT
0.494 0.184 0.557 RC
2 setlinecap
10.0 ML
2.667 LW
N
267.5 268 M
267.5 259 L
S
GR
GS
[0.75 0 0 0.75 0 0.25] CT
0.494 0.184 0.557 RC
2 setlinecap
10.0 ML
2.667 LW
N
289 219.5 M
298 219.5 L
S
GR
GS
[0.75 0 0 0.75 0 0.25] CT
0.494 0.184 0.557 RC
2 setlinecap
10.0 ML
2.667 LW
N
293.5 224 M
293.5 215 L
S
GR
GS
[0.75 0 0 0.75 0 0.25] CT
0.494 0.184 0.557 RC
2 setlinecap
10.0 ML
2.667 LW
N
315 142.5 M
324 142.5 L
S
GR
GS
[0.75 0 0 0.75 0 0.25] CT
0.494 0.184 0.557 RC
2 setlinecap
10.0 ML
2.667 LW
N
319.5 147 M
319.5 138 L
S
GR
GS
[0.75 0 0 0.75 0 0.25] CT
0.494 0.184 0.557 RC
2 setlinecap
10.0 ML
2.667 LW
N
341 54.5 M
350 54.5 L
S
GR
GS
[0.75 0 0 0.75 0 0.25] CT
0.494 0.184 0.557 RC
2 setlinecap
10.0 ML
2.667 LW
N
345.5 59 M
345.5 50 L
S
GR
GS
[0.75 0 0 0.75 0 0.25] CT
0.494 0.184 0.557 RC
2 setlinecap
10.0 ML
2.667 LW
N
366 142.5 M
375 142.5 L
S
GR
GS
[0.75 0 0 0.75 0 0.25] CT
0.494 0.184 0.557 RC
2 setlinecap
10.0 ML
2.667 LW
N
370.5 147 M
370.5 138 L
S
GR
GS
[0.75 0 0 0.75 0 0.25] CT
0.494 0.184 0.557 RC
2 setlinecap
10.0 ML
2.667 LW
N
392 219.5 M
401 219.5 L
S
GR
GS
[0.75 0 0 0.75 0 0.25] CT
0.494 0.184 0.557 RC
2 setlinecap
10.0 ML
2.667 LW
N
396.5 224 M
396.5 215 L
S
GR
GS
[0.75 0 0 0.75 0 0.25] CT
0.494 0.184 0.557 RC
2 setlinecap
10.0 ML
2.667 LW
N
418 263.5 M
427 263.5 L
S
GR
GS
[0.75 0 0 0.75 0 0.25] CT
0.494 0.184 0.557 RC
2 setlinecap
10.0 ML
2.667 LW
N
422.5 268 M
422.5 259 L
S
GR
GS
[0.75 0 0 0.75 0 0.25] CT
0.494 0.184 0.557 RC
2 setlinecap
10.0 ML
2.667 LW
N
444 295.5 M
453 295.5 L
S
GR
GS
[0.75 0 0 0.75 0 0.25] CT
0.494 0.184 0.557 RC
2 setlinecap
10.0 ML
2.667 LW
N
448.5 300 M
448.5 291 L
S
GR
GS
[0.75 0 0 0.75 0 0.25] CT
0.494 0.184 0.557 RC
2 setlinecap
10.0 ML
2.667 LW
N
470 320.5 M
479 320.5 L
S
GR
GS
[0.75 0 0 0.75 0 0.25] CT
0.494 0.184 0.557 RC
2 setlinecap
10.0 ML
2.667 LW
N
474.5 325 M
474.5 316 L
S
GR
GS
[0.75 0 0 0.75 0 0.25] CT
0.494 0.184 0.557 RC
2 setlinecap
10.0 ML
2.667 LW
N
495 340.5 M
504 340.5 L
S
GR
GS
[0.75 0 0 0.75 0 0.25] CT
0.494 0.184 0.557 RC
2 setlinecap
10.0 ML
2.667 LW
N
499.5 345 M
499.5 336 L
S
GR
GS
[0.75 0 0 0.75 0 0.25] CT
0.494 0.184 0.557 RC
2 setlinecap
10.0 ML
2.667 LW
N
521 357.5 M
530 357.5 L
S
GR
GS
[0.75 0 0 0.75 0 0.25] CT
0.494 0.184 0.557 RC
2 setlinecap
10.0 ML
2.667 LW
N
525.5 362 M
525.5 353 L
S
GR
GS
[0.75 0 0 0.75 0 0.25] CT
0.494 0.184 0.557 RC
2 setlinecap
10.0 ML
2.667 LW
N
547 371.5 M
556 371.5 L
S
GR
GS
[0.75 0 0 0.75 0 0.25] CT
0.494 0.184 0.557 RC
2 setlinecap
10.0 ML
2.667 LW
N
551.5 376 M
551.5 367 L
S
GR
GS
[0.75 0 0 0.75 0 0.25] CT
0.494 0.184 0.557 RC
2 setlinecap
10.0 ML
2.667 LW
N
573 384.5 M
582 384.5 L
S
GR
GS
[0.75 0 0 0.75 0 0.25] CT
0.494 0.184 0.557 RC
2 setlinecap
10.0 ML
2.667 LW
N
577.5 389 M
577.5 380 L
S
GR
GS
[0.75 0 0 0.75 0 0.25] CT
0.494 0.184 0.557 RC
2 setlinecap
10.0 ML
2.667 LW
N
599 396.5 M
608 396.5 L
S
GR
GS
[0.75 0 0 0.75 0 0.25] CT
0.494 0.184 0.557 RC
2 setlinecap
10.0 ML
2.667 LW
N
603.5 401 M
603.5 392 L
S
GR
GS
[0.75 0 0 0.75 0 0.25] CT
0.467 0.675 0.188 RC
[8 8] 0 setdash
2 LJ
2.667 LW
N
86.948 472.247 M
87 472.227 L
112.8 460.65 L
138.6 447.666 L
164.4 432.891 L
190.2 415.76 L
216 395.372 L
241.8 370.181 L
267.6 337.106 L
293.4 288.315 L
319.2 183.841 L
345 71.155 L
370.8 184.015 L
396.6 288.395 L
422.4 337.159 L
448.2 370.218 L
474 395.403 L
499.8 415.785 L
525.6 432.913 L
551.4 447.684 L
577.2 460.666 L
603 472.242 L
603.052 472.263 L
S
GR
GS
[0.75 0 0 0.75 0 0.25] CT
0.467 0.675 0.188 RC
2 setlinecap
10.0 ML
2.667 LW
N
83 472.5 M
92 472.5 L
S
GR
GS
[0.75 0 0 0.75 0 0.25] CT
0.467 0.675 0.188 RC
2 setlinecap
10.0 ML
2.667 LW
N
87.5 477 M
87.5 468 L
S
GR
GS
[0.75 0 0 0.75 0 0.25] CT
0.467 0.675 0.188 RC
2 setlinecap
10.0 ML
2.667 LW
N
84 476 M
91 469 L
S
GR
GS
[0.75 0 0 0.75 0 0.25] CT
0.467 0.675 0.188 RC
2 setlinecap
10.0 ML
2.667 LW
N
84 469 M
91 476 L
S
GR
GS
[0.75 0 0 0.75 0 0.25] CT
0.467 0.675 0.188 RC
2 setlinecap
10.0 ML
2.667 LW
N
108 460.5 M
117 460.5 L
S
GR
GS
[0.75 0 0 0.75 0 0.25] CT
0.467 0.675 0.188 RC
2 setlinecap
10.0 ML
2.667 LW
N
112.5 465 M
112.5 456 L
S
GR
GS
[0.75 0 0 0.75 0 0.25] CT
0.467 0.675 0.188 RC
2 setlinecap
10.0 ML
2.667 LW
N
109 464 M
116 457 L
S
GR
GS
[0.75 0 0 0.75 0 0.25] CT
0.467 0.675 0.188 RC
2 setlinecap
10.0 ML
2.667 LW
N
109 457 M
116 464 L
S
GR
GS
[0.75 0 0 0.75 0 0.25] CT
0.467 0.675 0.188 RC
2 setlinecap
10.0 ML
2.667 LW
N
134 447.5 M
143 447.5 L
S
GR
GS
[0.75 0 0 0.75 0 0.25] CT
0.467 0.675 0.188 RC
2 setlinecap
10.0 ML
2.667 LW
N
138.5 452 M
138.5 443 L
S
GR
GS
[0.75 0 0 0.75 0 0.25] CT
0.467 0.675 0.188 RC
2 setlinecap
10.0 ML
2.667 LW
N
135 451 M
142 444 L
S
GR
GS
[0.75 0 0 0.75 0 0.25] CT
0.467 0.675 0.188 RC
2 setlinecap
10.0 ML
2.667 LW
N
135 444 M
142 451 L
S
GR
GS
[0.75 0 0 0.75 0 0.25] CT
0.467 0.675 0.188 RC
2 setlinecap
10.0 ML
2.667 LW
N
160 432.5 M
169 432.5 L
S
GR
GS
[0.75 0 0 0.75 0 0.25] CT
0.467 0.675 0.188 RC
2 setlinecap
10.0 ML
2.667 LW
N
164.5 437 M
164.5 428 L
S
GR
GS
[0.75 0 0 0.75 0 0.25] CT
0.467 0.675 0.188 RC
2 setlinecap
10.0 ML
2.667 LW
N
161 436 M
168 429 L
S
GR
GS
[0.75 0 0 0.75 0 0.25] CT
0.467 0.675 0.188 RC
2 setlinecap
10.0 ML
2.667 LW
N
161 429 M
168 436 L
S
GR
GS
[0.75 0 0 0.75 0 0.25] CT
0.467 0.675 0.188 RC
2 setlinecap
10.0 ML
2.667 LW
N
186 415.5 M
195 415.5 L
S
GR
GS
[0.75 0 0 0.75 0 0.25] CT
0.467 0.675 0.188 RC
2 setlinecap
10.0 ML
2.667 LW
N
190.5 420 M
190.5 411 L
S
GR
GS
[0.75 0 0 0.75 0 0.25] CT
0.467 0.675 0.188 RC
2 setlinecap
10.0 ML
2.667 LW
N
187 419 M
194 412 L
S
GR
GS
[0.75 0 0 0.75 0 0.25] CT
0.467 0.675 0.188 RC
2 setlinecap
10.0 ML
2.667 LW
N
187 412 M
194 419 L
S
GR
GS
[0.75 0 0 0.75 0 0.25] CT
0.467 0.675 0.188 RC
2 setlinecap
10.0 ML
2.667 LW
N
212 395.5 M
221 395.5 L
S
GR
GS
[0.75 0 0 0.75 0 0.25] CT
0.467 0.675 0.188 RC
2 setlinecap
10.0 ML
2.667 LW
N
216.5 400 M
216.5 391 L
S
GR
GS
[0.75 0 0 0.75 0 0.25] CT
0.467 0.675 0.188 RC
2 setlinecap
10.0 ML
2.667 LW
N
213 399 M
220 392 L
S
GR
GS
[0.75 0 0 0.75 0 0.25] CT
0.467 0.675 0.188 RC
2 setlinecap
10.0 ML
2.667 LW
N
213 392 M
220 399 L
S
GR
GS
[0.75 0 0 0.75 0 0.25] CT
0.467 0.675 0.188 RC
2 setlinecap
10.0 ML
2.667 LW
N
237 370.5 M
246 370.5 L
S
GR
GS
[0.75 0 0 0.75 0 0.25] CT
0.467 0.675 0.188 RC
2 setlinecap
10.0 ML
2.667 LW
N
241.5 375 M
241.5 366 L
S
GR
GS
[0.75 0 0 0.75 0 0.25] CT
0.467 0.675 0.188 RC
2 setlinecap
10.0 ML
2.667 LW
N
238 374 M
245 367 L
S
GR
GS
[0.75 0 0 0.75 0 0.25] CT
0.467 0.675 0.188 RC
2 setlinecap
10.0 ML
2.667 LW
N
238 367 M
245 374 L
S
GR
GS
[0.75 0 0 0.75 0 0.25] CT
0.467 0.675 0.188 RC
2 setlinecap
10.0 ML
2.667 LW
N
263 337.5 M
272 337.5 L
S
GR
GS
[0.75 0 0 0.75 0 0.25] CT
0.467 0.675 0.188 RC
2 setlinecap
10.0 ML
2.667 LW
N
267.5 342 M
267.5 333 L
S
GR
GS
[0.75 0 0 0.75 0 0.25] CT
0.467 0.675 0.188 RC
2 setlinecap
10.0 ML
2.667 LW
N
264 341 M
271 334 L
S
GR
GS
[0.75 0 0 0.75 0 0.25] CT
0.467 0.675 0.188 RC
2 setlinecap
10.0 ML
2.667 LW
N
264 334 M
271 341 L
S
GR
GS
[0.75 0 0 0.75 0 0.25] CT
0.467 0.675 0.188 RC
2 setlinecap
10.0 ML
2.667 LW
N
289 288.5 M
298 288.5 L
S
GR
GS
[0.75 0 0 0.75 0 0.25] CT
0.467 0.675 0.188 RC
2 setlinecap
10.0 ML
2.667 LW
N
293.5 293 M
293.5 284 L
S
GR
GS
[0.75 0 0 0.75 0 0.25] CT
0.467 0.675 0.188 RC
2 setlinecap
10.0 ML
2.667 LW
N
290 292 M
297 285 L
S
GR
GS
[0.75 0 0 0.75 0 0.25] CT
0.467 0.675 0.188 RC
2 setlinecap
10.0 ML
2.667 LW
N
290 285 M
297 292 L
S
GR
GS
[0.75 0 0 0.75 0 0.25] CT
0.467 0.675 0.188 RC
2 setlinecap
10.0 ML
2.667 LW
N
315 183.5 M
324 183.5 L
S
GR
GS
[0.75 0 0 0.75 0 0.25] CT
0.467 0.675 0.188 RC
2 setlinecap
10.0 ML
2.667 LW
N
319.5 188 M
319.5 179 L
S
GR
GS
[0.75 0 0 0.75 0 0.25] CT
0.467 0.675 0.188 RC
2 setlinecap
10.0 ML
2.667 LW
N
316 187 M
323 180 L
S
GR
GS
[0.75 0 0 0.75 0 0.25] CT
0.467 0.675 0.188 RC
2 setlinecap
10.0 ML
2.667 LW
N
316 180 M
323 187 L
S
GR
GS
[0.75 0 0 0.75 0 0.25] CT
0.467 0.675 0.188 RC
2 setlinecap
10.0 ML
2.667 LW
N
341 71.5 M
350 71.5 L
S
GR
GS
[0.75 0 0 0.75 0 0.25] CT
0.467 0.675 0.188 RC
2 setlinecap
10.0 ML
2.667 LW
N
345.5 76 M
345.5 67 L
S
GR
GS
[0.75 0 0 0.75 0 0.25] CT
0.467 0.675 0.188 RC
2 setlinecap
10.0 ML
2.667 LW
N
342 75 M
349 68 L
S
GR
GS
[0.75 0 0 0.75 0 0.25] CT
0.467 0.675 0.188 RC
2 setlinecap
10.0 ML
2.667 LW
N
342 68 M
349 75 L
S
GR
GS
[0.75 0 0 0.75 0 0.25] CT
0.467 0.675 0.188 RC
2 setlinecap
10.0 ML
2.667 LW
N
366 184.5 M
375 184.5 L
S
GR
GS
[0.75 0 0 0.75 0 0.25] CT
0.467 0.675 0.188 RC
2 setlinecap
10.0 ML
2.667 LW
N
370.5 189 M
370.5 180 L
S
GR
GS
[0.75 0 0 0.75 0 0.25] CT
0.467 0.675 0.188 RC
2 setlinecap
10.0 ML
2.667 LW
N
367 188 M
374 181 L
S
GR
GS
[0.75 0 0 0.75 0 0.25] CT
0.467 0.675 0.188 RC
2 setlinecap
10.0 ML
2.667 LW
N
367 181 M
374 188 L
S
GR
GS
[0.75 0 0 0.75 0 0.25] CT
0.467 0.675 0.188 RC
2 setlinecap
10.0 ML
2.667 LW
N
392 288.5 M
401 288.5 L
S
GR
GS
[0.75 0 0 0.75 0 0.25] CT
0.467 0.675 0.188 RC
2 setlinecap
10.0 ML
2.667 LW
N
396.5 293 M
396.5 284 L
S
GR
GS
[0.75 0 0 0.75 0 0.25] CT
0.467 0.675 0.188 RC
2 setlinecap
10.0 ML
2.667 LW
N
393 292 M
400 285 L
S
GR
GS
[0.75 0 0 0.75 0 0.25] CT
0.467 0.675 0.188 RC
2 setlinecap
10.0 ML
2.667 LW
N
393 285 M
400 292 L
S
GR
GS
[0.75 0 0 0.75 0 0.25] CT
0.467 0.675 0.188 RC
2 setlinecap
10.0 ML
2.667 LW
N
418 337.5 M
427 337.5 L
S
GR
GS
[0.75 0 0 0.75 0 0.25] CT
0.467 0.675 0.188 RC
2 setlinecap
10.0 ML
2.667 LW
N
422.5 342 M
422.5 333 L
S
GR
GS
[0.75 0 0 0.75 0 0.25] CT
0.467 0.675 0.188 RC
2 setlinecap
10.0 ML
2.667 LW
N
419 341 M
426 334 L
S
GR
GS
[0.75 0 0 0.75 0 0.25] CT
0.467 0.675 0.188 RC
2 setlinecap
10.0 ML
2.667 LW
N
419 334 M
426 341 L
S
GR
GS
[0.75 0 0 0.75 0 0.25] CT
0.467 0.675 0.188 RC
2 setlinecap
10.0 ML
2.667 LW
N
444 370.5 M
453 370.5 L
S
GR
GS
[0.75 0 0 0.75 0 0.25] CT
0.467 0.675 0.188 RC
2 setlinecap
10.0 ML
2.667 LW
N
448.5 375 M
448.5 366 L
S
GR
GS
[0.75 0 0 0.75 0 0.25] CT
0.467 0.675 0.188 RC
2 setlinecap
10.0 ML
2.667 LW
N
445 374 M
452 367 L
S
GR
GS
[0.75 0 0 0.75 0 0.25] CT
0.467 0.675 0.188 RC
2 setlinecap
10.0 ML
2.667 LW
N
445 367 M
452 374 L
S
GR
GS
[0.75 0 0 0.75 0 0.25] CT
0.467 0.675 0.188 RC
2 setlinecap
10.0 ML
2.667 LW
N
470 395.5 M
479 395.5 L
S
GR
GS
[0.75 0 0 0.75 0 0.25] CT
0.467 0.675 0.188 RC
2 setlinecap
10.0 ML
2.667 LW
N
474.5 400 M
474.5 391 L
S
GR
GS
[0.75 0 0 0.75 0 0.25] CT
0.467 0.675 0.188 RC
2 setlinecap
10.0 ML
2.667 LW
N
471 399 M
478 392 L
S
GR
GS
[0.75 0 0 0.75 0 0.25] CT
0.467 0.675 0.188 RC
2 setlinecap
10.0 ML
2.667 LW
N
471 392 M
478 399 L
S
GR
GS
[0.75 0 0 0.75 0 0.25] CT
0.467 0.675 0.188 RC
2 setlinecap
10.0 ML
2.667 LW
N
495 415.5 M
504 415.5 L
S
GR
GS
[0.75 0 0 0.75 0 0.25] CT
0.467 0.675 0.188 RC
2 setlinecap
10.0 ML
2.667 LW
N
499.5 420 M
499.5 411 L
S
GR
GS
[0.75 0 0 0.75 0 0.25] CT
0.467 0.675 0.188 RC
2 setlinecap
10.0 ML
2.667 LW
N
496 419 M
503 412 L
S
GR
GS
[0.75 0 0 0.75 0 0.25] CT
0.467 0.675 0.188 RC
2 setlinecap
10.0 ML
2.667 LW
N
496 412 M
503 419 L
S
GR
GS
[0.75 0 0 0.75 0 0.25] CT
0.467 0.675 0.188 RC
2 setlinecap
10.0 ML
2.667 LW
N
521 432.5 M
530 432.5 L
S
GR
GS
[0.75 0 0 0.75 0 0.25] CT
0.467 0.675 0.188 RC
2 setlinecap
10.0 ML
2.667 LW
N
525.5 437 M
525.5 428 L
S
GR
GS
[0.75 0 0 0.75 0 0.25] CT
0.467 0.675 0.188 RC
2 setlinecap
10.0 ML
2.667 LW
N
522 436 M
529 429 L
S
GR
GS
[0.75 0 0 0.75 0 0.25] CT
0.467 0.675 0.188 RC
2 setlinecap
10.0 ML
2.667 LW
N
522 429 M
529 436 L
S
GR
GS
[0.75 0 0 0.75 0 0.25] CT
0.467 0.675 0.188 RC
2 setlinecap
10.0 ML
2.667 LW
N
547 447.5 M
556 447.5 L
S
GR
GS
[0.75 0 0 0.75 0 0.25] CT
0.467 0.675 0.188 RC
2 setlinecap
10.0 ML
2.667 LW
N
551.5 452 M
551.5 443 L
S
GR
GS
[0.75 0 0 0.75 0 0.25] CT
0.467 0.675 0.188 RC
2 setlinecap
10.0 ML
2.667 LW
N
548 451 M
555 444 L
S
GR
GS
[0.75 0 0 0.75 0 0.25] CT
0.467 0.675 0.188 RC
2 setlinecap
10.0 ML
2.667 LW
N
548 444 M
555 451 L
S
GR
GS
[0.75 0 0 0.75 0 0.25] CT
0.467 0.675 0.188 RC
2 setlinecap
10.0 ML
2.667 LW
N
573 460.5 M
582 460.5 L
S
GR
GS
[0.75 0 0 0.75 0 0.25] CT
0.467 0.675 0.188 RC
2 setlinecap
10.0 ML
2.667 LW
N
577.5 465 M
577.5 456 L
S
GR
GS
[0.75 0 0 0.75 0 0.25] CT
0.467 0.675 0.188 RC
2 setlinecap
10.0 ML
2.667 LW
N
574 464 M
581 457 L
S
GR
GS
[0.75 0 0 0.75 0 0.25] CT
0.467 0.675 0.188 RC
2 setlinecap
10.0 ML
2.667 LW
N
574 457 M
581 464 L
S
GR
GS
[0.75 0 0 0.75 0 0.25] CT
0.467 0.675 0.188 RC
2 setlinecap
10.0 ML
2.667 LW
N
599 472.5 M
608 472.5 L
S
GR
GS
[0.75 0 0 0.75 0 0.25] CT
0.467 0.675 0.188 RC
2 setlinecap
10.0 ML
2.667 LW
N
603.5 477 M
603.5 468 L
S
GR
GS
[0.75 0 0 0.75 0 0.25] CT
0.467 0.675 0.188 RC
2 setlinecap
10.0 ML
2.667 LW
N
600 476 M
607 469 L
S
GR
GS
[0.75 0 0 0.75 0 0.25] CT
0.467 0.675 0.188 RC
2 setlinecap
10.0 ML
2.667 LW
N
600 469 M
607 476 L
S
GR
GS
[0.75 0 0 0.75 0 0.25] CT
1 GC
N
428 163 M
428 55 L
590 55 L
590 163 L
cp
f
GR
GS
[0.75 0 0 0.75 360 51] CT
/Times-Roman 17 F
GS
[1 0 0 1 0 0] CT
0 6 moveto 
1 -1 scale
(OFDM) t 
GR
GR
GS
[0.75 0 0 0.75 0 0.25] CT
0.494 0.184 0.557 RC
2 setlinecap
10.0 ML
2.667 LW
N
436 67.667 M
476 67.667 L
S
GR
GS
[0.75 0 0 0.75 0 0.25] CT
0.494 0.184 0.557 RC
2 setlinecap
10.0 ML
2.667 LW
N
452 67.5 M
461 67.5 L
S
GR
GS
[0.75 0 0 0.75 0 0.25] CT
0.494 0.184 0.557 RC
2 setlinecap
10.0 ML
2.667 LW
N
456.5 72 M
456.5 63 L
S
GR
GS
[0.75 0 0 0.75 360 66.5] CT
/Times-Roman 17 F
GS
[1 0 0 1 0 0] CT
0 6 moveto 
1 -1 scale
(FMT) t 
GR
GR
GS
[0.75 0 0 0.75 0 0.25] CT
0 0.447 0.741 RC
2 setlinecap
10.0 ML
2.667 LW
N
436 88.333 M
476 88.333 L
S
GR
GS
[0.75 0 0 0.75 0 0.25] CT
0 0.447 0.741 RC
2 setlinecap
10.0 ML
2.667 LW
N
456.5 93.832 M
461.118 85.834 L
451.882 85.834 L
456.5 93.832 L
S
GR
GS
[0.75 0 0 0.75 360 82] CT
/Times-Roman 17 F
GS
[1 0 0 1 0 0] CT
0 6 moveto 
1 -1 scale
(OFDM/OQAM) t 
GR
GR
GS
[0.75 0 0 0.75 0 0.25] CT
0.467 0.675 0.188 RC
[8 8] 0 setdash
2 LJ
2.667 LW
N
436 109 M
476 109 L
S
GR
GS
[0.75 0 0 0.75 0 0.25] CT
0.467 0.675 0.188 RC
2 setlinecap
10.0 ML
2.667 LW
N
452 108.5 M
461 108.5 L
S
GR
GS
[0.75 0 0 0.75 0 0.25] CT
0.467 0.675 0.188 RC
2 setlinecap
10.0 ML
2.667 LW
N
456.5 113 M
456.5 104 L
S
GR
GS
[0.75 0 0 0.75 0 0.25] CT
0.467 0.675 0.188 RC
2 setlinecap
10.0 ML
2.667 LW
N
453 112 M
460 105 L
S
GR
GS
[0.75 0 0 0.75 0 0.25] CT
0.467 0.675 0.188 RC
2 setlinecap
10.0 ML
2.667 LW
N
453 105 M
460 112 L
S
GR
GS
[0.75 0 0 0.75 360 97.5] CT
/Times-Roman 17 F
GS
[1 0 0 1 0 0] CT
0 6 moveto 
1 -1 scale
(Lapped FBMC) t 
GR
GR
GS
[0.75 0 0 0.75 0 0.25] CT
0.929 0.694 0.125 RC
2 setlinecap
10.0 ML
2.667 LW
N
436 129.667 M
476 129.667 L
S
GR
GS
[0.75 0 0 0.75 0 0.25] CT
0.929 0.694 0.125 RC
2 setlinecap
10.0 ML
2.667 LW
N
453 133 M
460 126 L
S
GR
GS
[0.75 0 0 0.75 0 0.25] CT
0.929 0.694 0.125 RC
2 setlinecap
10.0 ML
2.667 LW
N
453 126 M
460 133 L
S
GR
GS
[0.75 0 0 0.75 360 113] CT
/Times-Roman 17 F
GS
[1 0 0 1 0 0] CT
0 6 moveto 
1 -1 scale
(GFDM) t 
GR
GR
GS
[0.75 0 0 0.75 0 0.25] CT
0.851 0.325 0.098 RC
2 setlinecap
10.0 ML
2.667 LW
N
436 150.333 M
476 150.333 L
S
GR
GS
[0.75 0 0 0.75 0 0.25] CT
0.851 0.325 0.098 RC
2 setlinecap
10.0 ML
2.667 LW
N
460.5 150.5 M
459.736 148.149 L
457.736 146.696 L
455.264 146.696 L
453.264 148.149 L
452.5 150.5 L
453.264 152.851 L
455.264 154.304 L
457.736 154.304 L
459.736 152.851 L
460.5 150.5 L
S
GR
GS
[0.75 0 0 0.75 0 0.25] CT
0.149 GC
2 setlinecap
10.0 ML
N
428 163 M
428 55 L
590 55 L
590 163 L
428 163 L
S
GR
%%Trailer
%%Pages: 1
%%EOF
