%!PS-Adobe-3.0 EPSF-3.0
%%Creator: (MATLAB, The Mathworks, Inc. Version 8.5.0.197613 \(R2015a\). Operating System: Windows 7)
%%Title: C:/Users/quentin_bodinier/Documents/MATLAB/RB_leakage/MSE1SubC/meanMSEcomp1subC.eps
%%CreationDate: 2015-10-16T18:08:22
%%Pages: (atend)
%%BoundingBox: 0 0 500 421
%%LanguageLevel: 2
%%EndComments
%%BeginProlog
%%BeginResource: procset (Apache XML Graphics Std ProcSet) 1.2 0
%%Version: 1.2 0
%%Copyright: (Copyright 2001-2003,2010 The Apache Software Foundation. License terms: http://www.apache.org/licenses/LICENSE-2.0)
/bd{bind def}bind def
/ld{load def}bd
/GR/grestore ld
/M/moveto ld
/LJ/setlinejoin ld
/C/curveto ld
/f/fill ld
/LW/setlinewidth ld
/GC/setgray ld
/t/show ld
/N/newpath ld
/CT/concat ld
/cp/closepath ld
/S/stroke ld
/L/lineto ld
/CC/setcmykcolor ld
/A/ashow ld
/GS/gsave ld
/RC/setrgbcolor ld
/RM/rmoveto ld
/ML/setmiterlimit ld
/re {4 2 roll M
1 index 0 rlineto
0 exch rlineto
neg 0 rlineto
cp } bd
/_ctm matrix def
/_tm matrix def
/BT { _ctm currentmatrix pop matrix _tm copy pop 0 0 moveto } bd
/ET { _ctm setmatrix } bd
/iTm { _ctm setmatrix _tm concat } bd
/Tm { _tm astore pop iTm 0 0 moveto } bd
/ux 0.0 def
/uy 0.0 def
/F {
  /Tp exch def
  /Tf exch def
  Tf findfont Tp scalefont setfont
  /cf Tf def  /cs Tp def
} bd
/ULS {currentpoint /uy exch def /ux exch def} bd
/ULE {
  /Tcx currentpoint pop def
  gsave
  newpath
  cf findfont cs scalefont dup
  /FontMatrix get 0 get /Ts exch def /FontInfo get dup
  /UnderlinePosition get Ts mul /To exch def
  /UnderlineThickness get Ts mul /Tt exch def
  ux uy To add moveto  Tcx uy To add lineto
  Tt setlinewidth stroke
  grestore
} bd
/OLE {
  /Tcx currentpoint pop def
  gsave
  newpath
  cf findfont cs scalefont dup
  /FontMatrix get 0 get /Ts exch def /FontInfo get dup
  /UnderlinePosition get Ts mul /To exch def
  /UnderlineThickness get Ts mul /Tt exch def
  ux uy To add cs add moveto Tcx uy To add cs add lineto
  Tt setlinewidth stroke
  grestore
} bd
/SOE {
  /Tcx currentpoint pop def
  gsave
  newpath
  cf findfont cs scalefont dup
  /FontMatrix get 0 get /Ts exch def /FontInfo get dup
  /UnderlinePosition get Ts mul /To exch def
  /UnderlineThickness get Ts mul /Tt exch def
  ux uy To add cs 10 mul 26 idiv add moveto Tcx uy To add cs 10 mul 26 idiv add lineto
  Tt setlinewidth stroke
  grestore
} bd
/QT {
/Y22 exch store
/X22 exch store
/Y21 exch store
/X21 exch store
currentpoint
/Y21 load 2 mul add 3 div exch
/X21 load 2 mul add 3 div exch
/X21 load 2 mul /X22 load add 3 div
/Y21 load 2 mul /Y22 load add 3 div
/X22 load /Y22 load curveto
} bd
/SSPD {
dup length /d exch dict def
{
/v exch def
/k exch def
currentpagedevice k known {
/cpdv currentpagedevice k get def
v cpdv ne {
/upd false def
/nullv v type /nulltype eq def
/nullcpdv cpdv type /nulltype eq def
nullv nullcpdv or
{
/upd true def
} {
/sametype v type cpdv type eq def
sametype {
v type /arraytype eq {
/vlen v length def
/cpdvlen cpdv length def
vlen cpdvlen eq {
0 1 vlen 1 sub {
/i exch def
/obj v i get def
/cpdobj cpdv i get def
obj cpdobj ne {
/upd true def
exit
} if
} for
} {
/upd true def
} ifelse
} {
v type /dicttype eq {
v {
/dv exch def
/dk exch def
/cpddv cpdv dk get def
dv cpddv ne {
/upd true def
exit
} if
} forall
} {
/upd true def
} ifelse
} ifelse
} if
} ifelse
upd true eq {
d k v put
} if
} if
} if
} forall
d length 0 gt {
d setpagedevice
} if
} bd
%%EndResource
%%BeginResource: procset (Apache XML Graphics EPS ProcSet) 1.0 0
%%Version: 1.0 0
%%Copyright: (Copyright 2002-2003 The Apache Software Foundation. License terms: http://www.apache.org/licenses/LICENSE-2.0)
/BeginEPSF { %def
/b4_Inc_state save def         % Save state for cleanup
/dict_count countdictstack def % Count objects on dict stack
/op_count count 1 sub def      % Count objects on operand stack
userdict begin                 % Push userdict on dict stack
/showpage { } def              % Redefine showpage, { } = null proc
0 setgray 0 setlinecap         % Prepare graphics state
1 setlinewidth 0 setlinejoin
10 setmiterlimit [ ] 0 setdash newpath
/languagelevel where           % If level not equal to 1 then
{pop languagelevel             % set strokeadjust and
1 ne                           % overprint to their defaults.
{false setstrokeadjust false setoverprint
} if
} if
} bd
/EndEPSF { %def
count op_count sub {pop} repeat            % Clean up stacks
countdictstack dict_count sub {end} repeat
b4_Inc_state restore
} bd
%%EndResource
%FOPBeginFontDict
%%IncludeResource: font Courier-Bold
%%IncludeResource: font Helvetica
%%IncludeResource: font Courier-BoldOblique
%%IncludeResource: font Courier-Oblique
%%IncludeResource: font Times-Roman
%%IncludeResource: font Helvetica-BoldOblique
%%IncludeResource: font Helvetica-Bold
%%IncludeResource: font Helvetica-Oblique
%%IncludeResource: font Times-BoldItalic
%%IncludeResource: font Courier
%%IncludeResource: font Times-Italic
%%IncludeResource: font Times-Bold
%%IncludeResource: font Symbol
%%IncludeResource: font ZapfDingbats
%FOPEndFontDict
%%BeginResource: encoding WinAnsiEncoding
/WinAnsiEncoding [
/.notdef /.notdef /.notdef /.notdef /.notdef
/.notdef /.notdef /.notdef /.notdef /.notdef
/.notdef /.notdef /.notdef /.notdef /.notdef
/.notdef /.notdef /.notdef /.notdef /.notdef
/.notdef /.notdef /.notdef /.notdef /.notdef
/.notdef /.notdef /.notdef /.notdef /.notdef
/.notdef /.notdef /space /exclam /quotedbl
/numbersign /dollar /percent /ampersand /quotesingle
/parenleft /parenright /asterisk /plus /comma
/hyphen /period /slash /zero /one
/two /three /four /five /six
/seven /eight /nine /colon /semicolon
/less /equal /greater /question /at
/A /B /C /D /E
/F /G /H /I /J
/K /L /M /N /O
/P /Q /R /S /T
/U /V /W /X /Y
/Z /bracketleft /backslash /bracketright /asciicircum
/underscore /quoteleft /a /b /c
/d /e /f /g /h
/i /j /k /l /m
/n /o /p /q /r
/s /t /u /v /w
/x /y /z /braceleft /bar
/braceright /asciitilde /bullet /Euro /bullet
/quotesinglbase /florin /quotedblbase /ellipsis /dagger
/daggerdbl /circumflex /perthousand /Scaron /guilsinglleft
/OE /bullet /Zcaron /bullet /bullet
/quoteleft /quoteright /quotedblleft /quotedblright /bullet
/endash /emdash /asciitilde /trademark /scaron
/guilsinglright /oe /bullet /zcaron /Ydieresis
/space /exclamdown /cent /sterling /currency
/yen /brokenbar /section /dieresis /copyright
/ordfeminine /guillemotleft /logicalnot /sfthyphen /registered
/macron /degree /plusminus /twosuperior /threesuperior
/acute /mu /paragraph /middot /cedilla
/onesuperior /ordmasculine /guillemotright /onequarter /onehalf
/threequarters /questiondown /Agrave /Aacute /Acircumflex
/Atilde /Adieresis /Aring /AE /Ccedilla
/Egrave /Eacute /Ecircumflex /Edieresis /Igrave
/Iacute /Icircumflex /Idieresis /Eth /Ntilde
/Ograve /Oacute /Ocircumflex /Otilde /Odieresis
/multiply /Oslash /Ugrave /Uacute /Ucircumflex
/Udieresis /Yacute /Thorn /germandbls /agrave
/aacute /acircumflex /atilde /adieresis /aring
/ae /ccedilla /egrave /eacute /ecircumflex
/edieresis /igrave /iacute /icircumflex /idieresis
/eth /ntilde /ograve /oacute /ocircumflex
/otilde /odieresis /divide /oslash /ugrave
/uacute /ucircumflex /udieresis /yacute /thorn
/ydieresis
] def
%%EndResource
%FOPBeginFontReencode
/Courier-Bold findfont
dup length dict begin
  {1 index /FID ne {def} {pop pop} ifelse} forall
  /Encoding WinAnsiEncoding def
  currentdict
end
/Courier-Bold exch definefont pop
/Helvetica findfont
dup length dict begin
  {1 index /FID ne {def} {pop pop} ifelse} forall
  /Encoding WinAnsiEncoding def
  currentdict
end
/Helvetica exch definefont pop
/Courier-BoldOblique findfont
dup length dict begin
  {1 index /FID ne {def} {pop pop} ifelse} forall
  /Encoding WinAnsiEncoding def
  currentdict
end
/Courier-BoldOblique exch definefont pop
/Courier-Oblique findfont
dup length dict begin
  {1 index /FID ne {def} {pop pop} ifelse} forall
  /Encoding WinAnsiEncoding def
  currentdict
end
/Courier-Oblique exch definefont pop
/Times-Roman findfont
dup length dict begin
  {1 index /FID ne {def} {pop pop} ifelse} forall
  /Encoding WinAnsiEncoding def
  currentdict
end
/Times-Roman exch definefont pop
/Helvetica-BoldOblique findfont
dup length dict begin
  {1 index /FID ne {def} {pop pop} ifelse} forall
  /Encoding WinAnsiEncoding def
  currentdict
end
/Helvetica-BoldOblique exch definefont pop
/Helvetica-Bold findfont
dup length dict begin
  {1 index /FID ne {def} {pop pop} ifelse} forall
  /Encoding WinAnsiEncoding def
  currentdict
end
/Helvetica-Bold exch definefont pop
/Helvetica-Oblique findfont
dup length dict begin
  {1 index /FID ne {def} {pop pop} ifelse} forall
  /Encoding WinAnsiEncoding def
  currentdict
end
/Helvetica-Oblique exch definefont pop
/Times-BoldItalic findfont
dup length dict begin
  {1 index /FID ne {def} {pop pop} ifelse} forall
  /Encoding WinAnsiEncoding def
  currentdict
end
/Times-BoldItalic exch definefont pop
/Courier findfont
dup length dict begin
  {1 index /FID ne {def} {pop pop} ifelse} forall
  /Encoding WinAnsiEncoding def
  currentdict
end
/Courier exch definefont pop
/Times-Italic findfont
dup length dict begin
  {1 index /FID ne {def} {pop pop} ifelse} forall
  /Encoding WinAnsiEncoding def
  currentdict
end
/Times-Italic exch definefont pop
/Times-Bold findfont
dup length dict begin
  {1 index /FID ne {def} {pop pop} ifelse} forall
  /Encoding WinAnsiEncoding def
  currentdict
end
/Times-Bold exch definefont pop
%FOPEndFontReencode
%%EndProlog
%%Page: 1 1
%%PageBoundingBox: 0 0 500 421
%%BeginPageSetup
[1 0 0 -1 0 421] CT
%%EndPageSetup
GS
[0.75 0 0 0.75 0 0.25] CT
N
0 0 M
666 0 L
666 561 L
0 561 L
0 0 L
cp
clip
1 GC
N
0 0 666 561 re
f
GR
GS
[0.75 0 0 0.75 0 0.25] CT
1 GC
N
0 0 666 561 re
f
GR
GS
[0.75 0 0 0.75 0 0.25] CT
1 GC
N
87 499 M
603 499 L
603 42 L
87 42 L
cp
f
GR
GS
[0.75 0 0 0.75 0 0.25] CT
0.873 GC
2 setlinecap
10.0 ML
N
87 499 M
87 42 L
S
GR
GS
[0.75 0 0 0.75 0 0.25] CT
0.873 GC
2 setlinecap
10.0 ML
N
138.6 499 M
138.6 42 L
S
GR
GS
[0.75 0 0 0.75 0 0.25] CT
0.873 GC
2 setlinecap
10.0 ML
N
190.2 499 M
190.2 42 L
S
GR
GS
[0.75 0 0 0.75 0 0.25] CT
0.873 GC
2 setlinecap
10.0 ML
N
241.8 499 M
241.8 42 L
S
GR
GS
[0.75 0 0 0.75 0 0.25] CT
0.873 GC
2 setlinecap
10.0 ML
N
293.4 499 M
293.4 42 L
S
GR
GS
[0.75 0 0 0.75 0 0.25] CT
0.873 GC
2 setlinecap
10.0 ML
N
345 499 M
345 42 L
S
GR
GS
[0.75 0 0 0.75 0 0.25] CT
0.873 GC
2 setlinecap
10.0 ML
N
396.6 499 M
396.6 42 L
S
GR
GS
[0.75 0 0 0.75 0 0.25] CT
0.873 GC
2 setlinecap
10.0 ML
N
448.2 499 M
448.2 42 L
S
GR
GS
[0.75 0 0 0.75 0 0.25] CT
0.873 GC
2 setlinecap
10.0 ML
N
499.8 499 M
499.8 42 L
S
GR
GS
[0.75 0 0 0.75 0 0.25] CT
0.873 GC
2 setlinecap
10.0 ML
N
551.4 499 M
551.4 42 L
S
GR
GS
[0.75 0 0 0.75 0 0.25] CT
0.873 GC
2 setlinecap
10.0 ML
N
603 499 M
603 42 L
S
GR
GS
[0.75 0 0 0.75 0 0.25] CT
0.873 GC
2 setlinecap
10.0 ML
N
603 499 M
87 499 L
S
GR
GS
[0.75 0 0 0.75 0 0.25] CT
0.873 GC
2 setlinecap
10.0 ML
N
603 435.528 M
87 435.528 L
S
GR
GS
[0.75 0 0 0.75 0 0.25] CT
0.873 GC
2 setlinecap
10.0 ML
N
603 372.056 M
87 372.056 L
S
GR
GS
[0.75 0 0 0.75 0 0.25] CT
0.873 GC
2 setlinecap
10.0 ML
N
603 308.583 M
87 308.583 L
S
GR
GS
[0.75 0 0 0.75 0 0.25] CT
0.873 GC
2 setlinecap
10.0 ML
N
603 245.111 M
87 245.111 L
S
GR
GS
[0.75 0 0 0.75 0 0.25] CT
0.873 GC
2 setlinecap
10.0 ML
N
603 181.639 M
87 181.639 L
S
GR
GS
[0.75 0 0 0.75 0 0.25] CT
0.873 GC
2 setlinecap
10.0 ML
N
603 118.167 M
87 118.167 L
S
GR
GS
[0.75 0 0 0.75 0 0.25] CT
0.873 GC
2 setlinecap
10.0 ML
N
603 54.694 M
87 54.694 L
S
GR
GS
[0.75 0 0 0.75 258.75014 396.8] CT
0.149 GC
/Times-Roman 20 F
GS
[1 0 0 1 0 0] CT
-79.5 19 moveto 
1 -1 scale
(Subcarrier Distance) t 
GR
GR
GS
[0.75 0 0 0.75 0 0.25] CT
0.149 GC
2 setlinecap
10.0 ML
N
87 499 M
603 499 L
S
GR
GS
[0.75 0 0 0.75 0 0.25] CT
0.149 GC
2 setlinecap
10.0 ML
N
87 42 M
603 42 L
S
GR
GS
[0.75 0 0 0.75 0 0.25] CT
0.149 GC
2 setlinecap
10.0 ML
N
87 499 M
87 493.84 L
S
GR
GS
[0.75 0 0 0.75 0 0.25] CT
0.149 GC
2 setlinecap
10.0 ML
N
138.6 499 M
138.6 493.84 L
S
GR
GS
[0.75 0 0 0.75 0 0.25] CT
0.149 GC
2 setlinecap
10.0 ML
N
190.2 499 M
190.2 493.84 L
S
GR
GS
[0.75 0 0 0.75 0 0.25] CT
0.149 GC
2 setlinecap
10.0 ML
N
241.8 499 M
241.8 493.84 L
S
GR
GS
[0.75 0 0 0.75 0 0.25] CT
0.149 GC
2 setlinecap
10.0 ML
N
293.4 499 M
293.4 493.84 L
S
GR
GS
[0.75 0 0 0.75 0 0.25] CT
0.149 GC
2 setlinecap
10.0 ML
N
345 499 M
345 493.84 L
S
GR
GS
[0.75 0 0 0.75 0 0.25] CT
0.149 GC
2 setlinecap
10.0 ML
N
396.6 499 M
396.6 493.84 L
S
GR
GS
[0.75 0 0 0.75 0 0.25] CT
0.149 GC
2 setlinecap
10.0 ML
N
448.2 499 M
448.2 493.84 L
S
GR
GS
[0.75 0 0 0.75 0 0.25] CT
0.149 GC
2 setlinecap
10.0 ML
N
499.8 499 M
499.8 493.84 L
S
GR
GS
[0.75 0 0 0.75 0 0.25] CT
0.149 GC
2 setlinecap
10.0 ML
N
551.4 499 M
551.4 493.84 L
S
GR
GS
[0.75 0 0 0.75 0 0.25] CT
0.149 GC
2 setlinecap
10.0 ML
N
603 499 M
603 493.84 L
S
GR
GS
[0.75 0 0 0.75 0 0.25] CT
0.149 GC
2 setlinecap
10.0 ML
N
87 42 M
87 47.16 L
S
GR
GS
[0.75 0 0 0.75 0 0.25] CT
0.149 GC
2 setlinecap
10.0 ML
N
138.6 42 M
138.6 47.16 L
S
GR
GS
[0.75 0 0 0.75 0 0.25] CT
0.149 GC
2 setlinecap
10.0 ML
N
190.2 42 M
190.2 47.16 L
S
GR
GS
[0.75 0 0 0.75 0 0.25] CT
0.149 GC
2 setlinecap
10.0 ML
N
241.8 42 M
241.8 47.16 L
S
GR
GS
[0.75 0 0 0.75 0 0.25] CT
0.149 GC
2 setlinecap
10.0 ML
N
293.4 42 M
293.4 47.16 L
S
GR
GS
[0.75 0 0 0.75 0 0.25] CT
0.149 GC
2 setlinecap
10.0 ML
N
345 42 M
345 47.16 L
S
GR
GS
[0.75 0 0 0.75 0 0.25] CT
0.149 GC
2 setlinecap
10.0 ML
N
396.6 42 M
396.6 47.16 L
S
GR
GS
[0.75 0 0 0.75 0 0.25] CT
0.149 GC
2 setlinecap
10.0 ML
N
448.2 42 M
448.2 47.16 L
S
GR
GS
[0.75 0 0 0.75 0 0.25] CT
0.149 GC
2 setlinecap
10.0 ML
N
499.8 42 M
499.8 47.16 L
S
GR
GS
[0.75 0 0 0.75 0 0.25] CT
0.149 GC
2 setlinecap
10.0 ML
N
551.4 42 M
551.4 47.16 L
S
GR
GS
[0.75 0 0 0.75 0 0.25] CT
0.149 GC
2 setlinecap
10.0 ML
N
603 42 M
603 47.16 L
S
GR
GS
[0.75 0 0 0.75 65.25 379.3] CT
0.149 GC
/Times-Roman 19 F
GS
[1 0 0 1 0 0] CT
-13 18 moveto 
1 -1 scale
(-10) t 
GR
GR
GS
[0.75 0 0 0.75 103.95 379.3] CT
0.149 GC
/Times-Roman 19 F
GS
[1 0 0 1 0 0] CT
-8 18 moveto 
1 -1 scale
(-8) t 
GR
GR
GS
[0.75 0 0 0.75 142.65 379.3] CT
0.149 GC
/Times-Roman 19 F
GS
[1 0 0 1 0 0] CT
-8 18 moveto 
1 -1 scale
(-6) t 
GR
GR
GS
[0.75 0 0 0.75 181.35 379.3] CT
0.149 GC
/Times-Roman 19 F
GS
[1 0 0 1 0 0] CT
-8 18 moveto 
1 -1 scale
(-4) t 
GR
GR
GS
[0.75 0 0 0.75 220.05 379.3] CT
0.149 GC
/Times-Roman 19 F
GS
[1 0 0 1 0 0] CT
-8 18 moveto 
1 -1 scale
(-2) t 
GR
GR
GS
[0.75 0 0 0.75 258.75 379.3] CT
0.149 GC
/Times-Roman 19 F
GS
[1 0 0 1 0 0] CT
-5 18 moveto 
1 -1 scale
(0) t 
GR
GR
GS
[0.75 0 0 0.75 297.45 379.3] CT
0.149 GC
/Times-Roman 19 F
GS
[1 0 0 1 0 0] CT
-5 18 moveto 
1 -1 scale
(2) t 
GR
GR
GS
[0.75 0 0 0.75 336.15001 379.3] CT
0.149 GC
/Times-Roman 19 F
GS
[1 0 0 1 0 0] CT
-5 18 moveto 
1 -1 scale
(4) t 
GR
GR
GS
[0.75 0 0 0.75 374.84999 379.3] CT
0.149 GC
/Times-Roman 19 F
GS
[1 0 0 1 0 0] CT
-5 18 moveto 
1 -1 scale
(6) t 
GR
GR
GS
[0.75 0 0 0.75 413.55002 379.3] CT
0.149 GC
/Times-Roman 19 F
GS
[1 0 0 1 0 0] CT
-5 18 moveto 
1 -1 scale
(8) t 
GR
GR
GS
[0.75 0 0 0.75 452.25 379.3] CT
0.149 GC
/Times-Roman 19 F
GS
[1 0 0 1 0 0] CT
-9.5 18 moveto 
1 -1 scale
(10) t 
GR
GR
GS
[0 -0.75 0.75 0 37.95004 203.12484] CT
0.149 GC
/Times-Roman 20 F
GS
[1 0 0 1 0 0] CT
-132 -4 moveto 
1 -1 scale
(Mean injected interference in dB) t 
GR
GR
GS
[0.75 0 0 0.75 0 0.25] CT
0.149 GC
2 setlinecap
10.0 ML
N
87 499 M
87 42 L
S
GR
GS
[0.75 0 0 0.75 0 0.25] CT
0.149 GC
2 setlinecap
10.0 ML
N
603 499 M
603 42 L
S
GR
GS
[0.75 0 0 0.75 0 0.25] CT
0.149 GC
2 setlinecap
10.0 ML
N
87 499 M
92.16 499 L
S
GR
GS
[0.75 0 0 0.75 0 0.25] CT
0.149 GC
2 setlinecap
10.0 ML
N
87 435.528 M
92.16 435.528 L
S
GR
GS
[0.75 0 0 0.75 0 0.25] CT
0.149 GC
2 setlinecap
10.0 ML
N
87 372.056 M
92.16 372.056 L
S
GR
GS
[0.75 0 0 0.75 0 0.25] CT
0.149 GC
2 setlinecap
10.0 ML
N
87 308.583 M
92.16 308.583 L
S
GR
GS
[0.75 0 0 0.75 0 0.25] CT
0.149 GC
2 setlinecap
10.0 ML
N
87 245.111 M
92.16 245.111 L
S
GR
GS
[0.75 0 0 0.75 0 0.25] CT
0.149 GC
2 setlinecap
10.0 ML
N
87 181.639 M
92.16 181.639 L
S
GR
GS
[0.75 0 0 0.75 0 0.25] CT
0.149 GC
2 setlinecap
10.0 ML
N
87 118.167 M
92.16 118.167 L
S
GR
GS
[0.75 0 0 0.75 0 0.25] CT
0.149 GC
2 setlinecap
10.0 ML
N
87 54.694 M
92.16 54.694 L
S
GR
GS
[0.75 0 0 0.75 0 0.25] CT
0.149 GC
2 setlinecap
10.0 ML
N
603 499 M
597.84 499 L
S
GR
GS
[0.75 0 0 0.75 0 0.25] CT
0.149 GC
2 setlinecap
10.0 ML
N
603 435.528 M
597.84 435.528 L
S
GR
GS
[0.75 0 0 0.75 0 0.25] CT
0.149 GC
2 setlinecap
10.0 ML
N
603 372.056 M
597.84 372.056 L
S
GR
GS
[0.75 0 0 0.75 0 0.25] CT
0.149 GC
2 setlinecap
10.0 ML
N
603 308.583 M
597.84 308.583 L
S
GR
GS
[0.75 0 0 0.75 0 0.25] CT
0.149 GC
2 setlinecap
10.0 ML
N
603 245.111 M
597.84 245.111 L
S
GR
GS
[0.75 0 0 0.75 0 0.25] CT
0.149 GC
2 setlinecap
10.0 ML
N
603 181.639 M
597.84 181.639 L
S
GR
GS
[0.75 0 0 0.75 0 0.25] CT
0.149 GC
2 setlinecap
10.0 ML
N
603 118.167 M
597.84 118.167 L
S
GR
GS
[0.75 0 0 0.75 0 0.25] CT
0.149 GC
2 setlinecap
10.0 ML
N
603 54.694 M
597.84 54.694 L
S
GR
GS
[0.75 0 0 0.75 60.45 374.5] CT
0.149 GC
/Times-Roman 19 F
GS
[1 0 0 1 0 0] CT
-26 7 moveto 
1 -1 scale
(-35) t 
GR
GR
GS
[0.75 0 0 0.75 60.45 326.89583] CT
0.149 GC
/Times-Roman 19 F
GS
[1 0 0 1 0 0] CT
-26 7 moveto 
1 -1 scale
(-30) t 
GR
GR
GS
[0.75 0 0 0.75 60.45 279.29166] CT
0.149 GC
/Times-Roman 19 F
GS
[1 0 0 1 0 0] CT
-26 7 moveto 
1 -1 scale
(-25) t 
GR
GR
GS
[0.75 0 0 0.75 60.45 231.68751] CT
0.149 GC
/Times-Roman 19 F
GS
[1 0 0 1 0 0] CT
-26 7 moveto 
1 -1 scale
(-20) t 
GR
GR
GS
[0.75 0 0 0.75 60.45 184.08334] CT
0.149 GC
/Times-Roman 19 F
GS
[1 0 0 1 0 0] CT
-26 7 moveto 
1 -1 scale
(-15) t 
GR
GR
GS
[0.75 0 0 0.75 60.45 136.47916] CT
0.149 GC
/Times-Roman 19 F
GS
[1 0 0 1 0 0] CT
-26 7 moveto 
1 -1 scale
(-10) t 
GR
GR
GS
[0.75 0 0 0.75 60.45 88.875] CT
0.149 GC
/Times-Roman 19 F
GS
[1 0 0 1 0 0] CT
-16 7 moveto 
1 -1 scale
(-5) t 
GR
GR
GS
[0.75 0 0 0.75 60.45 41.27083] CT
0.149 GC
/Times-Roman 19 F
GS
[1 0 0 1 0 0] CT
-10 7 moveto 
1 -1 scale
(0) t 
GR
GR
GS
[0.75 0 0 0.75 0 0.25] CT
0 0.447 0.741 RC
2 setlinecap
10.0 ML
2.667 LW
N
86.948 480.051 M
87 480.03 L
112.8 468.48 L
138.6 455.533 L
164.4 440.811 L
190.2 423.757 L
216 403.494 L
241.8 378.524 L
267.6 345.92 L
293.4 298.507 L
319.2 205.658 L
345 70.41 L
370.8 204.463 L
396.6 297.822 L
422.4 345.453 L
448.2 378.171 L
474 403.211 L
499.8 423.521 L
525.6 440.609 L
551.4 455.356 L
577.2 468.323 L
603 479.889 L
603.052 479.91 L
S
GR
GS
[0.75 0 0 0.75 0 0.25] CT
0 0.447 0.741 RC
2 setlinecap
10.0 ML
2.667 LW
N
87.5 485.832 M
92.118 477.834 L
82.882 477.834 L
87.5 485.832 L
S
GR
GS
[0.75 0 0 0.75 0 0.25] CT
0 0.447 0.741 RC
2 setlinecap
10.0 ML
2.667 LW
N
112.5 473.832 M
117.118 465.834 L
107.882 465.834 L
112.5 473.832 L
S
GR
GS
[0.75 0 0 0.75 0 0.25] CT
0 0.447 0.741 RC
2 setlinecap
10.0 ML
2.667 LW
N
138.5 460.832 M
143.118 452.834 L
133.882 452.834 L
138.5 460.832 L
S
GR
GS
[0.75 0 0 0.75 0 0.25] CT
0 0.447 0.741 RC
2 setlinecap
10.0 ML
2.667 LW
N
164.5 445.832 M
169.118 437.834 L
159.882 437.834 L
164.5 445.832 L
S
GR
GS
[0.75 0 0 0.75 0 0.25] CT
0 0.447 0.741 RC
2 setlinecap
10.0 ML
2.667 LW
N
190.5 428.832 M
195.118 420.834 L
185.882 420.834 L
190.5 428.832 L
S
GR
GS
[0.75 0 0 0.75 0 0.25] CT
0 0.447 0.741 RC
2 setlinecap
10.0 ML
2.667 LW
N
216.5 408.832 M
221.118 400.834 L
211.882 400.834 L
216.5 408.832 L
S
GR
GS
[0.75 0 0 0.75 0 0.25] CT
0 0.447 0.741 RC
2 setlinecap
10.0 ML
2.667 LW
N
241.5 383.832 M
246.118 375.834 L
236.882 375.834 L
241.5 383.832 L
S
GR
GS
[0.75 0 0 0.75 0 0.25] CT
0 0.447 0.741 RC
2 setlinecap
10.0 ML
2.667 LW
N
267.5 350.832 M
272.118 342.834 L
262.882 342.834 L
267.5 350.832 L
S
GR
GS
[0.75 0 0 0.75 0 0.25] CT
0 0.447 0.741 RC
2 setlinecap
10.0 ML
2.667 LW
N
293.5 303.832 M
298.118 295.834 L
288.882 295.834 L
293.5 303.832 L
S
GR
GS
[0.75 0 0 0.75 0 0.25] CT
0 0.447 0.741 RC
2 setlinecap
10.0 ML
2.667 LW
N
319.5 210.832 M
324.118 202.834 L
314.882 202.834 L
319.5 210.832 L
S
GR
GS
[0.75 0 0 0.75 0 0.25] CT
0 0.447 0.741 RC
2 setlinecap
10.0 ML
2.667 LW
N
345.5 75.832 M
350.118 67.834 L
340.882 67.834 L
345.5 75.832 L
S
GR
GS
[0.75 0 0 0.75 0 0.25] CT
0 0.447 0.741 RC
2 setlinecap
10.0 ML
2.667 LW
N
370.5 209.832 M
375.118 201.834 L
365.882 201.834 L
370.5 209.832 L
S
GR
GS
[0.75 0 0 0.75 0 0.25] CT
0 0.447 0.741 RC
2 setlinecap
10.0 ML
2.667 LW
N
396.5 302.832 M
401.118 294.834 L
391.882 294.834 L
396.5 302.832 L
S
GR
GS
[0.75 0 0 0.75 0 0.25] CT
0 0.447 0.741 RC
2 setlinecap
10.0 ML
2.667 LW
N
422.5 350.832 M
427.118 342.834 L
417.882 342.834 L
422.5 350.832 L
S
GR
GS
[0.75 0 0 0.75 0 0.25] CT
0 0.447 0.741 RC
2 setlinecap
10.0 ML
2.667 LW
N
448.5 383.832 M
453.118 375.834 L
443.882 375.834 L
448.5 383.832 L
S
GR
GS
[0.75 0 0 0.75 0 0.25] CT
0 0.447 0.741 RC
2 setlinecap
10.0 ML
2.667 LW
N
474.5 408.832 M
479.118 400.834 L
469.882 400.834 L
474.5 408.832 L
S
GR
GS
[0.75 0 0 0.75 0 0.25] CT
0 0.447 0.741 RC
2 setlinecap
10.0 ML
2.667 LW
N
499.5 428.832 M
504.118 420.834 L
494.882 420.834 L
499.5 428.832 L
S
GR
GS
[0.75 0 0 0.75 0 0.25] CT
0 0.447 0.741 RC
2 setlinecap
10.0 ML
2.667 LW
N
525.5 445.832 M
530.117 437.834 L
520.883 437.834 L
525.5 445.832 L
S
GR
GS
[0.75 0 0 0.75 0 0.25] CT
0 0.447 0.741 RC
2 setlinecap
10.0 ML
2.667 LW
N
551.5 460.832 M
556.117 452.834 L
546.883 452.834 L
551.5 460.832 L
S
GR
GS
[0.75 0 0 0.75 0 0.25] CT
0 0.447 0.741 RC
2 setlinecap
10.0 ML
2.667 LW
N
577.5 473.832 M
582.117 465.834 L
572.883 465.834 L
577.5 473.832 L
S
GR
GS
[0.75 0 0 0.75 0 0.25] CT
0 0.447 0.741 RC
2 setlinecap
10.0 ML
2.667 LW
N
603.5 484.832 M
608.117 476.834 L
598.883 476.834 L
603.5 484.832 L
S
GR
GS
[0.75 0 0 0.75 0 0.25] CT
0.851 0.325 0.098 RC
2 setlinecap
10.0 ML
2.667 LW
N
86.948 424.717 M
87 424.696 L
112.8 413.154 L
138.6 400.236 L
164.4 385.441 L
190.2 368.421 L
216 348.198 L
241.8 323.37 L
267.6 290.726 L
293.4 243.714 L
319.2 153.165 L
345 84.185 L
370.8 153.297 L
396.6 243.774 L
422.4 290.767 L
448.2 323.397 L
474 348.218 L
499.8 368.441 L
525.6 385.46 L
551.4 400.248 L
577.2 413.164 L
603 424.709 L
603.052 424.73 L
S
GR
GS
[0.75 0 0 0.75 0 0.25] CT
0.851 0.325 0.098 RC
2 setlinecap
10.0 ML
2.667 LW
N
91.5 424.5 M
90.736 422.149 L
88.736 420.696 L
86.264 420.696 L
84.264 422.149 L
83.5 424.5 L
84.264 426.851 L
86.264 428.304 L
88.736 428.304 L
90.736 426.851 L
91.5 424.5 L
S
GR
GS
[0.75 0 0 0.75 0 0.25] CT
0.851 0.325 0.098 RC
2 setlinecap
10.0 ML
2.667 LW
N
116.5 413.5 M
115.736 411.149 L
113.736 409.696 L
111.264 409.696 L
109.264 411.149 L
108.5 413.5 L
109.264 415.851 L
111.264 417.304 L
113.736 417.304 L
115.736 415.851 L
116.5 413.5 L
S
GR
GS
[0.75 0 0 0.75 0 0.25] CT
0.851 0.325 0.098 RC
2 setlinecap
10.0 ML
2.667 LW
N
142.5 400.5 M
141.736 398.149 L
139.736 396.696 L
137.264 396.696 L
135.264 398.149 L
134.5 400.5 L
135.264 402.851 L
137.264 404.304 L
139.736 404.304 L
141.736 402.851 L
142.5 400.5 L
S
GR
GS
[0.75 0 0 0.75 0 0.25] CT
0.851 0.325 0.098 RC
2 setlinecap
10.0 ML
2.667 LW
N
168.5 385.5 M
167.736 383.149 L
165.736 381.696 L
163.264 381.696 L
161.264 383.149 L
160.5 385.5 L
161.264 387.851 L
163.264 389.304 L
165.736 389.304 L
167.736 387.851 L
168.5 385.5 L
S
GR
GS
[0.75 0 0 0.75 0 0.25] CT
0.851 0.325 0.098 RC
2 setlinecap
10.0 ML
2.667 LW
N
194.5 368.5 M
193.736 366.149 L
191.736 364.696 L
189.264 364.696 L
187.264 366.149 L
186.5 368.5 L
187.264 370.851 L
189.264 372.304 L
191.736 372.304 L
193.736 370.851 L
194.5 368.5 L
S
GR
GS
[0.75 0 0 0.75 0 0.25] CT
0.851 0.325 0.098 RC
2 setlinecap
10.0 ML
2.667 LW
N
220.5 348.5 M
219.736 346.149 L
217.736 344.696 L
215.264 344.696 L
213.264 346.149 L
212.5 348.5 L
213.264 350.851 L
215.264 352.304 L
217.736 352.304 L
219.736 350.851 L
220.5 348.5 L
S
GR
GS
[0.75 0 0 0.75 0 0.25] CT
0.851 0.325 0.098 RC
2 setlinecap
10.0 ML
2.667 LW
N
245.5 323.5 M
244.736 321.149 L
242.736 319.696 L
240.264 319.696 L
238.264 321.149 L
237.5 323.5 L
238.264 325.851 L
240.264 327.304 L
242.736 327.304 L
244.736 325.851 L
245.5 323.5 L
S
GR
GS
[0.75 0 0 0.75 0 0.25] CT
0.851 0.325 0.098 RC
2 setlinecap
10.0 ML
2.667 LW
N
271.5 290.5 M
270.736 288.149 L
268.736 286.696 L
266.264 286.696 L
264.264 288.149 L
263.5 290.5 L
264.264 292.851 L
266.264 294.304 L
268.736 294.304 L
270.736 292.851 L
271.5 290.5 L
S
GR
GS
[0.75 0 0 0.75 0 0.25] CT
0.851 0.325 0.098 RC
2 setlinecap
10.0 ML
2.667 LW
N
297.5 243.5 M
296.736 241.149 L
294.736 239.696 L
292.264 239.696 L
290.264 241.149 L
289.5 243.5 L
290.264 245.851 L
292.264 247.304 L
294.736 247.304 L
296.736 245.851 L
297.5 243.5 L
S
GR
GS
[0.75 0 0 0.75 0 0.25] CT
0.851 0.325 0.098 RC
2 setlinecap
10.0 ML
2.667 LW
N
323.5 153.5 M
322.736 151.149 L
320.736 149.696 L
318.264 149.696 L
316.264 151.149 L
315.5 153.5 L
316.264 155.851 L
318.264 157.304 L
320.736 157.304 L
322.736 155.851 L
323.5 153.5 L
S
GR
GS
[0.75 0 0 0.75 0 0.25] CT
0.851 0.325 0.098 RC
2 setlinecap
10.0 ML
2.667 LW
N
349.5 84.5 M
348.736 82.149 L
346.736 80.696 L
344.264 80.696 L
342.264 82.149 L
341.5 84.5 L
342.264 86.851 L
344.264 88.304 L
346.736 88.304 L
348.736 86.851 L
349.5 84.5 L
S
GR
GS
[0.75 0 0 0.75 0 0.25] CT
0.851 0.325 0.098 RC
2 setlinecap
10.0 ML
2.667 LW
N
374.5 153.5 M
373.736 151.149 L
371.736 149.696 L
369.264 149.696 L
367.264 151.149 L
366.5 153.5 L
367.264 155.851 L
369.264 157.304 L
371.736 157.304 L
373.736 155.851 L
374.5 153.5 L
S
GR
GS
[0.75 0 0 0.75 0 0.25] CT
0.851 0.325 0.098 RC
2 setlinecap
10.0 ML
2.667 LW
N
400.5 243.5 M
399.736 241.149 L
397.736 239.696 L
395.264 239.696 L
393.264 241.149 L
392.5 243.5 L
393.264 245.851 L
395.264 247.304 L
397.736 247.304 L
399.736 245.851 L
400.5 243.5 L
S
GR
GS
[0.75 0 0 0.75 0 0.25] CT
0.851 0.325 0.098 RC
2 setlinecap
10.0 ML
2.667 LW
N
426.5 290.5 M
425.736 288.149 L
423.736 286.696 L
421.264 286.696 L
419.264 288.149 L
418.5 290.5 L
419.264 292.851 L
421.264 294.304 L
423.736 294.304 L
425.736 292.851 L
426.5 290.5 L
S
GR
GS
[0.75 0 0 0.75 0 0.25] CT
0.851 0.325 0.098 RC
2 setlinecap
10.0 ML
2.667 LW
N
452.5 323.5 M
451.736 321.149 L
449.736 319.696 L
447.264 319.696 L
445.264 321.149 L
444.5 323.5 L
445.264 325.851 L
447.264 327.304 L
449.736 327.304 L
451.736 325.851 L
452.5 323.5 L
S
GR
GS
[0.75 0 0 0.75 0 0.25] CT
0.851 0.325 0.098 RC
2 setlinecap
10.0 ML
2.667 LW
N
478.5 348.5 M
477.736 346.149 L
475.736 344.696 L
473.264 344.696 L
471.264 346.149 L
470.5 348.5 L
471.264 350.851 L
473.264 352.304 L
475.736 352.304 L
477.736 350.851 L
478.5 348.5 L
S
GR
GS
[0.75 0 0 0.75 0 0.25] CT
0.851 0.325 0.098 RC
2 setlinecap
10.0 ML
2.667 LW
N
503.5 368.5 M
502.736 366.149 L
500.736 364.696 L
498.264 364.696 L
496.264 366.149 L
495.5 368.5 L
496.264 370.851 L
498.264 372.304 L
500.736 372.304 L
502.736 370.851 L
503.5 368.5 L
S
GR
GS
[0.75 0 0 0.75 0 0.25] CT
0.851 0.325 0.098 RC
2 setlinecap
10.0 ML
2.667 LW
N
529.5 385.5 M
528.736 383.149 L
526.736 381.696 L
524.264 381.696 L
522.264 383.149 L
521.5 385.5 L
522.264 387.851 L
524.264 389.304 L
526.736 389.304 L
528.736 387.851 L
529.5 385.5 L
S
GR
GS
[0.75 0 0 0.75 0 0.25] CT
0.851 0.325 0.098 RC
2 setlinecap
10.0 ML
2.667 LW
N
555.5 400.5 M
554.736 398.149 L
552.736 396.696 L
550.264 396.696 L
548.264 398.149 L
547.5 400.5 L
548.264 402.851 L
550.264 404.304 L
552.736 404.304 L
554.736 402.851 L
555.5 400.5 L
S
GR
GS
[0.75 0 0 0.75 0 0.25] CT
0.851 0.325 0.098 RC
2 setlinecap
10.0 ML
2.667 LW
N
581.5 413.5 M
580.736 411.149 L
578.736 409.696 L
576.264 409.696 L
574.264 411.149 L
573.5 413.5 L
574.264 415.851 L
576.264 417.304 L
578.736 417.304 L
580.736 415.851 L
581.5 413.5 L
S
GR
GS
[0.75 0 0 0.75 0 0.25] CT
0.851 0.325 0.098 RC
2 setlinecap
10.0 ML
2.667 LW
N
607.5 424.5 M
606.736 422.149 L
604.736 420.696 L
602.264 420.696 L
600.264 422.149 L
599.5 424.5 L
600.264 426.851 L
602.264 428.304 L
604.736 428.304 L
606.736 426.851 L
607.5 424.5 L
S
GR
GS
[0.75 0 0 0.75 0 0.25] CT
0.929 0.694 0.125 RC
2 setlinecap
10.0 ML
2.667 LW
N
86.948 471.918 M
87 471.897 L
112.8 460.298 L
138.6 447.284 L
164.4 432.465 L
190.2 415.27 L
216 394.783 L
241.8 369.41 L
267.6 335.959 L
293.4 286.153 L
319.2 178.703 L
345 72.846 L
370.8 179.787 L
396.6 286.781 L
422.4 336.391 L
448.2 369.736 L
474 395.045 L
499.8 415.489 L
525.6 432.653 L
551.4 447.447 L
577.2 460.443 L
603 472.027 L
603.052 472.048 L
S
GR
GS
[0.75 0 0 0.75 0 0.25] CT
0.929 0.694 0.125 RC
2 setlinecap
10.0 ML
2.667 LW
N
84 475 M
91 468 L
S
GR
GS
[0.75 0 0 0.75 0 0.25] CT
0.929 0.694 0.125 RC
2 setlinecap
10.0 ML
2.667 LW
N
84 468 M
91 475 L
S
GR
GS
[0.75 0 0 0.75 0 0.25] CT
0.929 0.694 0.125 RC
2 setlinecap
10.0 ML
2.667 LW
N
109 464 M
116 457 L
S
GR
GS
[0.75 0 0 0.75 0 0.25] CT
0.929 0.694 0.125 RC
2 setlinecap
10.0 ML
2.667 LW
N
109 457 M
116 464 L
S
GR
GS
[0.75 0 0 0.75 0 0.25] CT
0.929 0.694 0.125 RC
2 setlinecap
10.0 ML
2.667 LW
N
135 451 M
142 444 L
S
GR
GS
[0.75 0 0 0.75 0 0.25] CT
0.929 0.694 0.125 RC
2 setlinecap
10.0 ML
2.667 LW
N
135 444 M
142 451 L
S
GR
GS
[0.75 0 0 0.75 0 0.25] CT
0.929 0.694 0.125 RC
2 setlinecap
10.0 ML
2.667 LW
N
161 436 M
168 429 L
S
GR
GS
[0.75 0 0 0.75 0 0.25] CT
0.929 0.694 0.125 RC
2 setlinecap
10.0 ML
2.667 LW
N
161 429 M
168 436 L
S
GR
GS
[0.75 0 0 0.75 0 0.25] CT
0.929 0.694 0.125 RC
2 setlinecap
10.0 ML
2.667 LW
N
187 419 M
194 412 L
S
GR
GS
[0.75 0 0 0.75 0 0.25] CT
0.929 0.694 0.125 RC
2 setlinecap
10.0 ML
2.667 LW
N
187 412 M
194 419 L
S
GR
GS
[0.75 0 0 0.75 0 0.25] CT
0.929 0.694 0.125 RC
2 setlinecap
10.0 ML
2.667 LW
N
213 398 M
220 391 L
S
GR
GS
[0.75 0 0 0.75 0 0.25] CT
0.929 0.694 0.125 RC
2 setlinecap
10.0 ML
2.667 LW
N
213 391 M
220 398 L
S
GR
GS
[0.75 0 0 0.75 0 0.25] CT
0.929 0.694 0.125 RC
2 setlinecap
10.0 ML
2.667 LW
N
238 373 M
245 366 L
S
GR
GS
[0.75 0 0 0.75 0 0.25] CT
0.929 0.694 0.125 RC
2 setlinecap
10.0 ML
2.667 LW
N
238 366 M
245 373 L
S
GR
GS
[0.75 0 0 0.75 0 0.25] CT
0.929 0.694 0.125 RC
2 setlinecap
10.0 ML
2.667 LW
N
264 339 M
271 332 L
S
GR
GS
[0.75 0 0 0.75 0 0.25] CT
0.929 0.694 0.125 RC
2 setlinecap
10.0 ML
2.667 LW
N
264 332 M
271 339 L
S
GR
GS
[0.75 0 0 0.75 0 0.25] CT
0.929 0.694 0.125 RC
2 setlinecap
10.0 ML
2.667 LW
N
290 290 M
297 283 L
S
GR
GS
[0.75 0 0 0.75 0 0.25] CT
0.929 0.694 0.125 RC
2 setlinecap
10.0 ML
2.667 LW
N
290 283 M
297 290 L
S
GR
GS
[0.75 0 0 0.75 0 0.25] CT
0.929 0.694 0.125 RC
2 setlinecap
10.0 ML
2.667 LW
N
316 182 M
323 175 L
S
GR
GS
[0.75 0 0 0.75 0 0.25] CT
0.929 0.694 0.125 RC
2 setlinecap
10.0 ML
2.667 LW
N
316 175 M
323 182 L
S
GR
GS
[0.75 0 0 0.75 0 0.25] CT
0.929 0.694 0.125 RC
2 setlinecap
10.0 ML
2.667 LW
N
342 76 M
349 69 L
S
GR
GS
[0.75 0 0 0.75 0 0.25] CT
0.929 0.694 0.125 RC
2 setlinecap
10.0 ML
2.667 LW
N
342 69 M
349 76 L
S
GR
GS
[0.75 0 0 0.75 0 0.25] CT
0.929 0.694 0.125 RC
2 setlinecap
10.0 ML
2.667 LW
N
367 183 M
374 176 L
S
GR
GS
[0.75 0 0 0.75 0 0.25] CT
0.929 0.694 0.125 RC
2 setlinecap
10.0 ML
2.667 LW
N
367 176 M
374 183 L
S
GR
GS
[0.75 0 0 0.75 0 0.25] CT
0.929 0.694 0.125 RC
2 setlinecap
10.0 ML
2.667 LW
N
393 290 M
400 283 L
S
GR
GS
[0.75 0 0 0.75 0 0.25] CT
0.929 0.694 0.125 RC
2 setlinecap
10.0 ML
2.667 LW
N
393 283 M
400 290 L
S
GR
GS
[0.75 0 0 0.75 0 0.25] CT
0.929 0.694 0.125 RC
2 setlinecap
10.0 ML
2.667 LW
N
419 340 M
426 333 L
S
GR
GS
[0.75 0 0 0.75 0 0.25] CT
0.929 0.694 0.125 RC
2 setlinecap
10.0 ML
2.667 LW
N
419 333 M
426 340 L
S
GR
GS
[0.75 0 0 0.75 0 0.25] CT
0.929 0.694 0.125 RC
2 setlinecap
10.0 ML
2.667 LW
N
445 373 M
452 366 L
S
GR
GS
[0.75 0 0 0.75 0 0.25] CT
0.929 0.694 0.125 RC
2 setlinecap
10.0 ML
2.667 LW
N
445 366 M
452 373 L
S
GR
GS
[0.75 0 0 0.75 0 0.25] CT
0.929 0.694 0.125 RC
2 setlinecap
10.0 ML
2.667 LW
N
471 399 M
478 392 L
S
GR
GS
[0.75 0 0 0.75 0 0.25] CT
0.929 0.694 0.125 RC
2 setlinecap
10.0 ML
2.667 LW
N
471 392 M
478 399 L
S
GR
GS
[0.75 0 0 0.75 0 0.25] CT
0.929 0.694 0.125 RC
2 setlinecap
10.0 ML
2.667 LW
N
496 419 M
503 412 L
S
GR
GS
[0.75 0 0 0.75 0 0.25] CT
0.929 0.694 0.125 RC
2 setlinecap
10.0 ML
2.667 LW
N
496 412 M
503 419 L
S
GR
GS
[0.75 0 0 0.75 0 0.25] CT
0.929 0.694 0.125 RC
2 setlinecap
10.0 ML
2.667 LW
N
522 436 M
529 429 L
S
GR
GS
[0.75 0 0 0.75 0 0.25] CT
0.929 0.694 0.125 RC
2 setlinecap
10.0 ML
2.667 LW
N
522 429 M
529 436 L
S
GR
GS
[0.75 0 0 0.75 0 0.25] CT
0.929 0.694 0.125 RC
2 setlinecap
10.0 ML
2.667 LW
N
548 451 M
555 444 L
S
GR
GS
[0.75 0 0 0.75 0 0.25] CT
0.929 0.694 0.125 RC
2 setlinecap
10.0 ML
2.667 LW
N
548 444 M
555 451 L
S
GR
GS
[0.75 0 0 0.75 0 0.25] CT
0.929 0.694 0.125 RC
2 setlinecap
10.0 ML
2.667 LW
N
574 464 M
581 457 L
S
GR
GS
[0.75 0 0 0.75 0 0.25] CT
0.929 0.694 0.125 RC
2 setlinecap
10.0 ML
2.667 LW
N
574 457 M
581 464 L
S
GR
GS
[0.75 0 0 0.75 0 0.25] CT
0.929 0.694 0.125 RC
2 setlinecap
10.0 ML
2.667 LW
N
600 476 M
607 469 L
S
GR
GS
[0.75 0 0 0.75 0 0.25] CT
0.929 0.694 0.125 RC
2 setlinecap
10.0 ML
2.667 LW
N
600 469 M
607 476 L
S
GR
GS
[0.75 0 0 0.75 0 0.25] CT
0.494 0.184 0.557 RC
2 setlinecap
10.0 ML
2.667 LW
N
86.948 438.173 M
87 438.152 L
112.8 426.642 L
138.6 413.75 L
164.4 399.11 L
190.2 382.186 L
216 362.145 L
241.8 337.591 L
267.6 305.909 L
293.4 261.23 L
319.2 184.818 L
345 74.753 L
370.8 184.818 L
396.6 261.23 L
422.4 305.909 L
448.2 337.591 L
474 362.145 L
499.8 382.186 L
525.6 399.11 L
551.4 413.75 L
577.2 426.642 L
603 438.152 L
603.052 438.173 L
S
GR
GS
[0.75 0 0 0.75 0 0.25] CT
0.494 0.184 0.557 RC
2 setlinecap
10.0 ML
2.667 LW
N
83 438.5 M
92 438.5 L
S
GR
GS
[0.75 0 0 0.75 0 0.25] CT
0.494 0.184 0.557 RC
2 setlinecap
10.0 ML
2.667 LW
N
87.5 443 M
87.5 434 L
S
GR
GS
[0.75 0 0 0.75 0 0.25] CT
0.494 0.184 0.557 RC
2 setlinecap
10.0 ML
2.667 LW
N
108 426.5 M
117 426.5 L
S
GR
GS
[0.75 0 0 0.75 0 0.25] CT
0.494 0.184 0.557 RC
2 setlinecap
10.0 ML
2.667 LW
N
112.5 431 M
112.5 422 L
S
GR
GS
[0.75 0 0 0.75 0 0.25] CT
0.494 0.184 0.557 RC
2 setlinecap
10.0 ML
2.667 LW
N
134 413.5 M
143 413.5 L
S
GR
GS
[0.75 0 0 0.75 0 0.25] CT
0.494 0.184 0.557 RC
2 setlinecap
10.0 ML
2.667 LW
N
138.5 418 M
138.5 409 L
S
GR
GS
[0.75 0 0 0.75 0 0.25] CT
0.494 0.184 0.557 RC
2 setlinecap
10.0 ML
2.667 LW
N
160 399.5 M
169 399.5 L
S
GR
GS
[0.75 0 0 0.75 0 0.25] CT
0.494 0.184 0.557 RC
2 setlinecap
10.0 ML
2.667 LW
N
164.5 404 M
164.5 395 L
S
GR
GS
[0.75 0 0 0.75 0 0.25] CT
0.494 0.184 0.557 RC
2 setlinecap
10.0 ML
2.667 LW
N
186 382.5 M
195 382.5 L
S
GR
GS
[0.75 0 0 0.75 0 0.25] CT
0.494 0.184 0.557 RC
2 setlinecap
10.0 ML
2.667 LW
N
190.5 387 M
190.5 378 L
S
GR
GS
[0.75 0 0 0.75 0 0.25] CT
0.494 0.184 0.557 RC
2 setlinecap
10.0 ML
2.667 LW
N
212 362.5 M
221 362.5 L
S
GR
GS
[0.75 0 0 0.75 0 0.25] CT
0.494 0.184 0.557 RC
2 setlinecap
10.0 ML
2.667 LW
N
216.5 367 M
216.5 358 L
S
GR
GS
[0.75 0 0 0.75 0 0.25] CT
0.494 0.184 0.557 RC
2 setlinecap
10.0 ML
2.667 LW
N
237 337.5 M
246 337.5 L
S
GR
GS
[0.75 0 0 0.75 0 0.25] CT
0.494 0.184 0.557 RC
2 setlinecap
10.0 ML
2.667 LW
N
241.5 342 M
241.5 333 L
S
GR
GS
[0.75 0 0 0.75 0 0.25] CT
0.494 0.184 0.557 RC
2 setlinecap
10.0 ML
2.667 LW
N
263 305.5 M
272 305.5 L
S
GR
GS
[0.75 0 0 0.75 0 0.25] CT
0.494 0.184 0.557 RC
2 setlinecap
10.0 ML
2.667 LW
N
267.5 310 M
267.5 301 L
S
GR
GS
[0.75 0 0 0.75 0 0.25] CT
0.494 0.184 0.557 RC
2 setlinecap
10.0 ML
2.667 LW
N
289 261.5 M
298 261.5 L
S
GR
GS
[0.75 0 0 0.75 0 0.25] CT
0.494 0.184 0.557 RC
2 setlinecap
10.0 ML
2.667 LW
N
293.5 266 M
293.5 257 L
S
GR
GS
[0.75 0 0 0.75 0 0.25] CT
0.494 0.184 0.557 RC
2 setlinecap
10.0 ML
2.667 LW
N
315 184.5 M
324 184.5 L
S
GR
GS
[0.75 0 0 0.75 0 0.25] CT
0.494 0.184 0.557 RC
2 setlinecap
10.0 ML
2.667 LW
N
319.5 189 M
319.5 180 L
S
GR
GS
[0.75 0 0 0.75 0 0.25] CT
0.494 0.184 0.557 RC
2 setlinecap
10.0 ML
2.667 LW
N
341 74.5 M
350 74.5 L
S
GR
GS
[0.75 0 0 0.75 0 0.25] CT
0.494 0.184 0.557 RC
2 setlinecap
10.0 ML
2.667 LW
N
345.5 79 M
345.5 70 L
S
GR
GS
[0.75 0 0 0.75 0 0.25] CT
0.494 0.184 0.557 RC
2 setlinecap
10.0 ML
2.667 LW
N
366 184.5 M
375 184.5 L
S
GR
GS
[0.75 0 0 0.75 0 0.25] CT
0.494 0.184 0.557 RC
2 setlinecap
10.0 ML
2.667 LW
N
370.5 189 M
370.5 180 L
S
GR
GS
[0.75 0 0 0.75 0 0.25] CT
0.494 0.184 0.557 RC
2 setlinecap
10.0 ML
2.667 LW
N
392 261.5 M
401 261.5 L
S
GR
GS
[0.75 0 0 0.75 0 0.25] CT
0.494 0.184 0.557 RC
2 setlinecap
10.0 ML
2.667 LW
N
396.5 266 M
396.5 257 L
S
GR
GS
[0.75 0 0 0.75 0 0.25] CT
0.494 0.184 0.557 RC
2 setlinecap
10.0 ML
2.667 LW
N
418 305.5 M
427 305.5 L
S
GR
GS
[0.75 0 0 0.75 0 0.25] CT
0.494 0.184 0.557 RC
2 setlinecap
10.0 ML
2.667 LW
N
422.5 310 M
422.5 301 L
S
GR
GS
[0.75 0 0 0.75 0 0.25] CT
0.494 0.184 0.557 RC
2 setlinecap
10.0 ML
2.667 LW
N
444 337.5 M
453 337.5 L
S
GR
GS
[0.75 0 0 0.75 0 0.25] CT
0.494 0.184 0.557 RC
2 setlinecap
10.0 ML
2.667 LW
N
448.5 342 M
448.5 333 L
S
GR
GS
[0.75 0 0 0.75 0 0.25] CT
0.494 0.184 0.557 RC
2 setlinecap
10.0 ML
2.667 LW
N
470 362.5 M
479 362.5 L
S
GR
GS
[0.75 0 0 0.75 0 0.25] CT
0.494 0.184 0.557 RC
2 setlinecap
10.0 ML
2.667 LW
N
474.5 367 M
474.5 358 L
S
GR
GS
[0.75 0 0 0.75 0 0.25] CT
0.494 0.184 0.557 RC
2 setlinecap
10.0 ML
2.667 LW
N
495 382.5 M
504 382.5 L
S
GR
GS
[0.75 0 0 0.75 0 0.25] CT
0.494 0.184 0.557 RC
2 setlinecap
10.0 ML
2.667 LW
N
499.5 387 M
499.5 378 L
S
GR
GS
[0.75 0 0 0.75 0 0.25] CT
0.494 0.184 0.557 RC
2 setlinecap
10.0 ML
2.667 LW
N
521 399.5 M
530 399.5 L
S
GR
GS
[0.75 0 0 0.75 0 0.25] CT
0.494 0.184 0.557 RC
2 setlinecap
10.0 ML
2.667 LW
N
525.5 404 M
525.5 395 L
S
GR
GS
[0.75 0 0 0.75 0 0.25] CT
0.494 0.184 0.557 RC
2 setlinecap
10.0 ML
2.667 LW
N
547 413.5 M
556 413.5 L
S
GR
GS
[0.75 0 0 0.75 0 0.25] CT
0.494 0.184 0.557 RC
2 setlinecap
10.0 ML
2.667 LW
N
551.5 418 M
551.5 409 L
S
GR
GS
[0.75 0 0 0.75 0 0.25] CT
0.494 0.184 0.557 RC
2 setlinecap
10.0 ML
2.667 LW
N
573 426.5 M
582 426.5 L
S
GR
GS
[0.75 0 0 0.75 0 0.25] CT
0.494 0.184 0.557 RC
2 setlinecap
10.0 ML
2.667 LW
N
577.5 431 M
577.5 422 L
S
GR
GS
[0.75 0 0 0.75 0 0.25] CT
0.494 0.184 0.557 RC
2 setlinecap
10.0 ML
2.667 LW
N
599 438.5 M
608 438.5 L
S
GR
GS
[0.75 0 0 0.75 0 0.25] CT
0.494 0.184 0.557 RC
2 setlinecap
10.0 ML
2.667 LW
N
603.5 443 M
603.5 434 L
S
GR
GS
[0.75 0 0 0.75 0 0.25] CT
0.467 0.675 0.188 RC
[8 8] 0 setdash
2 LJ
2.667 LW
N
86.948 472.817 M
87 472.796 L
112.8 461.219 L
138.6 448.233 L
164.4 433.457 L
190.2 416.323 L
216 395.933 L
241.8 370.735 L
267.6 337.648 L
293.4 288.824 L
319.2 184.179 L
345 71.32 L
370.8 184.416 L
396.6 288.951 L
422.4 337.731 L
448.2 370.796 L
474 395.982 L
499.8 416.364 L
525.6 433.492 L
551.4 448.264 L
577.2 461.246 L
603 472.821 L
603.052 472.841 L
S
GR
GS
[0.75 0 0 0.75 0 0.25] CT
0.467 0.675 0.188 RC
2 setlinecap
10.0 ML
2.667 LW
N
83 472.5 M
92 472.5 L
S
GR
GS
[0.75 0 0 0.75 0 0.25] CT
0.467 0.675 0.188 RC
2 setlinecap
10.0 ML
2.667 LW
N
87.5 477 M
87.5 468 L
S
GR
GS
[0.75 0 0 0.75 0 0.25] CT
0.467 0.675 0.188 RC
2 setlinecap
10.0 ML
2.667 LW
N
84 476 M
91 469 L
S
GR
GS
[0.75 0 0 0.75 0 0.25] CT
0.467 0.675 0.188 RC
2 setlinecap
10.0 ML
2.667 LW
N
84 469 M
91 476 L
S
GR
GS
[0.75 0 0 0.75 0 0.25] CT
0.467 0.675 0.188 RC
2 setlinecap
10.0 ML
2.667 LW
N
108 461.5 M
117 461.5 L
S
GR
GS
[0.75 0 0 0.75 0 0.25] CT
0.467 0.675 0.188 RC
2 setlinecap
10.0 ML
2.667 LW
N
112.5 466 M
112.5 457 L
S
GR
GS
[0.75 0 0 0.75 0 0.25] CT
0.467 0.675 0.188 RC
2 setlinecap
10.0 ML
2.667 LW
N
109 465 M
116 458 L
S
GR
GS
[0.75 0 0 0.75 0 0.25] CT
0.467 0.675 0.188 RC
2 setlinecap
10.0 ML
2.667 LW
N
109 458 M
116 465 L
S
GR
GS
[0.75 0 0 0.75 0 0.25] CT
0.467 0.675 0.188 RC
2 setlinecap
10.0 ML
2.667 LW
N
134 448.5 M
143 448.5 L
S
GR
GS
[0.75 0 0 0.75 0 0.25] CT
0.467 0.675 0.188 RC
2 setlinecap
10.0 ML
2.667 LW
N
138.5 453 M
138.5 444 L
S
GR
GS
[0.75 0 0 0.75 0 0.25] CT
0.467 0.675 0.188 RC
2 setlinecap
10.0 ML
2.667 LW
N
135 452 M
142 445 L
S
GR
GS
[0.75 0 0 0.75 0 0.25] CT
0.467 0.675 0.188 RC
2 setlinecap
10.0 ML
2.667 LW
N
135 445 M
142 452 L
S
GR
GS
[0.75 0 0 0.75 0 0.25] CT
0.467 0.675 0.188 RC
2 setlinecap
10.0 ML
2.667 LW
N
160 433.5 M
169 433.5 L
S
GR
GS
[0.75 0 0 0.75 0 0.25] CT
0.467 0.675 0.188 RC
2 setlinecap
10.0 ML
2.667 LW
N
164.5 438 M
164.5 429 L
S
GR
GS
[0.75 0 0 0.75 0 0.25] CT
0.467 0.675 0.188 RC
2 setlinecap
10.0 ML
2.667 LW
N
161 437 M
168 430 L
S
GR
GS
[0.75 0 0 0.75 0 0.25] CT
0.467 0.675 0.188 RC
2 setlinecap
10.0 ML
2.667 LW
N
161 430 M
168 437 L
S
GR
GS
[0.75 0 0 0.75 0 0.25] CT
0.467 0.675 0.188 RC
2 setlinecap
10.0 ML
2.667 LW
N
186 416.5 M
195 416.5 L
S
GR
GS
[0.75 0 0 0.75 0 0.25] CT
0.467 0.675 0.188 RC
2 setlinecap
10.0 ML
2.667 LW
N
190.5 421 M
190.5 412 L
S
GR
GS
[0.75 0 0 0.75 0 0.25] CT
0.467 0.675 0.188 RC
2 setlinecap
10.0 ML
2.667 LW
N
187 420 M
194 413 L
S
GR
GS
[0.75 0 0 0.75 0 0.25] CT
0.467 0.675 0.188 RC
2 setlinecap
10.0 ML
2.667 LW
N
187 413 M
194 420 L
S
GR
GS
[0.75 0 0 0.75 0 0.25] CT
0.467 0.675 0.188 RC
2 setlinecap
10.0 ML
2.667 LW
N
212 395.5 M
221 395.5 L
S
GR
GS
[0.75 0 0 0.75 0 0.25] CT
0.467 0.675 0.188 RC
2 setlinecap
10.0 ML
2.667 LW
N
216.5 400 M
216.5 391 L
S
GR
GS
[0.75 0 0 0.75 0 0.25] CT
0.467 0.675 0.188 RC
2 setlinecap
10.0 ML
2.667 LW
N
213 399 M
220 392 L
S
GR
GS
[0.75 0 0 0.75 0 0.25] CT
0.467 0.675 0.188 RC
2 setlinecap
10.0 ML
2.667 LW
N
213 392 M
220 399 L
S
GR
GS
[0.75 0 0 0.75 0 0.25] CT
0.467 0.675 0.188 RC
2 setlinecap
10.0 ML
2.667 LW
N
237 370.5 M
246 370.5 L
S
GR
GS
[0.75 0 0 0.75 0 0.25] CT
0.467 0.675 0.188 RC
2 setlinecap
10.0 ML
2.667 LW
N
241.5 375 M
241.5 366 L
S
GR
GS
[0.75 0 0 0.75 0 0.25] CT
0.467 0.675 0.188 RC
2 setlinecap
10.0 ML
2.667 LW
N
238 374 M
245 367 L
S
GR
GS
[0.75 0 0 0.75 0 0.25] CT
0.467 0.675 0.188 RC
2 setlinecap
10.0 ML
2.667 LW
N
238 367 M
245 374 L
S
GR
GS
[0.75 0 0 0.75 0 0.25] CT
0.467 0.675 0.188 RC
2 setlinecap
10.0 ML
2.667 LW
N
263 337.5 M
272 337.5 L
S
GR
GS
[0.75 0 0 0.75 0 0.25] CT
0.467 0.675 0.188 RC
2 setlinecap
10.0 ML
2.667 LW
N
267.5 342 M
267.5 333 L
S
GR
GS
[0.75 0 0 0.75 0 0.25] CT
0.467 0.675 0.188 RC
2 setlinecap
10.0 ML
2.667 LW
N
264 341 M
271 334 L
S
GR
GS
[0.75 0 0 0.75 0 0.25] CT
0.467 0.675 0.188 RC
2 setlinecap
10.0 ML
2.667 LW
N
264 334 M
271 341 L
S
GR
GS
[0.75 0 0 0.75 0 0.25] CT
0.467 0.675 0.188 RC
2 setlinecap
10.0 ML
2.667 LW
N
289 288.5 M
298 288.5 L
S
GR
GS
[0.75 0 0 0.75 0 0.25] CT
0.467 0.675 0.188 RC
2 setlinecap
10.0 ML
2.667 LW
N
293.5 293 M
293.5 284 L
S
GR
GS
[0.75 0 0 0.75 0 0.25] CT
0.467 0.675 0.188 RC
2 setlinecap
10.0 ML
2.667 LW
N
290 292 M
297 285 L
S
GR
GS
[0.75 0 0 0.75 0 0.25] CT
0.467 0.675 0.188 RC
2 setlinecap
10.0 ML
2.667 LW
N
290 285 M
297 292 L
S
GR
GS
[0.75 0 0 0.75 0 0.25] CT
0.467 0.675 0.188 RC
2 setlinecap
10.0 ML
2.667 LW
N
315 184.5 M
324 184.5 L
S
GR
GS
[0.75 0 0 0.75 0 0.25] CT
0.467 0.675 0.188 RC
2 setlinecap
10.0 ML
2.667 LW
N
319.5 189 M
319.5 180 L
S
GR
GS
[0.75 0 0 0.75 0 0.25] CT
0.467 0.675 0.188 RC
2 setlinecap
10.0 ML
2.667 LW
N
316 188 M
323 181 L
S
GR
GS
[0.75 0 0 0.75 0 0.25] CT
0.467 0.675 0.188 RC
2 setlinecap
10.0 ML
2.667 LW
N
316 181 M
323 188 L
S
GR
GS
[0.75 0 0 0.75 0 0.25] CT
0.467 0.675 0.188 RC
2 setlinecap
10.0 ML
2.667 LW
N
341 71.5 M
350 71.5 L
S
GR
GS
[0.75 0 0 0.75 0 0.25] CT
0.467 0.675 0.188 RC
2 setlinecap
10.0 ML
2.667 LW
N
345.5 76 M
345.5 67 L
S
GR
GS
[0.75 0 0 0.75 0 0.25] CT
0.467 0.675 0.188 RC
2 setlinecap
10.0 ML
2.667 LW
N
342 75 M
349 68 L
S
GR
GS
[0.75 0 0 0.75 0 0.25] CT
0.467 0.675 0.188 RC
2 setlinecap
10.0 ML
2.667 LW
N
342 68 M
349 75 L
S
GR
GS
[0.75 0 0 0.75 0 0.25] CT
0.467 0.675 0.188 RC
2 setlinecap
10.0 ML
2.667 LW
N
366 184.5 M
375 184.5 L
S
GR
GS
[0.75 0 0 0.75 0 0.25] CT
0.467 0.675 0.188 RC
2 setlinecap
10.0 ML
2.667 LW
N
370.5 189 M
370.5 180 L
S
GR
GS
[0.75 0 0 0.75 0 0.25] CT
0.467 0.675 0.188 RC
2 setlinecap
10.0 ML
2.667 LW
N
367 188 M
374 181 L
S
GR
GS
[0.75 0 0 0.75 0 0.25] CT
0.467 0.675 0.188 RC
2 setlinecap
10.0 ML
2.667 LW
N
367 181 M
374 188 L
S
GR
GS
[0.75 0 0 0.75 0 0.25] CT
0.467 0.675 0.188 RC
2 setlinecap
10.0 ML
2.667 LW
N
392 288.5 M
401 288.5 L
S
GR
GS
[0.75 0 0 0.75 0 0.25] CT
0.467 0.675 0.188 RC
2 setlinecap
10.0 ML
2.667 LW
N
396.5 293 M
396.5 284 L
S
GR
GS
[0.75 0 0 0.75 0 0.25] CT
0.467 0.675 0.188 RC
2 setlinecap
10.0 ML
2.667 LW
N
393 292 M
400 285 L
S
GR
GS
[0.75 0 0 0.75 0 0.25] CT
0.467 0.675 0.188 RC
2 setlinecap
10.0 ML
2.667 LW
N
393 285 M
400 292 L
S
GR
GS
[0.75 0 0 0.75 0 0.25] CT
0.467 0.675 0.188 RC
2 setlinecap
10.0 ML
2.667 LW
N
418 337.5 M
427 337.5 L
S
GR
GS
[0.75 0 0 0.75 0 0.25] CT
0.467 0.675 0.188 RC
2 setlinecap
10.0 ML
2.667 LW
N
422.5 342 M
422.5 333 L
S
GR
GS
[0.75 0 0 0.75 0 0.25] CT
0.467 0.675 0.188 RC
2 setlinecap
10.0 ML
2.667 LW
N
419 341 M
426 334 L
S
GR
GS
[0.75 0 0 0.75 0 0.25] CT
0.467 0.675 0.188 RC
2 setlinecap
10.0 ML
2.667 LW
N
419 334 M
426 341 L
S
GR
GS
[0.75 0 0 0.75 0 0.25] CT
0.467 0.675 0.188 RC
2 setlinecap
10.0 ML
2.667 LW
N
444 370.5 M
453 370.5 L
S
GR
GS
[0.75 0 0 0.75 0 0.25] CT
0.467 0.675 0.188 RC
2 setlinecap
10.0 ML
2.667 LW
N
448.5 375 M
448.5 366 L
S
GR
GS
[0.75 0 0 0.75 0 0.25] CT
0.467 0.675 0.188 RC
2 setlinecap
10.0 ML
2.667 LW
N
445 374 M
452 367 L
S
GR
GS
[0.75 0 0 0.75 0 0.25] CT
0.467 0.675 0.188 RC
2 setlinecap
10.0 ML
2.667 LW
N
445 367 M
452 374 L
S
GR
GS
[0.75 0 0 0.75 0 0.25] CT
0.467 0.675 0.188 RC
2 setlinecap
10.0 ML
2.667 LW
N
470 395.5 M
479 395.5 L
S
GR
GS
[0.75 0 0 0.75 0 0.25] CT
0.467 0.675 0.188 RC
2 setlinecap
10.0 ML
2.667 LW
N
474.5 400 M
474.5 391 L
S
GR
GS
[0.75 0 0 0.75 0 0.25] CT
0.467 0.675 0.188 RC
2 setlinecap
10.0 ML
2.667 LW
N
471 399 M
478 392 L
S
GR
GS
[0.75 0 0 0.75 0 0.25] CT
0.467 0.675 0.188 RC
2 setlinecap
10.0 ML
2.667 LW
N
471 392 M
478 399 L
S
GR
GS
[0.75 0 0 0.75 0 0.25] CT
0.467 0.675 0.188 RC
2 setlinecap
10.0 ML
2.667 LW
N
495 416.5 M
504 416.5 L
S
GR
GS
[0.75 0 0 0.75 0 0.25] CT
0.467 0.675 0.188 RC
2 setlinecap
10.0 ML
2.667 LW
N
499.5 421 M
499.5 412 L
S
GR
GS
[0.75 0 0 0.75 0 0.25] CT
0.467 0.675 0.188 RC
2 setlinecap
10.0 ML
2.667 LW
N
496 420 M
503 413 L
S
GR
GS
[0.75 0 0 0.75 0 0.25] CT
0.467 0.675 0.188 RC
2 setlinecap
10.0 ML
2.667 LW
N
496 413 M
503 420 L
S
GR
GS
[0.75 0 0 0.75 0 0.25] CT
0.467 0.675 0.188 RC
2 setlinecap
10.0 ML
2.667 LW
N
521 433.5 M
530 433.5 L
S
GR
GS
[0.75 0 0 0.75 0 0.25] CT
0.467 0.675 0.188 RC
2 setlinecap
10.0 ML
2.667 LW
N
525.5 438 M
525.5 429 L
S
GR
GS
[0.75 0 0 0.75 0 0.25] CT
0.467 0.675 0.188 RC
2 setlinecap
10.0 ML
2.667 LW
N
522 437 M
529 430 L
S
GR
GS
[0.75 0 0 0.75 0 0.25] CT
0.467 0.675 0.188 RC
2 setlinecap
10.0 ML
2.667 LW
N
522 430 M
529 437 L
S
GR
GS
[0.75 0 0 0.75 0 0.25] CT
0.467 0.675 0.188 RC
2 setlinecap
10.0 ML
2.667 LW
N
547 448.5 M
556 448.5 L
S
GR
GS
[0.75 0 0 0.75 0 0.25] CT
0.467 0.675 0.188 RC
2 setlinecap
10.0 ML
2.667 LW
N
551.5 453 M
551.5 444 L
S
GR
GS
[0.75 0 0 0.75 0 0.25] CT
0.467 0.675 0.188 RC
2 setlinecap
10.0 ML
2.667 LW
N
548 452 M
555 445 L
S
GR
GS
[0.75 0 0 0.75 0 0.25] CT
0.467 0.675 0.188 RC
2 setlinecap
10.0 ML
2.667 LW
N
548 445 M
555 452 L
S
GR
GS
[0.75 0 0 0.75 0 0.25] CT
0.467 0.675 0.188 RC
2 setlinecap
10.0 ML
2.667 LW
N
573 461.5 M
582 461.5 L
S
GR
GS
[0.75 0 0 0.75 0 0.25] CT
0.467 0.675 0.188 RC
2 setlinecap
10.0 ML
2.667 LW
N
577.5 466 M
577.5 457 L
S
GR
GS
[0.75 0 0 0.75 0 0.25] CT
0.467 0.675 0.188 RC
2 setlinecap
10.0 ML
2.667 LW
N
574 465 M
581 458 L
S
GR
GS
[0.75 0 0 0.75 0 0.25] CT
0.467 0.675 0.188 RC
2 setlinecap
10.0 ML
2.667 LW
N
574 458 M
581 465 L
S
GR
GS
[0.75 0 0 0.75 0 0.25] CT
0.467 0.675 0.188 RC
2 setlinecap
10.0 ML
2.667 LW
N
599 472.5 M
608 472.5 L
S
GR
GS
[0.75 0 0 0.75 0 0.25] CT
0.467 0.675 0.188 RC
2 setlinecap
10.0 ML
2.667 LW
N
603.5 477 M
603.5 468 L
S
GR
GS
[0.75 0 0 0.75 0 0.25] CT
0.467 0.675 0.188 RC
2 setlinecap
10.0 ML
2.667 LW
N
600 476 M
607 469 L
S
GR
GS
[0.75 0 0 0.75 0 0.25] CT
0.467 0.675 0.188 RC
2 setlinecap
10.0 ML
2.667 LW
N
600 469 M
607 476 L
S
GR
GS
[0.75 0 0 0.75 0 0.25] CT
1 GC
N
434 158 M
434 55 L
590 55 L
590 158 L
cp
f
GR
GS
[0.75 0 0 0.75 364.5 50.625] CT
/Times-Roman 16 F
GS
[1 0 0 1 0 0] CT
0 5.5 moveto 
1 -1 scale
(OFDM) t 
GR
GR
GS
[0.75 0 0 0.75 0 0.25] CT
0.494 0.184 0.557 RC
2 setlinecap
10.0 ML
2.667 LW
N
442 67.167 M
482 67.167 L
S
GR
GS
[0.75 0 0 0.75 0 0.25] CT
0.494 0.184 0.557 RC
2 setlinecap
10.0 ML
2.667 LW
N
458 67.5 M
467 67.5 L
S
GR
GS
[0.75 0 0 0.75 0 0.25] CT
0.494 0.184 0.557 RC
2 setlinecap
10.0 ML
2.667 LW
N
462.5 72 M
462.5 63 L
S
GR
GS
[0.75 0 0 0.75 364.5 65.375] CT
/Times-Roman 16 F
GS
[1 0 0 1 0 0] CT
0 5.5 moveto 
1 -1 scale
(FMT) t 
GR
GR
GS
[0.75 0 0 0.75 0 0.25] CT
0 0.447 0.741 RC
2 setlinecap
10.0 ML
2.667 LW
N
442 86.833 M
482 86.833 L
S
GR
GS
[0.75 0 0 0.75 0 0.25] CT
0 0.447 0.741 RC
2 setlinecap
10.0 ML
2.667 LW
N
462.5 91.832 M
467.118 83.834 L
457.882 83.834 L
462.5 91.832 L
S
GR
GS
[0.75 0 0 0.75 364.5 80.125] CT
/Times-Roman 16 F
GS
[1 0 0 1 0 0] CT
0 5.5 moveto 
1 -1 scale
(OFDM/OQAM) t 
GR
GR
GS
[0.75 0 0 0.75 0 0.25] CT
0.467 0.675 0.188 RC
[8 8] 0 setdash
2 LJ
2.667 LW
N
442 106.5 M
482 106.5 L
S
GR
GS
[0.75 0 0 0.75 0 0.25] CT
0.467 0.675 0.188 RC
2 setlinecap
10.0 ML
2.667 LW
N
458 106.5 M
467 106.5 L
S
GR
GS
[0.75 0 0 0.75 0 0.25] CT
0.467 0.675 0.188 RC
2 setlinecap
10.0 ML
2.667 LW
N
462.5 111 M
462.5 102 L
S
GR
GS
[0.75 0 0 0.75 0 0.25] CT
0.467 0.675 0.188 RC
2 setlinecap
10.0 ML
2.667 LW
N
459 110 M
466 103 L
S
GR
GS
[0.75 0 0 0.75 0 0.25] CT
0.467 0.675 0.188 RC
2 setlinecap
10.0 ML
2.667 LW
N
459 103 M
466 110 L
S
GR
GS
[0.75 0 0 0.75 364.5 94.875] CT
/Times-Roman 16 F
GS
[1 0 0 1 0 0] CT
0 5.5 moveto 
1 -1 scale
(Lapped FBMC) t 
GR
GR
GS
[0.75 0 0 0.75 0 0.25] CT
0.929 0.694 0.125 RC
2 setlinecap
10.0 ML
2.667 LW
N
442 126.167 M
482 126.167 L
S
GR
GS
[0.75 0 0 0.75 0 0.25] CT
0.929 0.694 0.125 RC
2 setlinecap
10.0 ML
2.667 LW
N
459 130 M
466 123 L
S
GR
GS
[0.75 0 0 0.75 0 0.25] CT
0.929 0.694 0.125 RC
2 setlinecap
10.0 ML
2.667 LW
N
459 123 M
466 130 L
S
GR
GS
[0.75 0 0 0.75 364.5 109.625] CT
/Times-Roman 16 F
GS
[1 0 0 1 0 0] CT
0 5.5 moveto 
1 -1 scale
(GFDM) t 
GR
GR
GS
[0.75 0 0 0.75 0 0.25] CT
0.851 0.325 0.098 RC
2 setlinecap
10.0 ML
2.667 LW
N
442 145.833 M
482 145.833 L
S
GR
GS
[0.75 0 0 0.75 0 0.25] CT
0.851 0.325 0.098 RC
2 setlinecap
10.0 ML
2.667 LW
N
466.5 145.5 M
465.736 143.149 L
463.736 141.696 L
461.264 141.696 L
459.264 143.149 L
458.5 145.5 L
459.264 147.851 L
461.264 149.304 L
463.736 149.304 L
465.736 147.851 L
466.5 145.5 L
S
GR
GS
[0.75 0 0 0.75 0 0.25] CT
0.149 GC
2 setlinecap
10.0 ML
N
434 158 M
434 55 L
590 55 L
590 158 L
434 158 L
S
GR
%%Trailer
%%Pages: 1
%%EOF
