%!PS-Adobe-3.0 EPSF-3.0
%%Creator: cairo 1.14.6 (http://cairographics.org)
%%CreationDate: Tue May 30 22:05:43 2017
%%Pages: 1
%%DocumentData: Clean7Bit
%%LanguageLevel: 2
%%BoundingBox: 0 -1 368 369
%%EndComments
%%BeginProlog
save
50 dict begin
/q { gsave } bind def
/Q { grestore } bind def
/cm { 6 array astore concat } bind def
/w { setlinewidth } bind def
/J { setlinecap } bind def
/j { setlinejoin } bind def
/M { setmiterlimit } bind def
/d { setdash } bind def
/m { moveto } bind def
/l { lineto } bind def
/c { curveto } bind def
/h { closepath } bind def
/re { exch dup neg 3 1 roll 5 3 roll moveto 0 rlineto
      0 exch rlineto 0 rlineto closepath } bind def
/S { stroke } bind def
/f { fill } bind def
/f* { eofill } bind def
/n { newpath } bind def
/W { clip } bind def
/W* { eoclip } bind def
/BT { } bind def
/ET { } bind def
/pdfmark where { pop globaldict /?pdfmark /exec load put }
    { globaldict begin /?pdfmark /pop load def /pdfmark
    /cleartomark load def end } ifelse
/BDC { mark 3 1 roll /BDC pdfmark } bind def
/EMC { mark /EMC pdfmark } bind def
/cairo_store_point { /cairo_point_y exch def /cairo_point_x exch def } def
/Tj { show currentpoint cairo_store_point } bind def
/TJ {
  {
    dup
    type /stringtype eq
    { show } { -0.001 mul 0 cairo_font_matrix dtransform rmoveto } ifelse
  } forall
  currentpoint cairo_store_point
} bind def
/cairo_selectfont { cairo_font_matrix aload pop pop pop 0 0 6 array astore
    cairo_font exch selectfont cairo_point_x cairo_point_y moveto } bind def
/Tf { pop /cairo_font exch def /cairo_font_matrix where
      { pop cairo_selectfont } if } bind def
/Td { matrix translate cairo_font_matrix matrix concatmatrix dup
      /cairo_font_matrix exch def dup 4 get exch 5 get cairo_store_point
      /cairo_font where { pop cairo_selectfont } if } bind def
/Tm { 2 copy 8 2 roll 6 array astore /cairo_font_matrix exch def
      cairo_store_point /cairo_font where { pop cairo_selectfont } if } bind def
/g { setgray } bind def
/rg { setrgbcolor } bind def
/d1 { setcachedevice } bind def
%%EndProlog
%%BeginSetup
%%EndSetup
%%Page: 1 1
%%BeginPageSetup
%%PageBoundingBox: 0 -1 368 369
%%EndPageSetup
q 0 -1 368 370 rectclip q
0.752941 0.313726 0.27451 rg
259.762 308.16 m 262.32 308.16 264.801 309.199 266.559 310.96 c 268.32 
312.718 269.359 315.199 269.359 317.761 c 269.359 320.242 268.32 322.8 266.559
 324.558 c 264.801 326.32 262.32 327.359 259.762 327.359 c 257.199 327.359
 254.719 326.32 252.961 324.558 c 251.199 322.8 250.16 320.32 250.16 317.761
 c 250.16 315.199 251.199 312.718 252.961 310.96 c 254.719 309.199 257.199
 308.16 259.762 308.16 c h
259.762 308.16 m f
307.52 251.519 m 306.641 256.718 301.68 260.242 296.398 259.359 c 291.199
 258.48 287.68 253.519 288.559 248.242 c 289.359 243.601 293.441 240.242
 298 240.242 c 298.559 240.242 299.039 240.32 299.602 240.402 c 304.879 
241.281 308.398 246.242 307.52 251.519 c h
307.52 251.519 m f
293.121 168.32 m 295.762 172.96 294.078 178.8 289.52 181.441 c 284.879 
184.082 279.039 182.402 276.398 177.761 c 273.762 173.121 275.441 167.281
 280.078 164.718 c 281.602 163.839 283.199 163.441 284.801 163.441 c 288.16
 163.441 291.359 165.199 293.121 168.32 c h
293.121 168.32 m f
284.801 277.519 m 286.398 277.519 288 277.921 289.52 278.8 c 294.16 281.441
 295.762 287.281 293.121 291.921 c 290.48 296.558 284.641 298.16 280 295.519
 c 275.359 292.878 273.762 287.039 276.398 282.402 c 278.16 279.281 281.441
 277.519 284.801 277.519 c h
284.801 277.519 m f
299.68 219.761 m 294.48 220.64 289.52 217.121 288.559 211.921 c 287.68 
206.718 291.199 201.761 296.398 200.8 c 296.961 200.718 297.52 200.64 298
 200.64 c 302.559 200.64 306.641 203.921 307.441 208.64 c 308.398 213.921
 304.879 218.878 299.68 219.761 c h
299.68 219.761 m f
259.762 132.8 m 262.32 132.8 264.801 133.839 266.559 135.601 c 268.32 137.359
 269.359 139.839 269.359 142.402 c 269.359 144.96 268.32 147.441 266.559
 149.199 c 264.801 150.96 262.32 152 259.762 152 c 257.199 152 254.719 150.96
 252.961 149.199 c 251.199 147.441 250.16 144.96 250.16 142.402 c 250.16
 139.839 251.199 137.359 252.961 135.601 c 254.719 133.839 257.199 132.8
 259.762 132.8 c h
259.762 132.8 m f
107.602 152 m 105.039 152 102.559 150.96 100.801 149.199 c 99.039 147.441
 98 144.96 98 142.402 c 98 139.839 99.039 137.359 100.801 135.601 c 102.559
 133.839 105.039 132.8 107.602 132.8 c 110.16 132.8 112.641 133.839 114.398
 135.601 c 116.16 137.359 117.199 139.839 117.199 142.402 c 117.199 144.96
 116.16 147.441 114.398 149.199 c 112.641 150.96 110.16 152 107.602 152 
c h
107.602 152 m f
74.16 291.839 m 71.52 287.199 73.199 281.359 77.762 278.718 c 79.281 277.839
 80.879 277.441 82.48 277.441 c 85.84 277.441 89.121 279.199 90.879 282.32
 c 93.52 286.96 91.84 292.8 87.281 295.441 c 82.641 298.082 76.801 296.48
 74.16 291.839 c h
74.16 291.839 m f
69.281 200.718 m 69.84 200.718 70.398 200.8 70.879 200.878 c 76.078 201.761
 79.602 206.718 78.719 212 c 77.84 217.199 72.879 220.718 67.602 219.839
 c 62.398 218.96 58.879 214 59.762 208.718 c 60.641 204 64.719 200.718 69.281
 200.718 c h
69.281 200.718 m f
69.281 240.242 m 73.84 240.242 77.922 243.519 78.719 248.242 c 79.602 253.441
 76.078 258.402 70.879 259.359 c 65.68 260.242 60.719 256.718 59.762 251.519
 c 58.879 246.32 62.398 241.359 67.602 240.402 c 68.238 240.32 68.719 240.242
 69.281 240.242 c h
69.281 240.242 m f
77.84 181.359 m 73.199 178.718 71.602 172.878 74.238 168.242 c 76 165.121
 79.281 163.359 82.641 163.359 c 84.238 163.359 85.84 163.761 87.359 164.64
 c 92 167.281 93.602 173.121 90.961 177.761 c 88.32 182.402 82.48 184 77.84
 181.359 c h
77.84 181.359 m f
107.602 308.16 m 110.16 308.16 112.641 309.199 114.398 310.96 c 116.16 
312.718 117.199 315.199 117.199 317.761 c 117.199 320.242 116.16 322.8 114.398
 324.558 c 112.641 326.32 110.16 327.359 107.602 327.359 c 105.039 327.359
 102.559 326.32 100.801 324.558 c 99.039 322.8 98 320.32 98 317.761 c 98
 315.199 99.039 312.718 100.801 310.96 c 102.641 309.199 105.121 308.16 
107.602 308.16 c h
107.602 308.16 m f
300.801 349.281 m 303.359 349.281 305.84 350.32 307.602 352.082 c 309.359
 353.839 310.398 356.32 310.398 358.878 c 310.398 361.441 309.359 363.921
 307.602 365.679 c 305.84 367.441 303.359 368.48 300.801 368.48 c 298.238
 368.48 295.762 367.441 294 365.679 c 292.238 363.921 291.199 361.441 291.199
 358.878 c 291.199 356.32 292.238 353.839 294 352.082 c 295.84 350.32 298.32
 349.281 300.801 349.281 c h
300.801 349.281 m f
334.16 296.64 m 335.762 293.039 339.281 290.96 342.961 290.96 c 344.238
 290.96 345.602 291.199 346.879 291.761 c 351.762 293.921 353.922 299.601
 351.762 304.402 c 349.602 309.281 343.922 311.441 339.121 309.281 c 334.238
 307.121 332 301.441 334.16 296.64 c h
334.16 296.64 m f
346.879 168.48 m 342 170.64 336.398 168.402 334.238 163.601 c 332.078 158.718
 334.32 153.121 339.121 150.96 c 340.398 150.402 341.68 150.16 343.039 150.16
 c 346.719 150.16 350.238 152.32 351.84 155.839 c 353.922 160.64 351.68 
166.32 346.879 168.48 c h
346.879 168.48 m f
356 203.519 m 350.801 204.64 345.68 201.281 344.641 196.082 c 343.52 190.878
 346.879 185.761 352.078 184.718 c 352.719 184.558 353.441 184.48 354.078
 184.48 c 358.559 184.48 362.48 187.601 363.441 192.082 c 364.559 197.359
 361.199 202.402 356 203.519 c h
356 203.519 m f
357.762 239.679 m 352.48 239.679 348.16 235.359 348.16 230.082 c 348.16
 224.8 352.48 220.48 357.762 220.48 c 363.039 220.48 367.359 224.8 367.359
 230.082 c 367.359 235.441 363.121 239.679 357.762 239.679 c h
357.762 239.679 m f
324.961 322.32 m 326.879 322.32 328.879 322.878 330.559 324.16 c 334.879
 327.281 335.84 333.281 332.719 337.601 c 329.602 341.921 323.602 342.878
 319.281 339.761 c 314.961 336.64 314 330.64 317.121 326.32 c 319.039 323.679
 322 322.32 324.961 322.32 c h
324.961 322.32 m f
330.559 136.082 m 326.238 139.199 320.238 138.242 317.121 133.921 c 314
 129.601 314.961 123.601 319.281 120.48 c 320.961 119.281 322.961 118.64
 324.879 118.64 c 327.84 118.64 330.801 120 332.641 122.64 c 335.84 126.96
 334.879 133.039 330.559 136.082 c h
330.559 136.082 m f
344.641 264.16 m 345.602 259.679 349.602 256.558 354 256.558 c 354.641 
256.558 355.281 256.64 356 256.8 c 361.199 257.921 364.48 262.96 363.441
 268.16 c 362.32 273.359 357.281 276.64 352.078 275.601 c 346.879 274.402
 343.602 269.281 344.641 264.16 c h
344.641 264.16 m f
300.879 110.878 m 298.32 110.878 295.84 109.839 294.078 108.082 c 292.32
 106.32 291.281 103.839 291.281 101.281 c 291.281 98.718 292.32 96.242 294.078
 94.48 c 295.84 92.718 298.32 91.679 300.879 91.679 c 303.441 91.679 305.922
 92.718 307.68 94.48 c 309.441 96.242 310.48 98.718 310.48 101.281 c 310.48
 103.839 309.441 106.32 307.68 108.082 c 305.84 109.839 303.359 110.878 
300.879 110.878 c h
300.879 110.878 m f
66.48 110.878 m 63.922 110.878 61.441 109.839 59.68 108.082 c 57.922 106.32
 56.879 103.839 56.879 101.281 c 56.879 98.8 57.922 96.242 59.68 94.48 c
 61.441 92.718 63.922 91.679 66.48 91.679 c 69.039 91.679 71.52 92.718 73.281
 94.48 c 75.039 96.242 76.078 98.718 76.078 101.281 c 76.078 103.839 75.039
 106.32 73.281 108.082 c 71.52 109.839 69.039 110.878 66.48 110.878 c h
66.48 110.878 m f
11.281 256.64 m 11.922 256.48 12.641 256.402 13.281 256.402 c 17.68 256.402
 21.68 259.519 22.641 264 c 23.762 269.199 20.398 274.32 15.199 275.359 
c 10 276.48 4.879 273.121 3.84 267.921 c 2.801 262.8 6.16 257.761 11.281
 256.64 c h
11.281 256.64 m f
36.801 324.082 m 38.48 322.878 40.48 322.242 42.398 322.242 c 45.359 322.242
 48.32 323.601 50.16 326.242 c 53.281 330.558 52.32 336.558 48 339.679 c
 43.68 342.8 37.68 341.839 34.559 337.519 c 31.52 333.199 32.48 327.199 
36.801 324.082 c h
36.801 324.082 m f
22.719 196 m 21.602 201.199 16.559 204.48 11.359 203.441 c 6.16 202.32 
2.879 197.281 3.922 192.082 c 4.879 187.519 8.879 184.48 13.281 184.48 c
 13.922 184.48 14.559 184.558 15.281 184.718 c 20.48 185.761 23.762 190.878
 22.719 196 c h
22.719 196 m f
19.199 230.082 m 19.199 235.359 14.879 239.679 9.602 239.679 c 4.32 239.679
 0 235.359 0 230.082 c 0 224.8 4.32 220.48 9.602 220.48 c 14.879 220.48 
19.199 224.718 19.199 230.082 c h
19.199 230.082 m f
20.48 291.679 m 21.762 291.121 23.039 290.878 24.398 290.878 c 28.078 290.878
 31.602 293.039 33.199 296.558 c 35.359 301.441 33.121 307.039 28.32 309.199
 c 23.441 311.359 17.84 309.121 15.68 304.32 c 13.441 299.519 15.68 293.839
 20.48 291.679 c h
20.48 291.679 m f
36.801 136.082 m 32.48 132.96 31.52 126.96 34.641 122.64 c 36.48 120 39.441
 118.64 42.398 118.64 c 44.32 118.64 46.32 119.199 48 120.48 c 52.32 123.601
 53.281 129.601 50.16 133.921 c 47.121 138.16 41.121 139.199 36.801 136.082
 c h
36.801 136.082 m f
33.199 163.519 m 31.039 168.402 25.359 170.558 20.559 168.402 c 15.68 166.242
 13.52 160.558 15.68 155.761 c 17.281 152.16 20.801 150 24.48 150 c 25.762
 150 27.121 150.242 28.398 150.8 c 33.121 153.039 35.359 158.718 33.199 
163.519 c h
33.199 163.519 m f
66.48 349.281 m 68.961 349.281 71.52 350.32 73.281 352.082 c 75.039 353.839
 76.078 356.32 76.078 358.878 c 76.078 361.441 75.039 363.921 73.281 365.679
 c 71.52 367.441 69.039 368.48 66.48 368.48 c 63.922 368.48 61.441 367.441
 59.68 365.679 c 57.922 363.921 56.879 361.441 56.879 358.878 c 56.879 356.32
 57.922 353.839 59.68 352.082 c 61.52 350.32 64 349.281 66.48 349.281 c 
h
66.48 349.281 m f
211.762 181.601 m 228.48 191.281 239.68 209.359 239.68 230.082 c 239.68
 260.96 214.559 286.082 183.68 286.082 c 152.801 286.082 127.68 260.96 127.68
 230.082 c 127.68 209.441 138.961 191.359 155.602 181.601 c 93.441 12.878
 l 92.32 9.921 92.801 6.64 94.559 4.082 c 96.32 1.519 99.281 -0 102.398 
-0 c 264.879 -0 l 268 -0 270.961 1.519 272.719 4.082 c 274.48 6.64 274.961
 9.921 273.84 12.878 c h
146.879 230.082 m 146.879 250.402 163.441 266.878 183.68 266.878 c 203.922
 266.878 220.48 250.32 220.48 230.082 c 220.48 214.32 210.48 200.8 196.48
 195.601 c 196.398 195.601 196.398 195.601 196.32 195.519 c 196.238 195.519
 196.238 195.441 196.16 195.441 c 192.238 194 188 193.199 183.602 193.199
 c 163.359 193.281 146.879 209.761 146.879 230.082 c h
173.602 174.96 m 176.879 174.402 180.238 174 183.68 174 c 187.121 174 190.48
 174.32 193.762 174.96 c 221.199 100.48 l 146.16 100.48 l h
116.16 19.199 m 139.039 81.281 l 228.238 81.281 l 251.121 19.199 l h
116.16 19.199 m f
Q Q
showpage
%%Trailer
end restore
%%EOF
