%!PS-Adobe-3.0 EPSF-3.0
%%Creator: (MATLAB, The Mathworks, Inc. Version 9.1.0.441655 \(R2016b\). Operating System: Linux)
%%Title: (/home/quentin/Documents/1-Research/9-Papiers/Work In Progress/PhD_manuscript_real/2-Chapters/2-Chapter/Images/EPA_f.eps)
%%CreationDate: 2017-05-19T16:55:16
%%Pages: (atend)
%%BoundingBox: 0 0 1439 445
%%LanguageLevel: 3
%%EndComments
%%BeginProlog
%%BeginResource: procset (Apache XML Graphics Std ProcSet) 1.2 0
%%Version: 1.2 0
%%Copyright: (Copyright 2001-2003,2010 The Apache Software Foundation. License terms: http://www.apache.org/licenses/LICENSE-2.0)
/bd{bind def}bind def
/ld{load def}bd
/GR/grestore ld
/M/moveto ld
/LJ/setlinejoin ld
/C/curveto ld
/f/fill ld
/LW/setlinewidth ld
/GC/setgray ld
/t/show ld
/N/newpath ld
/CT/concat ld
/cp/closepath ld
/S/stroke ld
/L/lineto ld
/CC/setcmykcolor ld
/A/ashow ld
/GS/gsave ld
/RC/setrgbcolor ld
/RM/rmoveto ld
/ML/setmiterlimit ld
/re {4 2 roll M
1 index 0 rlineto
0 exch rlineto
neg 0 rlineto
cp } bd
/_ctm matrix def
/_tm matrix def
/BT { _ctm currentmatrix pop matrix _tm copy pop 0 0 moveto } bd
/ET { _ctm setmatrix } bd
/iTm { _ctm setmatrix _tm concat } bd
/Tm { _tm astore pop iTm 0 0 moveto } bd
/ux 0.0 def
/uy 0.0 def
/F {
  /Tp exch def
  /Tf exch def
  Tf findfont Tp scalefont setfont
  /cf Tf def  /cs Tp def
} bd
/ULS {currentpoint /uy exch def /ux exch def} bd
/ULE {
  /Tcx currentpoint pop def
  gsave
  newpath
  cf findfont cs scalefont dup
  /FontMatrix get 0 get /Ts exch def /FontInfo get dup
  /UnderlinePosition get Ts mul /To exch def
  /UnderlineThickness get Ts mul /Tt exch def
  ux uy To add moveto  Tcx uy To add lineto
  Tt setlinewidth stroke
  grestore
} bd
/OLE {
  /Tcx currentpoint pop def
  gsave
  newpath
  cf findfont cs scalefont dup
  /FontMatrix get 0 get /Ts exch def /FontInfo get dup
  /UnderlinePosition get Ts mul /To exch def
  /UnderlineThickness get Ts mul /Tt exch def
  ux uy To add cs add moveto Tcx uy To add cs add lineto
  Tt setlinewidth stroke
  grestore
} bd
/SOE {
  /Tcx currentpoint pop def
  gsave
  newpath
  cf findfont cs scalefont dup
  /FontMatrix get 0 get /Ts exch def /FontInfo get dup
  /UnderlinePosition get Ts mul /To exch def
  /UnderlineThickness get Ts mul /Tt exch def
  ux uy To add cs 10 mul 26 idiv add moveto Tcx uy To add cs 10 mul 26 idiv add lineto
  Tt setlinewidth stroke
  grestore
} bd
/QT {
/Y22 exch store
/X22 exch store
/Y21 exch store
/X21 exch store
currentpoint
/Y21 load 2 mul add 3 div exch
/X21 load 2 mul add 3 div exch
/X21 load 2 mul /X22 load add 3 div
/Y21 load 2 mul /Y22 load add 3 div
/X22 load /Y22 load curveto
} bd
/SSPD {
dup length /d exch dict def
{
/v exch def
/k exch def
currentpagedevice k known {
/cpdv currentpagedevice k get def
v cpdv ne {
/upd false def
/nullv v type /nulltype eq def
/nullcpdv cpdv type /nulltype eq def
nullv nullcpdv or
{
/upd true def
} {
/sametype v type cpdv type eq def
sametype {
v type /arraytype eq {
/vlen v length def
/cpdvlen cpdv length def
vlen cpdvlen eq {
0 1 vlen 1 sub {
/i exch def
/obj v i get def
/cpdobj cpdv i get def
obj cpdobj ne {
/upd true def
exit
} if
} for
} {
/upd true def
} ifelse
} {
v type /dicttype eq {
v {
/dv exch def
/dk exch def
/cpddv cpdv dk get def
dv cpddv ne {
/upd true def
exit
} if
} forall
} {
/upd true def
} ifelse
} ifelse
} if
} ifelse
upd true eq {
d k v put
} if
} if
} if
} forall
d length 0 gt {
d setpagedevice
} if
} bd
/RE { % /NewFontName [NewEncodingArray] /FontName RE -
  findfont dup length dict begin
  {
    1 index /FID ne
    {def} {pop pop} ifelse
  } forall
  /Encoding exch def
  /FontName 1 index def
  currentdict definefont pop
  end
} bind def
%%EndResource
%%BeginResource: procset (Apache XML Graphics EPS ProcSet) 1.0 0
%%Version: 1.0 0
%%Copyright: (Copyright 2002-2003 The Apache Software Foundation. License terms: http://www.apache.org/licenses/LICENSE-2.0)
/BeginEPSF { %def
/b4_Inc_state save def         % Save state for cleanup
/dict_count countdictstack def % Count objects on dict stack
/op_count count 1 sub def      % Count objects on operand stack
userdict begin                 % Push userdict on dict stack
/showpage { } def              % Redefine showpage, { } = null proc
0 setgray 0 setlinecap         % Prepare graphics state
1 setlinewidth 0 setlinejoin
10 setmiterlimit [ ] 0 setdash newpath
/languagelevel where           % If level not equal to 1 then
{pop languagelevel             % set strokeadjust and
1 ne                           % overprint to their defaults.
{false setstrokeadjust false setoverprint
} if
} if
} bd
/EndEPSF { %def
count op_count sub {pop} repeat            % Clean up stacks
countdictstack dict_count sub {end} repeat
b4_Inc_state restore
} bd
%%EndResource
%FOPBeginFontDict
%%IncludeResource: font Courier-Bold
%%IncludeResource: font Helvetica
%%IncludeResource: font Courier-BoldOblique
%%IncludeResource: font Courier-Oblique
%%IncludeResource: font Times-Roman
%%IncludeResource: font Helvetica-BoldOblique
%%IncludeResource: font Helvetica-Bold
%%IncludeResource: font Helvetica-Oblique
%%IncludeResource: font Times-BoldItalic
%%IncludeResource: font Courier
%%IncludeResource: font Times-Italic
%%IncludeResource: font Times-Bold
%%IncludeResource: font Symbol
%%IncludeResource: font ZapfDingbats
%FOPEndFontDict
%%BeginResource: encoding WinAnsiEncoding
/WinAnsiEncoding [
/.notdef /.notdef /.notdef /.notdef /.notdef
/.notdef /.notdef /.notdef /.notdef /.notdef
/.notdef /.notdef /.notdef /.notdef /.notdef
/.notdef /.notdef /.notdef /.notdef /.notdef
/.notdef /.notdef /.notdef /.notdef /.notdef
/.notdef /.notdef /.notdef /.notdef /.notdef
/.notdef /.notdef /space /exclam /quotedbl
/numbersign /dollar /percent /ampersand /quotesingle
/parenleft /parenright /asterisk /plus /comma
/hyphen /period /slash /zero /one
/two /three /four /five /six
/seven /eight /nine /colon /semicolon
/less /equal /greater /question /at
/A /B /C /D /E
/F /G /H /I /J
/K /L /M /N /O
/P /Q /R /S /T
/U /V /W /X /Y
/Z /bracketleft /backslash /bracketright /asciicircum
/underscore /quoteleft /a /b /c
/d /e /f /g /h
/i /j /k /l /m
/n /o /p /q /r
/s /t /u /v /w
/x /y /z /braceleft /bar
/braceright /asciitilde /bullet /Euro /bullet
/quotesinglbase /florin /quotedblbase /ellipsis /dagger
/daggerdbl /circumflex /perthousand /Scaron /guilsinglleft
/OE /bullet /Zcaron /bullet /bullet
/quoteleft /quoteright /quotedblleft /quotedblright /bullet
/endash /emdash /asciitilde /trademark /scaron
/guilsinglright /oe /bullet /zcaron /Ydieresis
/space /exclamdown /cent /sterling /currency
/yen /brokenbar /section /dieresis /copyright
/ordfeminine /guillemotleft /logicalnot /sfthyphen /registered
/macron /degree /plusminus /twosuperior /threesuperior
/acute /mu /paragraph /middot /cedilla
/onesuperior /ordmasculine /guillemotright /onequarter /onehalf
/threequarters /questiondown /Agrave /Aacute /Acircumflex
/Atilde /Adieresis /Aring /AE /Ccedilla
/Egrave /Eacute /Ecircumflex /Edieresis /Igrave
/Iacute /Icircumflex /Idieresis /Eth /Ntilde
/Ograve /Oacute /Ocircumflex /Otilde /Odieresis
/multiply /Oslash /Ugrave /Uacute /Ucircumflex
/Udieresis /Yacute /Thorn /germandbls /agrave
/aacute /acircumflex /atilde /adieresis /aring
/ae /ccedilla /egrave /eacute /ecircumflex
/edieresis /igrave /iacute /icircumflex /idieresis
/eth /ntilde /ograve /oacute /ocircumflex
/otilde /odieresis /divide /oslash /ugrave
/uacute /ucircumflex /udieresis /yacute /thorn
/ydieresis
] def
%%EndResource
%FOPBeginFontReencode
/Courier-Bold findfont
dup length dict begin
  {1 index /FID ne {def} {pop pop} ifelse} forall
  /Encoding WinAnsiEncoding def
  currentdict
end
/Courier-Bold exch definefont pop
/Helvetica findfont
dup length dict begin
  {1 index /FID ne {def} {pop pop} ifelse} forall
  /Encoding WinAnsiEncoding def
  currentdict
end
/Helvetica exch definefont pop
/Courier-BoldOblique findfont
dup length dict begin
  {1 index /FID ne {def} {pop pop} ifelse} forall
  /Encoding WinAnsiEncoding def
  currentdict
end
/Courier-BoldOblique exch definefont pop
/Courier-Oblique findfont
dup length dict begin
  {1 index /FID ne {def} {pop pop} ifelse} forall
  /Encoding WinAnsiEncoding def
  currentdict
end
/Courier-Oblique exch definefont pop
/Times-Roman findfont
dup length dict begin
  {1 index /FID ne {def} {pop pop} ifelse} forall
  /Encoding WinAnsiEncoding def
  currentdict
end
/Times-Roman exch definefont pop
/Helvetica-BoldOblique findfont
dup length dict begin
  {1 index /FID ne {def} {pop pop} ifelse} forall
  /Encoding WinAnsiEncoding def
  currentdict
end
/Helvetica-BoldOblique exch definefont pop
/Helvetica-Bold findfont
dup length dict begin
  {1 index /FID ne {def} {pop pop} ifelse} forall
  /Encoding WinAnsiEncoding def
  currentdict
end
/Helvetica-Bold exch definefont pop
/Helvetica-Oblique findfont
dup length dict begin
  {1 index /FID ne {def} {pop pop} ifelse} forall
  /Encoding WinAnsiEncoding def
  currentdict
end
/Helvetica-Oblique exch definefont pop
/Times-BoldItalic findfont
dup length dict begin
  {1 index /FID ne {def} {pop pop} ifelse} forall
  /Encoding WinAnsiEncoding def
  currentdict
end
/Times-BoldItalic exch definefont pop
/Courier findfont
dup length dict begin
  {1 index /FID ne {def} {pop pop} ifelse} forall
  /Encoding WinAnsiEncoding def
  currentdict
end
/Courier exch definefont pop
/Times-Italic findfont
dup length dict begin
  {1 index /FID ne {def} {pop pop} ifelse} forall
  /Encoding WinAnsiEncoding def
  currentdict
end
/Times-Italic exch definefont pop
/Times-Bold findfont
dup length dict begin
  {1 index /FID ne {def} {pop pop} ifelse} forall
  /Encoding WinAnsiEncoding def
  currentdict
end
/Times-Bold exch definefont pop
%FOPEndFontReencode
%%EndProlog
%%Page: 1 1
%%PageBoundingBox: 0 0 1439 445
%%BeginPageSetup
[1 0 0 -1 0 445] CT
%%EndPageSetup
GS
[0.75 0 0 0.75 0 0.25] CT
N
0 0 M
1918 0 L
1918 593 L
0 593 L
0 0 L
cp
clip
1 GC
N
0 0 1918 593 re
f
GR
GS
[0.75 0 0 0.75 0 0.25] CT
1 GC
N
0 0 1918 593 re
f
GR
GS
[0.75 0 0 0.75 0 0.25] CT
1 GC
N
249 528 M
1736 528 L
1736 44 L
249 44 L
cp
f
GR
GS
[0.75 0 0 0.75 0 0.25] CT
0.873 GC
1 LJ
0.667 LW
N
249 528 M
249 44 L
S
GR
GS
[0.75 0 0 0.75 0 0.25] CT
0.873 GC
1 LJ
0.667 LW
N
491.143 528 M
491.143 44 L
S
GR
GS
[0.75 0 0 0.75 0 0.25] CT
0.873 GC
1 LJ
0.667 LW
N
733.286 528 M
733.286 44 L
S
GR
GS
[0.75 0 0 0.75 0 0.25] CT
0.873 GC
1 LJ
0.667 LW
N
975.429 528 M
975.429 44 L
S
GR
GS
[0.75 0 0 0.75 0 0.25] CT
0.873 GC
1 LJ
0.667 LW
N
1217.572 528 M
1217.572 44 L
S
GR
GS
[0.75 0 0 0.75 0 0.25] CT
0.873 GC
1 LJ
0.667 LW
N
1459.715 528 M
1459.715 44 L
S
GR
GS
[0.75 0 0 0.75 0 0.25] CT
0.873 GC
1 LJ
0.667 LW
N
1701.858 528 M
1701.858 44 L
S
GR
GS
[0.75 0 0 0.75 0 0.25] CT
0.873 GC
1 LJ
0.667 LW
N
1736 528 M
249 528 L
S
GR
GS
[0.75 0 0 0.75 0 0.25] CT
0.873 GC
1 LJ
0.667 LW
N
1736 479.6 M
249 479.6 L
S
GR
GS
[0.75 0 0 0.75 0 0.25] CT
0.873 GC
1 LJ
0.667 LW
N
1736 431.2 M
249 431.2 L
S
GR
GS
[0.75 0 0 0.75 0 0.25] CT
0.873 GC
1 LJ
0.667 LW
N
1736 382.8 M
249 382.8 L
S
GR
GS
[0.75 0 0 0.75 0 0.25] CT
0.873 GC
1 LJ
0.667 LW
N
1736 334.4 M
249 334.4 L
S
GR
GS
[0.75 0 0 0.75 0 0.25] CT
0.873 GC
1 LJ
0.667 LW
N
1736 286 M
249 286 L
S
GR
GS
[0.75 0 0 0.75 0 0.25] CT
0.873 GC
1 LJ
0.667 LW
N
1736 237.6 M
249 237.6 L
S
GR
GS
[0.75 0 0 0.75 0 0.25] CT
0.873 GC
1 LJ
0.667 LW
N
1736 189.2 M
249 189.2 L
S
GR
GS
[0.75 0 0 0.75 0 0.25] CT
0.873 GC
1 LJ
0.667 LW
N
1736 140.8 M
249 140.8 L
S
GR
GS
[0.75 0 0 0.75 0 0.25] CT
0.873 GC
1 LJ
0.667 LW
N
1736 92.4 M
249 92.4 L
S
GR
GS
[0.75 0 0 0.75 0 0.25] CT
0.873 GC
1 LJ
0.667 LW
N
1736 44 M
249 44 L
S
GR
GS
[0.75 0 0 0.75 0 0.25] CT
0.149 GC
2 setlinecap
1 LJ
0.667 LW
N
249 528 M
1736 528 L
S
GR
GS
[0.75 0 0 0.75 0 0.25] CT
0.149 GC
2 setlinecap
1 LJ
0.667 LW
N
249 44 M
1736 44 L
S
GR
GS
[0.75 0 0 0.75 0 0.25] CT
0.149 GC
2 setlinecap
1 LJ
0.667 LW
N
249 528 M
249 513.13 L
S
GR
GS
[0.75 0 0 0.75 0 0.25] CT
0.149 GC
2 setlinecap
1 LJ
0.667 LW
N
491.143 528 M
491.143 513.13 L
S
GR
GS
[0.75 0 0 0.75 0 0.25] CT
0.149 GC
2 setlinecap
1 LJ
0.667 LW
N
733.286 528 M
733.286 513.13 L
S
GR
GS
[0.75 0 0 0.75 0 0.25] CT
0.149 GC
2 setlinecap
1 LJ
0.667 LW
N
975.429 528 M
975.429 513.13 L
S
GR
GS
[0.75 0 0 0.75 0 0.25] CT
0.149 GC
2 setlinecap
1 LJ
0.667 LW
N
1217.572 528 M
1217.572 513.13 L
S
GR
GS
[0.75 0 0 0.75 0 0.25] CT
0.149 GC
2 setlinecap
1 LJ
0.667 LW
N
1459.715 528 M
1459.715 513.13 L
S
GR
GS
[0.75 0 0 0.75 0 0.25] CT
0.149 GC
2 setlinecap
1 LJ
0.667 LW
N
1701.858 528 M
1701.858 513.13 L
S
GR
GS
[0.75 0 0 0.75 0 0.25] CT
0.149 GC
2 setlinecap
1 LJ
0.667 LW
N
249 44 M
249 58.87 L
S
GR
GS
[0.75 0 0 0.75 0 0.25] CT
0.149 GC
2 setlinecap
1 LJ
0.667 LW
N
491.143 44 M
491.143 58.87 L
S
GR
GS
[0.75 0 0 0.75 0 0.25] CT
0.149 GC
2 setlinecap
1 LJ
0.667 LW
N
733.286 44 M
733.286 58.87 L
S
GR
GS
[0.75 0 0 0.75 0 0.25] CT
0.149 GC
2 setlinecap
1 LJ
0.667 LW
N
975.429 44 M
975.429 58.87 L
S
GR
GS
[0.75 0 0 0.75 0 0.25] CT
0.149 GC
2 setlinecap
1 LJ
0.667 LW
N
1217.572 44 M
1217.572 58.87 L
S
GR
GS
[0.75 0 0 0.75 0 0.25] CT
0.149 GC
2 setlinecap
1 LJ
0.667 LW
N
1459.715 44 M
1459.715 58.87 L
S
GR
GS
[0.75 0 0 0.75 0 0.25] CT
0.149 GC
2 setlinecap
1 LJ
0.667 LW
N
1701.858 44 M
1701.858 58.87 L
S
GR
GS
[0.75 0 0 0.75 186.75 401.45001] CT
0.149 GC
/Courier 21.333 F
GS
[1 0 0 1 0 0] CT
-5.5 20 moveto 
1 -1 scale
(0) t 
GR
GR
GS
[0.75 0 0 0.75 368.35723 401.45001] CT
0.149 GC
/Courier 21.333 F
GS
[1 0 0 1 0 0] CT
-13.5 20 moveto 
1 -1 scale
(0.5) t 
GR
GR
GS
[0.75 0 0 0.75 549.96446 401.45001] CT
0.149 GC
/Courier 21.333 F
GS
[1 0 0 1 0 0] CT
-5.5 20 moveto 
1 -1 scale
(1) t 
GR
GR
GS
[0.75 0 0 0.75 731.57167 401.45001] CT
0.149 GC
/Courier 21.333 F
GS
[1 0 0 1 0 0] CT
-13.5 20 moveto 
1 -1 scale
(1.5) t 
GR
GR
GS
[0.75 0 0 0.75 913.17892 401.45001] CT
0.149 GC
/Courier 21.333 F
GS
[1 0 0 1 0 0] CT
-5.5 20 moveto 
1 -1 scale
(2) t 
GR
GR
GS
[0.75 0 0 0.75 1094.78613 401.45001] CT
0.149 GC
/Courier 21.333 F
GS
[1 0 0 1 0 0] CT
-13.5 20 moveto 
1 -1 scale
(2.5) t 
GR
GR
GS
[0.75 0 0 0.75 1276.39334 401.45001] CT
0.149 GC
/Courier 21.333 F
GS
[1 0 0 1 0 0] CT
-5.5 20 moveto 
1 -1 scale
(3) t 
GR
GR
GS
[0.75 0 0 0.75 744.37555 421.2] CT
0.149 GC
/Courier 23.467 F
GS
[1 0 0 1 0 0] CT
-27 21 moveto 
1 -1 scale
(f \(Hz\)) t 
GR
GR
GS
[0.75 0 0 0.75 1266.75 440.5] CT
0.149 GC
N
3.094 -0.609 M
3.094 -0.766 3.188 -0.906 QT
7.563 -5.25 L
3.188 -9.625 L
3.094 -9.719 3.094 -9.891 QT
3.094 -10.047 3.211 -10.18 QT
3.328 -10.313 3.5 -10.313 QT
3.656 -10.313 3.828 -10.188 QT
8.172 -5.828 L
12.5 -10.188 L
12.672 -10.313 12.813 -10.313 QT
12.984 -10.313 13.109 -10.188 QT
13.234 -10.063 13.234 -9.891 QT
13.234 -9.719 13.125 -9.625 QT
8.75 -5.25 L
13.125 -0.906 L
13.234 -0.766 13.234 -0.609 QT
13.234 -0.438 13.109 -0.313 QT
12.984 -0.188 12.813 -0.188 QT
12.656 -0.188 12.5 -0.344 QT
8.172 -4.672 L
3.828 -0.344 L
3.672 -0.188 3.5 -0.188 QT
3.328 -0.188 3.211 -0.32 QT
3.094 -0.453 3.094 -0.609 QT
cp
f
GR
GS
[0.75 0 0 0.75 1279.5 440.5] CT
0.149 GC
/Courier 21.333 F
GS
[1 0 0 1 0 0] CT
0 0 moveto 
1 -1 scale
(10) t 
GR
GR
GS
[0.75 0 0 0.75 1295.25 433] CT
0.149 GC
/Courier 17.067 F
GS
[1 0 0 1 0 0] CT
0 0 moveto 
1 -1 scale
(7) t 
GR
GR
GS
[0.75 0 0 0.75 0 0.25] CT
0.149 GC
2 setlinecap
1 LJ
0.667 LW
N
249 528 M
249 44 L
S
GR
GS
[0.75 0 0 0.75 0 0.25] CT
0.149 GC
2 setlinecap
1 LJ
0.667 LW
N
1736 528 M
1736 44 L
S
GR
GS
[0.75 0 0 0.75 0 0.25] CT
0.149 GC
2 setlinecap
1 LJ
0.667 LW
N
249 528 M
263.87 528 L
S
GR
GS
[0.75 0 0 0.75 0 0.25] CT
0.149 GC
2 setlinecap
1 LJ
0.667 LW
N
249 479.6 M
263.87 479.6 L
S
GR
GS
[0.75 0 0 0.75 0 0.25] CT
0.149 GC
2 setlinecap
1 LJ
0.667 LW
N
249 431.2 M
263.87 431.2 L
S
GR
GS
[0.75 0 0 0.75 0 0.25] CT
0.149 GC
2 setlinecap
1 LJ
0.667 LW
N
249 382.8 M
263.87 382.8 L
S
GR
GS
[0.75 0 0 0.75 0 0.25] CT
0.149 GC
2 setlinecap
1 LJ
0.667 LW
N
249 334.4 M
263.87 334.4 L
S
GR
GS
[0.75 0 0 0.75 0 0.25] CT
0.149 GC
2 setlinecap
1 LJ
0.667 LW
N
249 286 M
263.87 286 L
S
GR
GS
[0.75 0 0 0.75 0 0.25] CT
0.149 GC
2 setlinecap
1 LJ
0.667 LW
N
249 237.6 M
263.87 237.6 L
S
GR
GS
[0.75 0 0 0.75 0 0.25] CT
0.149 GC
2 setlinecap
1 LJ
0.667 LW
N
249 189.2 M
263.87 189.2 L
S
GR
GS
[0.75 0 0 0.75 0 0.25] CT
0.149 GC
2 setlinecap
1 LJ
0.667 LW
N
249 140.8 M
263.87 140.8 L
S
GR
GS
[0.75 0 0 0.75 0 0.25] CT
0.149 GC
2 setlinecap
1 LJ
0.667 LW
N
249 92.4 M
263.87 92.4 L
S
GR
GS
[0.75 0 0 0.75 0 0.25] CT
0.149 GC
2 setlinecap
1 LJ
0.667 LW
N
249 44 M
263.87 44 L
S
GR
GS
[0.75 0 0 0.75 0 0.25] CT
0.149 GC
2 setlinecap
1 LJ
0.667 LW
N
1736 528 M
1721.13 528 L
S
GR
GS
[0.75 0 0 0.75 0 0.25] CT
0.149 GC
2 setlinecap
1 LJ
0.667 LW
N
1736 479.6 M
1721.13 479.6 L
S
GR
GS
[0.75 0 0 0.75 0 0.25] CT
0.149 GC
2 setlinecap
1 LJ
0.667 LW
N
1736 431.2 M
1721.13 431.2 L
S
GR
GS
[0.75 0 0 0.75 0 0.25] CT
0.149 GC
2 setlinecap
1 LJ
0.667 LW
N
1736 382.8 M
1721.13 382.8 L
S
GR
GS
[0.75 0 0 0.75 0 0.25] CT
0.149 GC
2 setlinecap
1 LJ
0.667 LW
N
1736 334.4 M
1721.13 334.4 L
S
GR
GS
[0.75 0 0 0.75 0 0.25] CT
0.149 GC
2 setlinecap
1 LJ
0.667 LW
N
1736 286 M
1721.13 286 L
S
GR
GS
[0.75 0 0 0.75 0 0.25] CT
0.149 GC
2 setlinecap
1 LJ
0.667 LW
N
1736 237.6 M
1721.13 237.6 L
S
GR
GS
[0.75 0 0 0.75 0 0.25] CT
0.149 GC
2 setlinecap
1 LJ
0.667 LW
N
1736 189.2 M
1721.13 189.2 L
S
GR
GS
[0.75 0 0 0.75 0 0.25] CT
0.149 GC
2 setlinecap
1 LJ
0.667 LW
N
1736 140.8 M
1721.13 140.8 L
S
GR
GS
[0.75 0 0 0.75 0 0.25] CT
0.149 GC
2 setlinecap
1 LJ
0.667 LW
N
1736 92.4 M
1721.13 92.4 L
S
GR
GS
[0.75 0 0 0.75 0 0.25] CT
0.149 GC
2 setlinecap
1 LJ
0.667 LW
N
1736 44 M
1721.13 44 L
S
GR
GS
[0.75 0 0 0.75 181.55 396.25] CT
0.149 GC
/Courier 21.333 F
GS
[1 0 0 1 0 0] CT
-28 7.5 moveto 
1 -1 scale
(-40) t 
GR
GR
GS
[0.75 0 0 0.75 181.55 359.95] CT
0.149 GC
/Courier 21.333 F
GS
[1 0 0 1 0 0] CT
-28 7.5 moveto 
1 -1 scale
(-35) t 
GR
GR
GS
[0.75 0 0 0.75 181.55 323.65001] CT
0.149 GC
/Courier 21.333 F
GS
[1 0 0 1 0 0] CT
-28 7.5 moveto 
1 -1 scale
(-30) t 
GR
GR
GS
[0.75 0 0 0.75 181.55 287.34999] CT
0.149 GC
/Courier 21.333 F
GS
[1 0 0 1 0 0] CT
-28 7.5 moveto 
1 -1 scale
(-25) t 
GR
GR
GS
[0.75 0 0 0.75 181.55 251.05] CT
0.149 GC
/Courier 21.333 F
GS
[1 0 0 1 0 0] CT
-28 7.5 moveto 
1 -1 scale
(-20) t 
GR
GR
GS
[0.75 0 0 0.75 181.55 214.75] CT
0.149 GC
/Courier 21.333 F
GS
[1 0 0 1 0 0] CT
-28 7.5 moveto 
1 -1 scale
(-15) t 
GR
GR
GS
[0.75 0 0 0.75 181.55 178.45] CT
0.149 GC
/Courier 21.333 F
GS
[1 0 0 1 0 0] CT
-28 7.5 moveto 
1 -1 scale
(-10) t 
GR
GR
GS
[0.75 0 0 0.75 181.55 142.15] CT
0.149 GC
/Courier 21.333 F
GS
[1 0 0 1 0 0] CT
-18 7.5 moveto 
1 -1 scale
(-5) t 
GR
GR
GS
[0.75 0 0 0.75 181.55 105.85] CT
0.149 GC
/Courier 21.333 F
GS
[1 0 0 1 0 0] CT
-11 7.5 moveto 
1 -1 scale
(0) t 
GR
GR
GS
[0.75 0 0 0.75 181.55 69.55] CT
0.149 GC
/Courier 21.333 F
GS
[1 0 0 1 0 0] CT
-11 7.5 moveto 
1 -1 scale
(5) t 
GR
GR
GS
[0.75 0 0 0.75 181.55 33.25] CT
0.149 GC
/Courier 21.333 F
GS
[1 0 0 1 0 0] CT
-21 7.5 moveto 
1 -1 scale
(10) t 
GR
GR
GS
[0 -0.75 0.75 0 153.75 255.25] CT
0.149 GC
/Courier 23.467 F
GS
[1 0 0 1 0 0] CT
0 0 moveto 
1 -1 scale
(|H\(f\)|) t 
GR
GR
GS
[0 -0.75 0.75 0 145.5 217] CT
0.149 GC
/Courier 18.773 F
GS
[1 0 0 1 0 0] CT
0 0 moveto 
1 -1 scale
(2) t 
GR
GR
GS
[0 -0.75 0.75 0 153.75 209.5] CT
0.149 GC
/Courier 23.467 F
GS
[1 0 0 1 0 0] CT
0 0 moveto 
1 -1 scale
( \(dB\)) t 
GR
GR
GS
[0.75 0 0 0.75 0 0.25] CT
0 0.447 0.741 RC
1 LJ
1.333 LW
N
249 105.393 M
249.726 105.6 L
250.453 105.811 L
251.179 106.025 L
251.906 106.242 L
252.632 106.462 L
253.359 106.686 L
254.085 106.912 L
254.811 107.142 L
255.538 107.375 L
256.264 107.611 L
256.991 107.849 L
257.717 108.091 L
258.444 108.336 L
259.17 108.584 L
259.896 108.834 L
260.623 109.087 L
261.349 109.343 L
262.076 109.602 L
262.802 109.863 L
263.529 110.128 L
264.255 110.394 L
264.981 110.663 L
265.708 110.935 L
266.434 111.209 L
267.161 111.485 L
267.887 111.764 L
268.614 112.045 L
269.34 112.328 L
270.066 112.613 L
270.793 112.901 L
271.519 113.19 L
272.246 113.481 L
272.972 113.774 L
273.699 114.069 L
274.425 114.366 L
275.151 114.664 L
275.878 114.964 L
276.604 115.265 L
277.331 115.567 L
278.057 115.872 L
278.784 116.177 L
279.51 116.483 L
280.236 116.791 L
280.963 117.1 L
281.689 117.41 L
282.416 117.72 L
283.142 118.032 L
283.869 118.344 L
284.595 118.657 L
285.321 118.97 L
286.048 119.284 L
286.774 119.599 L
287.501 119.914 L
288.227 120.229 L
288.954 120.544 L
289.68 120.86 L
290.406 121.175 L
291.133 121.491 L
291.859 121.806 L
292.586 122.122 L
293.312 122.437 L
294.039 122.752 L
294.765 123.067 L
295.491 123.381 L
296.218 123.695 L
296.944 124.009 L
297.671 124.321 L
298.397 124.634 L
299.124 124.945 L
299.85 125.256 L
300.576 125.567 L
301.303 125.876 L
302.029 126.185 L
302.756 126.492 L
303.482 126.799 L
304.209 127.105 L
304.935 127.41 L
305.661 127.714 L
306.388 128.017 L
307.114 128.319 L
307.841 128.62 L
308.567 128.92 L
309.294 129.218 L
310.02 129.516 L
310.746 129.813 L
311.473 130.108 L
312.199 130.403 L
312.926 130.697 L
313.652 130.989 L
314.379 131.281 L
315.105 131.571 L
315.831 131.861 L
316.558 132.149 L
317.284 132.437 L
318.011 132.724 L
318.737 133.01 L
319.464 133.295 L
320.19 133.58 L
320.916 133.864 L
321.643 134.147 L
322.369 134.429 L
323.096 134.711 L
323.822 134.993 L
324.549 135.274 L
325.275 135.555 L
326.001 135.836 L
326.728 136.116 L
327.454 136.396 L
328.181 136.677 L
328.907 136.957 L
329.634 137.237 L
330.36 137.518 L
331.086 137.799 L
331.813 138.08 L
332.539 138.362 L
333.266 138.644 L
333.992 138.927 L
334.719 139.211 L
335.445 139.496 L
336.171 139.782 L
336.898 140.068 L
337.624 140.356 L
338.351 140.645 L
339.077 140.936 L
339.804 141.228 L
340.53 141.522 L
341.256 141.817 L
341.983 142.114 L
342.709 142.413 L
343.436 142.714 L
344.162 143.017 L
344.889 143.322 L
345.615 143.63 L
346.341 143.94 L
347.068 144.253 L
347.794 144.568 L
348.521 144.886 L
349.247 145.207 L
349.974 145.53 L
350.7 145.857 L
351.426 146.187 L
352.153 146.52 L
352.879 146.857 L
353.606 147.197 L
354.332 147.54 L
355.059 147.888 L
355.785 148.238 L
356.511 148.593 L
357.238 148.952 L
357.964 149.314 L
358.691 149.681 L
359.417 150.052 L
360.144 150.427 L
360.87 150.807 L
361.596 151.19 L
362.323 151.579 L
363.049 151.972 L
363.776 152.369 L
364.502 152.772 L
365.229 153.179 L
365.955 153.591 L
366.681 154.007 L
367.408 154.429 L
368.134 154.856 L
368.861 155.288 L
369.587 155.725 L
370.314 156.168 L
371.04 156.615 L
371.766 157.068 L
372.493 157.526 L
373.219 157.99 L
373.946 158.459 L
374.672 158.933 L
375.399 159.414 L
376.125 159.899 L
376.852 160.39 L
377.578 160.887 L
378.304 161.39 L
379.031 161.898 L
379.757 162.411 L
380.484 162.931 L
381.21 163.456 L
381.936 163.987 L
382.663 164.524 L
383.389 165.066 L
384.116 165.614 L
384.842 166.168 L
385.569 166.727 L
386.295 167.293 L
387.021 167.864 L
387.748 168.441 L
388.474 169.023 L
389.201 169.611 L
389.927 170.205 L
390.654 170.805 L
391.38 171.41 L
392.107 172.021 L
392.833 172.637 L
393.559 173.259 L
394.286 173.886 L
395.012 174.519 L
395.739 175.158 L
396.465 175.801 L
397.191 176.45 L
397.918 177.105 L
398.644 177.765 L
399.371 178.43 L
400.097 179.1 L
400.824 179.775 L
401.55 180.456 L
402.276 181.141 L
403.003 181.831 L
403.729 182.527 L
404.456 183.227 L
405.182 183.932 L
405.909 184.642 L
406.635 185.356 L
407.362 186.075 L
408.088 186.799 L
408.814 187.527 L
409.541 188.26 L
410.267 188.997 L
410.994 189.739 L
411.72 190.484 L
412.447 191.234 L
413.173 191.989 L
413.899 192.747 L
414.626 193.51 L
415.352 194.276 L
416.079 195.047 L
416.805 195.822 L
417.532 196.6 L
418.258 197.383 L
418.984 198.169 L
419.711 198.96 L
420.437 199.754 L
421.164 200.553 L
421.89 201.355 L
422.617 202.161 L
423.343 202.971 L
424.069 203.785 L
424.796 204.603 L
425.522 205.425 L
426.249 206.251 L
426.975 207.081 L
427.702 207.916 L
428.428 208.755 L
429.154 209.598 L
429.881 210.446 L
430.607 211.298 L
431.334 212.155 L
432.06 213.018 L
432.787 213.885 L
433.513 214.757 L
434.239 215.635 L
434.966 216.519 L
435.692 217.408 L
436.419 218.304 L
437.145 219.206 L
437.872 220.115 L
438.598 221.03 L
439.324 221.953 L
440.051 222.883 L
440.777 223.822 L
441.504 224.769 L
442.23 225.724 L
442.957 226.689 L
443.683 227.663 L
444.409 228.647 L
445.136 229.642 L
445.862 230.648 L
446.589 231.666 L
447.315 232.696 L
448.042 233.738 L
448.768 234.794 L
449.494 235.864 L
450.221 236.949 L
450.947 238.05 L
451.674 239.166 L
452.4 240.3 L
453.127 241.452 L
453.853 242.622 L
454.579 243.813 L
455.306 245.024 L
456.032 246.256 L
456.759 247.512 L
457.485 248.791 L
458.212 250.096 L
458.938 251.427 L
459.664 252.785 L
460.391 254.173 L
461.117 255.591 L
461.844 257.042 L
462.57 258.526 L
463.297 260.045 L
464.023 261.602 L
464.749 263.198 L
465.476 264.835 L
466.202 266.516 L
466.929 268.242 L
467.655 270.017 L
468.382 271.842 L
469.108 273.722 L
469.834 275.659 L
470.561 277.655 L
471.287 279.716 L
472.014 281.845 L
472.74 284.045 L
473.467 286.322 L
474.193 288.68 L
474.919 291.126 L
475.646 293.664 L
476.372 296.302 L
477.099 299.047 L
477.825 301.906 L
478.552 304.89 L
479.278 308.007 L
480.004 311.27 L
480.731 314.69 L
481.457 318.283 L
482.184 322.065 L
482.91 326.054 L
483.637 330.273 L
484.363 334.747 L
485.089 339.505 L
485.816 344.583 L
486.542 350.024 L
487.269 355.876 L
487.995 362.204 L
488.722 369.083 L
489.448 376.609 L
490.174 384.904 L
490.901 394.127 L
491.627 404.486 L
492.354 416.257 L
493.08 429.808 L
493.807 445.611 L
494.533 464.161 L
495.259 485.415 L
495.986 506.292 L
496.712 515.527 L
497.439 503.871 L
498.165 482.118 L
498.892 460.614 L
499.618 441.891 L
500.344 425.87 L
501.071 412.048 L
501.797 399.964 L
502.524 389.261 L
503.25 379.669 L
503.977 370.988 L
504.703 363.064 L
505.429 355.777 L
506.156 349.034 L
506.882 342.761 L
507.609 336.897 L
508.335 331.392 L
509.062 326.206 L
509.788 321.303 L
510.514 316.655 L
511.241 312.237 L
511.967 308.028 L
512.694 304.009 L
513.42 300.164 L
514.147 296.479 L
514.873 292.941 L
515.599 289.54 L
516.326 286.266 L
517.052 283.111 L
517.779 280.065 L
518.505 277.123 L
519.232 274.278 L
519.958 271.524 L
520.684 268.855 L
521.411 266.268 L
522.137 263.758 L
522.864 261.321 L
523.59 258.952 L
524.317 256.65 L
525.043 254.409 L
525.769 252.229 L
526.496 250.105 L
527.222 248.036 L
527.949 246.019 L
528.675 244.052 L
529.402 242.133 L
530.128 240.26 L
530.854 238.431 L
531.581 236.645 L
532.307 234.9 L
533.034 233.194 L
533.76 231.527 L
534.487 229.896 L
535.213 228.301 L
535.939 226.74 L
536.666 225.213 L
537.392 223.718 L
538.119 222.254 L
538.845 220.82 L
539.572 219.416 L
540.298 218.04 L
541.024 216.692 L
541.751 215.371 L
542.477 214.076 L
543.204 212.806 L
543.93 211.561 L
544.657 210.34 L
545.383 209.143 L
546.109 207.968 L
546.836 206.815 L
547.562 205.684 L
548.289 204.574 L
549.015 203.485 L
549.742 202.416 L
550.468 201.366 L
551.194 200.336 L
551.921 199.324 L
552.647 198.33 L
553.374 197.354 L
554.1 196.395 L
554.827 195.453 L
555.553 194.528 L
556.279 193.619 L
557.006 192.725 L
557.732 191.847 L
558.459 190.984 L
559.185 190.136 L
559.912 189.302 L
560.638 188.482 L
561.364 187.676 L
562.091 186.883 L
562.817 186.103 L
563.544 185.336 L
564.27 184.582 L
564.997 183.84 L
565.723 183.11 L
566.449 182.391 L
567.176 181.684 L
567.902 180.988 L
568.629 180.302 L
569.355 179.628 L
570.082 178.963 L
570.808 178.309 L
571.534 177.665 L
572.261 177.03 L
572.987 176.405 L
573.714 175.789 L
574.44 175.182 L
575.167 174.583 L
575.893 173.993 L
576.619 173.411 L
577.346 172.838 L
578.072 172.272 L
578.799 171.714 L
579.525 171.163 L
580.252 170.619 L
580.978 170.083 L
581.704 169.553 L
582.431 169.031 L
583.157 168.514 L
583.884 168.004 L
584.61 167.5 L
585.337 167.002 L
586.063 166.51 L
586.789 166.024 L
587.516 165.542 L
588.242 165.067 L
588.969 164.596 L
589.695 164.13 L
590.422 163.669 L
591.148 163.213 L
591.874 162.762 L
592.601 162.314 L
593.327 161.871 L
594.054 161.432 L
594.78 160.997 L
595.507 160.566 L
596.233 160.139 L
596.959 159.715 L
597.686 159.295 L
598.412 158.878 L
599.139 158.465 L
599.865 158.054 L
600.592 157.647 L
601.318 157.243 L
602.044 156.841 L
602.771 156.442 L
603.497 156.046 L
604.224 155.653 L
604.95 155.262 L
605.677 154.874 L
606.403 154.488 L
607.129 154.104 L
607.856 153.723 L
608.582 153.344 L
609.309 152.966 L
610.035 152.591 L
610.762 152.219 L
611.488 151.848 L
612.214 151.479 L
612.941 151.112 L
613.667 150.747 L
614.394 150.383 L
615.12 150.022 L
615.847 149.662 L
616.573 149.304 L
617.299 148.948 L
618.026 148.594 L
618.752 148.242 L
619.479 147.891 L
620.205 147.542 L
620.932 147.195 L
621.658 146.849 L
622.384 146.506 L
623.111 146.164 L
623.837 145.824 L
624.564 145.485 L
625.29 145.149 L
626.017 144.814 L
626.743 144.482 L
627.469 144.151 L
628.196 143.822 L
628.922 143.495 L
629.649 143.171 L
630.375 142.848 L
631.102 142.527 L
631.828 142.208 L
632.554 141.892 L
633.281 141.578 L
634.007 141.266 L
634.734 140.956 L
635.46 140.649 L
636.187 140.344 L
636.913 140.041 L
637.639 139.741 L
638.366 139.444 L
639.092 139.149 L
639.819 138.857 L
640.545 138.567 L
641.272 138.28 L
641.998 137.996 L
642.724 137.715 L
643.451 137.437 L
644.177 137.162 L
644.904 136.89 L
645.63 136.621 L
646.357 136.355 L
647.083 136.092 L
647.809 135.832 L
648.536 135.576 L
649.262 135.323 L
649.989 135.074 L
650.715 134.828 L
651.442 134.585 L
652.168 134.346 L
652.894 134.111 L
653.621 133.88 L
654.347 133.652 L
655.074 133.428 L
655.8 133.207 L
656.527 132.991 L
657.253 132.779 L
657.979 132.57 L
658.706 132.366 L
659.432 132.165 L
660.159 131.969 L
660.885 131.776 L
661.612 131.588 L
662.338 131.404 L
663.065 131.225 L
663.791 131.049 L
664.517 130.878 L
665.244 130.711 L
665.97 130.549 L
666.697 130.391 L
667.423 130.237 L
668.149 130.088 L
668.876 129.944 L
669.602 129.803 L
670.329 129.668 L
671.055 129.537 L
671.782 129.41 L
672.508 129.288 L
673.234 129.17 L
673.961 129.058 L
674.687 128.949 L
675.414 128.845 L
676.14 128.746 L
676.867 128.652 L
677.593 128.562 L
678.32 128.477 L
679.046 128.396 L
679.772 128.32 L
680.499 128.248 L
681.225 128.181 L
681.952 128.119 L
682.678 128.061 L
683.404 128.008 L
684.131 127.959 L
684.857 127.914 L
685.584 127.875 L
686.31 127.839 L
687.037 127.808 L
687.763 127.782 L
688.49 127.76 L
689.216 127.742 L
689.942 127.728 L
690.669 127.719 L
691.395 127.714 L
692.122 127.713 L
692.848 127.716 L
693.575 127.724 L
694.301 127.735 L
695.027 127.751 L
695.754 127.77 L
696.48 127.793 L
697.207 127.82 L
697.933 127.851 L
698.659 127.886 L
699.386 127.924 L
700.112 127.966 L
700.839 128.011 L
701.565 128.06 L
702.292 128.112 L
703.018 128.168 L
703.745 128.226 L
704.471 128.288 L
705.197 128.353 L
705.924 128.421 L
706.65 128.492 L
707.377 128.565 L
708.103 128.641 L
708.83 128.72 L
709.556 128.802 L
710.282 128.886 L
711.009 128.972 L
711.735 129.061 L
712.462 129.151 L
713.188 129.244 L
713.914 129.339 L
714.641 129.435 L
715.367 129.534 L
716.094 129.634 L
716.82 129.735 L
717.547 129.838 L
718.273 129.943 L
719 130.048 L
719.726 130.155 L
720.452 130.262 L
721.179 130.371 L
721.905 130.48 L
722.632 130.59 L
723.358 130.701 L
724.085 130.812 L
724.811 130.923 L
725.537 131.035 L
726.264 131.146 L
726.99 131.258 L
727.717 131.37 L
728.443 131.481 L
729.169 131.592 L
729.896 131.703 L
730.622 131.813 L
731.349 131.922 L
732.075 132.031 L
732.802 132.139 L
733.528 132.246 L
734.255 132.352 L
734.981 132.457 L
735.707 132.561 L
736.434 132.663 L
737.16 132.764 L
737.887 132.864 L
738.613 132.962 L
739.34 133.058 L
740.066 133.153 L
740.792 133.246 L
741.519 133.337 L
742.245 133.426 L
742.972 133.513 L
743.698 133.598 L
744.424 133.682 L
745.151 133.763 L
745.877 133.842 L
746.604 133.918 L
747.33 133.993 L
748.057 134.065 L
748.783 134.135 L
749.51 134.202 L
750.236 134.268 L
750.962 134.331 L
751.689 134.391 L
752.415 134.449 L
753.142 134.505 L
753.868 134.559 L
754.595 134.61 L
755.321 134.658 L
756.047 134.705 L
756.774 134.749 L
757.5 134.791 L
758.227 134.83 L
758.953 134.867 L
759.68 134.903 L
760.406 134.935 L
761.132 134.966 L
761.859 134.995 L
762.585 135.022 L
763.312 135.047 L
764.038 135.069 L
764.765 135.09 L
765.491 135.11 L
766.217 135.127 L
766.944 135.143 L
767.67 135.157 L
768.397 135.17 L
769.123 135.181 L
769.85 135.191 L
770.576 135.2 L
771.302 135.207 L
772.029 135.213 L
772.755 135.218 L
773.482 135.223 L
774.208 135.226 L
774.935 135.229 L
775.661 135.231 L
776.387 135.232 L
777.114 135.233 L
777.84 135.233 L
778.567 135.233 L
779.293 135.232 L
780.02 135.232 L
780.746 135.231 L
781.472 135.23 L
782.199 135.23 L
782.925 135.229 L
783.652 135.229 L
784.378 135.229 L
785.105 135.229 L
785.831 135.23 L
786.557 135.231 L
787.284 135.233 L
788.01 135.236 L
788.737 135.239 L
789.463 135.243 L
790.19 135.248 L
790.916 135.254 L
791.642 135.261 L
792.369 135.269 L
793.095 135.279 L
793.822 135.289 L
794.548 135.3 L
795.275 135.313 L
796.001 135.327 L
796.727 135.343 L
797.454 135.359 L
798.18 135.378 L
798.907 135.397 L
799.633 135.418 L
800.36 135.441 L
801.086 135.465 L
801.812 135.491 L
802.539 135.518 L
803.265 135.547 L
803.992 135.577 L
804.718 135.609 L
805.445 135.643 L
806.171 135.678 L
806.897 135.715 L
807.624 135.753 L
808.35 135.793 L
809.077 135.834 L
809.803 135.877 L
810.53 135.921 L
811.256 135.967 L
811.982 136.014 L
812.709 136.063 L
813.435 136.113 L
814.162 136.164 L
814.888 136.217 L
815.615 136.271 L
816.341 136.326 L
817.067 136.382 L
817.794 136.439 L
818.52 136.498 L
819.247 136.557 L
819.973 136.617 L
820.7 136.678 L
821.426 136.74 L
822.152 136.802 L
822.879 136.865 L
823.605 136.928 L
824.332 136.992 L
825.058 137.057 L
825.785 137.121 L
826.511 137.186 L
827.237 137.251 L
827.964 137.316 L
828.69 137.381 L
829.417 137.446 L
830.143 137.51 L
830.87 137.575 L
831.596 137.638 L
832.322 137.701 L
833.049 137.764 L
833.775 137.826 L
834.502 137.887 L
835.228 137.947 L
835.955 138.006 L
836.681 138.064 L
837.407 138.12 L
838.134 138.176 L
838.86 138.229 L
839.587 138.282 L
840.313 138.333 L
841.04 138.382 L
841.766 138.429 L
842.492 138.475 L
843.219 138.518 L
843.945 138.56 L
844.672 138.599 L
845.398 138.636 L
846.125 138.671 L
846.851 138.704 L
847.577 138.734 L
848.304 138.762 L
849.03 138.787 L
849.757 138.809 L
850.483 138.829 L
851.21 138.847 L
851.936 138.861 L
852.662 138.873 L
853.389 138.882 L
854.115 138.888 L
854.842 138.891 L
855.568 138.891 L
856.295 138.888 L
857.021 138.882 L
857.747 138.874 L
858.474 138.862 L
859.2 138.848 L
859.927 138.83 L
860.653 138.81 L
861.38 138.786 L
862.106 138.76 L
862.832 138.731 L
863.559 138.699 L
864.285 138.664 L
865.012 138.626 L
865.738 138.586 L
866.465 138.543 L
867.191 138.498 L
867.917 138.449 L
868.644 138.399 L
869.37 138.346 L
870.097 138.29 L
870.823 138.232 L
871.55 138.173 L
872.276 138.111 L
873.002 138.046 L
873.729 137.98 L
874.455 137.913 L
875.182 137.843 L
875.908 137.772 L
876.635 137.699 L
877.361 137.625 L
878.087 137.549 L
878.814 137.472 L
879.54 137.395 L
880.267 137.316 L
880.993 137.236 L
881.72 137.155 L
882.446 137.074 L
883.172 136.993 L
883.899 136.911 L
884.625 136.828 L
885.352 136.746 L
886.078 136.663 L
886.805 136.581 L
887.531 136.498 L
888.257 136.417 L
888.984 136.335 L
889.71 136.254 L
890.437 136.174 L
891.163 136.095 L
891.89 136.016 L
892.616 135.939 L
893.342 135.862 L
894.069 135.787 L
894.795 135.714 L
895.522 135.642 L
896.248 135.571 L
896.975 135.503 L
897.701 135.436 L
898.427 135.371 L
899.154 135.308 L
899.88 135.247 L
900.607 135.188 L
901.333 135.132 L
902.06 135.078 L
902.786 135.027 L
903.512 134.979 L
904.239 134.933 L
904.965 134.889 L
905.692 134.849 L
906.418 134.812 L
907.145 134.777 L
907.871 134.746 L
908.597 134.718 L
909.324 134.693 L
910.05 134.671 L
910.777 134.653 L
911.503 134.638 L
912.23 134.626 L
912.956 134.618 L
913.682 134.613 L
914.409 134.612 L
915.135 134.615 L
915.862 134.621 L
916.588 134.631 L
917.315 134.645 L
918.041 134.663 L
918.767 134.684 L
919.494 134.709 L
920.22 134.738 L
920.947 134.77 L
921.673 134.807 L
922.4 134.847 L
923.126 134.891 L
923.852 134.939 L
924.579 134.991 L
925.305 135.046 L
926.032 135.106 L
926.758 135.169 L
927.485 135.236 L
928.211 135.306 L
928.937 135.381 L
929.664 135.459 L
930.39 135.541 L
931.117 135.626 L
931.843 135.715 L
932.57 135.807 L
933.296 135.903 L
934.022 136.003 L
934.749 136.105 L
935.475 136.212 L
936.202 136.321 L
936.928 136.433 L
937.655 136.549 L
938.381 136.668 L
939.107 136.79 L
939.834 136.914 L
940.56 137.042 L
941.287 137.172 L
942.013 137.305 L
942.74 137.44 L
943.466 137.578 L
944.193 137.719 L
944.919 137.861 L
945.645 138.006 L
946.372 138.153 L
947.098 138.301 L
947.825 138.452 L
948.551 138.604 L
949.277 138.758 L
950.004 138.913 L
950.73 139.07 L
951.457 139.228 L
952.183 139.387 L
952.91 139.547 L
953.636 139.708 L
954.362 139.87 L
955.089 140.032 L
955.815 140.195 L
956.542 140.358 L
957.268 140.522 L
957.995 140.685 L
958.721 140.848 L
959.448 141.011 L
960.174 141.174 L
960.9 141.336 L
961.627 141.498 L
962.353 141.658 L
963.08 141.818 L
963.806 141.977 L
964.532 142.135 L
965.259 142.291 L
965.985 142.446 L
966.712 142.599 L
967.438 142.75 L
968.165 142.9 L
968.891 143.047 L
969.617 143.193 L
970.344 143.336 L
971.07 143.477 L
971.797 143.616 L
972.523 143.752 L
973.25 143.885 L
973.976 144.015 L
974.703 144.143 L
975.429 144.267 L
976.155 144.389 L
976.882 144.507 L
977.608 144.622 L
978.335 144.734 L
979.061 144.842 L
979.787 144.947 L
980.514 145.048 L
981.24 145.146 L
981.967 145.24 L
982.693 145.33 L
983.42 145.417 L
984.146 145.5 L
984.872 145.579 L
985.599 145.654 L
986.325 145.726 L
987.052 145.793 L
987.778 145.857 L
988.505 145.917 L
989.231 145.973 L
989.958 146.025 L
990.684 146.074 L
991.41 146.119 L
992.137 146.16 L
992.863 146.197 L
993.59 146.231 L
994.316 146.261 L
995.042 146.288 L
995.769 146.311 L
996.495 146.33 L
997.222 146.347 L
997.948 146.36 L
998.675 146.369 L
999.401 146.376 L
1000.128 146.379 L
1000.854 146.38 L
1001.58 146.378 L
1002.307 146.373 L
1003.033 146.365 L
1003.76 146.355 L
1004.486 146.342 L
1005.213 146.327 L
1005.939 146.309 L
1006.665 146.29 L
1007.392 146.268 L
1008.118 146.244 L
1008.845 146.219 L
1009.571 146.192 L
1010.297 146.163 L
1011.024 146.132 L
1011.75 146.101 L
1012.477 146.068 L
1013.203 146.033 L
1013.93 145.998 L
1014.656 145.962 L
1015.383 145.925 L
1016.109 145.887 L
1016.835 145.849 L
1017.562 145.81 L
1018.288 145.77 L
1019.015 145.731 L
1019.741 145.691 L
1020.468 145.651 L
1021.194 145.61 L
1021.92 145.57 L
1022.647 145.53 L
1023.373 145.49 L
1024.1 145.451 L
1024.826 145.412 L
1025.552 145.373 L
1026.279 145.335 L
1027.005 145.297 L
1027.732 145.26 L
1028.458 145.224 L
1029.185 145.189 L
1029.911 145.154 L
1030.638 145.12 L
1031.364 145.087 L
1032.09 145.055 L
1032.817 145.024 L
1033.543 144.994 L
1034.27 144.965 L
1034.996 144.937 L
1035.723 144.91 L
1036.449 144.884 L
1037.175 144.859 L
1037.902 144.836 L
1038.628 144.813 L
1039.355 144.792 L
1040.081 144.772 L
1040.807 144.753 L
1041.534 144.734 L
1042.26 144.717 L
1042.987 144.701 L
1043.713 144.686 L
1044.44 144.672 L
1045.166 144.659 L
1045.893 144.647 L
1046.619 144.636 L
1047.345 144.626 L
1048.072 144.616 L
1048.798 144.607 L
1049.525 144.599 L
1050.251 144.591 L
1050.978 144.584 L
1051.704 144.578 L
1052.43 144.572 L
1053.157 144.566 L
1053.883 144.56 L
1054.61 144.555 L
1055.336 144.55 L
1056.063 144.545 L
1056.789 144.54 L
1057.515 144.535 L
1058.242 144.529 L
1058.968 144.524 L
1059.695 144.517 L
1060.421 144.511 L
1061.148 144.504 L
1061.874 144.496 L
1062.6 144.488 L
1063.327 144.478 L
1064.053 144.468 L
1064.78 144.457 L
1065.506 144.445 L
1066.233 144.431 L
1066.959 144.416 L
1067.685 144.4 L
1068.412 144.382 L
1069.138 144.363 L
1069.865 144.342 L
1070.591 144.319 L
1071.318 144.294 L
1072.044 144.268 L
1072.77 144.239 L
1073.497 144.209 L
1074.223 144.176 L
1074.95 144.141 L
1075.676 144.103 L
1076.403 144.064 L
1077.129 144.021 L
1077.855 143.977 L
1078.582 143.929 L
1079.308 143.879 L
1080.035 143.827 L
1080.761 143.771 L
1081.488 143.713 L
1082.214 143.652 L
1082.94 143.588 L
1083.667 143.522 L
1084.393 143.452 L
1085.12 143.38 L
1085.846 143.304 L
1086.573 143.226 L
1087.299 143.144 L
1088.025 143.06 L
1088.752 142.973 L
1089.478 142.882 L
1090.205 142.789 L
1090.931 142.693 L
1091.658 142.594 L
1092.384 142.492 L
1093.11 142.388 L
1093.837 142.28 L
1094.563 142.17 L
1095.29 142.057 L
1096.016 141.942 L
1096.743 141.824 L
1097.469 141.703 L
1098.195 141.58 L
1098.922 141.455 L
1099.648 141.327 L
1100.375 141.197 L
1101.101 141.065 L
1101.828 140.931 L
1102.554 140.795 L
1103.28 140.657 L
1104.007 140.517 L
1104.733 140.376 L
1105.46 140.233 L
1106.186 140.088 L
1106.913 139.942 L
1107.639 139.795 L
1108.365 139.647 L
1109.092 139.498 L
1109.818 139.348 L
1110.545 139.197 L
1111.271 139.046 L
1111.998 138.894 L
1112.724 138.741 L
1113.45 138.589 L
1114.177 138.436 L
1114.903 138.283 L
1115.63 138.13 L
1116.356 137.977 L
1117.083 137.825 L
1117.809 137.673 L
1118.535 137.522 L
1119.262 137.371 L
1119.988 137.222 L
1120.715 137.073 L
1121.441 136.925 L
1122.168 136.779 L
1122.894 136.634 L
1123.62 136.49 L
1124.347 136.348 L
1125.073 136.207 L
1125.8 136.068 L
1126.526 135.932 L
1127.253 135.797 L
1127.979 135.664 L
1128.705 135.534 L
1129.432 135.406 L
1130.158 135.28 L
1130.885 135.157 L
1131.611 135.037 L
1132.338 134.919 L
1133.064 134.805 L
1133.79 134.693 L
1134.517 134.584 L
1135.243 134.478 L
1135.97 134.376 L
1136.696 134.277 L
1137.423 134.181 L
1138.149 134.089 L
1138.875 134 L
1139.602 133.915 L
1140.328 133.834 L
1141.055 133.756 L
1141.781 133.682 L
1142.508 133.612 L
1143.234 133.546 L
1143.96 133.484 L
1144.687 133.427 L
1145.413 133.373 L
1146.14 133.323 L
1146.866 133.278 L
1147.593 133.237 L
1148.319 133.201 L
1149.045 133.169 L
1149.772 133.141 L
1150.498 133.118 L
1151.225 133.099 L
1151.951 133.085 L
1152.678 133.075 L
1153.404 133.07 L
1154.13 133.069 L
1154.857 133.074 L
1155.583 133.083 L
1156.31 133.096 L
1157.036 133.115 L
1157.763 133.138 L
1158.489 133.165 L
1159.215 133.198 L
1159.942 133.235 L
1160.668 133.277 L
1161.395 133.324 L
1162.121 133.376 L
1162.848 133.432 L
1163.574 133.494 L
1164.3 133.56 L
1165.027 133.63 L
1165.753 133.706 L
1166.48 133.786 L
1167.206 133.871 L
1167.933 133.961 L
1168.659 134.055 L
1169.385 134.154 L
1170.112 134.258 L
1170.838 134.367 L
1171.565 134.48 L
1172.291 134.597 L
1173.018 134.719 L
1173.744 134.846 L
1174.47 134.977 L
1175.197 135.113 L
1175.923 135.253 L
1176.65 135.398 L
1177.376 135.547 L
1178.103 135.7 L
1178.829 135.858 L
1179.555 136.019 L
1180.282 136.185 L
1181.008 136.355 L
1181.735 136.53 L
1182.461 136.708 L
1183.188 136.89 L
1183.914 137.077 L
1184.641 137.267 L
1185.367 137.461 L
1186.093 137.659 L
1186.82 137.86 L
1187.546 138.065 L
1188.273 138.274 L
1188.999 138.487 L
1189.725 138.703 L
1190.452 138.922 L
1191.178 139.145 L
1191.905 139.371 L
1192.631 139.6 L
1193.358 139.833 L
1194.084 140.069 L
1194.81 140.308 L
1195.537 140.55 L
1196.263 140.794 L
1196.99 141.042 L
1197.716 141.293 L
1198.443 141.546 L
1199.169 141.802 L
1199.896 142.061 L
1200.622 142.322 L
1201.348 142.586 L
1202.075 142.852 L
1202.801 143.12 L
1203.528 143.391 L
1204.254 143.664 L
1204.98 143.94 L
1205.707 144.217 L
1206.433 144.497 L
1207.16 144.779 L
1207.886 145.063 L
1208.613 145.348 L
1209.339 145.636 L
1210.065 145.925 L
1210.792 146.216 L
1211.518 146.509 L
1212.245 146.804 L
1212.971 147.1 L
1213.698 147.398 L
1214.424 147.698 L
1215.151 147.999 L
1215.877 148.301 L
1216.603 148.605 L
1217.33 148.911 L
1218.056 149.218 L
1218.783 149.526 L
1219.509 149.836 L
1220.235 150.147 L
1220.962 150.46 L
1221.688 150.774 L
1222.415 151.089 L
1223.141 151.405 L
1223.868 151.723 L
1224.594 152.043 L
1225.32 152.363 L
1226.047 152.685 L
1226.773 153.009 L
1227.5 153.333 L
1228.226 153.66 L
1228.953 153.987 L
1229.679 154.316 L
1230.406 154.647 L
1231.132 154.979 L
1231.858 155.313 L
1232.585 155.648 L
1233.311 155.985 L
1234.038 156.324 L
1234.764 156.664 L
1235.49 157.006 L
1236.217 157.351 L
1236.943 157.697 L
1237.67 158.045 L
1238.396 158.395 L
1239.123 158.747 L
1239.849 159.102 L
1240.575 159.459 L
1241.302 159.818 L
1242.028 160.18 L
1242.755 160.544 L
1243.481 160.911 L
1244.208 161.281 L
1244.934 161.654 L
1245.661 162.03 L
1246.387 162.409 L
1247.113 162.791 L
1247.84 163.176 L
1248.566 163.565 L
1249.293 163.957 L
1250.019 164.353 L
1250.745 164.753 L
1251.472 165.157 L
1252.198 165.564 L
1252.925 165.976 L
1253.651 166.393 L
1254.378 166.813 L
1255.104 167.239 L
1255.83 167.669 L
1256.557 168.104 L
1257.283 168.544 L
1258.01 168.989 L
1258.736 169.44 L
1259.463 169.896 L
1260.189 170.358 L
1260.916 170.825 L
1261.642 171.299 L
1262.368 171.778 L
1263.095 172.264 L
1263.821 172.756 L
1264.548 173.255 L
1265.274 173.761 L
1266 174.274 L
1266.727 174.793 L
1267.453 175.32 L
1268.18 175.855 L
1268.906 176.397 L
1269.633 176.947 L
1270.359 177.505 L
1271.085 178.071 L
1271.812 178.646 L
1272.538 179.229 L
1273.265 179.821 L
1273.991 180.422 L
1274.718 181.032 L
1275.444 181.651 L
1276.171 182.28 L
1276.897 182.918 L
1277.623 183.567 L
1278.35 184.225 L
1279.076 184.894 L
1279.803 185.574 L
1280.529 186.264 L
1281.255 186.965 L
1281.982 187.677 L
1282.708 188.401 L
1283.435 189.136 L
1284.161 189.883 L
1284.888 190.642 L
1285.614 191.414 L
1286.34 192.197 L
1287.067 192.994 L
1287.793 193.804 L
1288.52 194.627 L
1289.246 195.463 L
1289.973 196.313 L
1290.699 197.178 L
1291.426 198.056 L
1292.152 198.949 L
1292.878 199.857 L
1293.605 200.78 L
1294.331 201.718 L
1295.058 202.673 L
1295.784 203.643 L
1296.51 204.629 L
1297.237 205.632 L
1297.963 206.652 L
1298.69 207.689 L
1299.416 208.744 L
1300.143 209.817 L
1300.869 210.908 L
1301.595 212.018 L
1302.322 213.146 L
1303.048 214.295 L
1303.775 215.463 L
1304.501 216.651 L
1305.228 217.861 L
1305.954 219.091 L
1306.681 220.343 L
1307.407 221.617 L
1308.133 222.913 L
1308.86 224.233 L
1309.586 225.576 L
1310.313 226.943 L
1311.039 228.335 L
1311.766 229.752 L
1312.492 231.196 L
1313.218 232.665 L
1313.945 234.162 L
1314.671 235.686 L
1315.398 237.24 L
1316.124 238.822 L
1316.85 240.434 L
1317.577 242.077 L
1318.303 243.752 L
1319.03 245.46 L
1319.756 247.2 L
1320.483 248.975 L
1321.209 250.786 L
1321.936 252.632 L
1322.662 254.516 L
1323.388 256.439 L
1324.115 258.401 L
1324.841 260.405 L
1325.568 262.45 L
1326.294 264.539 L
1327.021 266.673 L
1327.747 268.853 L
1328.473 271.08 L
1329.2 273.357 L
1329.926 275.686 L
1330.653 278.066 L
1331.379 280.501 L
1332.105 282.992 L
1332.832 285.541 L
1333.558 288.15 L
1334.285 290.82 L
1335.011 293.553 L
1335.738 296.352 L
1336.464 299.217 L
1337.191 302.151 L
1337.917 305.154 L
1338.643 308.229 L
1339.37 311.375 L
1340.096 314.594 L
1340.823 317.884 L
1341.549 321.245 L
1342.276 324.674 L
1343.002 328.168 L
1343.728 331.722 L
1344.455 335.326 L
1345.181 338.972 L
1345.908 342.644 L
1346.634 346.324 L
1347.36 349.99 L
1348.087 353.61 L
1348.813 357.149 L
1349.54 360.563 L
1350.266 363.802 L
1350.993 366.808 L
1351.719 369.519 L
1352.446 371.871 L
1353.172 373.801 L
1353.898 375.256 L
1354.625 376.195 L
1355.351 376.592 L
1356.078 376.444 L
1356.804 375.769 L
1357.531 374.603 L
1358.257 372.995 L
1358.983 371.006 L
1359.71 368.699 L
1360.436 366.137 L
1361.163 363.379 L
1361.889 360.477 L
1362.615 357.478 L
1363.342 354.418 L
1364.068 351.331 L
1364.795 348.24 L
1365.521 345.166 L
1366.248 342.124 L
1366.974 339.124 L
1367.701 336.176 L
1368.427 333.285 L
1369.153 330.455 L
1369.88 327.688 L
1370.606 324.986 L
1371.333 322.349 L
1372.059 319.777 L
1372.786 317.267 L
1373.512 314.82 L
1374.238 312.433 L
1374.965 310.105 L
1375.691 307.834 L
1376.418 305.617 L
1377.144 303.453 L
1377.87 301.34 L
1378.597 299.275 L
1379.323 297.256 L
1380.05 295.281 L
1380.776 293.35 L
1381.503 291.458 L
1382.229 289.606 L
1382.956 287.79 L
1383.682 286.01 L
1384.408 284.263 L
1385.135 282.549 L
1385.861 280.865 L
1386.588 279.21 L
1387.314 277.583 L
1388.041 275.983 L
1388.767 274.408 L
1389.493 272.858 L
1390.22 271.33 L
1390.946 269.825 L
1391.673 268.34 L
1392.399 266.876 L
1393.126 265.431 L
1393.852 264.004 L
1394.578 262.595 L
1395.305 261.202 L
1396.031 259.826 L
1396.758 258.465 L
1397.484 257.119 L
1398.211 255.787 L
1398.937 254.468 L
1399.663 253.163 L
1400.39 251.87 L
1401.116 250.59 L
1401.843 249.321 L
1402.569 248.064 L
1403.296 246.817 L
1404.022 245.581 L
1404.748 244.356 L
1405.475 243.14 L
1406.201 241.935 L
1406.928 240.739 L
1407.654 239.552 L
1408.381 238.374 L
1409.107 237.205 L
1409.833 236.045 L
1410.56 234.893 L
1411.286 233.75 L
1412.013 232.615 L
1412.739 231.489 L
1413.466 230.37 L
1414.192 229.259 L
1414.918 228.157 L
1415.645 227.062 L
1416.371 225.975 L
1417.098 224.896 L
1417.824 223.825 L
1418.551 222.761 L
1419.277 221.705 L
1420.003 220.657 L
1420.73 219.616 L
1421.456 218.583 L
1422.183 217.558 L
1422.909 216.54 L
1423.636 215.53 L
1424.362 214.528 L
1425.088 213.533 L
1425.815 212.547 L
1426.541 211.567 L
1427.268 210.596 L
1427.994 209.632 L
1428.721 208.676 L
1429.447 207.727 L
1430.173 206.787 L
1430.9 205.854 L
1431.626 204.929 L
1432.353 204.012 L
1433.079 203.103 L
1433.806 202.202 L
1434.532 201.308 L
1435.258 200.423 L
1435.985 199.545 L
1436.711 198.676 L
1437.438 197.814 L
1438.164 196.96 L
1438.891 196.114 L
1439.617 195.277 L
1440.343 194.447 L
1441.07 193.625 L
1441.796 192.811 L
1442.523 192.005 L
1443.249 191.207 L
1443.976 190.417 L
1444.702 189.634 L
1445.428 188.86 L
1446.155 188.094 L
1446.881 187.335 L
1447.608 186.585 L
1448.334 185.842 L
1449.061 185.107 L
1449.787 184.38 L
1450.513 183.66 L
1451.24 182.948 L
1451.966 182.244 L
1452.693 181.548 L
1453.419 180.859 L
1454.146 180.178 L
1454.872 179.504 L
1455.598 178.838 L
1456.325 178.18 L
1457.051 177.528 L
1457.778 176.884 L
1458.504 176.247 L
1459.231 175.618 L
1459.957 174.995 L
1460.683 174.38 L
1461.41 173.772 L
1462.136 173.17 L
1462.863 172.576 L
1463.589 171.988 L
1464.316 171.407 L
1465.042 170.833 L
1465.768 170.265 L
1466.495 169.704 L
1467.221 169.15 L
1467.948 168.601 L
1468.674 168.059 L
1469.401 167.523 L
1470.127 166.993 L
1470.853 166.469 L
1471.58 165.951 L
1472.306 165.439 L
1473.033 164.933 L
1473.759 164.432 L
1474.486 163.936 L
1475.212 163.446 L
1475.938 162.962 L
1476.665 162.482 L
1477.391 162.008 L
1478.118 161.538 L
1478.844 161.074 L
1479.571 160.614 L
1480.297 160.159 L
1481.023 159.708 L
1481.75 159.262 L
1482.476 158.82 L
1483.203 158.383 L
1483.929 157.949 L
1484.656 157.52 L
1485.382 157.094 L
1486.108 156.672 L
1486.835 156.254 L
1487.561 155.839 L
1488.288 155.428 L
1489.014 155.02 L
1489.741 154.615 L
1490.467 154.213 L
1491.193 153.814 L
1491.92 153.417 L
1492.646 153.024 L
1493.373 152.633 L
1494.099 152.244 L
1494.826 151.858 L
1495.552 151.474 L
1496.278 151.092 L
1497.005 150.712 L
1497.731 150.334 L
1498.458 149.958 L
1499.184 149.583 L
1499.911 149.21 L
1500.637 148.838 L
1501.363 148.468 L
1502.09 148.099 L
1502.816 147.731 L
1503.543 147.364 L
1504.269 146.997 L
1504.996 146.632 L
1505.722 146.268 L
1506.448 145.904 L
1507.175 145.541 L
1507.901 145.178 L
1508.628 144.815 L
1509.354 144.453 L
1510.081 144.091 L
1510.807 143.729 L
1511.533 143.368 L
1512.26 143.006 L
1512.986 142.644 L
1513.713 142.283 L
1514.439 141.921 L
1515.166 141.558 L
1515.892 141.196 L
1516.618 140.833 L
1517.345 140.47 L
1518.071 140.106 L
1518.798 139.742 L
1519.524 139.378 L
1520.251 139.013 L
1520.977 138.647 L
1521.703 138.281 L
1522.43 137.915 L
1523.156 137.548 L
1523.883 137.18 L
1524.609 136.811 L
1525.336 136.442 L
1526.062 136.073 L
1526.788 135.702 L
1527.515 135.332 L
1528.241 134.96 L
1528.968 134.588 L
1529.694 134.216 L
1530.421 133.843 L
1531.147 133.469 L
1531.873 133.095 L
1532.6 132.721 L
1533.326 132.346 L
1534.053 131.97 L
1534.779 131.595 L
1535.506 131.219 L
1536.232 130.843 L
1536.958 130.466 L
1537.685 130.09 L
1538.411 129.713 L
1539.138 129.337 L
1539.864 128.96 L
1540.591 128.583 L
1541.317 128.207 L
1542.043 127.83 L
1542.77 127.454 L
1543.496 127.079 L
1544.223 126.703 L
1544.949 126.328 L
1545.676 125.954 L
1546.402 125.58 L
1547.129 125.207 L
1547.855 124.834 L
1548.581 124.463 L
1549.308 124.092 L
1550.034 123.722 L
1550.761 123.353 L
1551.487 122.985 L
1552.214 122.619 L
1552.94 122.253 L
1553.666 121.889 L
1554.393 121.527 L
1555.119 121.165 L
1555.846 120.806 L
1556.572 120.448 L
1557.298 120.091 L
1558.025 119.736 L
1558.751 119.383 L
1559.478 119.032 L
1560.204 118.683 L
1560.931 118.336 L
1561.657 117.991 L
1562.384 117.649 L
1563.11 117.308 L
1563.836 116.97 L
1564.563 116.634 L
1565.289 116.3 L
1566.016 115.969 L
1566.742 115.64 L
1567.469 115.314 L
1568.195 114.991 L
1568.921 114.67 L
1569.648 114.353 L
1570.374 114.037 L
1571.101 113.725 L
1571.827 113.416 L
1572.553 113.11 L
1573.28 112.806 L
1574.006 112.506 L
1574.733 112.209 L
1575.459 111.915 L
1576.186 111.624 L
1576.912 111.336 L
1577.639 111.051 L
1578.365 110.77 L
1579.091 110.492 L
1579.818 110.218 L
1580.544 109.947 L
1581.271 109.679 L
1581.997 109.414 L
1582.724 109.153 L
1583.45 108.896 L
1584.176 108.642 L
1584.903 108.392 L
1585.629 108.145 L
1586.356 107.901 L
1587.082 107.662 L
1587.808 107.425 L
1588.535 107.193 L
1589.261 106.964 L
1589.988 106.738 L
1590.714 106.517 L
1591.441 106.298 L
1592.167 106.084 L
1592.894 105.873 L
1593.62 105.665 L
1594.346 105.462 L
1595.073 105.261 L
1595.799 105.065 L
1596.526 104.872 L
1597.252 104.683 L
1597.979 104.497 L
1598.705 104.314 L
1599.431 104.136 L
1600.158 103.961 L
1600.884 103.789 L
1601.611 103.621 L
1602.337 103.456 L
1603.063 103.295 L
1603.79 103.137 L
1604.516 102.983 L
1605.243 102.832 L
1605.969 102.685 L
1606.696 102.54 L
1607.422 102.399 L
1608.149 102.262 L
1608.875 102.127 L
1609.601 101.996 L
1610.328 101.868 L
1611.054 101.744 L
1611.781 101.622 L
1612.507 101.503 L
1613.234 101.388 L
1613.96 101.275 L
1614.686 101.166 L
1615.413 101.059 L
1616.139 100.955 L
1616.866 100.855 L
1617.592 100.757 L
1618.318 100.661 L
1619.045 100.569 L
1619.771 100.479 L
1620.498 100.392 L
1621.224 100.307 L
1621.951 100.225 L
1622.677 100.145 L
1623.404 100.068 L
1624.13 99.993 L
1624.856 99.921 L
1625.583 99.851 L
1626.309 99.783 L
1627.036 99.717 L
1627.762 99.654 L
1628.489 99.592 L
1629.215 99.533 L
1629.941 99.476 L
1630.668 99.42 L
1631.394 99.367 L
1632.121 99.315 L
1632.847 99.266 L
1633.573 99.218 L
1634.3 99.172 L
1635.026 99.127 L
1635.753 99.084 L
1636.479 99.043 L
1637.206 99.003 L
1637.932 98.965 L
1638.659 98.928 L
1639.385 98.892 L
1640.111 98.858 L
1640.838 98.825 L
1641.564 98.794 L
1642.291 98.763 L
1643.017 98.734 L
1643.744 98.706 L
1644.47 98.679 L
1645.196 98.653 L
1645.923 98.629 L
1646.649 98.605 L
1647.376 98.582 L
1648.102 98.56 L
1648.828 98.539 L
1649.555 98.519 L
1650.281 98.499 L
1651.008 98.481 L
1651.734 98.463 L
1652.461 98.446 L
1653.187 98.43 L
1653.914 98.414 L
1654.64 98.399 L
1655.366 98.385 L
1656.093 98.372 L
1656.819 98.359 L
1657.546 98.347 L
1658.272 98.335 L
1658.999 98.324 L
1659.725 98.313 L
1660.451 98.303 L
1661.178 98.294 L
1661.904 98.285 L
1662.631 98.277 L
1663.357 98.27 L
1664.083 98.263 L
1664.81 98.256 L
1665.536 98.25 L
1666.263 98.245 L
1666.989 98.24 L
1667.716 98.236 L
1668.442 98.233 L
1669.169 98.23 L
1669.895 98.227 L
1670.621 98.226 L
1671.348 98.225 L
1672.074 98.225 L
1672.801 98.225 L
1673.527 98.226 L
1674.254 98.228 L
1674.98 98.231 L
1675.706 98.235 L
1676.433 98.239 L
1677.159 98.244 L
1677.886 98.25 L
1678.612 98.257 L
1679.339 98.266 L
1680.065 98.275 L
1680.791 98.285 L
1681.518 98.296 L
1682.244 98.308 L
1682.971 98.321 L
1683.697 98.336 L
1684.424 98.352 L
1685.15 98.369 L
1685.876 98.387 L
1686.603 98.407 L
1687.329 98.428 L
1688.056 98.45 L
1688.782 98.474 L
1689.509 98.5 L
1690.235 98.527 L
1690.961 98.555 L
1691.688 98.586 L
1692.414 98.618 L
1693.141 98.651 L
1693.867 98.687 L
1694.594 98.724 L
1695.32 98.763 L
1696.046 98.805 L
1696.773 98.848 L
1697.499 98.893 L
1698.226 98.94 L
1698.952 98.99 L
1699.679 99.041 L
1700.405 99.095 L
1701.131 99.151 L
1701.858 99.209 L
1702.584 99.27 L
1703.311 99.333 L
1704.037 99.398 L
1704.764 99.466 L
1705.49 99.537 L
1706.216 99.61 L
1706.943 99.685 L
1707.669 99.764 L
1708.396 99.845 L
1709.122 99.928 L
1709.849 100.015 L
1710.575 100.104 L
1711.301 100.196 L
1712.028 100.291 L
1712.754 100.389 L
1713.481 100.489 L
1714.207 100.593 L
1714.934 100.7 L
1715.66 100.809 L
1716.386 100.922 L
1717.113 101.038 L
1717.839 101.157 L
1718.566 101.279 L
1719.292 101.404 L
1720.019 101.533 L
1720.745 101.664 L
1721.471 101.799 L
1722.198 101.937 L
1722.924 102.079 L
1723.651 102.223 L
1724.377 102.371 L
1725.104 102.522 L
1725.83 102.677 L
1726.556 102.834 L
1727.283 102.995 L
1728.009 103.16 L
1728.736 103.328 L
1729.462 103.499 L
1730.189 103.673 L
1730.915 103.851 L
1731.641 104.032 L
1732.368 104.216 L
1733.094 104.404 L
1733.821 104.595 L
1734.547 104.79 L
1735.274 104.987 L
1736 105.188 L
S
GR
%%Trailer
%%Pages: 1
%%EOF
