<?xml version="1.0"?>
<!DOCTYPE svg PUBLIC '-//W3C//DTD SVG 1.0//EN'
          'http://www.w3.org/TR/2001/REC-SVG-20010904/DTD/svg10.dtd'>
<svg xmlns:xlink="http://www.w3.org/1999/xlink" style="fill-opacity:1; color-rendering:auto; color-interpolation:auto; stroke:black; text-rendering:auto; stroke-linecap:square; stroke-miterlimit:10; stroke-opacity:1; shape-rendering:auto; fill:black; stroke-dasharray:none; font-weight:normal; stroke-width:1; font-family:'Dialog'; font-style:normal; stroke-linejoin:miter; font-size:12px; stroke-dashoffset:0; image-rendering:auto;" width="830" height="617" xmlns="http://www.w3.org/2000/svg"
><!--Generated by the Batik Graphics2D SVG Generator--><defs id="genericDefs"
  /><g
  ><defs id="defs1"
    ><clipPath clipPathUnits="userSpaceOnUse" id="clipPath1"
      ><path d="M0 0 L830 0 L830 617 L0 617 L0 0 Z"
      /></clipPath
      ><font horiz-adv-x="36.523438" id="font1"
      ><font-face ascent="91.23535" descent="19.506836" units-per-em="100" style="font-style:normal; font-family:Liberation Serif; font-weight:normal;"
        /><missing-glyph horiz-adv-x="36.523438" d="M3.3281 0 L3.3281 66.6562 L29.8906 66.6562 L29.8906 0 L3.3281 0 ZM6.6406 3.3281 L26.5625 3.3281 L26.5625 63.3281 L6.6406 63.3281 L6.6406 3.3281 Z"
        /><glyph unicode="0" horiz-adv-x="50.0" d="M47.4688 33.0156 Q46 24.8125 43.6797 18.4609 Q41.3594 12.1094 38.0391 7.7891 Q34.7188 3.4688 30.3516 1.2422 Q25.9844 -0.9844 20.4531 -0.9844 Q12.3594 -0.9844 8.1094 4.0703 Q3.8594 9.125 3.8594 19.4844 Q3.8594 22.3594 4.1484 25.8516 Q4.4375 29.3438 5.0781 33.0156 Q6.5469 41.1094 8.8906 47.3594 Q11.2344 53.6094 14.5547 57.8594 Q17.875 62.1094 22.1719 64.3047 Q26.4688 66.5 31.8438 66.5 Q39.9375 66.5 44.3359 61.6172 Q48.7344 56.7344 48.7344 46.4375 Q48.7344 43.6094 48.4141 40.0703 Q48.0938 36.5312 47.4688 33.0156 ZM38.5781 31.9375 Q38.9688 34.2812 39.2812 36.6016 Q39.5938 38.9219 39.7891 41.0703 Q39.9844 43.2188 40.0859 45.0938 Q40.1875 46.9688 40.1875 48.4375 Q40.1875 51.7656 39.6484 54.3984 Q39.1094 57.0312 37.9609 58.8594 Q36.8125 60.6875 35.0781 61.6406 Q33.3438 62.5938 30.9531 62.5938 Q27.3438 62.5938 24.6562 60.6172 Q21.9688 58.6406 19.9219 54.8828 Q17.875 51.125 16.3359 45.6094 Q14.7969 40.0938 13.5781 33.0625 Q12.7031 28.0312 12.4297 24.1719 Q12.1562 20.3125 12.1562 16.8438 Q12.1562 13.7188 12.6719 11.1328 Q13.1875 8.5469 14.2812 6.7188 Q15.375 4.8906 17.0391 3.8828 Q18.7031 2.875 21.0469 2.875 Q24.6094 2.875 27.3438 4.7812 Q30.0781 6.6875 32.1562 10.375 Q34.2344 14.0625 35.7734 19.4844 Q37.3125 24.9062 38.5781 31.9375 Z"
        /><glyph unicode="5" horiz-adv-x="50.0" d="M23.9219 38.2812 Q29.1094 38.2812 32.9141 37.1797 Q36.7188 36.0781 39.2344 33.9844 Q41.75 31.8906 42.9922 28.9062 Q44.2344 25.9219 44.2344 22.1719 Q44.2344 16.6562 42.5 12.3594 Q40.7656 8.0625 37.375 5.0781 Q33.9844 2.0938 28.9766 0.5547 Q23.9688 -0.9844 17.3906 -0.9844 Q12.5469 -0.9844 8.5938 -0.3672 Q4.6406 0.25 1.5625 1.125 L3.4219 14.8906 L6.6406 14.8906 L7.2344 5.7188 Q8.0156 5.2188 9.2578 4.7344 Q10.5 4.25 11.9609 3.8828 Q13.4219 3.5156 15.0156 3.2969 Q16.6094 3.0781 18.0625 3.0781 Q22.9062 3.0781 26.2031 4.4453 Q29.5 5.8125 31.5234 8.25 Q33.5469 10.6875 34.4219 14.1328 Q35.2969 17.5781 35.2969 21.7344 Q35.2969 24.2656 34.7109 26.5391 Q34.125 28.8125 32.6641 30.5234 Q31.2031 32.2344 28.7578 33.2109 Q26.3125 34.1875 22.6094 34.1875 Q19.7344 34.1875 17.0234 33.7969 Q14.3125 33.4062 12.7969 33.0156 L8.1094 33.0156 L13.8125 65.4844 L47.0156 65.4844 L45.7031 58.0156 L16.8906 58.0156 L13.2344 37.1094 Q14.1562 37.3125 15.1562 37.5078 Q16.1562 37.7031 17.4062 37.8672 Q18.6562 38.0312 20.2188 38.1562 Q21.7812 38.2812 23.9219 38.2812 Z"
        /><glyph unicode="." horiz-adv-x="25.0" d="M15.9688 4.5 Q15.9688 3.2656 15.5078 2.1953 Q15.0469 1.125 14.2656 0.3203 Q13.4844 -0.4844 12.3828 -0.9531 Q11.2812 -1.4219 10.0625 -1.4219 Q8.7969 -1.4219 7.7188 -0.9531 Q6.6406 -0.4844 5.8594 0.3203 Q5.0781 1.125 4.6172 2.1953 Q4.1562 3.2656 4.1562 4.5 Q4.1562 5.7188 4.6172 6.8125 Q5.0781 7.9062 5.8594 8.6875 Q6.6406 9.4688 7.7188 9.9375 Q8.7969 10.4062 10.0625 10.4062 Q11.2812 10.4062 12.3828 9.9375 Q13.4844 9.4688 14.2656 8.6875 Q15.0469 7.9062 15.5078 6.8125 Q15.9688 5.7188 15.9688 4.5 Z"
        /><glyph unicode="1" horiz-adv-x="50.0" d="M26.0781 3.9062 L39.2656 2.5938 L38.7656 0 L3.5625 0 L4.0469 2.5938 L17.6719 3.9062 L27.0938 57.3281 L13.0312 52.5938 L13.5312 55.1719 L34.5156 66.0156 L37.0625 66.0156 L26.0781 3.9062 Z"
        /><glyph unicode="2" horiz-adv-x="50.0" d="M40.0938 0 L0.0469 0 L1.3125 7.1719 Q6.7344 11.2344 11.6719 14.7266 Q16.6094 18.2188 20.8281 21.5156 Q25.0469 24.8125 28.4688 28.1016 Q31.8906 31.3906 34.3047 35.0547 Q36.7188 38.7188 38.0391 42.8672 Q39.3594 47.0156 39.3594 52.0938 Q39.3594 57.3281 36.5234 59.7188 Q33.6875 62.1094 28.2188 62.1094 Q26.7656 62.1094 25.2734 61.8906 Q23.7812 61.6719 22.3906 61.3047 Q21 60.9375 19.7812 60.4766 Q18.5625 60.0156 17.625 59.5156 L14.5 51.5156 L11.2812 51.5156 L13.4844 64.1094 Q17.3906 64.9844 21.0703 65.6016 Q24.75 66.2188 28.9531 66.2188 Q33.6875 66.2188 37.2266 65.2109 Q40.7656 64.2031 43.1094 62.3516 Q45.4531 60.5 46.625 57.9141 Q47.7969 55.3281 47.7969 52.0938 Q47.7969 47.4062 46.3359 43.3828 Q44.875 39.3594 42.2656 35.6953 Q39.6562 32.0312 35.9922 28.6406 Q32.3281 25.25 27.9062 21.8516 Q23.4844 18.4531 18.4531 14.9375 Q13.4219 11.4219 8.1094 7.5156 L41.4062 7.5156 L40.0938 0 Z"
        /><glyph unicode="3" horiz-adv-x="50.0" d="M17.4375 -0.9844 Q15.0469 -0.9844 12.5781 -0.7344 Q10.1094 -0.4844 7.7891 -0.0703 Q5.4688 0.3438 3.4453 0.8828 Q1.4219 1.4219 -0.1406 2 L1.6562 15.7656 L4.8906 15.7656 L5.4688 6.5938 Q6.3438 5.9062 7.7656 5.2969 Q9.1875 4.6875 10.8438 4.1719 Q12.5 3.6562 14.2344 3.3672 Q15.9688 3.0781 17.4375 3.0781 Q22.1719 3.0781 25.4922 4.0781 Q28.8125 5.0781 30.9141 7.0547 Q33.0156 9.0312 33.9922 12.0078 Q34.9688 14.9844 34.9688 19 Q34.9688 25.0469 31.6172 28.1719 Q28.2656 31.2969 21.8281 31.7812 L16.2188 32.1719 L16.8906 36.1875 L23.9688 36.625 Q27.7344 36.8594 30.3203 37.9844 Q32.9062 39.1094 34.4922 41.0156 Q36.0781 42.9219 36.7656 45.5312 Q37.4531 48.1406 37.4531 51.3125 Q37.4531 56.6875 34.9141 59.3984 Q32.375 62.1094 26.9531 62.1094 Q25.4844 62.1094 24.0234 61.8906 Q22.5625 61.6719 21.1953 61.3047 Q19.8281 60.9375 18.6094 60.4766 Q17.3906 60.0156 16.4531 59.5156 L13.3281 51.5156 L10.1094 51.5156 L12.3125 64.1094 Q13.9688 64.5469 15.6016 64.9375 Q17.2344 65.3281 19.0156 65.625 Q20.7969 65.9219 22.8281 66.0703 Q24.8594 66.2188 27.2969 66.2188 Q31.9375 66.2188 35.5234 65.2109 Q39.1094 64.2031 41.5547 62.375 Q44 60.5469 45.2656 57.9141 Q46.5312 55.2812 46.5312 52 Q46.5312 44.7344 42.2578 40.1406 Q37.9844 35.5469 29.0469 34.2812 Q32.4219 33.7969 35.1562 32.625 Q37.8906 31.4531 39.8203 29.6172 Q41.75 27.7812 42.7734 25.3438 Q43.7969 22.9062 43.7969 19.9219 Q43.7969 14.75 41.7734 10.8438 Q39.75 6.9375 36.1875 4.2969 Q32.625 1.6562 27.8125 0.3359 Q23 -0.9844 17.4375 -0.9844 Z"
        /><glyph unicode=")" horiz-adv-x="33.30078" d="M-4.7344 -21.2969 L-4 -17.1875 Q2.0469 -14.0156 6.0547 -9.4766 Q10.0625 -4.9375 12.6719 0.4609 Q15.2812 5.8594 16.8203 11.8906 Q18.3594 17.9219 19.4844 24.125 Q20.3125 28.6562 20.8516 33.0781 Q21.3906 37.5 21.3906 41.7031 Q21.3906 45.3594 20.8516 48.7266 Q20.3125 52.0938 19.0703 55.1016 Q17.8281 58.1094 15.7031 60.6953 Q13.5781 63.2812 10.4531 65.2812 L11.1875 69.3906 Q15.875 66.6094 19.4375 63.5078 Q23 60.4062 25.3906 56.6172 Q27.7812 52.8281 29 48.1953 Q30.2188 43.5625 30.2188 37.7031 Q30.2188 31.7344 28.9062 24.125 Q27.2969 14.8906 24.4922 7.9609 Q21.6875 1.0312 17.5547 -4.3203 Q13.4219 -9.6719 7.8828 -13.75 Q2.3438 -17.8281 -4.7344 -21.2969 Z"
        /><glyph unicode="z" horiz-adv-x="38.916016" d="M-1.125 0 L-0.6875 2.2031 L26.8594 42 L19.5781 42 Q18.2656 42 16.875 41.875 Q15.4844 41.75 14.2578 41.5312 Q13.0312 41.3125 12.0547 40.9922 Q11.0781 40.6719 10.5 40.2812 L7.8125 33.6875 L5.5156 33.6875 L7.7188 45.9062 L37.5938 45.9062 L37.2031 43.5 L9.7656 3.9062 L19.3906 3.9062 Q22.125 3.9062 24.7109 4.5156 Q27.2969 5.125 29 6.2031 L32.7188 13.375 L35.0156 13.375 L31.5 0 L-1.125 0 Z"
        /><glyph unicode="H" horiz-adv-x="72.2168" d="M-1.0781 0 L-0.6875 2.5938 L7.9062 3.9062 L18.0156 61.625 L9.9062 62.8906 L10.2969 65.4844 L36.5312 65.4844 L36.1406 62.8906 L27.3906 61.625 L22.9062 35.8906 L53.7188 35.8906 L58.2031 61.625 L50.0938 62.8906 L50.4844 65.4844 L76.7031 65.4844 L76.3125 62.8906 L67.625 61.625 L57.5156 3.9062 L65.625 2.5938 L65.1875 0 L39.0156 0 L39.4062 2.5938 L48.0938 3.9062 L52.9375 31.5 L22.125 31.5 L17.2812 3.9062 L25.3906 2.5938 L25 0 L-1.0781 0 Z"
        /><glyph unicode="(" horiz-adv-x="33.30078" d="M12.25 6.3906 Q12.25 2.7344 12.7891 -0.6328 Q13.3281 -4 14.6016 -7.0078 Q15.875 -10.0156 17.9688 -12.6016 Q20.0625 -15.1875 23.1875 -17.1875 L22.4688 -21.2969 Q17.7812 -18.5625 14.2344 -15.4375 Q10.6875 -12.3125 8.3203 -8.5 Q5.9531 -4.6875 4.7344 -0.0469 Q3.5156 4.5938 3.5156 10.4062 Q3.5156 13.625 3.8125 16.9688 Q4.1094 20.3125 4.7812 24.125 Q6.3906 33.3438 9.1797 40.2578 Q11.9688 47.1719 16.0938 52.4922 Q20.2188 57.8125 25.7578 61.8672 Q31.2969 65.9219 38.4219 69.3906 L37.7031 65.2812 Q31.6406 62.1094 27.6094 57.5938 Q23.5781 53.0781 20.9688 47.6797 Q18.3594 42.2812 16.8203 36.2812 Q15.2812 30.2812 14.2031 24.125 Q13.375 19.5312 12.8125 15.0859 Q12.25 10.6406 12.25 6.3906 Z"
        /><glyph unicode=" " horiz-adv-x="25.0" d=""
        /><glyph unicode="f" horiz-adv-x="27.783203" d="M9.2344 -21.2969 L1.125 -21.2969 L12.1094 41.7969 L4.2031 41.7969 L4.5938 44.1875 L12.8906 46.0938 L13.4844 49.3125 Q15.4375 60.2031 20.0469 65.3047 Q24.6562 70.4062 32.5156 70.4062 Q34.7188 70.4062 36.375 70.1406 Q38.0312 69.875 39.3125 69.4844 L37.5938 59.9062 L35.2031 59.9062 L34.2812 65.4844 Q32.8594 66.5 30.1719 66.5 Q28.4688 66.5 27.2734 65.7422 Q26.0781 64.9844 25.1719 63.3984 Q24.2656 61.8125 23.6094 59.375 Q22.9531 56.9375 22.3125 53.5156 L20.9062 45.9062 L31.1094 45.9062 L30.4219 41.7969 L20.2188 41.7969 L9.2344 -21.2969 Z"
        /><glyph unicode="7" horiz-adv-x="50.0" d="M13.375 50 L10.1562 50 L12.8906 65.4844 L53.4219 65.4844 L52.7344 61.7188 L12.6406 0 L5.8594 0 L44.7812 58.0156 L16.5 58.0156 L13.375 50 Z"
        /><glyph unicode="4" horiz-adv-x="50.0" d="M36.8125 15.0469 L34.125 0 L26.2188 0 L28.9062 15.0469 L0.25 15.0469 L1.2188 20.9062 L37.8906 65.8281 L45.7031 65.8281 L37.8906 21.3906 L47.75 21.3906 L46.6875 15.0469 L36.8125 15.0469 ZM34.625 47.7969 Q34.8594 49.0781 35.2031 50.7344 Q35.5469 52.3906 35.8906 53.9531 Q36.2812 55.7656 36.7188 57.625 L7.2812 21.3906 L29.9844 21.3906 L34.625 47.7969 Z"
        /><glyph unicode="-" horiz-adv-x="33.30078" d="M3.7188 19.8281 L3.7188 27.2969 L29.6875 27.2969 L29.6875 19.8281 L3.7188 19.8281 Z"
        /><glyph unicode="|" horiz-adv-x="27.490234" d="M13.0312 -21.5781 L13.0312 69.3906 L18.0156 69.3906 L18.0156 -21.5781 L13.0312 -21.5781 Z"
        /><glyph unicode="B" horiz-adv-x="61.083984" d="M31.2031 36.8125 Q36.1875 36.8125 39.5547 37.6484 Q42.9219 38.4844 44.9688 40.2109 Q47.0156 41.9375 47.875 44.6484 Q48.7344 47.3594 48.7344 51.125 Q48.7344 56.2031 45.5625 58.6406 Q42.3906 61.0781 35.1094 61.0781 L27.3906 61.0781 L23.0938 36.8125 L31.2031 36.8125 ZM30.0312 4.1094 Q35.3594 4.1094 38.875 5.2031 Q42.3906 6.2969 44.4609 8.3516 Q46.5312 10.4062 47.3594 13.3125 Q48.1875 16.2188 48.1875 19.8281 Q48.1875 26.4688 43.8672 29.4453 Q39.5469 32.4219 31.3906 32.4219 L22.3125 32.4219 L17.4375 4.3906 Q19.9219 4.2969 22.2656 4.25 Q24.2656 4.1562 26.4141 4.1328 Q28.5625 4.1094 30.0312 4.1094 ZM0.9219 0 L1.4219 2.5938 L7.9062 3.9062 L18.1094 61.625 L9.9062 62.8906 L10.4062 65.4844 L37.3125 65.4844 Q43.3125 65.4844 47.4375 64.4844 Q51.5625 63.4844 54.1016 61.6484 Q56.6406 59.8125 57.7656 57.2734 Q58.8906 54.7344 58.8906 51.7031 Q58.8906 48 57.6719 45.0938 Q56.4531 42.1875 54.3047 40.0625 Q52.1562 37.9375 49.125 36.6172 Q46.0938 35.2969 42.5312 34.8125 Q45.9062 34.5156 48.8047 33.4922 Q51.7031 32.4688 53.8281 30.6641 Q55.9531 28.8594 57.1797 26.2188 Q58.4062 23.5781 58.4062 20.0156 Q58.4062 9.5156 51.2969 4.6094 Q44.1875 -0.2969 30.0312 -0.2969 Q27.2969 -0.2969 24.8828 -0.25 Q22.4688 -0.2031 20.2188 -0.1484 Q17.9688 -0.0938 15.7969 -0.0469 Q13.625 0 11.3281 0 L0.9219 0 Z"
        /><glyph unicode="d" horiz-adv-x="50.0" d="M38.2344 45.9531 Q38.2812 46.5312 38.4297 47.6328 Q38.5781 48.7344 38.7734 49.9297 Q38.9688 51.125 39.1406 52.25 Q39.3125 53.375 39.4531 54.1094 L41.5469 66.0156 L34.0312 67.1875 L34.4219 69.3906 L50.25 69.3906 L38.5312 3.4219 L44.0469 2.2031 L43.6562 0 L29.7344 0 L31.1562 7.625 Q27.0469 3.3281 23.2891 1.1484 Q19.5312 -1.0312 16.0625 -1.0312 Q13.1406 -1.0312 10.7422 0.0938 Q8.3438 1.2188 6.6406 3.3438 Q4.9375 5.4688 3.9844 8.5469 Q3.0312 11.625 3.0312 15.4844 Q3.0312 19.6719 3.9609 23.6562 Q4.8906 27.6406 6.5938 31.1562 Q8.2969 34.6719 10.7188 37.5781 Q13.1406 40.4844 16.1641 42.6094 Q19.1875 44.7344 22.7266 45.9062 Q26.2656 47.0781 30.1719 47.0781 Q32.625 47.0781 34.6016 46.7812 Q36.5781 46.4844 38.2344 45.9531 ZM37.1094 40.875 Q35.4062 42 33.5938 42.6328 Q31.7812 43.2656 29.2031 43.2656 Q26.5625 43.2656 24.2656 42.1406 Q21.9688 41.0156 20.0156 39.0859 Q18.0625 37.1562 16.5234 34.5703 Q14.9844 31.9844 13.9141 29.0078 Q12.8438 26.0312 12.2812 22.8516 Q11.7188 19.6719 11.7188 16.5469 Q11.7188 13.4844 12.4062 11.3047 Q13.0938 9.125 14.1875 7.7344 Q15.2812 6.3438 16.7266 5.7109 Q18.1719 5.0781 19.6719 5.0781 Q22.4062 5.0781 25.6094 6.8594 Q28.8125 8.6406 31.7812 11.8594 L37.1094 40.875 Z"
      /></font
      ><font horiz-adv-x="75.0" id="font2"
      ><font-face ascent="65.42969" descent="22.558594" units-per-em="100" style="font-style:normal; font-family:mwb_cmsy10; font-weight:normal;"
        /><missing-glyph horiz-adv-x="75.0" d="M12.5 0 L12.5 62.5 L62.5 62.5 L62.5 0 L12.5 0 ZM60.8906 1.6094 L60.8906 60.8906 L14.1094 60.8906 L14.1094 1.6094 L60.8906 1.6094 Z"
        /><glyph unicode="#" horiz-adv-x="77.68555" d="M14.7031 2.875 Q14.7031 3.6562 15.1875 4.2969 L35.9844 25 L15.1875 45.7969 Q14.7031 46.2969 14.7031 47.125 Q14.7031 47.8594 15.2891 48.4922 Q15.875 49.125 16.7031 49.125 Q17.3906 49.125 18.2188 48.4844 L38.9219 27.7812 L59.5156 48.4844 Q60.3594 49.125 60.9844 49.125 Q61.8125 49.125 62.3984 48.5391 Q62.9844 47.9531 62.9844 47.125 Q62.9844 46.2969 62.5 45.7969 L41.7031 25 L62.5 4.2969 Q62.9844 3.6562 62.9844 2.875 Q62.9844 2.0469 62.3984 1.4609 Q61.8125 0.875 60.9844 0.875 Q60.25 0.875 59.5156 1.6094 L38.9219 22.2188 L18.2188 1.6094 Q17.4844 0.875 16.7031 0.875 Q15.875 0.875 15.2891 1.5156 Q14.7031 2.1562 14.7031 2.875 Z"
      /></font
    ></defs
    ><g style="fill:white; stroke:white;"
    ><rect x="0" y="0" width="830" style="clip-path:url(#clipPath1); stroke:none;" height="617"
    /></g
    ><g style="fill:white; text-rendering:optimizeSpeed; color-rendering:optimizeSpeed; image-rendering:optimizeSpeed; shape-rendering:crispEdges; color-interpolation:sRGB; stroke:white;"
    ><rect x="0" width="830" height="617" y="0" style="stroke:none;"
      /><path style="stroke:none;" d="M108 549 L751 549 L751 46 L108 46 Z"
    /></g
    ><g style="stroke-linecap:butt; fill-opacity:0.149; fill:rgb(38,38,38); text-rendering:geometricPrecision; color-rendering:optimizeQuality; image-rendering:optimizeQuality; stroke-linejoin:round; color-interpolation:linearRGB; stroke:rgb(38,38,38); stroke-width:0.6667; stroke-opacity:0.149;"
    ><line y2="46" style="fill:none;" x1="108" x2="108" y1="549"
      /><line y2="46" style="fill:none;" x1="212.7061" x2="212.7061" y1="549"
      /><line y2="46" style="fill:none;" x1="317.4121" x2="317.4121" y1="549"
      /><line y2="46" style="fill:none;" x1="422.1182" x2="422.1182" y1="549"
      /><line y2="46" style="fill:none;" x1="526.8243" x2="526.8243" y1="549"
      /><line y2="46" style="fill:none;" x1="631.5304" x2="631.5304" y1="549"
      /><line y2="46" style="fill:none;" x1="736.2365" x2="736.2365" y1="549"
      /><line y2="549" style="fill:none;" x1="751" x2="108" y1="549"
      /><line y2="498.7" style="fill:none;" x1="751" x2="108" y1="498.7"
      /><line y2="448.4" style="fill:none;" x1="751" x2="108" y1="448.4"
      /><line y2="398.1" style="fill:none;" x1="751" x2="108" y1="398.1"
      /><line y2="347.8" style="fill:none;" x1="751" x2="108" y1="347.8"
      /><line y2="297.5" style="fill:none;" x1="751" x2="108" y1="297.5"
      /><line y2="247.2" style="fill:none;" x1="751" x2="108" y1="247.2"
      /><line y2="196.9" style="fill:none;" x1="751" x2="108" y1="196.9"
      /><line y2="146.6" style="fill:none;" x1="751" x2="108" y1="146.6"
      /><line y2="96.3" style="fill:none;" x1="751" x2="108" y1="96.3"
      /><line y2="46" style="fill:none;" x1="751" x2="108" y1="46"
      /><line x1="108" x2="751" y1="549" style="stroke-linecap:square; fill-opacity:1; fill:none; stroke-opacity:1;" y2="549"
      /><line x1="108" x2="751" y1="46" style="stroke-linecap:square; fill-opacity:1; fill:none; stroke-opacity:1;" y2="46"
      /><line x1="108" x2="108" y1="549" style="stroke-linecap:square; fill-opacity:1; fill:none; stroke-opacity:1;" y2="542.57"
      /><line x1="212.7061" x2="212.7061" y1="549" style="stroke-linecap:square; fill-opacity:1; fill:none; stroke-opacity:1;" y2="542.57"
      /><line x1="317.4121" x2="317.4121" y1="549" style="stroke-linecap:square; fill-opacity:1; fill:none; stroke-opacity:1;" y2="542.57"
      /><line x1="422.1182" x2="422.1182" y1="549" style="stroke-linecap:square; fill-opacity:1; fill:none; stroke-opacity:1;" y2="542.57"
      /><line x1="526.8243" x2="526.8243" y1="549" style="stroke-linecap:square; fill-opacity:1; fill:none; stroke-opacity:1;" y2="542.57"
      /><line x1="631.5304" x2="631.5304" y1="549" style="stroke-linecap:square; fill-opacity:1; fill:none; stroke-opacity:1;" y2="542.57"
      /><line x1="736.2365" x2="736.2365" y1="549" style="stroke-linecap:square; fill-opacity:1; fill:none; stroke-opacity:1;" y2="542.57"
      /><line x1="108" x2="108" y1="46" style="stroke-linecap:square; fill-opacity:1; fill:none; stroke-opacity:1;" y2="52.43"
      /><line x1="212.7061" x2="212.7061" y1="46" style="stroke-linecap:square; fill-opacity:1; fill:none; stroke-opacity:1;" y2="52.43"
      /><line x1="317.4121" x2="317.4121" y1="46" style="stroke-linecap:square; fill-opacity:1; fill:none; stroke-opacity:1;" y2="52.43"
      /><line x1="422.1182" x2="422.1182" y1="46" style="stroke-linecap:square; fill-opacity:1; fill:none; stroke-opacity:1;" y2="52.43"
      /><line x1="526.8243" x2="526.8243" y1="46" style="stroke-linecap:square; fill-opacity:1; fill:none; stroke-opacity:1;" y2="52.43"
      /><line x1="631.5304" x2="631.5304" y1="46" style="stroke-linecap:square; fill-opacity:1; fill:none; stroke-opacity:1;" y2="52.43"
      /><line x1="736.2365" x2="736.2365" y1="46" style="stroke-linecap:square; fill-opacity:1; fill:none; stroke-opacity:1;" y2="52.43"
    /></g
    ><g transform="translate(108,555.9333)" style="font-size:21px; fill:rgb(38,38,38); text-rendering:geometricPrecision; color-rendering:optimizeQuality; image-rendering:optimizeQuality; font-family:'Liberation Serif'; color-interpolation:linearRGB; stroke:rgb(38,38,38);"
    ><text x="-5.5" xml:space="preserve" y="20" style="stroke:none;"
      >0</text
    ></g
    ><g transform="translate(212.7061,555.9333)" style="font-size:21px; fill:rgb(38,38,38); text-rendering:geometricPrecision; color-rendering:optimizeQuality; image-rendering:optimizeQuality; font-family:'Liberation Serif'; color-interpolation:linearRGB; stroke:rgb(38,38,38);"
    ><text x="-13.5" xml:space="preserve" y="20" style="stroke:none;"
      >0.5</text
    ></g
    ><g transform="translate(317.4121,555.9333)" style="font-size:21px; fill:rgb(38,38,38); text-rendering:geometricPrecision; color-rendering:optimizeQuality; image-rendering:optimizeQuality; font-family:'Liberation Serif'; color-interpolation:linearRGB; stroke:rgb(38,38,38);"
    ><text x="-5.5" xml:space="preserve" y="20" style="stroke:none;"
      >1</text
    ></g
    ><g transform="translate(422.1182,555.9333)" style="font-size:21px; fill:rgb(38,38,38); text-rendering:geometricPrecision; color-rendering:optimizeQuality; image-rendering:optimizeQuality; font-family:'Liberation Serif'; color-interpolation:linearRGB; stroke:rgb(38,38,38);"
    ><text x="-13.5" xml:space="preserve" y="20" style="stroke:none;"
      >1.5</text
    ></g
    ><g transform="translate(526.8243,555.9333)" style="font-size:21px; fill:rgb(38,38,38); text-rendering:geometricPrecision; color-rendering:optimizeQuality; image-rendering:optimizeQuality; font-family:'Liberation Serif'; color-interpolation:linearRGB; stroke:rgb(38,38,38);"
    ><text x="-5.5" xml:space="preserve" y="20" style="stroke:none;"
      >2</text
    ></g
    ><g transform="translate(631.5304,555.9333)" style="font-size:21px; fill:rgb(38,38,38); text-rendering:geometricPrecision; color-rendering:optimizeQuality; image-rendering:optimizeQuality; font-family:'Liberation Serif'; color-interpolation:linearRGB; stroke:rgb(38,38,38);"
    ><text x="-13.5" xml:space="preserve" y="20" style="stroke:none;"
      >2.5</text
    ></g
    ><g transform="translate(736.2365,555.9333)" style="font-size:21px; fill:rgb(38,38,38); text-rendering:geometricPrecision; color-rendering:optimizeQuality; image-rendering:optimizeQuality; font-family:'Liberation Serif'; color-interpolation:linearRGB; stroke:rgb(38,38,38);"
    ><text x="-5.5" xml:space="preserve" y="20" style="stroke:none;"
      >3</text
    ></g
    ><g transform="translate(429.5003,582.2667)" style="font-size:23px; fill:rgb(38,38,38); text-rendering:geometricPrecision; color-rendering:optimizeQuality; image-rendering:optimizeQuality; font-family:'Liberation Serif'; color-interpolation:linearRGB; stroke:rgb(38,38,38);"
    ><text x="-27" xml:space="preserve" y="21" style="stroke:none;"
      >f (Hz)</text
    ></g
    ><g transform="translate(704,608)" style="font-size:21px; fill:rgb(38,38,38); text-rendering:geometricPrecision; color-rendering:optimizeQuality; image-rendering:optimizeQuality; font-family:'mwb_cmsy10'; color-interpolation:linearRGB; stroke:rgb(38,38,38);"
    ><text x="0" xml:space="preserve" y="0" style="stroke:none;"
      >#</text
    ></g
    ><g transform="translate(721,608)" style="font-size:21px; fill:rgb(38,38,38); text-rendering:geometricPrecision; color-rendering:optimizeQuality; image-rendering:optimizeQuality; font-family:'Liberation Serif'; color-interpolation:linearRGB; stroke:rgb(38,38,38);"
    ><text x="0" xml:space="preserve" y="0" style="stroke:none;"
      >10</text
    ></g
    ><g transform="translate(742,598)" style="font-size:17px; fill:rgb(38,38,38); text-rendering:geometricPrecision; color-rendering:optimizeQuality; image-rendering:optimizeQuality; font-family:'Liberation Serif'; color-interpolation:linearRGB; stroke:rgb(38,38,38);"
    ><text x="0" xml:space="preserve" y="0" style="stroke:none;"
      >7</text
    ></g
    ><g style="fill:rgb(38,38,38); text-rendering:geometricPrecision; color-rendering:optimizeQuality; image-rendering:optimizeQuality; stroke-linejoin:round; color-interpolation:linearRGB; stroke:rgb(38,38,38); stroke-width:0.6667;"
    ><line y2="46" style="fill:none;" x1="108" x2="108" y1="549"
      /><line y2="46" style="fill:none;" x1="751" x2="751" y1="549"
      /><line y2="549" style="fill:none;" x1="108" x2="114.43" y1="549"
      /><line y2="498.7" style="fill:none;" x1="108" x2="114.43" y1="498.7"
      /><line y2="448.4" style="fill:none;" x1="108" x2="114.43" y1="448.4"
      /><line y2="398.1" style="fill:none;" x1="108" x2="114.43" y1="398.1"
      /><line y2="347.8" style="fill:none;" x1="108" x2="114.43" y1="347.8"
      /><line y2="297.5" style="fill:none;" x1="108" x2="114.43" y1="297.5"
      /><line y2="247.2" style="fill:none;" x1="108" x2="114.43" y1="247.2"
      /><line y2="196.9" style="fill:none;" x1="108" x2="114.43" y1="196.9"
      /><line y2="146.6" style="fill:none;" x1="108" x2="114.43" y1="146.6"
      /><line y2="96.3" style="fill:none;" x1="108" x2="114.43" y1="96.3"
      /><line y2="46" style="fill:none;" x1="108" x2="114.43" y1="46"
      /><line y2="549" style="fill:none;" x1="751" x2="744.57" y1="549"
      /><line y2="498.7" style="fill:none;" x1="751" x2="744.57" y1="498.7"
      /><line y2="448.4" style="fill:none;" x1="751" x2="744.57" y1="448.4"
      /><line y2="398.1" style="fill:none;" x1="751" x2="744.57" y1="398.1"
      /><line y2="347.8" style="fill:none;" x1="751" x2="744.57" y1="347.8"
      /><line y2="297.5" style="fill:none;" x1="751" x2="744.57" y1="297.5"
      /><line y2="247.2" style="fill:none;" x1="751" x2="744.57" y1="247.2"
      /><line y2="196.9" style="fill:none;" x1="751" x2="744.57" y1="196.9"
      /><line y2="146.6" style="fill:none;" x1="751" x2="744.57" y1="146.6"
      /><line y2="96.3" style="fill:none;" x1="751" x2="744.57" y1="96.3"
      /><line y2="46" style="fill:none;" x1="751" x2="744.57" y1="46"
    /></g
    ><g transform="translate(101.0667,549)" style="font-size:21px; fill:rgb(38,38,38); text-rendering:geometricPrecision; color-rendering:optimizeQuality; image-rendering:optimizeQuality; font-family:'Liberation Serif'; color-interpolation:linearRGB; stroke:rgb(38,38,38);"
    ><text x="-28" xml:space="preserve" y="7.5" style="stroke:none;"
      >-40</text
    ></g
    ><g transform="translate(101.0667,498.7)" style="font-size:21px; fill:rgb(38,38,38); text-rendering:geometricPrecision; color-rendering:optimizeQuality; image-rendering:optimizeQuality; font-family:'Liberation Serif'; color-interpolation:linearRGB; stroke:rgb(38,38,38);"
    ><text x="-28" xml:space="preserve" y="7.5" style="stroke:none;"
      >-35</text
    ></g
    ><g transform="translate(101.0667,448.4)" style="font-size:21px; fill:rgb(38,38,38); text-rendering:geometricPrecision; color-rendering:optimizeQuality; image-rendering:optimizeQuality; font-family:'Liberation Serif'; color-interpolation:linearRGB; stroke:rgb(38,38,38);"
    ><text x="-28" xml:space="preserve" y="7.5" style="stroke:none;"
      >-30</text
    ></g
    ><g transform="translate(101.0667,398.1)" style="font-size:21px; fill:rgb(38,38,38); text-rendering:geometricPrecision; color-rendering:optimizeQuality; image-rendering:optimizeQuality; font-family:'Liberation Serif'; color-interpolation:linearRGB; stroke:rgb(38,38,38);"
    ><text x="-28" xml:space="preserve" y="7.5" style="stroke:none;"
      >-25</text
    ></g
    ><g transform="translate(101.0667,347.8)" style="font-size:21px; fill:rgb(38,38,38); text-rendering:geometricPrecision; color-rendering:optimizeQuality; image-rendering:optimizeQuality; font-family:'Liberation Serif'; color-interpolation:linearRGB; stroke:rgb(38,38,38);"
    ><text x="-28" xml:space="preserve" y="7.5" style="stroke:none;"
      >-20</text
    ></g
    ><g transform="translate(101.0667,297.5)" style="font-size:21px; fill:rgb(38,38,38); text-rendering:geometricPrecision; color-rendering:optimizeQuality; image-rendering:optimizeQuality; font-family:'Liberation Serif'; color-interpolation:linearRGB; stroke:rgb(38,38,38);"
    ><text x="-28" xml:space="preserve" y="7.5" style="stroke:none;"
      >-15</text
    ></g
    ><g transform="translate(101.0667,247.2)" style="font-size:21px; fill:rgb(38,38,38); text-rendering:geometricPrecision; color-rendering:optimizeQuality; image-rendering:optimizeQuality; font-family:'Liberation Serif'; color-interpolation:linearRGB; stroke:rgb(38,38,38);"
    ><text x="-28" xml:space="preserve" y="7.5" style="stroke:none;"
      >-10</text
    ></g
    ><g transform="translate(101.0667,196.9)" style="font-size:21px; fill:rgb(38,38,38); text-rendering:geometricPrecision; color-rendering:optimizeQuality; image-rendering:optimizeQuality; font-family:'Liberation Serif'; color-interpolation:linearRGB; stroke:rgb(38,38,38);"
    ><text x="-18" xml:space="preserve" y="7.5" style="stroke:none;"
      >-5</text
    ></g
    ><g transform="translate(101.0667,146.6)" style="font-size:21px; fill:rgb(38,38,38); text-rendering:geometricPrecision; color-rendering:optimizeQuality; image-rendering:optimizeQuality; font-family:'Liberation Serif'; color-interpolation:linearRGB; stroke:rgb(38,38,38);"
    ><text x="-11" xml:space="preserve" y="7.5" style="stroke:none;"
      >0</text
    ></g
    ><g transform="translate(101.0667,96.3)" style="font-size:21px; fill:rgb(38,38,38); text-rendering:geometricPrecision; color-rendering:optimizeQuality; image-rendering:optimizeQuality; font-family:'Liberation Serif'; color-interpolation:linearRGB; stroke:rgb(38,38,38);"
    ><text x="-11" xml:space="preserve" y="7.5" style="stroke:none;"
      >5</text
    ></g
    ><g transform="translate(101.0667,46)" style="font-size:21px; fill:rgb(38,38,38); text-rendering:geometricPrecision; color-rendering:optimizeQuality; image-rendering:optimizeQuality; font-family:'Liberation Serif'; color-interpolation:linearRGB; stroke:rgb(38,38,38);"
    ><text x="-21" xml:space="preserve" y="7.5" style="stroke:none;"
      >10</text
    ></g
    ><g transform="translate(64,351) rotate(-90)" style="font-size:23px; fill:rgb(38,38,38); text-rendering:geometricPrecision; color-rendering:optimizeQuality; image-rendering:optimizeQuality; font-family:'Liberation Serif'; color-interpolation:linearRGB; stroke:rgb(38,38,38);"
    ><text x="0" xml:space="preserve" y="0" style="stroke:none;"
      >|H(f)|</text
    ></g
    ><g transform="translate(53,300) rotate(-90)" style="font-size:19px; fill:rgb(38,38,38); text-rendering:geometricPrecision; color-rendering:optimizeQuality; image-rendering:optimizeQuality; font-family:'Liberation Serif'; color-interpolation:linearRGB; stroke:rgb(38,38,38);"
    ><text x="0" xml:space="preserve" y="0" style="stroke:none;"
      >2</text
    ></g
    ><g transform="translate(64,290) rotate(-90)" style="font-size:23px; fill:rgb(38,38,38); text-rendering:geometricPrecision; color-rendering:optimizeQuality; image-rendering:optimizeQuality; font-family:'Liberation Serif'; color-interpolation:linearRGB; stroke:rgb(38,38,38);"
    ><text x="0" xml:space="preserve" y="0" style="stroke:none;"
      > (dB)</text
    ></g
    ><g style="stroke-linecap:butt; fill:rgb(0,114,189); text-rendering:geometricPrecision; color-rendering:optimizeQuality; image-rendering:optimizeQuality; stroke-linejoin:round; color-interpolation:linearRGB; stroke:rgb(0,114,189); stroke-width:1.3333;"
    ><path d="M108 120.812 L108.3141 119.9166 L108.6282 118.7793 L108.9424 117.4201 L109.2565 115.8685 L109.5706 114.1603 L109.8847 112.3354 L110.1988 110.4346 L110.5129 108.4983 L110.8271 106.564 L111.1412 104.6661 L111.4553 102.8348 L111.7694 101.0959 L112.0835 99.4714 L112.3977 97.9789 L112.7118 96.6329 L113.0259 95.4443 L113.34 94.4214 L113.6541 93.57 L113.9682 92.8937 L114.2824 92.3943 L114.5965 92.072 L114.9106 91.9253 L115.2247 91.9516 L115.5388 92.1471 L115.853 92.5069 L116.1671 93.0249 L116.4812 93.6944 L116.7953 94.5076 L117.1094 95.4561 L117.4235 96.5307 L117.7377 97.7218 L118.0518 99.0191 L118.3659 100.4126 L118.68 101.8918 L118.9941 103.4469 L119.3083 105.0684 L119.6224 106.748 L119.9365 108.4783 L120.2506 110.2539 L120.5647 112.0711 L120.8788 113.9284 L121.193 115.827 L121.5071 117.7705 L121.8212 119.7654 L122.1353 121.8209 L122.4494 123.9489 L122.7636 126.1637 L123.0777 128.4822 L123.3918 130.9233 L123.7059 133.5081 L124.02 136.2591 L124.3341 139.2007 L124.6483 142.3586 L124.9624 145.7598 L125.2765 149.4326 L125.5906 153.4063 L125.9047 157.7112 L126.2189 162.3782 L126.533 167.4382 L126.8471 172.9209 L127.1612 178.8525 L127.4753 185.2521 L127.7895 192.1249 L128.1036 199.4509 L128.4177 207.166 L128.7318 215.1336 L129.0459 223.1032 L129.36 230.6659 L129.6742 237.2314 L129.9883 242.0869 L130.3024 244.5886 L130.6165 244.4367 L130.9306 241.8331 L131.2448 237.374 L131.5589 231.7805 L131.873 225.679 L132.1871 219.5176 L132.5012 213.5773 L132.8153 208.0152 L133.1295 202.9073 L133.4436 198.2794 L133.7577 194.128 L134.0718 190.4319 L134.3859 187.1601 L134.7 184.2754 L135.0142 181.7366 L135.3283 179.4998 L135.6424 177.5189 L135.9565 175.7456 L136.2706 174.1302 L136.5848 172.6221 L136.8989 171.1702 L137.213 169.7249 L137.5271 168.2393 L137.8412 166.671 L138.1553 164.9846 L138.4695 163.1529 L138.7836 161.1586 L139.0977 158.9949 L139.4118 156.6656 L139.7259 154.1837 L140.0401 151.5701 L140.3542 148.8518 L140.6683 146.0594 L140.9824 143.225 L141.2965 140.381 L141.6107 137.5582 L141.9248 134.7851 L142.2389 132.0876 L142.553 129.4881 L142.8671 127.006 L143.1812 124.658 L143.4954 122.4577 L143.8095 120.4164 L144.1236 118.5435 L144.4377 116.8464 L144.7518 115.3311 L145.0659 114.0025 L145.3801 112.8644 L145.6942 111.92 L146.0083 111.172 L146.3224 110.6226 L146.6365 110.2739 L146.9507 110.1278 L147.2648 110.1864 L147.5789 110.4518 L147.893 110.9263 L148.2071 111.6125 L148.5213 112.5133 L148.8354 113.6322 L149.1495 114.973 L149.4636 116.5401 L149.7777 118.3385 L150.0918 120.3738 L150.406 122.6524 L150.7201 125.1814 L151.0342 127.9685 L151.3483 131.0226 L151.6624 134.3529 L151.9765 137.9698 L152.2907 141.8842 L152.6048 146.1078 L152.9189 150.6522 L153.233 155.5295 L153.5471 160.7508 L153.8613 166.3258 L154.1754 172.2609 L154.4895 178.5574 L154.8036 185.2079 L155.1177 192.1914 L155.4319 199.4671 L155.746 206.9646 L156.0601 214.5729 L156.3742 222.1289 L156.6883 229.4092 L157.0024 236.1343 L157.3166 241.9952 L157.6307 246.7094 L157.9448 250.0943 L158.2589 252.1286 L158.573 252.9644 L158.8871 252.8843 L159.2013 252.2287 L159.5154 251.3309 L159.8295 250.4793 L160.1436 249.9059 L160.4577 249.7919 L160.7719 250.2809 L161.086 251.4924 L161.4001 253.5355 L161.7142 256.5207 L162.0283 260.5723 L162.3425 265.8404 L162.6566 272.5163 L162.9707 280.8513 L163.2848 291.18 L163.5989 303.9384 L163.913 319.6285 L164.2272 338.4923 L164.5413 358.9132 L164.8554 372.6436 L165.1695 366.5764 L165.4836 345.2093 L165.7978 321.62 L166.1119 300.6548 L166.426 282.8112 L166.7401 267.6501 L167.0542 254.6728 L167.3683 243.4756 L167.6825 233.7519 L167.9966 225.2707 L168.3107 217.8561 L168.6248 211.372 L168.9389 205.7114 L169.2531 200.7881 L169.5672 196.5318 L169.8813 192.8836 L170.1954 189.7929 L170.5095 187.2149 L170.8236 185.1088 L171.1378 183.4356 L171.4519 182.1572 L171.766 181.2339 L172.0801 180.6243 L172.3942 180.2828 L172.7084 180.1593 L173.0225 180.1979 L173.3366 180.3372 L173.6507 180.5102 L173.9648 180.6465 L174.2789 180.6747 L174.5931 180.5266 L174.9072 180.1425 L175.2213 179.4765 L175.5354 178.501 L175.8495 177.2096 L176.1637 175.6178 L176.4778 173.7605 L176.7919 171.6885 L177.106 169.4625 L177.4201 167.1481 L177.7342 164.8113 L178.0484 162.5143 L178.3625 160.3142 L178.6766 158.2612 L178.9907 156.3987 L179.3048 154.7633 L179.619 153.3858 L179.9331 152.2916 L180.2472 151.5018 L180.5613 151.0333 L180.8754 150.8999 L181.1895 151.1118 L181.5037 151.6765 L181.8178 152.5975 L182.1319 153.8742 L182.446 155.5005 L182.7601 157.463 L183.0742 159.738 L183.3884 162.2884 L183.7025 165.0588 L184.0166 167.9703 L184.3307 170.9151 L184.6449 173.7524 L184.959 176.309 L185.2731 178.3876 L185.5872 179.7864 L185.9013 180.3298 L186.2154 179.9033 L186.5296 178.4805 L186.8437 176.1301 L187.1578 172.9979 L187.4719 169.2757 L187.786 165.166 L188.1001 160.8567 L188.4143 156.5063 L188.7284 152.2404 L189.0425 148.1532 L189.3566 144.3128 L189.6707 140.7663 L189.9849 137.5456 L190.299 134.6711 L190.6131 132.155 L190.9272 130.0041 L191.2413 128.2212 L191.5555 126.8066 L191.8696 125.7585 L192.1837 125.0741 L192.4978 124.7494 L192.8119 124.7794 L193.126 125.1581 L193.4402 125.8781 L193.7543 126.93 L194.0684 128.302 L194.3825 129.9786 L194.6966 131.9399 L195.0107 134.1597 L195.3249 136.604 L195.639 139.229 L195.9531 141.979 L196.2672 144.785 L196.5813 147.5636 L196.8955 150.2175 L197.2096 152.6397 L197.5237 154.7194 L197.8378 156.352 L198.1519 157.4521 L198.466 157.9649 L198.7802 157.8748 L199.0943 157.2081 L199.4084 156.0277 L199.7225 154.4229 L200.0366 152.4969 L200.3508 150.3551 L200.6649 148.0958 L200.979 145.8051 L201.2931 143.5539 L201.6072 141.3985 L201.9213 139.3806 L202.2355 137.53 L202.5496 135.8659 L202.8637 134.3987 L203.1778 133.1315 L203.4919 132.0614 L203.8061 131.1803 L204.1202 130.476 L204.4343 129.9325 L204.7484 129.5306 L205.0625 129.2487 L205.3766 129.0634 L205.6908 128.9499 L206.0049 128.883 L206.319 128.8379 L206.6331 128.7916 L206.9472 128.7233 L207.2614 128.6161 L207.5755 128.4575 L207.8896 128.2403 L208.2037 127.963 L208.5178 127.6298 L208.832 127.2505 L209.1461 126.8396 L209.4602 126.4158 L209.7743 126.0011 L210.0884 125.6194 L210.4025 125.2959 L210.7167 125.056 L211.0308 124.9249 L211.3449 124.9269 L211.659 125.0848 L211.9731 125.4202 L212.2872 125.9527 L212.6014 126.7002 L212.9155 127.6792 L213.2296 128.9038 L213.5437 130.3867 L213.8578 132.1383 L214.172 134.1669 L214.4861 136.4779 L214.8002 139.0737 L215.1143 141.9523 L215.4284 145.1067 L215.7426 148.5224 L216.0567 152.1759 L216.3708 156.0318 L216.6849 160.0394 L216.999 164.1296 L217.3131 168.2115 L217.6273 172.1713 L217.9414 175.8739 L218.2555 179.1698 L218.5696 181.9088 L218.8837 183.9597 L219.1978 185.2316 L219.512 185.6917 L219.8261 185.3717 L220.1402 184.3603 L220.4543 182.7858 L220.7684 180.7937 L221.0826 178.5276 L221.3967 176.1152 L221.7108 173.6619 L222.0249 171.2486 L222.339 168.9333 L222.6532 166.754 L222.9673 164.7317 L223.2814 162.8736 L223.5955 161.176 L223.9096 159.6263 L224.2237 158.2047 L224.5379 156.8864 L224.852 155.6429 L225.1661 154.4434 L225.4802 153.2567 L225.7943 152.0529 L226.1084 150.8046 L226.4226 149.4894 L226.7367 148.0903 L227.0508 146.5976 L227.3649 145.0086 L227.679 143.3282 L227.9932 141.5681 L228.3073 139.7457 L228.6214 137.8829 L228.9355 136.0046 L229.2496 134.1376 L229.5638 132.3086 L229.8779 130.5439 L230.192 128.8681 L230.5061 127.304 L230.8202 125.8716 L231.1343 124.5886 L231.4485 123.4697 L231.7626 122.5273 L232.0767 121.7709 L232.3908 121.2076 L232.7049 120.8421 L233.0191 120.6766 L233.3332 120.7108 L233.6473 120.9421 L233.9614 121.3649 L234.2755 121.971 L234.5896 122.7492 L234.9038 123.6849 L235.2179 124.76 L235.532 125.9524 L235.8461 127.2363 L236.1602 128.5818 L236.4743 129.9553 L236.7885 131.3202 L237.1026 132.6375 L237.4167 133.8678 L237.7308 134.9726 L238.0449 135.917 L238.3591 136.6719 L238.6732 137.2163 L238.9873 137.539 L239.3014 137.6398 L239.6155 137.5291 L239.9297 137.2276 L240.2438 136.7643 L240.5579 136.1743 L240.872 135.4963 L241.1861 134.7708 L241.5002 134.0376 L241.8144 133.3349 L242.1285 132.6979 L242.4426 132.1582 L242.7567 131.744 L243.0708 131.4795 L243.3849 131.3856 L243.6991 131.48 L244.0132 131.7774 L244.3273 132.2901 L244.6414 133.0278 L244.9556 133.9985 L245.2697 135.2082 L245.5838 136.661 L245.8979 138.3594 L246.212 140.304 L246.5261 142.4934 L246.8403 144.9239 L247.1544 147.5891 L247.4685 150.479 L247.7826 153.5794 L248.0967 156.871 L248.4108 160.3275 L248.725 163.9149 L249.0391 167.5891 L249.3532 171.2948 L249.6673 174.9643 L249.9814 178.5166 L250.2955 181.8593 L250.6097 184.8913 L250.9238 187.5095 L251.2379 189.6176 L251.552 191.1363 L251.8661 192.014 L252.1803 192.2335 L252.4944 191.8143 L252.8085 190.8082 L253.1226 189.2918 L253.4367 187.3551 L253.7509 185.0925 L254.065 182.5938 L254.3791 179.94 L254.6932 177.2007 L255.0073 174.4334 L255.3214 171.6845 L255.6356 168.9907 L255.9497 166.3807 L256.2638 163.8768 L256.5779 161.4962 L256.892 159.2527 L257.2061 157.1567 L257.5203 155.2169 L257.8344 153.4404 L258.1485 151.833 L258.4626 150.3999 L258.7767 149.1452 L259.0909 148.0727 L259.405 147.1853 L259.7191 146.4852 L260.0332 145.9741 L260.3474 145.6524 L260.6615 145.5196 L260.9756 145.5735 L261.2897 145.8105 L261.6038 146.2247 L261.9179 146.8078 L262.2321 147.5483 L262.5462 148.4315 L262.8603 149.4384 L263.1744 150.5453 L263.4885 151.7235 L263.8026 152.9391 L264.1168 154.1526 L264.4309 155.3202 L264.745 156.394 L265.0591 157.3249 L265.3732 158.0644 L265.6873 158.5685 L266.0015 158.8011 L266.3156 158.7375 L266.6297 158.3668 L266.9438 157.6934 L267.2579 156.7367 L267.5721 155.5294 L267.8862 154.1143 L268.2003 152.541 L268.5144 150.8624 L268.8285 149.1315 L269.1426 147.3991 L269.4568 145.7122 L269.7709 144.1129 L270.085 142.6386 L270.3991 141.3216 L270.7132 140.1899 L271.0273 139.2674 L271.3415 138.5745 L271.6556 138.1292 L271.9697 137.9469 L272.2838 138.0415 L272.598 138.4259 L272.9121 139.1118 L273.2262 140.1105 L273.5403 141.4334 L273.8544 143.0915 L274.1685 145.0964 L274.4827 147.4597 L274.7968 150.1936 L275.1109 153.3102 L275.425 156.8216 L275.7391 160.7393 L276.0533 165.0728 L276.3674 169.8281 L276.6815 175.0052 L276.9956 180.5931 L277.3097 186.5638 L277.6238 192.8621 L277.938 199.3915 L278.2521 205.9964 L278.5662 212.4428 L278.8803 218.4054 L279.1944 223.4787 L279.5085 227.2322 L279.8227 229.3138 L280.1368 229.5682 L280.4509 228.0962 L280.765 225.2142 L281.0791 221.3425 L281.3932 216.8935 L281.7074 212.2063 L282.0215 207.5277 L282.3356 203.022 L282.6497 198.7891 L282.9638 194.8835 L283.278 191.3288 L283.5921 188.1282 L283.9062 185.2715 L284.2203 182.7398 L284.5345 180.5084 L284.8486 178.5485 L285.1627 176.8283 L285.4768 175.3136 L285.7909 173.9688 L286.105 172.7568 L286.4192 171.6398 L286.7333 170.58 L287.0474 169.5406 L287.3615 168.4863 L287.6756 167.3848 L287.9897 166.208 L288.3039 164.9328 L288.618 163.542 L288.9321 162.0254 L289.2462 160.3791 L289.5603 158.6058 L289.8745 156.7143 L290.1886 154.718 L290.5027 152.6341 L290.8168 150.4823 L291.1309 148.2835 L291.445 146.0592 L291.7592 143.83 L292.0733 141.6154 L292.3874 139.4332 L292.7015 137.2996 L293.0156 135.2283 L293.3297 133.2315 L293.6439 131.3191 L293.958 129.4996 L294.2721 127.7796 L294.5862 126.1644 L294.9003 124.658 L295.2144 123.2636 L295.5286 121.9832 L295.8427 120.818 L296.1568 119.7688 L296.4709 118.8355 L296.7851 118.0179 L297.0992 117.3149 L297.4133 116.7253 L297.7274 116.2475 L298.0415 115.8792 L298.3557 115.6181 L298.6698 115.4611 L298.9839 115.4047 L299.298 115.4447 L299.6121 115.5765 L299.9262 115.7944 L300.2404 116.092 L300.5545 116.462 L300.8686 116.8959 L301.1827 117.3841 L301.4968 117.916 L301.8109 118.4795 L302.1251 119.0614 L302.4392 119.6475 L302.7533 120.2225 L303.0674 120.7706 L303.3815 121.2754 L303.6956 121.7209 L304.0098 122.0916 L304.3239 122.3734 L304.638 122.5539 L304.9521 122.6235 L305.2662 122.5757 L305.5804 122.4073 L305.8945 122.1193 L306.2086 121.7162 L306.5227 121.2068 L306.8368 120.603 L307.1509 119.9199 L307.4651 119.175 L307.7792 118.3878 L308.0933 117.5787 L308.4074 116.769 L308.7216 115.98 L309.0357 115.2327 L309.3498 114.5476 L309.6639 113.9442 L309.978 113.441 L310.2921 113.0558 L310.6063 112.805 L310.9204 112.7044 L311.2345 112.7688 L311.5486 113.0123 L311.8627 113.4485 L312.1768 114.0903 L312.491 114.9507 L312.8051 116.0421 L313.1192 117.3774 L313.4333 118.969 L313.7474 120.83 L314.0616 122.9734 L314.3757 125.4125 L314.6898 128.1608 L315.0039 131.2318 L315.318 134.6381 L315.6321 138.3916 L315.9463 142.5013 L316.2604 146.9722 L316.5745 151.802 L316.8886 156.9766 L317.2027 162.4634 L317.5168 168.2017 L317.831 174.0898 L318.1451 179.9687 L318.4592 185.607 L318.7733 190.6945 L319.0874 194.8588 L319.4016 197.7217 L319.7157 198.9914 L320.0298 198.5582 L320.3439 196.5357 L320.6581 193.2189 L320.9722 188.9899 L321.2863 184.2239 L321.6004 179.2347 L321.9145 174.2569 L322.2286 169.453 L322.5428 164.9286 L322.8569 160.748 L323.171 156.9478 L323.4851 153.5463 L323.7992 150.5504 L324.1133 147.9597 L324.4275 145.7698 L324.7416 143.9743 L325.0557 142.5656 L325.3698 141.536 L325.6839 140.8777 L325.998 140.5833 L326.3122 140.6459 L326.6263 141.0586 L326.9404 141.8146 L327.2545 142.907 L327.5686 144.3281 L327.8828 146.0691 L328.1969 148.1193 L328.511 150.4654 L328.8251 153.0903 L329.1392 155.9721 L329.4533 159.0822 L329.7675 162.3841 L330.0816 165.8314 L330.3957 169.3664 L330.7098 172.9192 L331.0239 176.4081 L331.338 179.7412 L331.6522 182.8222 L331.9663 185.5571 L332.2804 187.8646 L332.5945 189.687 L332.9087 190.9987 L333.2228 191.8115 L333.5369 192.1729 L333.851 192.16 L334.1651 191.8698 L334.4792 191.4082 L334.7934 190.8812 L335.1075 190.3886 L335.4216 190.0202 L335.7357 189.8551 L336.0498 189.9618 L336.364 190.4002 L336.6781 191.2234 L336.9922 192.4803 L337.3063 194.2178 L337.6204 196.4834 L337.9345 199.3275 L338.2487 202.8068 L338.5628 206.9873 L338.8769 211.9488 L339.191 217.791 L339.5051 224.6419 L339.8192 232.6706 L340.1334 242.1084 L340.4475 253.2826 L340.7616 266.6784 L341.0757 283.0585 L341.3898 303.7165 L341.7039 331.0903 L342.0181 370.4377 L342.3322 432.1318 L342.6463 442.4281 L342.9604 378.7798 L343.2745 337.9221 L343.5887 310.1883 L343.9028 289.6615 L344.2169 273.6445 L344.531 260.7274 L344.8452 250.086 L345.1593 241.1963 L345.4734 233.7028 L345.7875 227.3505 L346.1016 221.9474 L346.4157 217.3422 L346.7299 213.41 L347.044 210.0433 L347.3581 207.1454 L347.6722 204.6263 L347.9863 202.4004 L348.3004 200.3843 L348.6146 198.4974 L348.9287 196.6625 L349.2428 194.808 L349.5569 192.8708 L349.871 190.7993 L350.1852 188.5568 L350.4993 186.1229 L350.8134 183.4946 L351.1275 180.6852 L351.4416 177.7219 L351.7557 174.6422 L352.0699 171.4902 L352.384 168.313 L352.6981 165.1572 L353.0122 162.0673 L353.3263 159.0836 L353.6404 156.2416 L353.9546 153.572 L354.2687 151.1006 L354.5828 148.8488 L354.8969 146.8339 L355.211 145.07 L355.5251 143.5683 L355.8393 142.3373 L356.1534 141.3839 L356.4675 140.7129 L356.7816 140.3278 L357.0958 140.2309 L357.4099 140.4231 L357.724 140.9043 L358.0381 141.6729 L358.3522 142.7263 L358.6664 144.06 L358.9805 145.6681 L359.2946 147.542 L359.6087 149.6708 L359.9228 152.0405 L360.2369 154.6333 L360.5511 157.4272 L360.8652 160.3956 L361.1793 163.5069 L361.4934 166.7246 L361.8075 170.0077 L362.1216 173.3118 L362.4358 176.5915 L362.7499 179.8029 L363.064 182.9073 L363.3781 185.876 L363.6922 188.6935 L364.0063 191.362 L364.3205 193.9025 L364.6346 196.3562 L364.9487 198.783 L365.2628 201.2598 L365.5769 203.8774 L365.8911 206.7394 L366.2052 209.9606 L366.5193 213.6688 L366.8334 218.0077 L367.1475 223.1445 L367.4616 229.2814 L367.7758 236.6755 L368.0899 245.6709 L368.404 256.7566 L368.7181 270.672 L369.0323 288.6204 L369.3464 312.7153 L369.6605 346.7659 L369.9746 392.4556 L370.2887 393.9674 L370.6028 344.0967 L370.917 304.8404 L371.2311 275.9517 L371.5452 253.4708 L371.8593 235.1864 L372.1734 219.8537 L372.4875 206.7203 L372.8017 195.3003 L373.1158 185.2635 L373.4299 176.3754 L373.744 168.4639 L374.0581 161.3986 L374.3723 155.0788 L374.6864 149.4246 L375.0005 144.3716 L375.3146 139.867 L375.6287 135.8669 L375.9428 132.3341 L376.257 129.2364 L376.5711 126.5457 L376.8852 124.2372 L377.1993 122.2877 L377.5134 120.676 L377.8275 119.3816 L378.1417 118.3841 L378.4558 117.6633 L378.7699 117.1977 L379.084 116.9649 L379.3981 116.9406 L379.7122 117.0981 L380.0264 117.4083 L380.3405 117.8389 L380.6546 118.3547 L380.9687 118.9176 L381.2829 119.4871 L381.597 120.021 L381.9111 120.4771 L382.2252 120.8146 L382.5393 120.9962 L382.8535 120.9904 L383.1676 120.7738 L383.4817 120.3323 L383.7958 119.6622 L384.1099 118.7703 L384.424 117.673 L384.7382 116.3948 L385.0523 114.966 L385.3664 113.4207 L385.6805 111.7944 L385.9946 110.1226 L386.3087 108.4386 L386.6229 106.7731 L386.937 105.1535 L387.2511 103.6034 L387.5652 102.1428 L387.8793 100.788 L388.1935 99.5523 L388.5076 98.4458 L388.8217 97.4761 L389.1358 96.6485 L389.4499 95.9663 L389.764 95.4308 L390.0782 95.0423 L390.3923 94.7992 L390.7064 94.6994 L391.0205 94.7394 L391.3346 94.915 L391.6487 95.2213 L391.9629 95.6528 L392.277 96.2034 L392.5911 96.8667 L392.9052 97.636 L393.2194 98.504 L393.5335 99.4636 L393.8476 100.5074 L394.1617 101.628 L394.4758 102.8182 L394.7899 104.0709 L395.1041 105.3792 L395.4182 106.7365 L395.7323 108.1368 L396.0464 109.5743 L396.3605 111.0441 L396.6747 112.5416 L396.9888 114.0631 L397.3029 115.6052 L397.617 117.1657 L397.9311 118.7426 L398.2452 120.3351 L398.5594 121.9428 L398.8735 123.5662 L399.1876 125.2064 L399.5017 126.8654 L399.8158 128.5459 L400.1299 130.2512 L400.4441 131.9856 L400.7582 133.754 L401.0723 135.5621 L401.3864 137.4166 L401.7005 139.3246 L402.0146 141.2943 L402.3288 143.3345 L402.6429 145.4545 L402.957 147.6642 L403.2711 149.974 L403.5852 152.3942 L403.8994 154.9349 L404.2135 157.6058 L404.5276 160.415 L404.8417 163.3692 L405.1558 166.4718 L405.47 169.7221 L405.7841 173.1139 L406.0982 176.6327 L406.4123 180.254 L406.7264 183.9395 L407.0406 187.6348 L407.3547 191.2655 L407.6688 194.7361 L407.9829 197.9307 L408.297 200.7178 L408.6111 202.9615 L408.9253 204.5379 L409.2394 205.3557 L409.5535 205.3731 L409.8676 204.6088 L410.1817 203.1387 L410.4958 201.083 L410.81 198.5868 L411.1241 195.8008 L411.4382 192.8665 L411.7523 189.908 L412.0664 187.0282 L412.3806 184.3095 L412.6947 181.8161 L413.0088 179.5967 L413.3229 177.6881 L413.637 176.1174 L413.9511 174.9043 L414.2653 174.0624 L414.5794 173.6007 L414.8935 173.5236 L415.2076 173.8308 L415.5217 174.5166 L415.8358 175.5688 L416.15 176.966 L416.4641 178.675 L416.7782 180.6462 L417.0923 182.8091 L417.4065 185.066 L417.7206 187.2881 L418.0347 189.3133 L418.3488 190.951 L418.6629 191.997 L418.9771 192.26 L419.2912 191.5961 L419.6053 189.9409 L419.9194 187.3249 L420.2335 183.8654 L420.5476 179.7393 L420.8618 175.1476 L421.1759 170.2856 L421.49 165.324 L421.8041 160.4009 L422.1182 155.6222 L422.4323 151.0654 L422.7465 146.7852 L423.0606 142.8191 L423.3747 139.1915 L423.6888 135.9181 L424.0029 133.0083 L424.317 130.4673 L424.6312 128.2974 L424.9453 126.4998 L425.2594 125.0747 L425.5735 124.0219 L425.8876 123.3417 L426.2018 123.0346 L426.5159 123.1019 L426.83 123.5456 L427.1441 124.3688 L427.4582 125.5752 L427.7723 127.1698 L428.0865 129.1585 L428.4006 131.5478 L428.7147 134.3454 L429.0288 137.5589 L429.3429 141.1965 L429.6571 145.2654 L429.9712 149.7713 L430.2853 154.7165 L430.5994 160.0976 L430.9135 165.9022 L431.2277 172.1034 L431.5418 178.6528 L431.8559 185.4709 L432.17 192.4359 L432.4841 199.3715 L432.7982 206.041 L433.1124 212.1542 L433.4265 217.3993 L433.7406 221.5028 L434.0547 224.3047 L434.3688 225.8124 L434.683 226.2034 L434.9971 225.7741 L435.3112 224.8662 L435.6253 223.8053 L435.9394 222.8683 L436.2535 222.2758 L436.5677 222.1994 L436.8818 222.7755 L437.1959 224.1183 L437.51 226.3337 L437.8241 229.5309 L438.1382 233.8333 L438.4524 239.3916 L438.7665 246.3976 L439.0806 255.1019 L439.3947 265.8327 L439.7088 279.0004 L440.0229 295.0195 L440.3371 313.8467 L440.6512 333.0705 L440.9653 343.6573 L441.2794 335.2995 L441.5935 314.5848 L441.9077 292.5144 L442.2218 272.9298 L442.5359 256.2354 L442.85 242.0582 L443.1642 229.9625 L443.4783 219.5882 L443.7924 210.658 L444.1065 202.9618 L444.4206 196.3392 L444.7347 190.6669 L445.0489 185.8491 L445.363 181.8106 L445.6771 178.492 L445.9912 175.8461 L446.3053 173.8354 L446.6194 172.4299 L446.9336 171.6053 L447.2477 171.3419 L447.5618 171.6231 L447.8759 172.4339 L448.19 173.7597 L448.5042 175.5839 L448.8183 177.8855 L449.1324 180.6355 L449.4465 183.7926 L449.7606 187.2964 L450.0747 191.0602 L450.3889 194.9621 L450.703 198.8369 L451.0171 202.4732 L451.3312 205.62 L451.6453 208.0118 L451.9594 209.4124 L452.2736 209.6685 L452.5877 208.7522 L452.9018 206.7688 L453.2159 203.9263 L453.53 200.4837 L453.8442 196.7008 L454.1583 192.8056 L454.4724 188.9806 L454.7865 185.3624 L455.1006 182.0485 L455.4148 179.1059 L455.7289 176.5792 L456.043 174.4968 L456.3571 172.8762 L456.6712 171.7273 L456.9854 171.0547 L457.2995 170.8592 L457.6136 171.138 L457.9277 171.8849 L458.2418 173.0893 L458.5559 174.7347 L458.8701 176.7955 L459.1842 179.2341 L459.4983 181.9949 L459.8124 184.9988 L460.1265 188.1349 L460.4406 191.255 L460.7548 194.1693 L461.0689 196.6525 L461.383 198.4622 L461.6971 199.3743 L462.0112 199.228 L462.3253 197.9652 L462.6395 195.646 L462.9536 192.4306 L463.2677 188.5388 L463.5818 184.2049 L463.8959 179.6435 L464.2101 175.0322 L464.5242 170.5067 L464.8383 166.1646 L465.1524 162.0714 L465.4665 158.2686 L465.7806 154.7787 L466.0948 151.6112 L466.4089 148.7652 L466.723 146.2327 L467.0371 143.9997 L467.3513 142.0475 L467.6654 140.3536 L467.9795 138.8915 L468.2936 137.6316 L468.6077 136.5409 L468.9218 135.5833 L469.236 134.7204 L469.5501 133.9118 L469.8642 133.1163 L470.1783 132.2931 L470.4924 131.4035 L470.8065 130.4131 L471.1207 129.2932 L471.4348 128.023 L471.7489 126.5908 L472.063 124.9942 L472.3771 123.2407 L472.6913 121.3464 L473.0054 119.3343 L473.3195 117.2333 L473.6336 115.0752 L473.9477 112.8937 L474.2618 110.7224 L474.576 108.5933 L474.8901 106.5366 L475.2042 104.5794 L475.5183 102.7462 L475.8324 101.0581 L476.1465 99.5338 L476.4607 98.1888 L476.7748 97.0366 L477.0889 96.0886 L477.403 95.354 L477.7171 94.8409 L478.0313 94.5558 L478.3454 94.5039 L478.6595 94.6896 L478.9736 95.1164 L479.2878 95.7866 L479.6019 96.7019 L479.916 97.863 L480.2301 99.2693 L480.5442 100.9193 L480.8583 102.8095 L481.1725 104.9347 L481.4866 107.2873 L481.8007 109.8565 L482.1148 112.6277 L482.4289 115.5815 L482.743 118.6928 L483.0572 121.9296 L483.3713 125.252 L483.6854 128.6115 L483.9995 131.9504 L484.3136 135.2028 L484.6277 138.2961 L484.9419 141.1549 L485.256 143.706 L485.5701 145.885 L485.8842 147.6437 L486.1983 148.956 L486.5125 149.8215 L486.8266 150.2663 L487.1407 150.3395 L487.4548 150.1076 L487.7689 149.6474 L488.083 149.0396 L488.3972 148.3627 L488.7113 147.6898 L489.0254 147.0864 L489.3395 146.6095 L489.6536 146.3078 L489.9677 146.223 L490.2819 146.3902 L490.596 146.8399 L490.9101 147.5985 L491.2242 148.69 L491.5384 150.1363 L491.8525 151.9583 L492.1666 154.1764 L492.4807 156.8108 L492.7948 159.8818 L493.1089 163.4092 L493.4231 167.4114 L493.7372 171.9034 L494.0513 176.8933 L494.3654 182.3755 L494.6795 188.3207 L494.9937 194.6577 L495.3078 201.2471 L495.6219 207.845 L495.936 214.0622 L496.2501 219.3451 L496.5642 223.0271 L496.8784 224.4952 L497.1925 223.4359 L497.5066 219.9907 L497.8207 214.6821 L498.1348 208.1801 L498.4489 201.0915 L498.7631 193.867 L499.0772 186.8001 L499.3913 180.0637 L499.7054 173.7492 L500.0195 167.8977 L500.3336 162.5204 L500.6478 157.6116 L500.9619 153.1572 L501.276 149.1384 L501.5901 145.5356 L501.9042 142.3287 L502.2184 139.4986 L502.5325 137.0275 L502.8466 134.8987 L503.1607 133.0968 L503.4749 131.6074 L503.789 130.4172 L504.1031 129.5135 L504.4172 128.8841 L504.7313 128.517 L505.0454 128.3999 L505.3596 128.5203 L505.6737 128.8649 L505.9878 129.4189 L506.3019 130.1663 L506.616 131.0887 L506.9301 132.1651 L507.2443 133.3716 L507.5584 134.6807 L507.8725 136.0612 L508.1866 137.4779 L508.5007 138.8915 L508.8148 140.2597 L509.129 141.5378 L509.4431 142.6803 L509.7572 143.6433 L510.0713 144.3867 L510.3854 144.8773 L510.6996 145.0913 L511.0137 145.0161 L511.3278 144.6518 L511.6419 144.0106 L511.956 143.1161 L512.2701 142.0007 L512.5843 140.7033 L512.8984 139.2662 L513.2125 137.7328 L513.5266 136.1456 L513.8408 134.5441 L514.1548 132.9647 L514.469 131.4393 L514.7831 129.9959 L515.0972 128.6584 L515.4113 127.4469 L515.7255 126.3783 L516.0396 125.4665 L516.3537 124.7231 L516.6678 124.1575 L516.9819 123.7775 L517.296 123.5897 L517.6102 123.5994 L517.9243 123.8112 L518.2384 124.2289 L518.5525 124.8562 L518.8666 125.6961 L519.1807 126.7518 L519.4949 128.0261 L519.809 129.5219 L520.1231 131.2424 L520.4372 133.1906 L520.7513 135.37 L521.0655 137.7841 L521.3796 140.437 L521.6937 143.3328 L522.0078 146.4762 L522.322 149.8723 L522.636 153.5265 L522.9502 157.4447 L523.2643 161.6333 L523.5784 166.0991 L523.8925 170.8494 L524.2067 175.8919 L524.5208 181.2348 L524.8349 186.8863 L525.149 192.8549 L525.4631 199.1487 L525.7772 205.7751 L526.0914 212.7399 L526.4055 220.0463 L526.7196 227.6922 L527.0337 235.6673 L527.3478 243.9477 L527.6619 252.4872 L527.9761 261.2045 L528.2902 269.9639 L528.6043 278.5497 L528.9184 286.6383 L529.2325 293.7817 L529.5466 299.4316 L529.8608 303.0372 L530.1749 304.2126 L530.489 302.8906 L530.8031 299.3482 L531.1172 294.0828 L531.4313 287.6377 L531.7455 280.4808 L532.0596 272.9617 L532.3737 265.3193 L532.6879 257.7083 L533.002 250.2256 L533.3161 242.9306 L533.6302 235.8596 L533.9443 229.0339 L534.2584 222.4661 L534.5726 216.163 L534.8867 210.1278 L535.2008 204.3611 L535.5149 198.862 L535.829 193.6282 L536.1431 188.6565 L536.4573 183.943 L536.7714 179.4832 L537.0855 175.2721 L537.3996 171.3043 L537.7137 167.5743 L538.0278 164.076 L538.342 160.8033 L538.6561 157.7498 L538.9702 154.909 L539.2843 152.2742 L539.5984 149.8385 L539.9125 147.595 L540.2267 145.5363 L540.5408 143.6552 L540.8549 141.9443 L541.169 140.396 L541.4832 139.0026 L541.7972 137.7563 L542.1114 136.6493 L542.4255 135.6738 L542.7396 134.8218 L543.0537 134.0858 L543.3679 133.4581 L543.6819 132.9315 L543.9961 132.4991 L544.3102 132.1544 L544.6243 131.8914 L544.9385 131.705 L545.2526 131.5906 L545.5667 131.5446 L545.8808 131.5644 L546.1949 131.6483 L546.509 131.7956 L546.8232 132.0068 L547.1373 132.2834 L547.4514 132.628 L547.7655 133.044 L548.0797 133.5357 L548.3937 134.1085 L548.7079 134.7681 L549.022 135.5211 L549.3361 136.3742 L549.6502 137.3346 L549.9644 138.4097 L550.2784 139.6067 L550.5926 140.933 L550.9067 142.3955 L551.2208 144.0008 L551.5349 145.7548 L551.8491 147.663 L552.1631 149.7296 L552.4773 151.958 L552.7914 154.3501 L553.1055 156.9061 L553.4196 159.6243 L553.7338 162.5004 L554.0479 165.5271 L554.362 168.6934 L554.6761 171.9841 L554.9902 175.3784 L555.3043 178.8493 L555.6185 182.3627 L555.9326 185.8759 L556.2467 189.3374 L556.5608 192.6862 L556.8749 195.8525 L557.1891 198.759 L557.5032 201.3242 L557.8173 203.4668 L558.1314 205.1116 L558.4456 206.1962 L558.7596 206.6771 L559.0738 206.5338 L559.3879 205.7706 L559.702 204.4147 L560.0161 202.5126 L560.3303 200.1237 L560.6443 197.3147 L560.9585 194.1546 L561.2726 190.7102 L561.5867 187.0439 L561.9008 183.2126 L562.215 179.2668 L562.5291 175.2513 L562.8432 171.2053 L563.1573 167.1633 L563.4714 163.1557 L563.7855 159.2091 L564.0997 155.347 L564.4138 151.5902 L564.7279 147.9572 L565.042 144.4641 L565.3561 141.1255 L565.6702 137.9539 L565.9844 134.9608 L566.2985 132.156 L566.6126 129.5484 L566.9267 127.1458 L567.2408 124.955 L567.5549 122.9823 L567.8691 121.2331 L568.1832 119.7122 L568.4973 118.4239 L568.8114 117.372 L569.1255 116.5597 L569.4397 115.9899 L569.7538 115.6647 L570.0679 115.5859 L570.382 115.7542 L570.6962 116.1696 L571.0103 116.8311 L571.3244 117.736 L571.6385 118.8799 L571.9526 120.2558 L572.2667 121.854 L572.5809 123.6606 L572.895 125.6572 L573.2091 127.8192 L573.5232 130.1149 L573.8373 132.5045 L574.1514 134.9385 L574.4656 137.3578 L574.7797 139.6935 L575.0938 141.8692 L575.4079 143.804 L575.722 145.418 L576.0361 146.64 L576.3503 147.4146 L576.6644 147.7099 L576.9785 147.5214 L577.2926 146.8732 L577.6068 145.8145 L577.9208 144.4131 L578.235 142.7479 L578.5491 140.9012 L578.8632 138.9528 L579.1773 136.9755 L579.4915 135.0328 L579.8055 133.1785 L580.1197 131.4566 L580.4338 129.9023 L580.7479 128.5432 L581.062 127.4001 L581.3762 126.4888 L581.6903 125.8204 L582.0044 125.4023 L582.3185 125.2391 L582.6326 125.3326 L582.9468 125.6825 L583.2609 126.2863 L583.575 127.1392 L583.8891 128.2347 L584.2032 129.5637 L584.5173 131.1147 L584.8315 132.873 L585.1456 134.8208 L585.4597 136.9363 L585.7738 139.1935 L586.088 141.5615 L586.402 144.0041 L586.7162 146.4799 L587.0303 148.9428 L587.3444 151.3419 L587.6585 153.6239 L587.9727 155.7346 L588.2867 157.6217 L588.6009 159.2383 L588.915 160.5458 L589.2291 161.5168 L589.5432 162.1368 L589.8574 162.4051 L590.1714 162.3332 L590.4856 161.9431 L590.7997 161.264 L591.1138 160.3294 L591.4279 159.1738 L591.7421 157.8304 L592.0562 156.3294 L592.3703 154.6972 L592.6844 152.9558 L592.9985 151.1236 L593.3127 149.2153 L593.6268 147.2434 L593.9409 145.2185 L594.255 143.1506 L594.5692 141.0493 L594.8832 138.9248 L595.1974 136.7882 L595.5115 134.6514 L595.8256 132.5275 L596.1397 130.4307 L596.4539 128.3759 L596.7679 126.3784 L597.0821 124.4541 L597.3962 122.6189 L597.7103 120.8882 L598.0244 119.2773 L598.3386 117.8008 L598.6526 116.4726 L598.9668 115.3058 L599.2809 114.3129 L599.595 113.5054 L599.9091 112.8943 L600.2233 112.4898 L600.5374 112.3014 L600.8515 112.3384 L601.1656 112.6092 L601.4797 113.1221 L601.7938 113.8851 L602.108 114.9059 L602.4221 116.192 L602.7362 117.7507 L603.0503 119.5893 L603.3644 121.7149 L603.6785 124.1341 L603.9927 126.8536 L604.3068 129.8792 L604.6209 133.216 L604.935 136.8681 L605.2491 140.8374 L605.5633 145.1234 L605.8774 149.722 L606.1915 154.6234 L606.5056 159.8109 L606.8198 165.2578 L607.1339 170.9242 L607.448 176.7539 L607.7621 182.6699 L608.0762 188.5722 L608.3903 194.3368 L608.7045 199.8193 L609.0186 204.8655 L609.3327 209.3287 L609.6468 213.0931 L609.9609 216.0963 L610.275 218.3445 L610.5892 219.9124 L610.9033 220.9299 L611.2174 221.5591 L611.5315 221.9716 L611.8456 222.3305 L612.1597 222.7802 L612.4739 223.4424 L612.788 224.417 L613.1021 225.7853 L613.4162 227.6142 L613.7303 229.9599 L614.0444 232.8723 L614.3586 236.3976 L614.6727 240.5813 L614.9868 245.4711 L615.3009 251.1186 L615.6151 257.5813 L615.9291 264.9246 L616.2433 273.2234 L616.5574 282.5617 L616.8715 293.0305 L617.1856 304.7181 L617.4998 317.6843 L617.8139 331.8959 L618.128 347.0767 L618.4421 362.3983 L618.7562 376.0189 L619.0704 385.0175 L619.3845 386.9657 L619.6986 382.2555 L620.0127 373.5161 L620.3268 363.1492 L620.6409 352.3827 L620.9551 341.6013 L621.2692 330.8095 L621.5833 319.9111 L621.8974 308.8416 L622.2115 297.6109 L622.5256 286.2964 L622.8398 275.0144 L623.1539 263.8899 L623.468 253.0363 L623.7821 242.544 L624.0963 232.4785 L624.4103 222.8827 L624.7245 213.7811 L625.0386 205.1843 L625.3527 197.0933 L625.6668 189.5021 L625.981 182.4007 L626.295 175.7766 L626.6092 169.6158 L626.9233 163.9042 L627.2374 158.6275 L627.5515 153.7722 L627.8657 149.3253 L628.1797 145.275 L628.4939 141.61 L628.808 138.3204 L629.1221 135.397 L629.4362 132.8315 L629.7504 130.6166 L630.0645 128.7458 L630.3786 127.2134 L630.6927 126.0144 L631.0068 125.1444 L631.321 124.5994 L631.6351 124.376 L631.9492 124.4712 L632.2633 124.8819 L632.5775 125.6052 L632.8915 126.6378 L633.2057 127.9758 L633.5198 129.6146 L633.8339 131.548 L634.148 133.7679 L634.4622 136.2632 L634.7762 139.0196 L635.0904 142.0174 L635.4045 145.2311 L635.7186 148.6274 L636.0327 152.1637 L636.3469 155.7867 L636.6609 159.4313 L636.9751 163.0208 L637.2892 166.468 L637.6033 169.6797 L637.9174 172.5627 L638.2316 175.033 L638.5457 177.0256 L638.8598 178.5034 L639.1739 179.4637 L639.488 179.938 L639.8021 179.9877 L640.1163 179.6959 L640.4304 179.1569 L640.7445 178.4671 L641.0586 177.718 L641.3727 176.9915 L641.6868 176.3582 L642.001 175.8766 L642.3151 175.5941 L642.6292 175.5487 L642.9434 175.77 L643.2574 176.2811 L643.5716 177.1 L643.8857 178.2404 L644.1998 179.713 L644.5139 181.5257 L644.8281 183.6847 L645.1422 186.1944 L645.4563 189.0575 L645.7704 192.2751 L646.0845 195.846 L646.3986 199.7659 L646.7128 204.0263 L647.0269 208.6122 L647.341 213.4989 L647.6551 218.6475 L647.9692 223.9978 L648.2833 229.4595 L648.5975 234.9004 L648.9116 240.1338 L649.2257 244.9096 L649.5398 248.9168 L649.8539 251.8099 L650.168 253.2663 L650.4822 253.0648 L650.7963 251.1528 L651.1104 247.662 L651.4245 242.8632 L651.7386 237.0883 L652.0527 230.6598 L652.3669 223.8501 L652.681 216.868 L652.9951 209.8643 L653.3092 202.9425 L653.6234 196.1716 L653.9374 189.596 L654.2516 183.2436 L654.5657 177.1312 L654.8798 171.268 L655.194 165.6583 L655.5081 160.3033 L655.8222 155.2017 L656.1363 150.3509 L656.4504 145.7472 L656.7645 141.3859 L657.0787 137.2618 L657.3928 133.3692 L657.7069 129.7018 L658.021 126.2531 L658.3351 123.0162 L658.6492 119.9836 L658.9634 117.1479 L659.2775 114.501 L659.5916 112.0348 L659.9057 109.7408 L660.2198 107.6104 L660.5339 105.6346 L660.8481 103.8045 L661.1622 102.1111 L661.4763 100.5455 L661.7904 99.0989 L662.1046 97.7627 L662.4186 96.5288 L662.7328 95.3896 L663.0469 94.3381 L663.361 93.3681 L663.6751 92.4745 L663.9893 91.6532 L664.3033 90.9011 L664.6175 90.2165 L664.9316 89.5989 L665.2457 89.0494 L665.5598 88.5701 L665.874 88.1645 L666.1881 87.8373 L666.5022 87.5942 L666.8163 87.4421 L667.1304 87.3886 L667.4446 87.4421 L667.7587 87.6116 L668.0728 87.9065 L668.3869 88.3365 L668.701 88.9114 L669.0151 89.6413 L669.3293 90.536 L669.6434 91.6051 L669.9575 92.858 L670.2716 94.3035 L670.5858 95.9495 L670.8998 97.8034 L671.214 99.8708 L671.5281 102.1561 L671.8422 104.6613 L672.1563 107.3854 L672.4705 110.3236 L672.7845 113.4664 L673.0987 116.7975 L673.4128 120.2925 L673.7269 123.9166 L674.041 127.6225 L674.3552 131.3485 L674.6693 135.0167 L674.9834 138.5333 L675.2975 141.7919 L675.6116 144.6789 L675.9257 147.0847 L676.2399 148.9166 L676.554 150.1131 L676.8681 150.655 L677.1822 150.5688 L677.4963 149.9234 L677.8104 148.8188 L678.1246 147.3723 L678.4387 145.705 L678.7528 143.9316 L679.067 142.154 L679.381 140.4588 L679.6952 138.9174 L680.0093 137.587 L680.3234 136.5132 L680.6375 135.7318 L680.9517 135.2717 L681.2657 135.1561 L681.5799 135.4043 L681.894 136.0332 L682.2081 137.058 L682.5222 138.493 L682.8364 140.3522 L683.1505 142.6496 L683.4646 145.3996 L683.7787 148.616 L684.0928 152.3124 L684.4069 156.5001 L684.7211 161.1862 L685.0352 166.37 L685.3493 172.0362 L685.6634 178.1455 L685.9775 184.619 L686.2916 191.3168 L686.6058 198.01 L686.9199 204.3541 L687.234 209.8822 L687.5481 214.0516 L687.8622 216.3686 L688.1763 216.5629 L688.4905 214.7054 L688.8046 211.1744 L689.1187 206.4992 L689.4328 201.1975 L689.7469 195.6826 L690.061 190.2437 L690.3752 185.0638 L690.6893 180.2483 L691.0034 175.8504 L691.3176 171.8905 L691.6317 168.3681 L691.9458 165.2705 L692.2599 162.5779 L692.574 160.2664 L692.8881 158.3094 L693.2023 156.6793 L693.5164 155.3477 L693.8305 154.2858 L694.1446 153.465 L694.4587 152.8567 L694.7728 152.4328 L695.087 152.166 L695.4011 152.0307 L695.7152 152.0028 L696.0293 152.0609 L696.3434 152.1869 L696.6575 152.3665 L696.9717 152.5901 L697.2858 152.8528 L697.5999 153.1549 L697.914 153.5023 L698.2281 153.9059 L698.5422 154.3814 L698.8564 154.949 L699.1705 155.6326 L699.4846 156.4596 L699.7987 157.4603 L700.1129 158.6672 L700.4269 160.1154 L700.7411 161.8423 L701.0552 163.8878 L701.3693 166.295 L701.6834 169.1109 L701.9976 172.3878 L702.3116 176.1847 L702.6258 180.5702 L702.9399 185.6252 L703.254 191.4479 L703.5682 198.1596 L703.8823 205.915 L704.1964 214.9147 L704.5105 225.4263 L704.8246 237.8137 L705.1387 252.5757 L705.4529 270.3741 L705.767 291.9046 L706.0811 316.8014 L706.3952 338.4006 L706.7094 338.5368 L707.0234 317.0593 L707.3376 292.1714 L707.6517 270.6496 L707.9658 252.8915 L708.2799 238.2119 L708.5941 225.957 L708.9081 215.6363 L709.2223 206.896 L709.5364 199.48 L709.8505 193.2006 L710.1646 187.9185 L710.4788 183.5291 L710.7928 179.9538 L711.107 177.1339 L711.4211 175.0259 L711.7352 173.5995 L712.0493 172.835 L712.3635 172.7226 L712.6776 173.2613 L712.9917 174.4593 L713.3058 176.3341 L713.6199 178.9131 L713.934 182.2353 L714.2482 186.3533 L714.5623 191.3356 L714.8764 197.2711 L715.1906 204.2732 L715.5046 212.4849 L715.8188 222.0833 L716.1329 233.274 L716.447 246.2566 L716.7611 261.0897 L717.0753 277.2586 L717.3893 292.5521 L717.7035 301.6467 L718.0176 298.987 L718.3317 286.3215 L718.6458 269.9962 L718.96 254.0059 L719.274 239.6779 L719.5882 227.2066 L719.9023 216.4467 L720.2164 207.1868 L720.5305 199.2299 L720.8447 192.4117 L721.1588 186.6001 L721.4729 181.6906 L721.787 177.6009 L722.1011 174.2667 L722.4152 171.6384 L722.7294 169.6782 L723.0435 168.3582 L723.3576 167.6593 L723.6717 167.5701 L723.9858 168.086 L724.2999 169.2092 L724.6141 170.9483 L724.9282 173.3185 L725.2423 176.3415 L725.5564 180.0455 L725.8705 184.4653 L726.1846 189.6411 L726.4988 195.6158 L726.8129 202.4299 L727.127 210.1075 L727.4412 218.6308 L727.7552 227.8858 L728.0694 237.5647 L728.3835 247.0089 L728.6976 255.0488 L729.0117 260.0823 L729.3259 260.7441 L729.64 256.8799 L729.9541 249.6774 L730.2682 240.7682 L730.5823 231.4338 L730.8964 222.4289 L731.2106 214.1205 L731.5247 206.6542 L731.8388 200.0637 L732.1529 194.3323 L732.467 189.4233 L732.7811 185.2954 L733.0953 181.9091 L733.4094 179.2301 L733.7235 177.2301 L734.0376 175.887 L734.3517 175.1845 L734.6658 175.1117 L734.98 175.6623 L735.2941 176.8334 L735.6082 178.6245 L735.9223 181.0349 L736.2365 184.0602 L736.5505 187.6869 L736.8647 191.8825 L737.1788 196.5813 L737.4929 201.6613 L737.807 206.912 L738.1212 211.9974 L738.4352 216.4291 L738.7494 219.5891 L739.0635 220.8511 L739.3776 219.7957 L739.6918 216.4021 L740.0059 211.0563 L740.32 204.3689 L740.6341 196.956 L740.9482 189.3089 L741.2623 181.7658 L741.5765 174.5352 L741.8906 167.7341 L742.2047 161.4198 L742.5188 155.6136 L742.8329 150.3157 L743.147 145.5146 L743.4612 141.1928 L743.7753 137.3298 L744.0894 133.9045 L744.4035 130.8955 L744.7177 128.282 L745.0317 126.0434 L745.3459 124.16 L745.66 122.6119 L745.9741 121.3792 L746.2882 120.4412 L746.6024 119.7766 L746.9164 119.3621 L747.2306 119.1726 L747.5447 119.1805 L747.8588 119.355 L748.1729 119.6621 L748.4871 120.064 L748.8011 120.5196 L749.1153 120.9847 L749.4294 121.4129 L749.7435 121.7571 L750.0576 121.9719 L750.3718 122.0153 L750.6859 121.8522 L751 121.4561" style="fill:none; fill-rule:evenodd;"
    /></g
  ></g
></svg
>
