%!PS-Adobe-3.0 EPSF-3.0
%%Creator: (MATLAB, The Mathworks, Inc. Version 9.1.0.441655 \(R2016b\). Operating System: Linux)
%%Title: (/home/quentin/Documents/1-Research/9-Papiers/Work In Progress/PhD_manuscript_real/2-Chapters/2-Chapter/Images/ETU_t.eps)
%%CreationDate: 2017-05-19T16:51:08
%%Pages: (atend)
%%BoundingBox: 0 0 1439 445
%%LanguageLevel: 3
%%EndComments
%%BeginProlog
%%BeginResource: procset (Apache XML Graphics Std ProcSet) 1.2 0
%%Version: 1.2 0
%%Copyright: (Copyright 2001-2003,2010 The Apache Software Foundation. License terms: http://www.apache.org/licenses/LICENSE-2.0)
/bd{bind def}bind def
/ld{load def}bd
/GR/grestore ld
/M/moveto ld
/LJ/setlinejoin ld
/C/curveto ld
/f/fill ld
/LW/setlinewidth ld
/GC/setgray ld
/t/show ld
/N/newpath ld
/CT/concat ld
/cp/closepath ld
/S/stroke ld
/L/lineto ld
/CC/setcmykcolor ld
/A/ashow ld
/GS/gsave ld
/RC/setrgbcolor ld
/RM/rmoveto ld
/ML/setmiterlimit ld
/re {4 2 roll M
1 index 0 rlineto
0 exch rlineto
neg 0 rlineto
cp } bd
/_ctm matrix def
/_tm matrix def
/BT { _ctm currentmatrix pop matrix _tm copy pop 0 0 moveto } bd
/ET { _ctm setmatrix } bd
/iTm { _ctm setmatrix _tm concat } bd
/Tm { _tm astore pop iTm 0 0 moveto } bd
/ux 0.0 def
/uy 0.0 def
/F {
  /Tp exch def
  /Tf exch def
  Tf findfont Tp scalefont setfont
  /cf Tf def  /cs Tp def
} bd
/ULS {currentpoint /uy exch def /ux exch def} bd
/ULE {
  /Tcx currentpoint pop def
  gsave
  newpath
  cf findfont cs scalefont dup
  /FontMatrix get 0 get /Ts exch def /FontInfo get dup
  /UnderlinePosition get Ts mul /To exch def
  /UnderlineThickness get Ts mul /Tt exch def
  ux uy To add moveto  Tcx uy To add lineto
  Tt setlinewidth stroke
  grestore
} bd
/OLE {
  /Tcx currentpoint pop def
  gsave
  newpath
  cf findfont cs scalefont dup
  /FontMatrix get 0 get /Ts exch def /FontInfo get dup
  /UnderlinePosition get Ts mul /To exch def
  /UnderlineThickness get Ts mul /Tt exch def
  ux uy To add cs add moveto Tcx uy To add cs add lineto
  Tt setlinewidth stroke
  grestore
} bd
/SOE {
  /Tcx currentpoint pop def
  gsave
  newpath
  cf findfont cs scalefont dup
  /FontMatrix get 0 get /Ts exch def /FontInfo get dup
  /UnderlinePosition get Ts mul /To exch def
  /UnderlineThickness get Ts mul /Tt exch def
  ux uy To add cs 10 mul 26 idiv add moveto Tcx uy To add cs 10 mul 26 idiv add lineto
  Tt setlinewidth stroke
  grestore
} bd
/QT {
/Y22 exch store
/X22 exch store
/Y21 exch store
/X21 exch store
currentpoint
/Y21 load 2 mul add 3 div exch
/X21 load 2 mul add 3 div exch
/X21 load 2 mul /X22 load add 3 div
/Y21 load 2 mul /Y22 load add 3 div
/X22 load /Y22 load curveto
} bd
/SSPD {
dup length /d exch dict def
{
/v exch def
/k exch def
currentpagedevice k known {
/cpdv currentpagedevice k get def
v cpdv ne {
/upd false def
/nullv v type /nulltype eq def
/nullcpdv cpdv type /nulltype eq def
nullv nullcpdv or
{
/upd true def
} {
/sametype v type cpdv type eq def
sametype {
v type /arraytype eq {
/vlen v length def
/cpdvlen cpdv length def
vlen cpdvlen eq {
0 1 vlen 1 sub {
/i exch def
/obj v i get def
/cpdobj cpdv i get def
obj cpdobj ne {
/upd true def
exit
} if
} for
} {
/upd true def
} ifelse
} {
v type /dicttype eq {
v {
/dv exch def
/dk exch def
/cpddv cpdv dk get def
dv cpddv ne {
/upd true def
exit
} if
} forall
} {
/upd true def
} ifelse
} ifelse
} if
} ifelse
upd true eq {
d k v put
} if
} if
} if
} forall
d length 0 gt {
d setpagedevice
} if
} bd
/RE { % /NewFontName [NewEncodingArray] /FontName RE -
  findfont dup length dict begin
  {
    1 index /FID ne
    {def} {pop pop} ifelse
  } forall
  /Encoding exch def
  /FontName 1 index def
  currentdict definefont pop
  end
} bind def
%%EndResource
%%BeginResource: procset (Apache XML Graphics EPS ProcSet) 1.0 0
%%Version: 1.0 0
%%Copyright: (Copyright 2002-2003 The Apache Software Foundation. License terms: http://www.apache.org/licenses/LICENSE-2.0)
/BeginEPSF { %def
/b4_Inc_state save def         % Save state for cleanup
/dict_count countdictstack def % Count objects on dict stack
/op_count count 1 sub def      % Count objects on operand stack
userdict begin                 % Push userdict on dict stack
/showpage { } def              % Redefine showpage, { } = null proc
0 setgray 0 setlinecap         % Prepare graphics state
1 setlinewidth 0 setlinejoin
10 setmiterlimit [ ] 0 setdash newpath
/languagelevel where           % If level not equal to 1 then
{pop languagelevel             % set strokeadjust and
1 ne                           % overprint to their defaults.
{false setstrokeadjust false setoverprint
} if
} if
} bd
/EndEPSF { %def
count op_count sub {pop} repeat            % Clean up stacks
countdictstack dict_count sub {end} repeat
b4_Inc_state restore
} bd
%%EndResource
%FOPBeginFontDict
%%IncludeResource: font Courier-Bold
%%IncludeResource: font Helvetica
%%IncludeResource: font Courier-BoldOblique
%%IncludeResource: font Courier-Oblique
%%IncludeResource: font Times-Roman
%%IncludeResource: font Helvetica-BoldOblique
%%IncludeResource: font Helvetica-Bold
%%IncludeResource: font Helvetica-Oblique
%%IncludeResource: font Times-BoldItalic
%%IncludeResource: font Courier
%%IncludeResource: font Times-Italic
%%IncludeResource: font Times-Bold
%%IncludeResource: font Symbol
%%IncludeResource: font ZapfDingbats
%FOPEndFontDict
%%BeginResource: encoding WinAnsiEncoding
/WinAnsiEncoding [
/.notdef /.notdef /.notdef /.notdef /.notdef
/.notdef /.notdef /.notdef /.notdef /.notdef
/.notdef /.notdef /.notdef /.notdef /.notdef
/.notdef /.notdef /.notdef /.notdef /.notdef
/.notdef /.notdef /.notdef /.notdef /.notdef
/.notdef /.notdef /.notdef /.notdef /.notdef
/.notdef /.notdef /space /exclam /quotedbl
/numbersign /dollar /percent /ampersand /quotesingle
/parenleft /parenright /asterisk /plus /comma
/hyphen /period /slash /zero /one
/two /three /four /five /six
/seven /eight /nine /colon /semicolon
/less /equal /greater /question /at
/A /B /C /D /E
/F /G /H /I /J
/K /L /M /N /O
/P /Q /R /S /T
/U /V /W /X /Y
/Z /bracketleft /backslash /bracketright /asciicircum
/underscore /quoteleft /a /b /c
/d /e /f /g /h
/i /j /k /l /m
/n /o /p /q /r
/s /t /u /v /w
/x /y /z /braceleft /bar
/braceright /asciitilde /bullet /Euro /bullet
/quotesinglbase /florin /quotedblbase /ellipsis /dagger
/daggerdbl /circumflex /perthousand /Scaron /guilsinglleft
/OE /bullet /Zcaron /bullet /bullet
/quoteleft /quoteright /quotedblleft /quotedblright /bullet
/endash /emdash /asciitilde /trademark /scaron
/guilsinglright /oe /bullet /zcaron /Ydieresis
/space /exclamdown /cent /sterling /currency
/yen /brokenbar /section /dieresis /copyright
/ordfeminine /guillemotleft /logicalnot /sfthyphen /registered
/macron /degree /plusminus /twosuperior /threesuperior
/acute /mu /paragraph /middot /cedilla
/onesuperior /ordmasculine /guillemotright /onequarter /onehalf
/threequarters /questiondown /Agrave /Aacute /Acircumflex
/Atilde /Adieresis /Aring /AE /Ccedilla
/Egrave /Eacute /Ecircumflex /Edieresis /Igrave
/Iacute /Icircumflex /Idieresis /Eth /Ntilde
/Ograve /Oacute /Ocircumflex /Otilde /Odieresis
/multiply /Oslash /Ugrave /Uacute /Ucircumflex
/Udieresis /Yacute /Thorn /germandbls /agrave
/aacute /acircumflex /atilde /adieresis /aring
/ae /ccedilla /egrave /eacute /ecircumflex
/edieresis /igrave /iacute /icircumflex /idieresis
/eth /ntilde /ograve /oacute /ocircumflex
/otilde /odieresis /divide /oslash /ugrave
/uacute /ucircumflex /udieresis /yacute /thorn
/ydieresis
] def
%%EndResource
%FOPBeginFontReencode
/Courier-Bold findfont
dup length dict begin
  {1 index /FID ne {def} {pop pop} ifelse} forall
  /Encoding WinAnsiEncoding def
  currentdict
end
/Courier-Bold exch definefont pop
/Helvetica findfont
dup length dict begin
  {1 index /FID ne {def} {pop pop} ifelse} forall
  /Encoding WinAnsiEncoding def
  currentdict
end
/Helvetica exch definefont pop
/Courier-BoldOblique findfont
dup length dict begin
  {1 index /FID ne {def} {pop pop} ifelse} forall
  /Encoding WinAnsiEncoding def
  currentdict
end
/Courier-BoldOblique exch definefont pop
/Courier-Oblique findfont
dup length dict begin
  {1 index /FID ne {def} {pop pop} ifelse} forall
  /Encoding WinAnsiEncoding def
  currentdict
end
/Courier-Oblique exch definefont pop
/Times-Roman findfont
dup length dict begin
  {1 index /FID ne {def} {pop pop} ifelse} forall
  /Encoding WinAnsiEncoding def
  currentdict
end
/Times-Roman exch definefont pop
/Helvetica-BoldOblique findfont
dup length dict begin
  {1 index /FID ne {def} {pop pop} ifelse} forall
  /Encoding WinAnsiEncoding def
  currentdict
end
/Helvetica-BoldOblique exch definefont pop
/Helvetica-Bold findfont
dup length dict begin
  {1 index /FID ne {def} {pop pop} ifelse} forall
  /Encoding WinAnsiEncoding def
  currentdict
end
/Helvetica-Bold exch definefont pop
/Helvetica-Oblique findfont
dup length dict begin
  {1 index /FID ne {def} {pop pop} ifelse} forall
  /Encoding WinAnsiEncoding def
  currentdict
end
/Helvetica-Oblique exch definefont pop
/Times-BoldItalic findfont
dup length dict begin
  {1 index /FID ne {def} {pop pop} ifelse} forall
  /Encoding WinAnsiEncoding def
  currentdict
end
/Times-BoldItalic exch definefont pop
/Courier findfont
dup length dict begin
  {1 index /FID ne {def} {pop pop} ifelse} forall
  /Encoding WinAnsiEncoding def
  currentdict
end
/Courier exch definefont pop
/Times-Italic findfont
dup length dict begin
  {1 index /FID ne {def} {pop pop} ifelse} forall
  /Encoding WinAnsiEncoding def
  currentdict
end
/Times-Italic exch definefont pop
/Times-Bold findfont
dup length dict begin
  {1 index /FID ne {def} {pop pop} ifelse} forall
  /Encoding WinAnsiEncoding def
  currentdict
end
/Times-Bold exch definefont pop
%FOPEndFontReencode
%%EndProlog
%%Page: 1 1
%%PageBoundingBox: 0 0 1439 445
%%BeginPageSetup
[1 0 0 -1 0 445] CT
%%EndPageSetup
GS
[0.75 0 0 0.75 0 0.25] CT
N
0 0 M
1918 0 L
1918 593 L
0 593 L
0 0 L
cp
clip
1 GC
N
0 0 1918 593 re
f
GR
GS
[0.75 0 0 0.75 0 0.25] CT
1 GC
N
0 0 1918 593 re
f
GR
GS
[0.75 0 0 0.75 0 0.25] CT
1 GC
N
249 528 M
1736 528 L
1736 44 L
249 44 L
cp
f
GR
GS
[0.75 0 0 0.75 0 0.25] CT
0.873 GC
1 LJ
0.667 LW
N
249 528 M
249 44 L
S
GR
GS
[0.75 0 0 0.75 0 0.25] CT
0.873 GC
1 LJ
0.667 LW
N
546.4 528 M
546.4 44 L
S
GR
GS
[0.75 0 0 0.75 0 0.25] CT
0.873 GC
1 LJ
0.667 LW
N
843.8 528 M
843.8 44 L
S
GR
GS
[0.75 0 0 0.75 0 0.25] CT
0.873 GC
1 LJ
0.667 LW
N
1141.2 528 M
1141.2 44 L
S
GR
GS
[0.75 0 0 0.75 0 0.25] CT
0.873 GC
1 LJ
0.667 LW
N
1438.6 528 M
1438.6 44 L
S
GR
GS
[0.75 0 0 0.75 0 0.25] CT
0.873 GC
1 LJ
0.667 LW
N
1736 528 M
1736 44 L
S
GR
GS
[0.75 0 0 0.75 0 0.25] CT
0.873 GC
1 LJ
0.667 LW
N
1736 528 M
249 528 L
S
GR
GS
[0.75 0 0 0.75 0 0.25] CT
0.873 GC
1 LJ
0.667 LW
N
1736 479.6 M
249 479.6 L
S
GR
GS
[0.75 0 0 0.75 0 0.25] CT
0.873 GC
1 LJ
0.667 LW
N
1736 431.2 M
249 431.2 L
S
GR
GS
[0.75 0 0 0.75 0 0.25] CT
0.873 GC
1 LJ
0.667 LW
N
1736 382.8 M
249 382.8 L
S
GR
GS
[0.75 0 0 0.75 0 0.25] CT
0.873 GC
1 LJ
0.667 LW
N
1736 334.4 M
249 334.4 L
S
GR
GS
[0.75 0 0 0.75 0 0.25] CT
0.873 GC
1 LJ
0.667 LW
N
1736 286 M
249 286 L
S
GR
GS
[0.75 0 0 0.75 0 0.25] CT
0.873 GC
1 LJ
0.667 LW
N
1736 237.6 M
249 237.6 L
S
GR
GS
[0.75 0 0 0.75 0 0.25] CT
0.873 GC
1 LJ
0.667 LW
N
1736 189.2 M
249 189.2 L
S
GR
GS
[0.75 0 0 0.75 0 0.25] CT
0.873 GC
1 LJ
0.667 LW
N
1736 140.8 M
249 140.8 L
S
GR
GS
[0.75 0 0 0.75 0 0.25] CT
0.873 GC
1 LJ
0.667 LW
N
1736 92.4 M
249 92.4 L
S
GR
GS
[0.75 0 0 0.75 0 0.25] CT
0.873 GC
1 LJ
0.667 LW
N
1736 44 M
249 44 L
S
GR
GS
[0.75 0 0 0.75 0 0.25] CT
0.149 GC
2 setlinecap
1 LJ
0.667 LW
N
249 528 M
1736 528 L
S
GR
GS
[0.75 0 0 0.75 0 0.25] CT
0.149 GC
2 setlinecap
1 LJ
0.667 LW
N
249 44 M
1736 44 L
S
GR
GS
[0.75 0 0 0.75 0 0.25] CT
0.149 GC
2 setlinecap
1 LJ
0.667 LW
N
249 528 M
249 513.13 L
S
GR
GS
[0.75 0 0 0.75 0 0.25] CT
0.149 GC
2 setlinecap
1 LJ
0.667 LW
N
546.4 528 M
546.4 513.13 L
S
GR
GS
[0.75 0 0 0.75 0 0.25] CT
0.149 GC
2 setlinecap
1 LJ
0.667 LW
N
843.8 528 M
843.8 513.13 L
S
GR
GS
[0.75 0 0 0.75 0 0.25] CT
0.149 GC
2 setlinecap
1 LJ
0.667 LW
N
1141.2 528 M
1141.2 513.13 L
S
GR
GS
[0.75 0 0 0.75 0 0.25] CT
0.149 GC
2 setlinecap
1 LJ
0.667 LW
N
1438.6 528 M
1438.6 513.13 L
S
GR
GS
[0.75 0 0 0.75 0 0.25] CT
0.149 GC
2 setlinecap
1 LJ
0.667 LW
N
1736 528 M
1736 513.13 L
S
GR
GS
[0.75 0 0 0.75 0 0.25] CT
0.149 GC
2 setlinecap
1 LJ
0.667 LW
N
249 44 M
249 58.87 L
S
GR
GS
[0.75 0 0 0.75 0 0.25] CT
0.149 GC
2 setlinecap
1 LJ
0.667 LW
N
546.4 44 M
546.4 58.87 L
S
GR
GS
[0.75 0 0 0.75 0 0.25] CT
0.149 GC
2 setlinecap
1 LJ
0.667 LW
N
843.8 44 M
843.8 58.87 L
S
GR
GS
[0.75 0 0 0.75 0 0.25] CT
0.149 GC
2 setlinecap
1 LJ
0.667 LW
N
1141.2 44 M
1141.2 58.87 L
S
GR
GS
[0.75 0 0 0.75 0 0.25] CT
0.149 GC
2 setlinecap
1 LJ
0.667 LW
N
1438.6 44 M
1438.6 58.87 L
S
GR
GS
[0.75 0 0 0.75 0 0.25] CT
0.149 GC
2 setlinecap
1 LJ
0.667 LW
N
1736 44 M
1736 58.87 L
S
GR
GS
[0.75 0 0 0.75 186.75 401.45001] CT
0.149 GC
/Courier 21.333 F
GS
[1 0 0 1 0 0] CT
-5.5 20 moveto 
1 -1 scale
(0) t 
GR
GR
GS
[0.75 0 0 0.75 409.80002 401.45001] CT
0.149 GC
/Courier 21.333 F
GS
[1 0 0 1 0 0] CT
-13.5 20 moveto 
1 -1 scale
(0.5) t 
GR
GR
GS
[0.75 0 0 0.75 632.84999 401.45001] CT
0.149 GC
/Courier 21.333 F
GS
[1 0 0 1 0 0] CT
-5.5 20 moveto 
1 -1 scale
(1) t 
GR
GR
GS
[0.75 0 0 0.75 855.90005 401.45001] CT
0.149 GC
/Courier 21.333 F
GS
[1 0 0 1 0 0] CT
-13.5 20 moveto 
1 -1 scale
(1.5) t 
GR
GR
GS
[0.75 0 0 0.75 1078.94998 401.45001] CT
0.149 GC
/Courier 21.333 F
GS
[1 0 0 1 0 0] CT
-5.5 20 moveto 
1 -1 scale
(2) t 
GR
GR
GS
[0.75 0 0 0.75 1302 401.45001] CT
0.149 GC
/Courier 21.333 F
GS
[1 0 0 1 0 0] CT
-13.5 20 moveto 
1 -1 scale
(2.5) t 
GR
GR
GS
[0.75 0 0 0.75 744.37555 421.2] CT
0.149 GC
/Courier 23.467 F
GS
[1 0 0 1 0 0] CT
-18.5 21 moveto 
1 -1 scale
(t \(s\)) t 
GR
GR
GS
[0.75 0 0 0.75 1262.25 440.5] CT
0.149 GC
N
3.094 -0.609 M
3.094 -0.766 3.188 -0.906 QT
7.563 -5.25 L
3.188 -9.625 L
3.094 -9.719 3.094 -9.891 QT
3.094 -10.047 3.211 -10.18 QT
3.328 -10.313 3.5 -10.313 QT
3.656 -10.313 3.828 -10.188 QT
8.172 -5.828 L
12.5 -10.188 L
12.672 -10.313 12.813 -10.313 QT
12.984 -10.313 13.109 -10.188 QT
13.234 -10.063 13.234 -9.891 QT
13.234 -9.719 13.125 -9.625 QT
8.75 -5.25 L
13.125 -0.906 L
13.234 -0.766 13.234 -0.609 QT
13.234 -0.438 13.109 -0.313 QT
12.984 -0.188 12.813 -0.188 QT
12.656 -0.188 12.5 -0.344 QT
8.172 -4.672 L
3.828 -0.344 L
3.672 -0.188 3.5 -0.188 QT
3.328 -0.188 3.211 -0.32 QT
3.094 -0.453 3.094 -0.609 QT
cp
f
GR
GS
[0.75 0 0 0.75 1275 440.5] CT
0.149 GC
/Courier 21.333 F
GS
[1 0 0 1 0 0] CT
0 0 moveto 
1 -1 scale
(10) t 
GR
GR
GS
[0.75 0 0 0.75 1290.75 433] CT
0.149 GC
/Courier 17.067 F
GS
[1 0 0 1 0 0] CT
0 0 moveto 
1 -1 scale
(-6) t 
GR
GR
GS
[0.75 0 0 0.75 0 0.25] CT
0.149 GC
2 setlinecap
1 LJ
0.667 LW
N
249 528 M
249 44 L
S
GR
GS
[0.75 0 0 0.75 0 0.25] CT
0.149 GC
2 setlinecap
1 LJ
0.667 LW
N
1736 528 M
1736 44 L
S
GR
GS
[0.75 0 0 0.75 0 0.25] CT
0.149 GC
2 setlinecap
1 LJ
0.667 LW
N
249 528 M
263.87 528 L
S
GR
GS
[0.75 0 0 0.75 0 0.25] CT
0.149 GC
2 setlinecap
1 LJ
0.667 LW
N
249 479.6 M
263.87 479.6 L
S
GR
GS
[0.75 0 0 0.75 0 0.25] CT
0.149 GC
2 setlinecap
1 LJ
0.667 LW
N
249 431.2 M
263.87 431.2 L
S
GR
GS
[0.75 0 0 0.75 0 0.25] CT
0.149 GC
2 setlinecap
1 LJ
0.667 LW
N
249 382.8 M
263.87 382.8 L
S
GR
GS
[0.75 0 0 0.75 0 0.25] CT
0.149 GC
2 setlinecap
1 LJ
0.667 LW
N
249 334.4 M
263.87 334.4 L
S
GR
GS
[0.75 0 0 0.75 0 0.25] CT
0.149 GC
2 setlinecap
1 LJ
0.667 LW
N
249 286 M
263.87 286 L
S
GR
GS
[0.75 0 0 0.75 0 0.25] CT
0.149 GC
2 setlinecap
1 LJ
0.667 LW
N
249 237.6 M
263.87 237.6 L
S
GR
GS
[0.75 0 0 0.75 0 0.25] CT
0.149 GC
2 setlinecap
1 LJ
0.667 LW
N
249 189.2 M
263.87 189.2 L
S
GR
GS
[0.75 0 0 0.75 0 0.25] CT
0.149 GC
2 setlinecap
1 LJ
0.667 LW
N
249 140.8 M
263.87 140.8 L
S
GR
GS
[0.75 0 0 0.75 0 0.25] CT
0.149 GC
2 setlinecap
1 LJ
0.667 LW
N
249 92.4 M
263.87 92.4 L
S
GR
GS
[0.75 0 0 0.75 0 0.25] CT
0.149 GC
2 setlinecap
1 LJ
0.667 LW
N
249 44 M
263.87 44 L
S
GR
GS
[0.75 0 0 0.75 0 0.25] CT
0.149 GC
2 setlinecap
1 LJ
0.667 LW
N
1736 528 M
1721.13 528 L
S
GR
GS
[0.75 0 0 0.75 0 0.25] CT
0.149 GC
2 setlinecap
1 LJ
0.667 LW
N
1736 479.6 M
1721.13 479.6 L
S
GR
GS
[0.75 0 0 0.75 0 0.25] CT
0.149 GC
2 setlinecap
1 LJ
0.667 LW
N
1736 431.2 M
1721.13 431.2 L
S
GR
GS
[0.75 0 0 0.75 0 0.25] CT
0.149 GC
2 setlinecap
1 LJ
0.667 LW
N
1736 382.8 M
1721.13 382.8 L
S
GR
GS
[0.75 0 0 0.75 0 0.25] CT
0.149 GC
2 setlinecap
1 LJ
0.667 LW
N
1736 334.4 M
1721.13 334.4 L
S
GR
GS
[0.75 0 0 0.75 0 0.25] CT
0.149 GC
2 setlinecap
1 LJ
0.667 LW
N
1736 286 M
1721.13 286 L
S
GR
GS
[0.75 0 0 0.75 0 0.25] CT
0.149 GC
2 setlinecap
1 LJ
0.667 LW
N
1736 237.6 M
1721.13 237.6 L
S
GR
GS
[0.75 0 0 0.75 0 0.25] CT
0.149 GC
2 setlinecap
1 LJ
0.667 LW
N
1736 189.2 M
1721.13 189.2 L
S
GR
GS
[0.75 0 0 0.75 0 0.25] CT
0.149 GC
2 setlinecap
1 LJ
0.667 LW
N
1736 140.8 M
1721.13 140.8 L
S
GR
GS
[0.75 0 0 0.75 0 0.25] CT
0.149 GC
2 setlinecap
1 LJ
0.667 LW
N
1736 92.4 M
1721.13 92.4 L
S
GR
GS
[0.75 0 0 0.75 0 0.25] CT
0.149 GC
2 setlinecap
1 LJ
0.667 LW
N
1736 44 M
1721.13 44 L
S
GR
GS
[0.75 0 0 0.75 181.55 396.25] CT
0.149 GC
/Courier 21.333 F
GS
[1 0 0 1 0 0] CT
-18 7.5 moveto 
1 -1 scale
(-1) t 
GR
GR
GS
[0.75 0 0 0.75 181.55 359.95] CT
0.149 GC
/Courier 21.333 F
GS
[1 0 0 1 0 0] CT
-34 7.5 moveto 
1 -1 scale
(-0.8) t 
GR
GR
GS
[0.75 0 0 0.75 181.55 323.65001] CT
0.149 GC
/Courier 21.333 F
GS
[1 0 0 1 0 0] CT
-34 7.5 moveto 
1 -1 scale
(-0.6) t 
GR
GR
GS
[0.75 0 0 0.75 181.55 287.34999] CT
0.149 GC
/Courier 21.333 F
GS
[1 0 0 1 0 0] CT
-34 7.5 moveto 
1 -1 scale
(-0.4) t 
GR
GR
GS
[0.75 0 0 0.75 181.55 251.05] CT
0.149 GC
/Courier 21.333 F
GS
[1 0 0 1 0 0] CT
-34 7.5 moveto 
1 -1 scale
(-0.2) t 
GR
GR
GS
[0.75 0 0 0.75 181.55 214.75] CT
0.149 GC
/Courier 21.333 F
GS
[1 0 0 1 0 0] CT
-11 7.5 moveto 
1 -1 scale
(0) t 
GR
GR
GS
[0.75 0 0 0.75 181.55 178.44999] CT
0.149 GC
/Courier 21.333 F
GS
[1 0 0 1 0 0] CT
-27 7.5 moveto 
1 -1 scale
(0.2) t 
GR
GR
GS
[0.75 0 0 0.75 181.55 142.15001] CT
0.149 GC
/Courier 21.333 F
GS
[1 0 0 1 0 0] CT
-27 7.5 moveto 
1 -1 scale
(0.4) t 
GR
GR
GS
[0.75 0 0 0.75 181.55 105.84999] CT
0.149 GC
/Courier 21.333 F
GS
[1 0 0 1 0 0] CT
-27 7.5 moveto 
1 -1 scale
(0.6) t 
GR
GR
GS
[0.75 0 0 0.75 181.55 69.55001] CT
0.149 GC
/Courier 21.333 F
GS
[1 0 0 1 0 0] CT
-27 7.5 moveto 
1 -1 scale
(0.8) t 
GR
GR
GS
[0.75 0 0 0.75 181.55 33.25] CT
0.149 GC
/Courier 21.333 F
GS
[1 0 0 1 0 0] CT
-11 7.5 moveto 
1 -1 scale
(1) t 
GR
GR
GS
[0.75 0 0 0.75 0 0.25] CT
0.149 GC
1 LJ
0.667 LW
N
249 286 M
1736 286 L
S
GR
GS
[0.75 0 0 0.75 186.75 173.8484] CT
0 0.447 0.741 RC
10.0 ML
1.333 LW
N
-2.828 -2.828 M
2.828 2.828 L
-2.828 2.828 M
2.828 -2.828 L
S
GR
GS
[0.75 0 0 0.75 201.27148 214.75] CT
0 0.447 0.741 RC
10.0 ML
1.333 LW
N
-2.828 -2.828 M
2.828 2.828 L
-2.828 2.828 M
2.828 -2.828 L
S
GR
GS
[0.75 0 0 0.75 215.79298 214.75] CT
0 0.447 0.741 RC
10.0 ML
1.333 LW
N
-2.828 -2.828 M
2.828 2.828 L
-2.828 2.828 M
2.828 -2.828 L
S
GR
GS
[0.75 0 0 0.75 230.31445 214.75] CT
0 0.447 0.741 RC
10.0 ML
1.333 LW
N
-2.828 -2.828 M
2.828 2.828 L
-2.828 2.828 M
2.828 -2.828 L
S
GR
GS
[0.75 0 0 0.75 244.83593 214.75] CT
0 0.447 0.741 RC
10.0 ML
1.333 LW
N
-2.828 -2.828 M
2.828 2.828 L
-2.828 2.828 M
2.828 -2.828 L
S
GR
GS
[0.75 0 0 0.75 259.35743 214.75] CT
0 0.447 0.741 RC
10.0 ML
1.333 LW
N
-2.828 -2.828 M
2.828 2.828 L
-2.828 2.828 M
2.828 -2.828 L
S
GR
GS
[0.75 0 0 0.75 273.87891 214.75] CT
0 0.447 0.741 RC
10.0 ML
1.333 LW
N
-2.828 -2.828 M
2.828 2.828 L
-2.828 2.828 M
2.828 -2.828 L
S
GR
GS
[0.75 0 0 0.75 288.40038 150.86906] CT
0 0.447 0.741 RC
10.0 ML
1.333 LW
N
-2.828 -2.828 M
2.828 2.828 L
-2.828 2.828 M
2.828 -2.828 L
S
GR
GS
[0.75 0 0 0.75 302.92188 214.75] CT
0 0.447 0.741 RC
10.0 ML
1.333 LW
N
-2.828 -2.828 M
2.828 2.828 L
-2.828 2.828 M
2.828 -2.828 L
S
GR
GS
[0.75 0 0 0.75 317.44336 214.75] CT
0 0.447 0.741 RC
10.0 ML
1.333 LW
N
-2.828 -2.828 M
2.828 2.828 L
-2.828 2.828 M
2.828 -2.828 L
S
GR
GS
[0.75 0 0 0.75 331.96484 214.75] CT
0 0.447 0.741 RC
10.0 ML
1.333 LW
N
-2.828 -2.828 M
2.828 2.828 L
-2.828 2.828 M
2.828 -2.828 L
S
GR
GS
[0.75 0 0 0.75 346.48634 214.75] CT
0 0.447 0.741 RC
10.0 ML
1.333 LW
N
-2.828 -2.828 M
2.828 2.828 L
-2.828 2.828 M
2.828 -2.828 L
S
GR
GS
[0.75 0 0 0.75 361.00781 214.75] CT
0 0.447 0.741 RC
10.0 ML
1.333 LW
N
-2.828 -2.828 M
2.828 2.828 L
-2.828 2.828 M
2.828 -2.828 L
S
GR
GS
[0.75 0 0 0.75 375.52929 214.75] CT
0 0.447 0.741 RC
10.0 ML
1.333 LW
N
-2.828 -2.828 M
2.828 2.828 L
-2.828 2.828 M
2.828 -2.828 L
S
GR
GS
[0.75 0 0 0.75 390.05077 214.75] CT
0 0.447 0.741 RC
10.0 ML
1.333 LW
N
-2.828 -2.828 M
2.828 2.828 L
-2.828 2.828 M
2.828 -2.828 L
S
GR
GS
[0.75 0 0 0.75 404.57227 214.75] CT
0 0.447 0.741 RC
10.0 ML
1.333 LW
N
-2.828 -2.828 M
2.828 2.828 L
-2.828 2.828 M
2.828 -2.828 L
S
GR
GS
[0.75 0 0 0.75 419.09377 190.26959] CT
0 0.447 0.741 RC
10.0 ML
1.333 LW
N
-2.828 -2.828 M
2.828 2.828 L
-2.828 2.828 M
2.828 -2.828 L
S
GR
GS
[0.75 0 0 0.75 433.61522 214.75] CT
0 0.447 0.741 RC
10.0 ML
1.333 LW
N
-2.828 -2.828 M
2.828 2.828 L
-2.828 2.828 M
2.828 -2.828 L
S
GR
GS
[0.75 0 0 0.75 448.13672 214.75] CT
0 0.447 0.741 RC
10.0 ML
1.333 LW
N
-2.828 -2.828 M
2.828 2.828 L
-2.828 2.828 M
2.828 -2.828 L
S
GR
GS
[0.75 0 0 0.75 462.65822 214.75] CT
0 0.447 0.741 RC
10.0 ML
1.333 LW
N
-2.828 -2.828 M
2.828 2.828 L
-2.828 2.828 M
2.828 -2.828 L
S
GR
GS
[0.75 0 0 0.75 477.17967 214.75] CT
0 0.447 0.741 RC
10.0 ML
1.333 LW
N
-2.828 -2.828 M
2.828 2.828 L
-2.828 2.828 M
2.828 -2.828 L
S
GR
GS
[0.75 0 0 0.75 491.70117 152.92114] CT
0 0.447 0.741 RC
10.0 ML
1.333 LW
N
-2.828 -2.828 M
2.828 2.828 L
-2.828 2.828 M
2.828 -2.828 L
S
GR
GS
[0.75 0 0 0.75 506.22267 214.75] CT
0 0.447 0.741 RC
10.0 ML
1.333 LW
N
-2.828 -2.828 M
2.828 2.828 L
-2.828 2.828 M
2.828 -2.828 L
S
GR
GS
[0.75 0 0 0.75 520.74413 214.75] CT
0 0.447 0.741 RC
10.0 ML
1.333 LW
N
-2.828 -2.828 M
2.828 2.828 L
-2.828 2.828 M
2.828 -2.828 L
S
GR
GS
[0.75 0 0 0.75 535.26563 214.75] CT
0 0.447 0.741 RC
10.0 ML
1.333 LW
N
-2.828 -2.828 M
2.828 2.828 L
-2.828 2.828 M
2.828 -2.828 L
S
GR
GS
[0.75 0 0 0.75 549.78712 214.75] CT
0 0.447 0.741 RC
10.0 ML
1.333 LW
N
-2.828 -2.828 M
2.828 2.828 L
-2.828 2.828 M
2.828 -2.828 L
S
GR
GS
[0.75 0 0 0.75 564.30858 214.75] CT
0 0.447 0.741 RC
10.0 ML
1.333 LW
N
-2.828 -2.828 M
2.828 2.828 L
-2.828 2.828 M
2.828 -2.828 L
S
GR
GS
[0.75 0 0 0.75 578.83008 213.00977] CT
0 0.447 0.741 RC
10.0 ML
1.333 LW
N
-2.828 -2.828 M
2.828 2.828 L
-2.828 2.828 M
2.828 -2.828 L
S
GR
GS
[0.75 0 0 0.75 593.35158 214.75] CT
0 0.447 0.741 RC
10.0 ML
1.333 LW
N
-2.828 -2.828 M
2.828 2.828 L
-2.828 2.828 M
2.828 -2.828 L
S
GR
GS
[0.75 0 0 0.75 607.87303 214.75] CT
0 0.447 0.741 RC
10.0 ML
1.333 LW
N
-2.828 -2.828 M
2.828 2.828 L
-2.828 2.828 M
2.828 -2.828 L
S
GR
GS
[0.75 0 0 0.75 622.39453 214.75] CT
0 0.447 0.741 RC
10.0 ML
1.333 LW
N
-2.828 -2.828 M
2.828 2.828 L
-2.828 2.828 M
2.828 -2.828 L
S
GR
GS
[0.75 0 0 0.75 636.91603 214.75] CT
0 0.447 0.741 RC
10.0 ML
1.333 LW
N
-2.828 -2.828 M
2.828 2.828 L
-2.828 2.828 M
2.828 -2.828 L
S
GR
GS
[0.75 0 0 0.75 651.43748 214.75] CT
0 0.447 0.741 RC
10.0 ML
1.333 LW
N
-2.828 -2.828 M
2.828 2.828 L
-2.828 2.828 M
2.828 -2.828 L
S
GR
GS
[0.75 0 0 0.75 665.95898 214.75] CT
0 0.447 0.741 RC
10.0 ML
1.333 LW
N
-2.828 -2.828 M
2.828 2.828 L
-2.828 2.828 M
2.828 -2.828 L
S
GR
GS
[0.75 0 0 0.75 680.48048 214.75] CT
0 0.447 0.741 RC
10.0 ML
1.333 LW
N
-2.828 -2.828 M
2.828 2.828 L
-2.828 2.828 M
2.828 -2.828 L
S
GR
GS
[0.75 0 0 0.75 695.00194 214.75] CT
0 0.447 0.741 RC
10.0 ML
1.333 LW
N
-2.828 -2.828 M
2.828 2.828 L
-2.828 2.828 M
2.828 -2.828 L
S
GR
GS
[0.75 0 0 0.75 709.52344 214.75] CT
0 0.447 0.741 RC
10.0 ML
1.333 LW
N
-2.828 -2.828 M
2.828 2.828 L
-2.828 2.828 M
2.828 -2.828 L
S
GR
GS
[0.75 0 0 0.75 724.04494 214.75] CT
0 0.447 0.741 RC
10.0 ML
1.333 LW
N
-2.828 -2.828 M
2.828 2.828 L
-2.828 2.828 M
2.828 -2.828 L
S
GR
GS
[0.75 0 0 0.75 738.56639 213.98123] CT
0 0.447 0.741 RC
10.0 ML
1.333 LW
N
-2.828 -2.828 M
2.828 2.828 L
-2.828 2.828 M
2.828 -2.828 L
S
GR
GS
[0.75 0 0 0.75 753.08789 214.75] CT
0 0.447 0.741 RC
10.0 ML
1.333 LW
N
-2.828 -2.828 M
2.828 2.828 L
-2.828 2.828 M
2.828 -2.828 L
S
GR
GS
[0.75 0 0 0.75 767.60934 222.71912] CT
0 0.447 0.741 RC
10.0 ML
1.333 LW
N
-2.828 -2.828 M
2.828 2.828 L
-2.828 2.828 M
2.828 -2.828 L
S
GR
GS
[0.75 0 0 0.75 782.13089 212.78166] CT
0 0.447 0.741 RC
10.0 ML
1.333 LW
N
-2.828 -2.828 M
2.828 2.828 L
-2.828 2.828 M
2.828 -2.828 L
S
GR
GS
[0.75 0 0 0.75 796.65234 214.75] CT
0 0.447 0.741 RC
10.0 ML
1.333 LW
N
-2.828 -2.828 M
2.828 2.828 L
-2.828 2.828 M
2.828 -2.828 L
S
GR
GS
[0.75 0 0 0.75 811.1738 214.75] CT
0 0.447 0.741 RC
10.0 ML
1.333 LW
N
-2.828 -2.828 M
2.828 2.828 L
-2.828 2.828 M
2.828 -2.828 L
S
GR
GS
[0.75 0 0 0.75 825.69534 214.75] CT
0 0.447 0.741 RC
10.0 ML
1.333 LW
N
-2.828 -2.828 M
2.828 2.828 L
-2.828 2.828 M
2.828 -2.828 L
S
GR
GS
[0.75 0 0 0.75 840.2168 214.75] CT
0 0.447 0.741 RC
10.0 ML
1.333 LW
N
-2.828 -2.828 M
2.828 2.828 L
-2.828 2.828 M
2.828 -2.828 L
S
GR
GS
[0.75 0 0 0.75 854.73825 214.75] CT
0 0.447 0.741 RC
10.0 ML
1.333 LW
N
-2.828 -2.828 M
2.828 2.828 L
-2.828 2.828 M
2.828 -2.828 L
S
GR
GS
[0.75 0 0 0.75 869.2598 217.48502] CT
0 0.447 0.741 RC
10.0 ML
1.333 LW
N
-2.828 -2.828 M
2.828 2.828 L
-2.828 2.828 M
2.828 -2.828 L
S
GR
GS
[0.75 0 0 0.75 883.78125 214.75] CT
0 0.447 0.741 RC
10.0 ML
1.333 LW
N
-2.828 -2.828 M
2.828 2.828 L
-2.828 2.828 M
2.828 -2.828 L
S
GR
GS
[0.75 0 0 0.75 898.3027 214.75] CT
0 0.447 0.741 RC
10.0 ML
1.333 LW
N
-2.828 -2.828 M
2.828 2.828 L
-2.828 2.828 M
2.828 -2.828 L
S
GR
GS
[0.75 0 0 0.75 912.82425 225.6328] CT
0 0.447 0.741 RC
10.0 ML
1.333 LW
N
-2.828 -2.828 M
2.828 2.828 L
-2.828 2.828 M
2.828 -2.828 L
S
GR
GS
[0.75 0 0 0.75 927.3457 214.75] CT
0 0.447 0.741 RC
10.0 ML
1.333 LW
N
-2.828 -2.828 M
2.828 2.828 L
-2.828 2.828 M
2.828 -2.828 L
S
GR
GS
[0.75 0 0 0.75 941.86716 214.75] CT
0 0.447 0.741 RC
10.0 ML
1.333 LW
N
-2.828 -2.828 M
2.828 2.828 L
-2.828 2.828 M
2.828 -2.828 L
S
GR
GS
[0.75 0 0 0.75 956.3887 214.75] CT
0 0.447 0.741 RC
10.0 ML
1.333 LW
N
-2.828 -2.828 M
2.828 2.828 L
-2.828 2.828 M
2.828 -2.828 L
S
GR
GS
[0.75 0 0 0.75 970.91016 214.75] CT
0 0.447 0.741 RC
10.0 ML
1.333 LW
N
-2.828 -2.828 M
2.828 2.828 L
-2.828 2.828 M
2.828 -2.828 L
S
GR
GS
[0.75 0 0 0.75 985.43161 214.75] CT
0 0.447 0.741 RC
10.0 ML
1.333 LW
N
-2.828 -2.828 M
2.828 2.828 L
-2.828 2.828 M
2.828 -2.828 L
S
GR
GS
[0.75 0 0 0.75 999.95316 222.72882] CT
0 0.447 0.741 RC
10.0 ML
1.333 LW
N
-2.828 -2.828 M
2.828 2.828 L
-2.828 2.828 M
2.828 -2.828 L
S
GR
GS
[0.75 0 0 0.75 1014.47461 214.75] CT
0 0.447 0.741 RC
10.0 ML
1.333 LW
N
-2.828 -2.828 M
2.828 2.828 L
-2.828 2.828 M
2.828 -2.828 L
S
GR
GS
[0.75 0 0 0.75 1028.99606 222.0565] CT
0 0.447 0.741 RC
10.0 ML
1.333 LW
N
-2.828 -2.828 M
2.828 2.828 L
-2.828 2.828 M
2.828 -2.828 L
S
GR
GS
[0.75 0 0 0.75 1043.51761 214.75] CT
0 0.447 0.741 RC
10.0 ML
1.333 LW
N
-2.828 -2.828 M
2.828 2.828 L
-2.828 2.828 M
2.828 -2.828 L
S
GR
GS
[0.75 0 0 0.75 1058.03906 216.96615] CT
0 0.447 0.741 RC
10.0 ML
1.333 LW
N
-2.828 -2.828 M
2.828 2.828 L
-2.828 2.828 M
2.828 -2.828 L
S
GR
GS
[0.75 0 0 0.75 1072.56052 214.75] CT
0 0.447 0.741 RC
10.0 ML
1.333 LW
N
-2.828 -2.828 M
2.828 2.828 L
-2.828 2.828 M
2.828 -2.828 L
S
GR
GS
[0.75 0 0 0.75 1087.08206 214.75] CT
0 0.447 0.741 RC
10.0 ML
1.333 LW
N
-2.828 -2.828 M
2.828 2.828 L
-2.828 2.828 M
2.828 -2.828 L
S
GR
GS
[0.75 0 0 0.75 1101.60352 206.54147] CT
0 0.447 0.741 RC
10.0 ML
1.333 LW
N
-2.828 -2.828 M
2.828 2.828 L
-2.828 2.828 M
2.828 -2.828 L
S
GR
GS
[0.75 0 0 0.75 1116.12497 214.75] CT
0 0.447 0.741 RC
10.0 ML
1.333 LW
N
-2.828 -2.828 M
2.828 2.828 L
-2.828 2.828 M
2.828 -2.828 L
S
GR
GS
[0.75 0 0 0.75 1130.64651 214.75] CT
0 0.447 0.741 RC
10.0 ML
1.333 LW
N
-2.828 -2.828 M
2.828 2.828 L
-2.828 2.828 M
2.828 -2.828 L
S
GR
GS
[0.75 0 0 0.75 1145.16797 219.20754] CT
0 0.447 0.741 RC
10.0 ML
1.333 LW
N
-2.828 -2.828 M
2.828 2.828 L
-2.828 2.828 M
2.828 -2.828 L
S
GR
GS
[0.75 0 0 0.75 1159.68942 214.75] CT
0 0.447 0.741 RC
10.0 ML
1.333 LW
N
-2.828 -2.828 M
2.828 2.828 L
-2.828 2.828 M
2.828 -2.828 L
S
GR
GS
[0.75 0 0 0.75 1174.21097 214.75] CT
0 0.447 0.741 RC
10.0 ML
1.333 LW
N
-2.828 -2.828 M
2.828 2.828 L
-2.828 2.828 M
2.828 -2.828 L
S
GR
GS
[0.75 0 0 0.75 1188.73242 214.75] CT
0 0.447 0.741 RC
10.0 ML
1.333 LW
N
-2.828 -2.828 M
2.828 2.828 L
-2.828 2.828 M
2.828 -2.828 L
S
GR
GS
[0.75 0 0 0.75 1203.25388 214.75] CT
0 0.447 0.741 RC
10.0 ML
1.333 LW
N
-2.828 -2.828 M
2.828 2.828 L
-2.828 2.828 M
2.828 -2.828 L
S
GR
GS
[0.75 0 0 0.75 1217.77542 214.75] CT
0 0.447 0.741 RC
10.0 ML
1.333 LW
N
-2.828 -2.828 M
2.828 2.828 L
-2.828 2.828 M
2.828 -2.828 L
S
GR
GS
[0.75 0 0 0.75 1232.29688 214.75] CT
0 0.447 0.741 RC
10.0 ML
1.333 LW
N
-2.828 -2.828 M
2.828 2.828 L
-2.828 2.828 M
2.828 -2.828 L
S
GR
GS
[0.75 0 0 0.75 1246.81833 214.75] CT
0 0.447 0.741 RC
10.0 ML
1.333 LW
N
-2.828 -2.828 M
2.828 2.828 L
-2.828 2.828 M
2.828 -2.828 L
S
GR
GS
[0.75 0 0 0.75 1261.33987 214.75] CT
0 0.447 0.741 RC
10.0 ML
1.333 LW
N
-2.828 -2.828 M
2.828 2.828 L
-2.828 2.828 M
2.828 -2.828 L
S
GR
GS
[0.75 0 0 0.75 1275.86133 214.75] CT
0 0.447 0.741 RC
10.0 ML
1.333 LW
N
-2.828 -2.828 M
2.828 2.828 L
-2.828 2.828 M
2.828 -2.828 L
S
GR
GS
[0.75 0 0 0.75 1290.38278 214.75] CT
0 0.447 0.741 RC
10.0 ML
1.333 LW
N
-2.828 -2.828 M
2.828 2.828 L
-2.828 2.828 M
2.828 -2.828 L
S
GR
GS
[0.75 0 0 0.75 0 0.25] CT
0 0.447 0.741 RC
1 LJ
1.333 LW
N
249 286 M
249 231.465 L
S
GR
GS
[0.75 0 0 0.75 0 0.25] CT
0 0.447 0.741 RC
1 LJ
1.333 LW
N
268.362 286 M
268.362 286 L
S
GR
GS
[0.75 0 0 0.75 0 0.25] CT
0 0.447 0.741 RC
1 LJ
1.333 LW
N
287.724 286 M
287.724 286 L
S
GR
GS
[0.75 0 0 0.75 0 0.25] CT
0 0.447 0.741 RC
1 LJ
1.333 LW
N
307.086 286 M
307.086 286 L
S
GR
GS
[0.75 0 0 0.75 0 0.25] CT
0 0.447 0.741 RC
1 LJ
1.333 LW
N
326.448 286 M
326.448 286 L
S
GR
GS
[0.75 0 0 0.75 0 0.25] CT
0 0.447 0.741 RC
1 LJ
1.333 LW
N
345.81 286 M
345.81 286 L
S
GR
GS
[0.75 0 0 0.75 0 0.25] CT
0 0.447 0.741 RC
1 LJ
1.333 LW
N
365.172 286 M
365.172 286 L
S
GR
GS
[0.75 0 0 0.75 0 0.25] CT
0 0.447 0.741 RC
1 LJ
1.333 LW
N
384.534 286 M
384.534 200.825 L
S
GR
GS
[0.75 0 0 0.75 0 0.25] CT
0 0.447 0.741 RC
1 LJ
1.333 LW
N
403.896 286 M
403.896 286 L
S
GR
GS
[0.75 0 0 0.75 0 0.25] CT
0 0.447 0.741 RC
1 LJ
1.333 LW
N
423.258 286 M
423.258 286 L
S
GR
GS
[0.75 0 0 0.75 0 0.25] CT
0 0.447 0.741 RC
1 LJ
1.333 LW
N
442.62 286 M
442.62 286 L
S
GR
GS
[0.75 0 0 0.75 0 0.25] CT
0 0.447 0.741 RC
1 LJ
1.333 LW
N
461.982 286 M
461.982 286 L
S
GR
GS
[0.75 0 0 0.75 0 0.25] CT
0 0.447 0.741 RC
1 LJ
1.333 LW
N
481.344 286 M
481.344 286 L
S
GR
GS
[0.75 0 0 0.75 0 0.25] CT
0 0.447 0.741 RC
1 LJ
1.333 LW
N
500.706 286 M
500.706 286 L
S
GR
GS
[0.75 0 0 0.75 0 0.25] CT
0 0.447 0.741 RC
1 LJ
1.333 LW
N
520.068 286 M
520.068 286 L
S
GR
GS
[0.75 0 0 0.75 0 0.25] CT
0 0.447 0.741 RC
1 LJ
1.333 LW
N
539.43 286 M
539.43 286 L
S
GR
GS
[0.75 0 0 0.75 0 0.25] CT
0 0.447 0.741 RC
1 LJ
1.333 LW
N
558.792 286 M
558.792 253.359 L
S
GR
GS
[0.75 0 0 0.75 0 0.25] CT
0 0.447 0.741 RC
1 LJ
1.333 LW
N
578.154 286 M
578.154 286 L
S
GR
GS
[0.75 0 0 0.75 0 0.25] CT
0 0.447 0.741 RC
1 LJ
1.333 LW
N
597.516 286 M
597.516 286 L
S
GR
GS
[0.75 0 0 0.75 0 0.25] CT
0 0.447 0.741 RC
1 LJ
1.333 LW
N
616.878 286 M
616.878 286 L
S
GR
GS
[0.75 0 0 0.75 0 0.25] CT
0 0.447 0.741 RC
1 LJ
1.333 LW
N
636.24 286 M
636.24 286 L
S
GR
GS
[0.75 0 0 0.75 0 0.25] CT
0 0.447 0.741 RC
1 LJ
1.333 LW
N
655.602 286 M
655.602 203.562 L
S
GR
GS
[0.75 0 0 0.75 0 0.25] CT
0 0.447 0.741 RC
1 LJ
1.333 LW
N
674.964 286 M
674.964 286 L
S
GR
GS
[0.75 0 0 0.75 0 0.25] CT
0 0.447 0.741 RC
1 LJ
1.333 LW
N
694.326 286 M
694.326 286 L
S
GR
GS
[0.75 0 0 0.75 0 0.25] CT
0 0.447 0.741 RC
1 LJ
1.333 LW
N
713.688 286 M
713.688 286 L
S
GR
GS
[0.75 0 0 0.75 0 0.25] CT
0 0.447 0.741 RC
1 LJ
1.333 LW
N
733.049 286 M
733.049 286 L
S
GR
GS
[0.75 0 0 0.75 0 0.25] CT
0 0.447 0.741 RC
1 LJ
1.333 LW
N
752.411 286 M
752.411 286 L
S
GR
GS
[0.75 0 0 0.75 0 0.25] CT
0 0.447 0.741 RC
1 LJ
1.333 LW
N
771.773 286 M
771.773 283.68 L
S
GR
GS
[0.75 0 0 0.75 0 0.25] CT
0 0.447 0.741 RC
1 LJ
1.333 LW
N
791.135 286 M
791.135 286 L
S
GR
GS
[0.75 0 0 0.75 0 0.25] CT
0 0.447 0.741 RC
1 LJ
1.333 LW
N
810.497 286 M
810.497 286 L
S
GR
GS
[0.75 0 0 0.75 0 0.25] CT
0 0.447 0.741 RC
1 LJ
1.333 LW
N
829.859 286 M
829.859 286 L
S
GR
GS
[0.75 0 0 0.75 0 0.25] CT
0 0.447 0.741 RC
1 LJ
1.333 LW
N
849.221 286 M
849.221 286 L
S
GR
GS
[0.75 0 0 0.75 0 0.25] CT
0 0.447 0.741 RC
1 LJ
1.333 LW
N
868.583 286 M
868.583 286 L
S
GR
GS
[0.75 0 0 0.75 0 0.25] CT
0 0.447 0.741 RC
1 LJ
1.333 LW
N
887.945 286 M
887.945 286 L
S
GR
GS
[0.75 0 0 0.75 0 0.25] CT
0 0.447 0.741 RC
1 LJ
1.333 LW
N
907.307 286 M
907.307 286 L
S
GR
GS
[0.75 0 0 0.75 0 0.25] CT
0 0.447 0.741 RC
1 LJ
1.333 LW
N
926.669 286 M
926.669 286 L
S
GR
GS
[0.75 0 0 0.75 0 0.25] CT
0 0.447 0.741 RC
1 LJ
1.333 LW
N
946.031 286 M
946.031 286 L
S
GR
GS
[0.75 0 0 0.75 0 0.25] CT
0 0.447 0.741 RC
1 LJ
1.333 LW
N
965.393 286 M
965.393 286 L
S
GR
GS
[0.75 0 0 0.75 0 0.25] CT
0 0.447 0.741 RC
1 LJ
1.333 LW
N
984.755 286 M
984.755 284.975 L
S
GR
GS
[0.75 0 0 0.75 0 0.25] CT
0 0.447 0.741 RC
1 LJ
1.333 LW
N
1004.117 286 M
1004.117 286 L
S
GR
GS
[0.75 0 0 0.75 0 0.25] CT
0 0.447 0.741 RC
1 LJ
1.333 LW
N
1023.479 286 M
1023.479 296.625 L
S
GR
GS
[0.75 0 0 0.75 0 0.25] CT
0 0.447 0.741 RC
1 LJ
1.333 LW
N
1042.841 286 M
1042.841 283.376 L
S
GR
GS
[0.75 0 0 0.75 0 0.25] CT
0 0.447 0.741 RC
1 LJ
1.333 LW
N
1062.203 286 M
1062.203 286 L
S
GR
GS
[0.75 0 0 0.75 0 0.25] CT
0 0.447 0.741 RC
1 LJ
1.333 LW
N
1081.565 286 M
1081.565 286 L
S
GR
GS
[0.75 0 0 0.75 0 0.25] CT
0 0.447 0.741 RC
1 LJ
1.333 LW
N
1100.927 286 M
1100.927 286 L
S
GR
GS
[0.75 0 0 0.75 0 0.25] CT
0 0.447 0.741 RC
1 LJ
1.333 LW
N
1120.289 286 M
1120.289 286 L
S
GR
GS
[0.75 0 0 0.75 0 0.25] CT
0 0.447 0.741 RC
1 LJ
1.333 LW
N
1139.651 286 M
1139.651 286 L
S
GR
GS
[0.75 0 0 0.75 0 0.25] CT
0 0.447 0.741 RC
1 LJ
1.333 LW
N
1159.013 286 M
1159.013 289.647 L
S
GR
GS
[0.75 0 0 0.75 0 0.25] CT
0 0.447 0.741 RC
1 LJ
1.333 LW
N
1178.375 286 M
1178.375 286 L
S
GR
GS
[0.75 0 0 0.75 0 0.25] CT
0 0.447 0.741 RC
1 LJ
1.333 LW
N
1197.737 286 M
1197.737 286 L
S
GR
GS
[0.75 0 0 0.75 0 0.25] CT
0 0.447 0.741 RC
1 LJ
1.333 LW
N
1217.099 286 M
1217.099 300.51 L
S
GR
GS
[0.75 0 0 0.75 0 0.25] CT
0 0.447 0.741 RC
1 LJ
1.333 LW
N
1236.461 286 M
1236.461 286 L
S
GR
GS
[0.75 0 0 0.75 0 0.25] CT
0 0.447 0.741 RC
1 LJ
1.333 LW
N
1255.823 286 M
1255.823 286 L
S
GR
GS
[0.75 0 0 0.75 0 0.25] CT
0 0.447 0.741 RC
1 LJ
1.333 LW
N
1275.185 286 M
1275.185 286 L
S
GR
GS
[0.75 0 0 0.75 0 0.25] CT
0 0.447 0.741 RC
1 LJ
1.333 LW
N
1294.547 286 M
1294.547 286 L
S
GR
GS
[0.75 0 0 0.75 0 0.25] CT
0 0.447 0.741 RC
1 LJ
1.333 LW
N
1313.909 286 M
1313.909 286 L
S
GR
GS
[0.75 0 0 0.75 0 0.25] CT
0 0.447 0.741 RC
1 LJ
1.333 LW
N
1333.271 286 M
1333.271 296.638 L
S
GR
GS
[0.75 0 0 0.75 0 0.25] CT
0 0.447 0.741 RC
1 LJ
1.333 LW
N
1352.633 286 M
1352.633 286 L
S
GR
GS
[0.75 0 0 0.75 0 0.25] CT
0 0.447 0.741 RC
1 LJ
1.333 LW
N
1371.995 286 M
1371.995 295.742 L
S
GR
GS
[0.75 0 0 0.75 0 0.25] CT
0 0.447 0.741 RC
1 LJ
1.333 LW
N
1391.357 286 M
1391.357 286 L
S
GR
GS
[0.75 0 0 0.75 0 0.25] CT
0 0.447 0.741 RC
1 LJ
1.333 LW
N
1410.719 286 M
1410.719 288.955 L
S
GR
GS
[0.75 0 0 0.75 0 0.25] CT
0 0.447 0.741 RC
1 LJ
1.333 LW
N
1430.081 286 M
1430.081 286 L
S
GR
GS
[0.75 0 0 0.75 0 0.25] CT
0 0.447 0.741 RC
1 LJ
1.333 LW
N
1449.443 286 M
1449.443 286 L
S
GR
GS
[0.75 0 0 0.75 0 0.25] CT
0 0.447 0.741 RC
1 LJ
1.333 LW
N
1468.805 286 M
1468.805 275.055 L
S
GR
GS
[0.75 0 0 0.75 0 0.25] CT
0 0.447 0.741 RC
1 LJ
1.333 LW
N
1488.167 286 M
1488.167 286 L
S
GR
GS
[0.75 0 0 0.75 0 0.25] CT
0 0.447 0.741 RC
1 LJ
1.333 LW
N
1507.529 286 M
1507.529 286 L
S
GR
GS
[0.75 0 0 0.75 0 0.25] CT
0 0.447 0.741 RC
1 LJ
1.333 LW
N
1526.891 286 M
1526.891 291.943 L
S
GR
GS
[0.75 0 0 0.75 0 0.25] CT
0 0.447 0.741 RC
1 LJ
1.333 LW
N
1546.253 286 M
1546.253 286 L
S
GR
GS
[0.75 0 0 0.75 0 0.25] CT
0 0.447 0.741 RC
1 LJ
1.333 LW
N
1565.615 286 M
1565.615 286 L
S
GR
GS
[0.75 0 0 0.75 0 0.25] CT
0 0.447 0.741 RC
1 LJ
1.333 LW
N
1584.977 286 M
1584.977 286 L
S
GR
GS
[0.75 0 0 0.75 0 0.25] CT
0 0.447 0.741 RC
1 LJ
1.333 LW
N
1604.339 286 M
1604.339 286 L
S
GR
GS
[0.75 0 0 0.75 0 0.25] CT
0 0.447 0.741 RC
1 LJ
1.333 LW
N
1623.701 286 M
1623.701 286 L
S
GR
GS
[0.75 0 0 0.75 0 0.25] CT
0 0.447 0.741 RC
1 LJ
1.333 LW
N
1643.063 286 M
1643.063 286 L
S
GR
GS
[0.75 0 0 0.75 0 0.25] CT
0 0.447 0.741 RC
1 LJ
1.333 LW
N
1662.424 286 M
1662.424 286 L
S
GR
GS
[0.75 0 0 0.75 0 0.25] CT
0 0.447 0.741 RC
1 LJ
1.333 LW
N
1681.786 286 M
1681.786 286 L
S
GR
GS
[0.75 0 0 0.75 0 0.25] CT
0 0.447 0.741 RC
1 LJ
1.333 LW
N
1701.148 286 M
1701.148 286 L
S
GR
GS
[0.75 0 0 0.75 0 0.25] CT
0 0.447 0.741 RC
1 LJ
1.333 LW
N
1720.51 286 M
1720.51 286 L
S
GR
GS
[0.75 0 0 0.75 186.75 344.83142] CT
0.851 0.325 0.098 RC
10.0 ML
1.333 LW
N
3.5 -0.5 M
3.5 -2.709 1.709 -4.5 -0.5 -4.5 C
-2.709 -4.5 -4.5 -2.709 -4.5 -0.5 C
-4.5 1.709 -2.709 3.5 -0.5 3.5 C
1.709 3.5 3.5 1.709 3.5 -0.5 C
S
GR
GS
[0.75 0 0 0.75 201.27148 214.75] CT
0.851 0.325 0.098 RC
10.0 ML
1.333 LW
N
3.5 -0.5 M
3.5 -2.709 1.709 -4.5 -0.5 -4.5 C
-2.709 -4.5 -4.5 -2.709 -4.5 -0.5 C
-4.5 1.709 -2.709 3.5 -0.5 3.5 C
1.709 3.5 3.5 1.709 3.5 -0.5 C
S
GR
GS
[0.75 0 0 0.75 215.79298 214.75] CT
0.851 0.325 0.098 RC
10.0 ML
1.333 LW
N
3.5 -0.5 M
3.5 -2.709 1.709 -4.5 -0.5 -4.5 C
-2.709 -4.5 -4.5 -2.709 -4.5 -0.5 C
-4.5 1.709 -2.709 3.5 -0.5 3.5 C
1.709 3.5 3.5 1.709 3.5 -0.5 C
S
GR
GS
[0.75 0 0 0.75 230.31445 214.75] CT
0.851 0.325 0.098 RC
10.0 ML
1.333 LW
N
3.5 -0.5 M
3.5 -2.709 1.709 -4.5 -0.5 -4.5 C
-2.709 -4.5 -4.5 -2.709 -4.5 -0.5 C
-4.5 1.709 -2.709 3.5 -0.5 3.5 C
1.709 3.5 3.5 1.709 3.5 -0.5 C
S
GR
GS
[0.75 0 0 0.75 244.83593 214.75] CT
0.851 0.325 0.098 RC
10.0 ML
1.333 LW
N
3.5 -0.5 M
3.5 -2.709 1.709 -4.5 -0.5 -4.5 C
-2.709 -4.5 -4.5 -2.709 -4.5 -0.5 C
-4.5 1.709 -2.709 3.5 -0.5 3.5 C
1.709 3.5 3.5 1.709 3.5 -0.5 C
S
GR
GS
[0.75 0 0 0.75 259.35743 214.75] CT
0.851 0.325 0.098 RC
10.0 ML
1.333 LW
N
3.5 -0.5 M
3.5 -2.709 1.709 -4.5 -0.5 -4.5 C
-2.709 -4.5 -4.5 -2.709 -4.5 -0.5 C
-4.5 1.709 -2.709 3.5 -0.5 3.5 C
1.709 3.5 3.5 1.709 3.5 -0.5 C
S
GR
GS
[0.75 0 0 0.75 273.87891 214.75] CT
0.851 0.325 0.098 RC
10.0 ML
1.333 LW
N
3.5 -0.5 M
3.5 -2.709 1.709 -4.5 -0.5 -4.5 C
-2.709 -4.5 -4.5 -2.709 -4.5 -0.5 C
-4.5 1.709 -2.709 3.5 -0.5 3.5 C
1.709 3.5 3.5 1.709 3.5 -0.5 C
S
GR
GS
[0.75 0 0 0.75 288.40038 257.66978] CT
0.851 0.325 0.098 RC
10.0 ML
1.333 LW
N
3.5 -0.5 M
3.5 -2.709 1.709 -4.5 -0.5 -4.5 C
-2.709 -4.5 -4.5 -2.709 -4.5 -0.5 C
-4.5 1.709 -2.709 3.5 -0.5 3.5 C
1.709 3.5 3.5 1.709 3.5 -0.5 C
S
GR
GS
[0.75 0 0 0.75 302.92188 214.75] CT
0.851 0.325 0.098 RC
10.0 ML
1.333 LW
N
3.5 -0.5 M
3.5 -2.709 1.709 -4.5 -0.5 -4.5 C
-2.709 -4.5 -4.5 -2.709 -4.5 -0.5 C
-4.5 1.709 -2.709 3.5 -0.5 3.5 C
1.709 3.5 3.5 1.709 3.5 -0.5 C
S
GR
GS
[0.75 0 0 0.75 317.44336 214.75] CT
0.851 0.325 0.098 RC
10.0 ML
1.333 LW
N
3.5 -0.5 M
3.5 -2.709 1.709 -4.5 -0.5 -4.5 C
-2.709 -4.5 -4.5 -2.709 -4.5 -0.5 C
-4.5 1.709 -2.709 3.5 -0.5 3.5 C
1.709 3.5 3.5 1.709 3.5 -0.5 C
S
GR
GS
[0.75 0 0 0.75 331.96484 214.75] CT
0.851 0.325 0.098 RC
10.0 ML
1.333 LW
N
3.5 -0.5 M
3.5 -2.709 1.709 -4.5 -0.5 -4.5 C
-2.709 -4.5 -4.5 -2.709 -4.5 -0.5 C
-4.5 1.709 -2.709 3.5 -0.5 3.5 C
1.709 3.5 3.5 1.709 3.5 -0.5 C
S
GR
GS
[0.75 0 0 0.75 346.48634 214.75] CT
0.851 0.325 0.098 RC
10.0 ML
1.333 LW
N
3.5 -0.5 M
3.5 -2.709 1.709 -4.5 -0.5 -4.5 C
-2.709 -4.5 -4.5 -2.709 -4.5 -0.5 C
-4.5 1.709 -2.709 3.5 -0.5 3.5 C
1.709 3.5 3.5 1.709 3.5 -0.5 C
S
GR
GS
[0.75 0 0 0.75 361.00781 214.75] CT
0.851 0.325 0.098 RC
10.0 ML
1.333 LW
N
3.5 -0.5 M
3.5 -2.709 1.709 -4.5 -0.5 -4.5 C
-2.709 -4.5 -4.5 -2.709 -4.5 -0.5 C
-4.5 1.709 -2.709 3.5 -0.5 3.5 C
1.709 3.5 3.5 1.709 3.5 -0.5 C
S
GR
GS
[0.75 0 0 0.75 375.52929 214.75] CT
0.851 0.325 0.098 RC
10.0 ML
1.333 LW
N
3.5 -0.5 M
3.5 -2.709 1.709 -4.5 -0.5 -4.5 C
-2.709 -4.5 -4.5 -2.709 -4.5 -0.5 C
-4.5 1.709 -2.709 3.5 -0.5 3.5 C
1.709 3.5 3.5 1.709 3.5 -0.5 C
S
GR
GS
[0.75 0 0 0.75 390.05077 214.75] CT
0.851 0.325 0.098 RC
10.0 ML
1.333 LW
N
3.5 -0.5 M
3.5 -2.709 1.709 -4.5 -0.5 -4.5 C
-2.709 -4.5 -4.5 -2.709 -4.5 -0.5 C
-4.5 1.709 -2.709 3.5 -0.5 3.5 C
1.709 3.5 3.5 1.709 3.5 -0.5 C
S
GR
GS
[0.75 0 0 0.75 404.57227 214.75] CT
0.851 0.325 0.098 RC
10.0 ML
1.333 LW
N
3.5 -0.5 M
3.5 -2.709 1.709 -4.5 -0.5 -4.5 C
-2.709 -4.5 -4.5 -2.709 -4.5 -0.5 C
-4.5 1.709 -2.709 3.5 -0.5 3.5 C
1.709 3.5 3.5 1.709 3.5 -0.5 C
S
GR
GS
[0.75 0 0 0.75 419.09377 261.8109] CT
0.851 0.325 0.098 RC
10.0 ML
1.333 LW
N
3.5 -0.5 M
3.5 -2.709 1.709 -4.5 -0.5 -4.5 C
-2.709 -4.5 -4.5 -2.709 -4.5 -0.5 C
-4.5 1.709 -2.709 3.5 -0.5 3.5 C
1.709 3.5 3.5 1.709 3.5 -0.5 C
S
GR
GS
[0.75 0 0 0.75 433.61522 214.75] CT
0.851 0.325 0.098 RC
10.0 ML
1.333 LW
N
3.5 -0.5 M
3.5 -2.709 1.709 -4.5 -0.5 -4.5 C
-2.709 -4.5 -4.5 -2.709 -4.5 -0.5 C
-4.5 1.709 -2.709 3.5 -0.5 3.5 C
1.709 3.5 3.5 1.709 3.5 -0.5 C
S
GR
GS
[0.75 0 0 0.75 448.13672 214.75] CT
0.851 0.325 0.098 RC
10.0 ML
1.333 LW
N
3.5 -0.5 M
3.5 -2.709 1.709 -4.5 -0.5 -4.5 C
-2.709 -4.5 -4.5 -2.709 -4.5 -0.5 C
-4.5 1.709 -2.709 3.5 -0.5 3.5 C
1.709 3.5 3.5 1.709 3.5 -0.5 C
S
GR
GS
[0.75 0 0 0.75 462.65822 214.75] CT
0.851 0.325 0.098 RC
10.0 ML
1.333 LW
N
3.5 -0.5 M
3.5 -2.709 1.709 -4.5 -0.5 -4.5 C
-2.709 -4.5 -4.5 -2.709 -4.5 -0.5 C
-4.5 1.709 -2.709 3.5 -0.5 3.5 C
1.709 3.5 3.5 1.709 3.5 -0.5 C
S
GR
GS
[0.75 0 0 0.75 477.17967 214.75] CT
0.851 0.325 0.098 RC
10.0 ML
1.333 LW
N
3.5 -0.5 M
3.5 -2.709 1.709 -4.5 -0.5 -4.5 C
-2.709 -4.5 -4.5 -2.709 -4.5 -0.5 C
-4.5 1.709 -2.709 3.5 -0.5 3.5 C
1.709 3.5 3.5 1.709 3.5 -0.5 C
S
GR
GS
[0.75 0 0 0.75 491.70117 215.08458] CT
0.851 0.325 0.098 RC
10.0 ML
1.333 LW
N
3.5 -0.5 M
3.5 -2.709 1.709 -4.5 -0.5 -4.5 C
-2.709 -4.5 -4.5 -2.709 -4.5 -0.5 C
-4.5 1.709 -2.709 3.5 -0.5 3.5 C
1.709 3.5 3.5 1.709 3.5 -0.5 C
S
GR
GS
[0.75 0 0 0.75 506.22267 214.75] CT
0.851 0.325 0.098 RC
10.0 ML
1.333 LW
N
3.5 -0.5 M
3.5 -2.709 1.709 -4.5 -0.5 -4.5 C
-2.709 -4.5 -4.5 -2.709 -4.5 -0.5 C
-4.5 1.709 -2.709 3.5 -0.5 3.5 C
1.709 3.5 3.5 1.709 3.5 -0.5 C
S
GR
GS
[0.75 0 0 0.75 520.74413 214.75] CT
0.851 0.325 0.098 RC
10.0 ML
1.333 LW
N
3.5 -0.5 M
3.5 -2.709 1.709 -4.5 -0.5 -4.5 C
-2.709 -4.5 -4.5 -2.709 -4.5 -0.5 C
-4.5 1.709 -2.709 3.5 -0.5 3.5 C
1.709 3.5 3.5 1.709 3.5 -0.5 C
S
GR
GS
[0.75 0 0 0.75 535.26563 214.75] CT
0.851 0.325 0.098 RC
10.0 ML
1.333 LW
N
3.5 -0.5 M
3.5 -2.709 1.709 -4.5 -0.5 -4.5 C
-2.709 -4.5 -4.5 -2.709 -4.5 -0.5 C
-4.5 1.709 -2.709 3.5 -0.5 3.5 C
1.709 3.5 3.5 1.709 3.5 -0.5 C
S
GR
GS
[0.75 0 0 0.75 549.78712 214.75] CT
0.851 0.325 0.098 RC
10.0 ML
1.333 LW
N
3.5 -0.5 M
3.5 -2.709 1.709 -4.5 -0.5 -4.5 C
-2.709 -4.5 -4.5 -2.709 -4.5 -0.5 C
-4.5 1.709 -2.709 3.5 -0.5 3.5 C
1.709 3.5 3.5 1.709 3.5 -0.5 C
S
GR
GS
[0.75 0 0 0.75 564.30858 214.75] CT
0.851 0.325 0.098 RC
10.0 ML
1.333 LW
N
3.5 -0.5 M
3.5 -2.709 1.709 -4.5 -0.5 -4.5 C
-2.709 -4.5 -4.5 -2.709 -4.5 -0.5 C
-4.5 1.709 -2.709 3.5 -0.5 3.5 C
1.709 3.5 3.5 1.709 3.5 -0.5 C
S
GR
GS
[0.75 0 0 0.75 578.83008 193.75279] CT
0.851 0.325 0.098 RC
10.0 ML
1.333 LW
N
3.5 -0.5 M
3.5 -2.709 1.709 -4.5 -0.5 -4.5 C
-2.709 -4.5 -4.5 -2.709 -4.5 -0.5 C
-4.5 1.709 -2.709 3.5 -0.5 3.5 C
1.709 3.5 3.5 1.709 3.5 -0.5 C
S
GR
GS
[0.75 0 0 0.75 593.35158 214.75] CT
0.851 0.325 0.098 RC
10.0 ML
1.333 LW
N
3.5 -0.5 M
3.5 -2.709 1.709 -4.5 -0.5 -4.5 C
-2.709 -4.5 -4.5 -2.709 -4.5 -0.5 C
-4.5 1.709 -2.709 3.5 -0.5 3.5 C
1.709 3.5 3.5 1.709 3.5 -0.5 C
S
GR
GS
[0.75 0 0 0.75 607.87303 214.75] CT
0.851 0.325 0.098 RC
10.0 ML
1.333 LW
N
3.5 -0.5 M
3.5 -2.709 1.709 -4.5 -0.5 -4.5 C
-2.709 -4.5 -4.5 -2.709 -4.5 -0.5 C
-4.5 1.709 -2.709 3.5 -0.5 3.5 C
1.709 3.5 3.5 1.709 3.5 -0.5 C
S
GR
GS
[0.75 0 0 0.75 622.39453 214.75] CT
0.851 0.325 0.098 RC
10.0 ML
1.333 LW
N
3.5 -0.5 M
3.5 -2.709 1.709 -4.5 -0.5 -4.5 C
-2.709 -4.5 -4.5 -2.709 -4.5 -0.5 C
-4.5 1.709 -2.709 3.5 -0.5 3.5 C
1.709 3.5 3.5 1.709 3.5 -0.5 C
S
GR
GS
[0.75 0 0 0.75 636.91603 214.75] CT
0.851 0.325 0.098 RC
10.0 ML
1.333 LW
N
3.5 -0.5 M
3.5 -2.709 1.709 -4.5 -0.5 -4.5 C
-2.709 -4.5 -4.5 -2.709 -4.5 -0.5 C
-4.5 1.709 -2.709 3.5 -0.5 3.5 C
1.709 3.5 3.5 1.709 3.5 -0.5 C
S
GR
GS
[0.75 0 0 0.75 651.43748 214.75] CT
0.851 0.325 0.098 RC
10.0 ML
1.333 LW
N
3.5 -0.5 M
3.5 -2.709 1.709 -4.5 -0.5 -4.5 C
-2.709 -4.5 -4.5 -2.709 -4.5 -0.5 C
-4.5 1.709 -2.709 3.5 -0.5 3.5 C
1.709 3.5 3.5 1.709 3.5 -0.5 C
S
GR
GS
[0.75 0 0 0.75 665.95898 214.75] CT
0.851 0.325 0.098 RC
10.0 ML
1.333 LW
N
3.5 -0.5 M
3.5 -2.709 1.709 -4.5 -0.5 -4.5 C
-2.709 -4.5 -4.5 -2.709 -4.5 -0.5 C
-4.5 1.709 -2.709 3.5 -0.5 3.5 C
1.709 3.5 3.5 1.709 3.5 -0.5 C
S
GR
GS
[0.75 0 0 0.75 680.48048 214.75] CT
0.851 0.325 0.098 RC
10.0 ML
1.333 LW
N
3.5 -0.5 M
3.5 -2.709 1.709 -4.5 -0.5 -4.5 C
-2.709 -4.5 -4.5 -2.709 -4.5 -0.5 C
-4.5 1.709 -2.709 3.5 -0.5 3.5 C
1.709 3.5 3.5 1.709 3.5 -0.5 C
S
GR
GS
[0.75 0 0 0.75 695.00194 214.75] CT
0.851 0.325 0.098 RC
10.0 ML
1.333 LW
N
3.5 -0.5 M
3.5 -2.709 1.709 -4.5 -0.5 -4.5 C
-2.709 -4.5 -4.5 -2.709 -4.5 -0.5 C
-4.5 1.709 -2.709 3.5 -0.5 3.5 C
1.709 3.5 3.5 1.709 3.5 -0.5 C
S
GR
GS
[0.75 0 0 0.75 709.52344 214.75] CT
0.851 0.325 0.098 RC
10.0 ML
1.333 LW
N
3.5 -0.5 M
3.5 -2.709 1.709 -4.5 -0.5 -4.5 C
-2.709 -4.5 -4.5 -2.709 -4.5 -0.5 C
-4.5 1.709 -2.709 3.5 -0.5 3.5 C
1.709 3.5 3.5 1.709 3.5 -0.5 C
S
GR
GS
[0.75 0 0 0.75 724.04494 214.75] CT
0.851 0.325 0.098 RC
10.0 ML
1.333 LW
N
3.5 -0.5 M
3.5 -2.709 1.709 -4.5 -0.5 -4.5 C
-2.709 -4.5 -4.5 -2.709 -4.5 -0.5 C
-4.5 1.709 -2.709 3.5 -0.5 3.5 C
1.709 3.5 3.5 1.709 3.5 -0.5 C
S
GR
GS
[0.75 0 0 0.75 738.56639 229.00259] CT
0.851 0.325 0.098 RC
10.0 ML
1.333 LW
N
3.5 -0.5 M
3.5 -2.709 1.709 -4.5 -0.5 -4.5 C
-2.709 -4.5 -4.5 -2.709 -4.5 -0.5 C
-4.5 1.709 -2.709 3.5 -0.5 3.5 C
1.709 3.5 3.5 1.709 3.5 -0.5 C
S
GR
GS
[0.75 0 0 0.75 753.08789 214.75] CT
0.851 0.325 0.098 RC
10.0 ML
1.333 LW
N
3.5 -0.5 M
3.5 -2.709 1.709 -4.5 -0.5 -4.5 C
-2.709 -4.5 -4.5 -2.709 -4.5 -0.5 C
-4.5 1.709 -2.709 3.5 -0.5 3.5 C
1.709 3.5 3.5 1.709 3.5 -0.5 C
S
GR
GS
[0.75 0 0 0.75 767.60934 202.67884] CT
0.851 0.325 0.098 RC
10.0 ML
1.333 LW
N
3.5 -0.5 M
3.5 -2.709 1.709 -4.5 -0.5 -4.5 C
-2.709 -4.5 -4.5 -2.709 -4.5 -0.5 C
-4.5 1.709 -2.709 3.5 -0.5 3.5 C
1.709 3.5 3.5 1.709 3.5 -0.5 C
S
GR
GS
[0.75 0 0 0.75 782.13089 201.46993] CT
0.851 0.325 0.098 RC
10.0 ML
1.333 LW
N
3.5 -0.5 M
3.5 -2.709 1.709 -4.5 -0.5 -4.5 C
-2.709 -4.5 -4.5 -2.709 -4.5 -0.5 C
-4.5 1.709 -2.709 3.5 -0.5 3.5 C
1.709 3.5 3.5 1.709 3.5 -0.5 C
S
GR
GS
[0.75 0 0 0.75 796.65234 214.75] CT
0.851 0.325 0.098 RC
10.0 ML
1.333 LW
N
3.5 -0.5 M
3.5 -2.709 1.709 -4.5 -0.5 -4.5 C
-2.709 -4.5 -4.5 -2.709 -4.5 -0.5 C
-4.5 1.709 -2.709 3.5 -0.5 3.5 C
1.709 3.5 3.5 1.709 3.5 -0.5 C
S
GR
GS
[0.75 0 0 0.75 811.1738 214.75] CT
0.851 0.325 0.098 RC
10.0 ML
1.333 LW
N
3.5 -0.5 M
3.5 -2.709 1.709 -4.5 -0.5 -4.5 C
-2.709 -4.5 -4.5 -2.709 -4.5 -0.5 C
-4.5 1.709 -2.709 3.5 -0.5 3.5 C
1.709 3.5 3.5 1.709 3.5 -0.5 C
S
GR
GS
[0.75 0 0 0.75 825.69534 214.75] CT
0.851 0.325 0.098 RC
10.0 ML
1.333 LW
N
3.5 -0.5 M
3.5 -2.709 1.709 -4.5 -0.5 -4.5 C
-2.709 -4.5 -4.5 -2.709 -4.5 -0.5 C
-4.5 1.709 -2.709 3.5 -0.5 3.5 C
1.709 3.5 3.5 1.709 3.5 -0.5 C
S
GR
GS
[0.75 0 0 0.75 840.2168 214.75] CT
0.851 0.325 0.098 RC
10.0 ML
1.333 LW
N
3.5 -0.5 M
3.5 -2.709 1.709 -4.5 -0.5 -4.5 C
-2.709 -4.5 -4.5 -2.709 -4.5 -0.5 C
-4.5 1.709 -2.709 3.5 -0.5 3.5 C
1.709 3.5 3.5 1.709 3.5 -0.5 C
S
GR
GS
[0.75 0 0 0.75 854.73825 214.75] CT
0.851 0.325 0.098 RC
10.0 ML
1.333 LW
N
3.5 -0.5 M
3.5 -2.709 1.709 -4.5 -0.5 -4.5 C
-2.709 -4.5 -4.5 -2.709 -4.5 -0.5 C
-4.5 1.709 -2.709 3.5 -0.5 3.5 C
1.709 3.5 3.5 1.709 3.5 -0.5 C
S
GR
GS
[0.75 0 0 0.75 869.2598 228.01542] CT
0.851 0.325 0.098 RC
10.0 ML
1.333 LW
N
3.5 -0.5 M
3.5 -2.709 1.709 -4.5 -0.5 -4.5 C
-2.709 -4.5 -4.5 -2.709 -4.5 -0.5 C
-4.5 1.709 -2.709 3.5 -0.5 3.5 C
1.709 3.5 3.5 1.709 3.5 -0.5 C
S
GR
GS
[0.75 0 0 0.75 883.78125 214.75] CT
0.851 0.325 0.098 RC
10.0 ML
1.333 LW
N
3.5 -0.5 M
3.5 -2.709 1.709 -4.5 -0.5 -4.5 C
-2.709 -4.5 -4.5 -2.709 -4.5 -0.5 C
-4.5 1.709 -2.709 3.5 -0.5 3.5 C
1.709 3.5 3.5 1.709 3.5 -0.5 C
S
GR
GS
[0.75 0 0 0.75 898.3027 214.75] CT
0.851 0.325 0.098 RC
10.0 ML
1.333 LW
N
3.5 -0.5 M
3.5 -2.709 1.709 -4.5 -0.5 -4.5 C
-2.709 -4.5 -4.5 -2.709 -4.5 -0.5 C
-4.5 1.709 -2.709 3.5 -0.5 3.5 C
1.709 3.5 3.5 1.709 3.5 -0.5 C
S
GR
GS
[0.75 0 0 0.75 912.82425 221.76283] CT
0.851 0.325 0.098 RC
10.0 ML
1.333 LW
N
3.5 -0.5 M
3.5 -2.709 1.709 -4.5 -0.5 -4.5 C
-2.709 -4.5 -4.5 -2.709 -4.5 -0.5 C
-4.5 1.709 -2.709 3.5 -0.5 3.5 C
1.709 3.5 3.5 1.709 3.5 -0.5 C
S
GR
GS
[0.75 0 0 0.75 927.3457 214.75] CT
0.851 0.325 0.098 RC
10.0 ML
1.333 LW
N
3.5 -0.5 M
3.5 -2.709 1.709 -4.5 -0.5 -4.5 C
-2.709 -4.5 -4.5 -2.709 -4.5 -0.5 C
-4.5 1.709 -2.709 3.5 -0.5 3.5 C
1.709 3.5 3.5 1.709 3.5 -0.5 C
S
GR
GS
[0.75 0 0 0.75 941.86716 214.75] CT
0.851 0.325 0.098 RC
10.0 ML
1.333 LW
N
3.5 -0.5 M
3.5 -2.709 1.709 -4.5 -0.5 -4.5 C
-2.709 -4.5 -4.5 -2.709 -4.5 -0.5 C
-4.5 1.709 -2.709 3.5 -0.5 3.5 C
1.709 3.5 3.5 1.709 3.5 -0.5 C
S
GR
GS
[0.75 0 0 0.75 956.3887 214.75] CT
0.851 0.325 0.098 RC
10.0 ML
1.333 LW
N
3.5 -0.5 M
3.5 -2.709 1.709 -4.5 -0.5 -4.5 C
-2.709 -4.5 -4.5 -2.709 -4.5 -0.5 C
-4.5 1.709 -2.709 3.5 -0.5 3.5 C
1.709 3.5 3.5 1.709 3.5 -0.5 C
S
GR
GS
[0.75 0 0 0.75 970.91016 214.75] CT
0.851 0.325 0.098 RC
10.0 ML
1.333 LW
N
3.5 -0.5 M
3.5 -2.709 1.709 -4.5 -0.5 -4.5 C
-2.709 -4.5 -4.5 -2.709 -4.5 -0.5 C
-4.5 1.709 -2.709 3.5 -0.5 3.5 C
1.709 3.5 3.5 1.709 3.5 -0.5 C
S
GR
GS
[0.75 0 0 0.75 985.43161 214.75] CT
0.851 0.325 0.098 RC
10.0 ML
1.333 LW
N
3.5 -0.5 M
3.5 -2.709 1.709 -4.5 -0.5 -4.5 C
-2.709 -4.5 -4.5 -2.709 -4.5 -0.5 C
-4.5 1.709 -2.709 3.5 -0.5 3.5 C
1.709 3.5 3.5 1.709 3.5 -0.5 C
S
GR
GS
[0.75 0 0 0.75 999.95316 207.49145] CT
0.851 0.325 0.098 RC
10.0 ML
1.333 LW
N
3.5 -0.5 M
3.5 -2.709 1.709 -4.5 -0.5 -4.5 C
-2.709 -4.5 -4.5 -2.709 -4.5 -0.5 C
-4.5 1.709 -2.709 3.5 -0.5 3.5 C
1.709 3.5 3.5 1.709 3.5 -0.5 C
S
GR
GS
[0.75 0 0 0.75 1014.47461 214.75] CT
0.851 0.325 0.098 RC
10.0 ML
1.333 LW
N
3.5 -0.5 M
3.5 -2.709 1.709 -4.5 -0.5 -4.5 C
-2.709 -4.5 -4.5 -2.709 -4.5 -0.5 C
-4.5 1.709 -2.709 3.5 -0.5 3.5 C
1.709 3.5 3.5 1.709 3.5 -0.5 C
S
GR
GS
[0.75 0 0 0.75 1028.99606 204.43535] CT
0.851 0.325 0.098 RC
10.0 ML
1.333 LW
N
3.5 -0.5 M
3.5 -2.709 1.709 -4.5 -0.5 -4.5 C
-2.709 -4.5 -4.5 -2.709 -4.5 -0.5 C
-4.5 1.709 -2.709 3.5 -0.5 3.5 C
1.709 3.5 3.5 1.709 3.5 -0.5 C
S
GR
GS
[0.75 0 0 0.75 1043.51761 214.75] CT
0.851 0.325 0.098 RC
10.0 ML
1.333 LW
N
3.5 -0.5 M
3.5 -2.709 1.709 -4.5 -0.5 -4.5 C
-2.709 -4.5 -4.5 -2.709 -4.5 -0.5 C
-4.5 1.709 -2.709 3.5 -0.5 3.5 C
1.709 3.5 3.5 1.709 3.5 -0.5 C
S
GR
GS
[0.75 0 0 0.75 1058.03906 211.34534] CT
0.851 0.325 0.098 RC
10.0 ML
1.333 LW
N
3.5 -0.5 M
3.5 -2.709 1.709 -4.5 -0.5 -4.5 C
-2.709 -4.5 -4.5 -2.709 -4.5 -0.5 C
-4.5 1.709 -2.709 3.5 -0.5 3.5 C
1.709 3.5 3.5 1.709 3.5 -0.5 C
S
GR
GS
[0.75 0 0 0.75 1072.56052 214.75] CT
0.851 0.325 0.098 RC
10.0 ML
1.333 LW
N
3.5 -0.5 M
3.5 -2.709 1.709 -4.5 -0.5 -4.5 C
-2.709 -4.5 -4.5 -2.709 -4.5 -0.5 C
-4.5 1.709 -2.709 3.5 -0.5 3.5 C
1.709 3.5 3.5 1.709 3.5 -0.5 C
S
GR
GS
[0.75 0 0 0.75 1087.08206 214.75] CT
0.851 0.325 0.098 RC
10.0 ML
1.333 LW
N
3.5 -0.5 M
3.5 -2.709 1.709 -4.5 -0.5 -4.5 C
-2.709 -4.5 -4.5 -2.709 -4.5 -0.5 C
-4.5 1.709 -2.709 3.5 -0.5 3.5 C
1.709 3.5 3.5 1.709 3.5 -0.5 C
S
GR
GS
[0.75 0 0 0.75 1101.60352 210.28948] CT
0.851 0.325 0.098 RC
10.0 ML
1.333 LW
N
3.5 -0.5 M
3.5 -2.709 1.709 -4.5 -0.5 -4.5 C
-2.709 -4.5 -4.5 -2.709 -4.5 -0.5 C
-4.5 1.709 -2.709 3.5 -0.5 3.5 C
1.709 3.5 3.5 1.709 3.5 -0.5 C
S
GR
GS
[0.75 0 0 0.75 1116.12497 214.75] CT
0.851 0.325 0.098 RC
10.0 ML
1.333 LW
N
3.5 -0.5 M
3.5 -2.709 1.709 -4.5 -0.5 -4.5 C
-2.709 -4.5 -4.5 -2.709 -4.5 -0.5 C
-4.5 1.709 -2.709 3.5 -0.5 3.5 C
1.709 3.5 3.5 1.709 3.5 -0.5 C
S
GR
GS
[0.75 0 0 0.75 1130.64651 214.75] CT
0.851 0.325 0.098 RC
10.0 ML
1.333 LW
N
3.5 -0.5 M
3.5 -2.709 1.709 -4.5 -0.5 -4.5 C
-2.709 -4.5 -4.5 -2.709 -4.5 -0.5 C
-4.5 1.709 -2.709 3.5 -0.5 3.5 C
1.709 3.5 3.5 1.709 3.5 -0.5 C
S
GR
GS
[0.75 0 0 0.75 1145.16797 215.37041] CT
0.851 0.325 0.098 RC
10.0 ML
1.333 LW
N
3.5 -0.5 M
3.5 -2.709 1.709 -4.5 -0.5 -4.5 C
-2.709 -4.5 -4.5 -2.709 -4.5 -0.5 C
-4.5 1.709 -2.709 3.5 -0.5 3.5 C
1.709 3.5 3.5 1.709 3.5 -0.5 C
S
GR
GS
[0.75 0 0 0.75 1159.68942 214.75] CT
0.851 0.325 0.098 RC
10.0 ML
1.333 LW
N
3.5 -0.5 M
3.5 -2.709 1.709 -4.5 -0.5 -4.5 C
-2.709 -4.5 -4.5 -2.709 -4.5 -0.5 C
-4.5 1.709 -2.709 3.5 -0.5 3.5 C
1.709 3.5 3.5 1.709 3.5 -0.5 C
S
GR
GS
[0.75 0 0 0.75 1174.21097 214.75] CT
0.851 0.325 0.098 RC
10.0 ML
1.333 LW
N
3.5 -0.5 M
3.5 -2.709 1.709 -4.5 -0.5 -4.5 C
-2.709 -4.5 -4.5 -2.709 -4.5 -0.5 C
-4.5 1.709 -2.709 3.5 -0.5 3.5 C
1.709 3.5 3.5 1.709 3.5 -0.5 C
S
GR
GS
[0.75 0 0 0.75 1188.73242 214.75] CT
0.851 0.325 0.098 RC
10.0 ML
1.333 LW
N
3.5 -0.5 M
3.5 -2.709 1.709 -4.5 -0.5 -4.5 C
-2.709 -4.5 -4.5 -2.709 -4.5 -0.5 C
-4.5 1.709 -2.709 3.5 -0.5 3.5 C
1.709 3.5 3.5 1.709 3.5 -0.5 C
S
GR
GS
[0.75 0 0 0.75 1203.25388 214.75] CT
0.851 0.325 0.098 RC
10.0 ML
1.333 LW
N
3.5 -0.5 M
3.5 -2.709 1.709 -4.5 -0.5 -4.5 C
-2.709 -4.5 -4.5 -2.709 -4.5 -0.5 C
-4.5 1.709 -2.709 3.5 -0.5 3.5 C
1.709 3.5 3.5 1.709 3.5 -0.5 C
S
GR
GS
[0.75 0 0 0.75 1217.77542 214.75] CT
0.851 0.325 0.098 RC
10.0 ML
1.333 LW
N
3.5 -0.5 M
3.5 -2.709 1.709 -4.5 -0.5 -4.5 C
-2.709 -4.5 -4.5 -2.709 -4.5 -0.5 C
-4.5 1.709 -2.709 3.5 -0.5 3.5 C
1.709 3.5 3.5 1.709 3.5 -0.5 C
S
GR
GS
[0.75 0 0 0.75 1232.29688 214.75] CT
0.851 0.325 0.098 RC
10.0 ML
1.333 LW
N
3.5 -0.5 M
3.5 -2.709 1.709 -4.5 -0.5 -4.5 C
-2.709 -4.5 -4.5 -2.709 -4.5 -0.5 C
-4.5 1.709 -2.709 3.5 -0.5 3.5 C
1.709 3.5 3.5 1.709 3.5 -0.5 C
S
GR
GS
[0.75 0 0 0.75 1246.81833 214.75] CT
0.851 0.325 0.098 RC
10.0 ML
1.333 LW
N
3.5 -0.5 M
3.5 -2.709 1.709 -4.5 -0.5 -4.5 C
-2.709 -4.5 -4.5 -2.709 -4.5 -0.5 C
-4.5 1.709 -2.709 3.5 -0.5 3.5 C
1.709 3.5 3.5 1.709 3.5 -0.5 C
S
GR
GS
[0.75 0 0 0.75 1261.33987 214.75] CT
0.851 0.325 0.098 RC
10.0 ML
1.333 LW
N
3.5 -0.5 M
3.5 -2.709 1.709 -4.5 -0.5 -4.5 C
-2.709 -4.5 -4.5 -2.709 -4.5 -0.5 C
-4.5 1.709 -2.709 3.5 -0.5 3.5 C
1.709 3.5 3.5 1.709 3.5 -0.5 C
S
GR
GS
[0.75 0 0 0.75 1275.86133 214.75] CT
0.851 0.325 0.098 RC
10.0 ML
1.333 LW
N
3.5 -0.5 M
3.5 -2.709 1.709 -4.5 -0.5 -4.5 C
-2.709 -4.5 -4.5 -2.709 -4.5 -0.5 C
-4.5 1.709 -2.709 3.5 -0.5 3.5 C
1.709 3.5 3.5 1.709 3.5 -0.5 C
S
GR
GS
[0.75 0 0 0.75 1290.38278 214.75] CT
0.851 0.325 0.098 RC
10.0 ML
1.333 LW
N
3.5 -0.5 M
3.5 -2.709 1.709 -4.5 -0.5 -4.5 C
-2.709 -4.5 -4.5 -2.709 -4.5 -0.5 C
-4.5 1.709 -2.709 3.5 -0.5 3.5 C
1.709 3.5 3.5 1.709 3.5 -0.5 C
S
GR
GS
[0.75 0 0 0.75 0 0.25] CT
0.851 0.325 0.098 RC
1 LJ
1.333 LW
N
249 286 M
249 459.442 L
S
GR
GS
[0.75 0 0 0.75 0 0.25] CT
0.851 0.325 0.098 RC
1 LJ
1.333 LW
N
268.362 286 M
268.362 286 L
S
GR
GS
[0.75 0 0 0.75 0 0.25] CT
0.851 0.325 0.098 RC
1 LJ
1.333 LW
N
287.724 286 M
287.724 286 L
S
GR
GS
[0.75 0 0 0.75 0 0.25] CT
0.851 0.325 0.098 RC
1 LJ
1.333 LW
N
307.086 286 M
307.086 286 L
S
GR
GS
[0.75 0 0 0.75 0 0.25] CT
0.851 0.325 0.098 RC
1 LJ
1.333 LW
N
326.448 286 M
326.448 286 L
S
GR
GS
[0.75 0 0 0.75 0 0.25] CT
0.851 0.325 0.098 RC
1 LJ
1.333 LW
N
345.81 286 M
345.81 286 L
S
GR
GS
[0.75 0 0 0.75 0 0.25] CT
0.851 0.325 0.098 RC
1 LJ
1.333 LW
N
365.172 286 M
365.172 286 L
S
GR
GS
[0.75 0 0 0.75 0 0.25] CT
0.851 0.325 0.098 RC
1 LJ
1.333 LW
N
384.534 286 M
384.534 343.226 L
S
GR
GS
[0.75 0 0 0.75 0 0.25] CT
0.851 0.325 0.098 RC
1 LJ
1.333 LW
N
403.896 286 M
403.896 286 L
S
GR
GS
[0.75 0 0 0.75 0 0.25] CT
0.851 0.325 0.098 RC
1 LJ
1.333 LW
N
423.258 286 M
423.258 286 L
S
GR
GS
[0.75 0 0 0.75 0 0.25] CT
0.851 0.325 0.098 RC
1 LJ
1.333 LW
N
442.62 286 M
442.62 286 L
S
GR
GS
[0.75 0 0 0.75 0 0.25] CT
0.851 0.325 0.098 RC
1 LJ
1.333 LW
N
461.982 286 M
461.982 286 L
S
GR
GS
[0.75 0 0 0.75 0 0.25] CT
0.851 0.325 0.098 RC
1 LJ
1.333 LW
N
481.344 286 M
481.344 286 L
S
GR
GS
[0.75 0 0 0.75 0 0.25] CT
0.851 0.325 0.098 RC
1 LJ
1.333 LW
N
500.706 286 M
500.706 286 L
S
GR
GS
[0.75 0 0 0.75 0 0.25] CT
0.851 0.325 0.098 RC
1 LJ
1.333 LW
N
520.068 286 M
520.068 286 L
S
GR
GS
[0.75 0 0 0.75 0 0.25] CT
0.851 0.325 0.098 RC
1 LJ
1.333 LW
N
539.43 286 M
539.43 286 L
S
GR
GS
[0.75 0 0 0.75 0 0.25] CT
0.851 0.325 0.098 RC
1 LJ
1.333 LW
N
558.792 286 M
558.792 348.748 L
S
GR
GS
[0.75 0 0 0.75 0 0.25] CT
0.851 0.325 0.098 RC
1 LJ
1.333 LW
N
578.154 286 M
578.154 286 L
S
GR
GS
[0.75 0 0 0.75 0 0.25] CT
0.851 0.325 0.098 RC
1 LJ
1.333 LW
N
597.516 286 M
597.516 286 L
S
GR
GS
[0.75 0 0 0.75 0 0.25] CT
0.851 0.325 0.098 RC
1 LJ
1.333 LW
N
616.878 286 M
616.878 286 L
S
GR
GS
[0.75 0 0 0.75 0 0.25] CT
0.851 0.325 0.098 RC
1 LJ
1.333 LW
N
636.24 286 M
636.24 286 L
S
GR
GS
[0.75 0 0 0.75 0 0.25] CT
0.851 0.325 0.098 RC
1 LJ
1.333 LW
N
655.602 286 M
655.602 286.446 L
S
GR
GS
[0.75 0 0 0.75 0 0.25] CT
0.851 0.325 0.098 RC
1 LJ
1.333 LW
N
674.964 286 M
674.964 286 L
S
GR
GS
[0.75 0 0 0.75 0 0.25] CT
0.851 0.325 0.098 RC
1 LJ
1.333 LW
N
694.326 286 M
694.326 286 L
S
GR
GS
[0.75 0 0 0.75 0 0.25] CT
0.851 0.325 0.098 RC
1 LJ
1.333 LW
N
713.688 286 M
713.688 286 L
S
GR
GS
[0.75 0 0 0.75 0 0.25] CT
0.851 0.325 0.098 RC
1 LJ
1.333 LW
N
733.049 286 M
733.049 286 L
S
GR
GS
[0.75 0 0 0.75 0 0.25] CT
0.851 0.325 0.098 RC
1 LJ
1.333 LW
N
752.411 286 M
752.411 286 L
S
GR
GS
[0.75 0 0 0.75 0 0.25] CT
0.851 0.325 0.098 RC
1 LJ
1.333 LW
N
771.773 286 M
771.773 258.004 L
S
GR
GS
[0.75 0 0 0.75 0 0.25] CT
0.851 0.325 0.098 RC
1 LJ
1.333 LW
N
791.135 286 M
791.135 286 L
S
GR
GS
[0.75 0 0 0.75 0 0.25] CT
0.851 0.325 0.098 RC
1 LJ
1.333 LW
N
810.497 286 M
810.497 286 L
S
GR
GS
[0.75 0 0 0.75 0 0.25] CT
0.851 0.325 0.098 RC
1 LJ
1.333 LW
N
829.859 286 M
829.859 286 L
S
GR
GS
[0.75 0 0 0.75 0 0.25] CT
0.851 0.325 0.098 RC
1 LJ
1.333 LW
N
849.221 286 M
849.221 286 L
S
GR
GS
[0.75 0 0 0.75 0 0.25] CT
0.851 0.325 0.098 RC
1 LJ
1.333 LW
N
868.583 286 M
868.583 286 L
S
GR
GS
[0.75 0 0 0.75 0 0.25] CT
0.851 0.325 0.098 RC
1 LJ
1.333 LW
N
887.945 286 M
887.945 286 L
S
GR
GS
[0.75 0 0 0.75 0 0.25] CT
0.851 0.325 0.098 RC
1 LJ
1.333 LW
N
907.307 286 M
907.307 286 L
S
GR
GS
[0.75 0 0 0.75 0 0.25] CT
0.851 0.325 0.098 RC
1 LJ
1.333 LW
N
926.669 286 M
926.669 286 L
S
GR
GS
[0.75 0 0 0.75 0 0.25] CT
0.851 0.325 0.098 RC
1 LJ
1.333 LW
N
946.031 286 M
946.031 286 L
S
GR
GS
[0.75 0 0 0.75 0 0.25] CT
0.851 0.325 0.098 RC
1 LJ
1.333 LW
N
965.393 286 M
965.393 286 L
S
GR
GS
[0.75 0 0 0.75 0 0.25] CT
0.851 0.325 0.098 RC
1 LJ
1.333 LW
N
984.755 286 M
984.755 305.003 L
S
GR
GS
[0.75 0 0 0.75 0 0.25] CT
0.851 0.325 0.098 RC
1 LJ
1.333 LW
N
1004.117 286 M
1004.117 286 L
S
GR
GS
[0.75 0 0 0.75 0 0.25] CT
0.851 0.325 0.098 RC
1 LJ
1.333 LW
N
1023.479 286 M
1023.479 269.905 L
S
GR
GS
[0.75 0 0 0.75 0 0.25] CT
0.851 0.325 0.098 RC
1 LJ
1.333 LW
N
1042.841 286 M
1042.841 268.293 L
S
GR
GS
[0.75 0 0 0.75 0 0.25] CT
0.851 0.325 0.098 RC
1 LJ
1.333 LW
N
1062.203 286 M
1062.203 286 L
S
GR
GS
[0.75 0 0 0.75 0 0.25] CT
0.851 0.325 0.098 RC
1 LJ
1.333 LW
N
1081.565 286 M
1081.565 286 L
S
GR
GS
[0.75 0 0 0.75 0 0.25] CT
0.851 0.325 0.098 RC
1 LJ
1.333 LW
N
1100.927 286 M
1100.927 286 L
S
GR
GS
[0.75 0 0 0.75 0 0.25] CT
0.851 0.325 0.098 RC
1 LJ
1.333 LW
N
1120.289 286 M
1120.289 286 L
S
GR
GS
[0.75 0 0 0.75 0 0.25] CT
0.851 0.325 0.098 RC
1 LJ
1.333 LW
N
1139.651 286 M
1139.651 286 L
S
GR
GS
[0.75 0 0 0.75 0 0.25] CT
0.851 0.325 0.098 RC
1 LJ
1.333 LW
N
1159.013 286 M
1159.013 303.687 L
S
GR
GS
[0.75 0 0 0.75 0 0.25] CT
0.851 0.325 0.098 RC
1 LJ
1.333 LW
N
1178.375 286 M
1178.375 286 L
S
GR
GS
[0.75 0 0 0.75 0 0.25] CT
0.851 0.325 0.098 RC
1 LJ
1.333 LW
N
1197.737 286 M
1197.737 286 L
S
GR
GS
[0.75 0 0 0.75 0 0.25] CT
0.851 0.325 0.098 RC
1 LJ
1.333 LW
N
1217.099 286 M
1217.099 295.35 L
S
GR
GS
[0.75 0 0 0.75 0 0.25] CT
0.851 0.325 0.098 RC
1 LJ
1.333 LW
N
1236.461 286 M
1236.461 286 L
S
GR
GS
[0.75 0 0 0.75 0 0.25] CT
0.851 0.325 0.098 RC
1 LJ
1.333 LW
N
1255.823 286 M
1255.823 286 L
S
GR
GS
[0.75 0 0 0.75 0 0.25] CT
0.851 0.325 0.098 RC
1 LJ
1.333 LW
N
1275.185 286 M
1275.185 286 L
S
GR
GS
[0.75 0 0 0.75 0 0.25] CT
0.851 0.325 0.098 RC
1 LJ
1.333 LW
N
1294.547 286 M
1294.547 286 L
S
GR
GS
[0.75 0 0 0.75 0 0.25] CT
0.851 0.325 0.098 RC
1 LJ
1.333 LW
N
1313.909 286 M
1313.909 286 L
S
GR
GS
[0.75 0 0 0.75 0 0.25] CT
0.851 0.325 0.098 RC
1 LJ
1.333 LW
N
1333.271 286 M
1333.271 276.322 L
S
GR
GS
[0.75 0 0 0.75 0 0.25] CT
0.851 0.325 0.098 RC
1 LJ
1.333 LW
N
1352.633 286 M
1352.633 286 L
S
GR
GS
[0.75 0 0 0.75 0 0.25] CT
0.851 0.325 0.098 RC
1 LJ
1.333 LW
N
1371.995 286 M
1371.995 272.247 L
S
GR
GS
[0.75 0 0 0.75 0 0.25] CT
0.851 0.325 0.098 RC
1 LJ
1.333 LW
N
1391.357 286 M
1391.357 286 L
S
GR
GS
[0.75 0 0 0.75 0 0.25] CT
0.851 0.325 0.098 RC
1 LJ
1.333 LW
N
1410.719 286 M
1410.719 281.46 L
S
GR
GS
[0.75 0 0 0.75 0 0.25] CT
0.851 0.325 0.098 RC
1 LJ
1.333 LW
N
1430.081 286 M
1430.081 286 L
S
GR
GS
[0.75 0 0 0.75 0 0.25] CT
0.851 0.325 0.098 RC
1 LJ
1.333 LW
N
1449.443 286 M
1449.443 286 L
S
GR
GS
[0.75 0 0 0.75 0 0.25] CT
0.851 0.325 0.098 RC
1 LJ
1.333 LW
N
1468.805 286 M
1468.805 280.053 L
S
GR
GS
[0.75 0 0 0.75 0 0.25] CT
0.851 0.325 0.098 RC
1 LJ
1.333 LW
N
1488.167 286 M
1488.167 286 L
S
GR
GS
[0.75 0 0 0.75 0 0.25] CT
0.851 0.325 0.098 RC
1 LJ
1.333 LW
N
1507.529 286 M
1507.529 286 L
S
GR
GS
[0.75 0 0 0.75 0 0.25] CT
0.851 0.325 0.098 RC
1 LJ
1.333 LW
N
1526.891 286 M
1526.891 286.827 L
S
GR
GS
[0.75 0 0 0.75 0 0.25] CT
0.851 0.325 0.098 RC
1 LJ
1.333 LW
N
1546.253 286 M
1546.253 286 L
S
GR
GS
[0.75 0 0 0.75 0 0.25] CT
0.851 0.325 0.098 RC
1 LJ
1.333 LW
N
1565.615 286 M
1565.615 286 L
S
GR
GS
[0.75 0 0 0.75 0 0.25] CT
0.851 0.325 0.098 RC
1 LJ
1.333 LW
N
1584.977 286 M
1584.977 286 L
S
GR
GS
[0.75 0 0 0.75 0 0.25] CT
0.851 0.325 0.098 RC
1 LJ
1.333 LW
N
1604.339 286 M
1604.339 286 L
S
GR
GS
[0.75 0 0 0.75 0 0.25] CT
0.851 0.325 0.098 RC
1 LJ
1.333 LW
N
1623.701 286 M
1623.701 286 L
S
GR
GS
[0.75 0 0 0.75 0 0.25] CT
0.851 0.325 0.098 RC
1 LJ
1.333 LW
N
1643.063 286 M
1643.063 286 L
S
GR
GS
[0.75 0 0 0.75 0 0.25] CT
0.851 0.325 0.098 RC
1 LJ
1.333 LW
N
1662.424 286 M
1662.424 286 L
S
GR
GS
[0.75 0 0 0.75 0 0.25] CT
0.851 0.325 0.098 RC
1 LJ
1.333 LW
N
1681.786 286 M
1681.786 286 L
S
GR
GS
[0.75 0 0 0.75 0 0.25] CT
0.851 0.325 0.098 RC
1 LJ
1.333 LW
N
1701.148 286 M
1701.148 286 L
S
GR
GS
[0.75 0 0 0.75 0 0.25] CT
0.851 0.325 0.098 RC
1 LJ
1.333 LW
N
1720.51 286 M
1720.51 286 L
S
GR
GS
[0.75 0 0 0.75 0 0.25] CT
1 GC
N
1639 108 M
1639 57 L
1723 57 L
1723 108 L
cp
f
GR
GS
[0.75 0 0 0.75 1257.24408 53.2242] CT
N
2.188 4.874 M
2.188 4.842 2.203 4.78 QT
2.859 3.202 3.344 1.764 QT
3.828 0.327 4.234 -1.298 QT
4.984 -4.173 5.234 -7.251 QT
4.234 -7.251 3.25 -6.892 QT
2.734 -6.689 2.469 -6.369 QT
2.203 -6.048 2.031 -5.47 QT
1.844 -5.158 1.398 -4.884 QT
0.953 -4.611 0.609 -4.611 QT
0.484 -4.611 L
0.359 -4.689 0.359 -4.798 QT
0.703 -5.955 1.727 -6.759 QT
2.75 -7.564 4.117 -7.97 QT
5.484 -8.376 6.703 -8.376 QT
8.703 -8.376 L
10.031 -8.376 11.102 -8.251 QT
12.172 -8.126 13.039 -7.603 QT
13.906 -7.08 13.906 -6.001 QT
13.906 -5.126 13.5 -4.337 QT
13.094 -3.548 12.43 -2.916 QT
11.766 -2.283 10.969 -1.798 QT
10.172 -1.314 9.375 -1.033 QT
9.656 -0.689 10.039 0.147 QT
10.422 0.983 10.859 1.897 QT
11.297 2.811 11.727 3.358 QT
12.156 3.905 12.641 3.905 QT
13.188 3.905 13.508 3.694 QT
13.828 3.483 14.172 3.061 QT
14.516 2.639 14.836 2.397 QT
15.156 2.155 15.672 2.108 QT
15.797 2.108 L
15.922 2.17 15.922 2.249 QT
15.922 2.28 15.906 2.327 QT
15.891 2.374 15.859 2.42 QT
15.406 3.108 14.656 3.725 QT
13.906 4.342 13.047 4.686 QT
12.188 5.03 11.359 5.03 QT
11.25 5.03 L
10.516 5.03 10.016 4.319 QT
9.516 3.608 8.922 2.202 QT
8.328 0.795 7.875 0.108 QT
7.422 -0.58 6.766 -0.58 QT
6.719 -0.595 6.68 -0.634 QT
6.641 -0.673 6.641 -0.72 QT
6.641 -1.033 7.188 -1.345 QT
7.734 -1.658 8.078 -1.705 QT
9.125 -1.705 10.086 -2.111 QT
11.047 -2.517 11.633 -3.314 QT
12.219 -4.111 12.219 -5.158 QT
12.219 -6.111 11.383 -6.572 QT
10.547 -7.033 9.516 -7.142 QT
8.484 -7.251 7.281 -7.251 QT
6.859 -7.251 L
6.563 -4.423 5.805 -1.541 QT
5.047 1.342 3.859 4.155 QT
3.672 4.483 3.242 4.733 QT
2.813 4.983 2.406 5.03 QT
2.313 5.03 L
2.281 5.014 2.234 4.975 QT
2.188 4.936 2.188 4.874 QT
cp
f
GR
GS
[0.75 0 0 0.75 1257.24408 53.2242] CT
N
22.163 9.327 M
21.1 8.483 20.335 7.405 QT
19.569 6.327 19.085 5.1 QT
18.6 3.874 18.358 2.538 QT
18.116 1.202 18.116 -0.142 QT
18.116 -1.501 18.358 -2.837 QT
18.6 -4.173 19.1 -5.408 QT
19.6 -6.642 20.366 -7.72 QT
21.131 -8.798 22.163 -9.611 QT
22.163 -9.642 22.256 -9.642 QT
22.428 -9.642 L
22.491 -9.642 22.538 -9.587 QT
22.585 -9.533 22.585 -9.47 QT
22.585 -9.392 22.538 -9.361 QT
21.616 -8.439 20.999 -7.4 QT
20.381 -6.361 20.006 -5.189 QT
19.631 -4.017 19.467 -2.759 QT
19.303 -1.501 19.303 -0.142 QT
19.303 5.905 22.522 9.03 QT
22.585 9.092 22.585 9.186 QT
22.585 9.233 22.53 9.295 QT
22.475 9.358 22.428 9.358 QT
22.256 9.358 L
22.163 9.358 22.163 9.327 QT
cp
f
GR
GS
[0.75 0 0 0.75 1257.24408 53.2242] CT
N
24.754 4.264 M
24.754 4.155 24.77 4.092 QT
27.52 -6.892 L
27.598 -7.205 27.614 -7.392 QT
27.614 -7.705 26.379 -7.705 QT
26.192 -7.705 26.192 -7.955 QT
26.192 -8.001 26.231 -8.119 QT
26.27 -8.236 26.317 -8.306 QT
26.364 -8.376 26.458 -8.376 QT
29.02 -8.58 L
29.067 -8.58 L
29.067 -8.564 29.137 -8.525 QT
29.208 -8.486 29.208 -8.486 QT
29.254 -8.392 29.254 -8.33 QT
27.77 -2.408 L
28.942 -3.783 30.536 -3.783 QT
31.208 -3.783 31.692 -3.556 QT
32.176 -3.33 32.45 -2.861 QT
32.723 -2.392 32.723 -1.736 QT
32.723 -0.955 32.379 0.147 QT
32.036 1.249 31.52 2.608 QT
31.239 3.233 31.239 3.749 QT
31.239 4.327 31.676 4.327 QT
32.426 4.327 32.918 3.53 QT
33.411 2.733 33.614 1.811 QT
33.661 1.702 33.77 1.702 QT
34.004 1.702 L
34.067 1.702 34.114 1.756 QT
34.161 1.811 34.161 1.874 QT
34.161 1.889 34.145 1.92 QT
33.989 2.608 33.653 3.272 QT
33.317 3.936 32.817 4.381 QT
32.317 4.827 31.645 4.827 QT
30.973 4.827 30.504 4.366 QT
30.036 3.905 30.036 3.249 QT
30.036 2.889 30.176 2.499 QT
30.723 1.077 31.075 -0.048 QT
31.426 -1.173 31.426 -2.033 QT
31.426 -2.58 31.215 -2.939 QT
31.004 -3.298 30.504 -3.298 QT
29.489 -3.298 28.723 -2.673 QT
27.958 -2.048 27.411 -1.017 QT
26.114 4.17 L
26.036 4.452 25.825 4.639 QT
25.614 4.827 25.333 4.827 QT
25.098 4.827 24.926 4.663 QT
24.754 4.499 24.754 4.264 QT
cp
f
GR
GS
[0.75 0 0 0.75 1257.24408 53.2242] CT
N
36.035 9.358 M
35.863 9.358 35.863 9.186 QT
35.863 9.108 35.91 9.077 QT
39.145 5.905 39.145 -0.142 QT
39.145 -6.189 35.942 -9.314 QT
35.863 -9.361 35.863 -9.47 QT
35.863 -9.533 35.918 -9.587 QT
35.973 -9.642 36.035 -9.642 QT
36.207 -9.642 L
36.27 -9.642 36.301 -9.611 QT
37.66 -8.533 38.574 -6.994 QT
39.488 -5.455 39.91 -3.705 QT
40.332 -1.955 40.332 -0.142 QT
40.332 1.202 40.106 2.506 QT
39.879 3.811 39.379 5.077 QT
38.879 6.342 38.121 7.413 QT
37.363 8.483 36.301 9.327 QT
36.27 9.358 36.207 9.358 QT
36.035 9.358 L
cp
f
GR
GS
[0.75 0 0 0.75 0 0.25] CT
0 0.447 0.741 RC
1 LJ
1.333 LW
N
1643.035 70.632 M
1664.22 70.632 L
S
GR
GS
[0.75 0 0 0.75 1248.16489 53.2242] CT
0 0.447 0.741 RC
10.0 ML
1.333 LW
N
-2.828 -2.828 M
2.828 2.828 L
-2.828 2.828 M
2.828 -2.828 L
S
GR
GS
[0.75 0 0 0.75 1257.24408 71.0258] CT
N
-0.359 4.608 M
-0.406 4.592 -0.445 4.553 QT
-0.484 4.514 -0.484 4.452 QT
-0.484 4.155 0.063 3.842 QT
0.609 3.53 0.953 3.483 QT
2.656 3.483 L
2.953 3.483 3.102 3.311 QT
3.25 3.139 3.484 2.764 QT
4 1.905 4.469 0.233 QT
4.563 -0.08 4.672 -0.541 QT
4.781 -1.001 4.922 -1.501 QT
5.125 -2.33 5.32 -3.072 QT
5.516 -3.814 5.797 -4.619 QT
6.078 -5.423 6.445 -6.095 QT
6.813 -6.767 7.281 -7.251 QT
6.109 -7.251 L
4.969 -7.251 4.188 -7.197 QT
3.406 -7.142 2.688 -6.908 QT
2.469 -6.798 2.313 -6.408 QT
2.156 -6.017 2.141 -6.001 QT
1.891 -5.673 1.508 -5.462 QT
1.125 -5.251 0.766 -5.22 QT
0.672 -5.22 L
0.531 -5.283 0.531 -5.376 QT
1 -7.095 3.359 -7.939 QT
4.188 -8.189 5.148 -8.283 QT
6.109 -8.376 7.344 -8.376 QT
11.984 -8.376 L
12.125 -8.298 12.125 -8.22 QT
12.125 -7.923 11.57 -7.603 QT
11.016 -7.283 10.656 -7.251 QT
8.422 -7.251 L
7.844 -6.548 7.484 -5.423 QT
7.125 -4.298 6.609 -2.267 QT
6.375 -1.236 6.188 -0.548 QT
6 0.139 5.727 0.874 QT
5.453 1.608 5.031 2.303 QT
4.609 2.999 4.063 3.483 QT
7.797 3.483 L
8.141 3.483 8.516 3.374 QT
8.547 3.358 8.648 3.124 QT
8.75 2.889 8.766 2.889 QT
8.984 2.592 9.367 2.366 QT
9.75 2.139 10.125 2.108 QT
10.25 2.108 L
10.375 2.186 10.375 2.295 QT
10.188 2.952 9.555 3.491 QT
8.922 4.03 8.102 4.319 QT
7.281 4.608 6.578 4.608 QT
-0.359 4.608 L
cp
f
GR
GS
[0.75 0 0 0.75 1257.24408 71.0258] CT
N
17.763 9.327 M
16.7 8.483 15.935 7.405 QT
15.169 6.327 14.685 5.1 QT
14.2 3.874 13.958 2.538 QT
13.716 1.202 13.716 -0.142 QT
13.716 -1.501 13.958 -2.837 QT
14.2 -4.173 14.7 -5.408 QT
15.2 -6.642 15.966 -7.72 QT
16.731 -8.798 17.763 -9.611 QT
17.763 -9.642 17.856 -9.642 QT
18.028 -9.642 L
18.091 -9.642 18.138 -9.587 QT
18.185 -9.533 18.185 -9.47 QT
18.185 -9.392 18.138 -9.361 QT
17.216 -8.439 16.599 -7.4 QT
15.981 -6.361 15.606 -5.189 QT
15.231 -4.017 15.067 -2.759 QT
14.903 -1.501 14.903 -0.142 QT
14.903 5.905 18.122 9.03 QT
18.185 9.092 18.185 9.186 QT
18.185 9.233 18.13 9.295 QT
18.075 9.358 18.028 9.358 QT
17.856 9.358 L
17.763 9.358 17.763 9.327 QT
cp
f
GR
GS
[0.75 0 0 0.75 1257.24408 71.0258] CT
N
20.354 4.264 M
20.354 4.155 20.37 4.092 QT
23.12 -6.892 L
23.198 -7.205 23.214 -7.392 QT
23.214 -7.705 21.979 -7.705 QT
21.792 -7.705 21.792 -7.955 QT
21.792 -8.001 21.831 -8.119 QT
21.87 -8.236 21.917 -8.306 QT
21.964 -8.376 22.057 -8.376 QT
24.62 -8.58 L
24.667 -8.58 L
24.667 -8.564 24.737 -8.525 QT
24.807 -8.486 24.807 -8.486 QT
24.854 -8.392 24.854 -8.33 QT
23.37 -2.408 L
24.542 -3.783 26.136 -3.783 QT
26.807 -3.783 27.292 -3.556 QT
27.776 -3.33 28.05 -2.861 QT
28.323 -2.392 28.323 -1.736 QT
28.323 -0.955 27.979 0.147 QT
27.636 1.249 27.12 2.608 QT
26.839 3.233 26.839 3.749 QT
26.839 4.327 27.276 4.327 QT
28.026 4.327 28.518 3.53 QT
29.011 2.733 29.214 1.811 QT
29.261 1.702 29.37 1.702 QT
29.604 1.702 L
29.667 1.702 29.714 1.756 QT
29.761 1.811 29.761 1.874 QT
29.761 1.889 29.745 1.92 QT
29.589 2.608 29.253 3.272 QT
28.917 3.936 28.417 4.381 QT
27.917 4.827 27.245 4.827 QT
26.573 4.827 26.104 4.366 QT
25.636 3.905 25.636 3.249 QT
25.636 2.889 25.776 2.499 QT
26.323 1.077 26.675 -0.048 QT
27.026 -1.173 27.026 -2.033 QT
27.026 -2.58 26.815 -2.939 QT
26.604 -3.298 26.104 -3.298 QT
25.089 -3.298 24.323 -2.673 QT
23.557 -2.048 23.011 -1.017 QT
21.714 4.17 L
21.636 4.452 21.425 4.639 QT
21.214 4.827 20.932 4.827 QT
20.698 4.827 20.526 4.663 QT
20.354 4.499 20.354 4.264 QT
cp
f
GR
GS
[0.75 0 0 0.75 1257.24408 71.0258] CT
N
31.635 9.358 M
31.463 9.358 31.463 9.186 QT
31.463 9.108 31.51 9.077 QT
34.745 5.905 34.745 -0.142 QT
34.745 -6.189 31.542 -9.314 QT
31.463 -9.361 31.463 -9.47 QT
31.463 -9.533 31.518 -9.587 QT
31.573 -9.642 31.635 -9.642 QT
31.807 -9.642 L
31.87 -9.642 31.901 -9.611 QT
33.26 -8.533 34.174 -6.994 QT
35.088 -5.455 35.51 -3.705 QT
35.932 -1.955 35.932 -0.142 QT
35.932 1.202 35.706 2.506 QT
35.479 3.811 34.979 5.077 QT
34.479 6.342 33.721 7.413 QT
32.963 8.483 31.901 9.327 QT
31.87 9.358 31.807 9.358 QT
31.635 9.358 L
cp
f
GR
GS
[0.75 0 0 0.75 0 0.25] CT
0.851 0.325 0.098 RC
1 LJ
1.333 LW
N
1643.035 94.368 M
1664.22 94.368 L
S
GR
GS
[0.75 0 0 0.75 1248.16489 71.0258] CT
0.851 0.325 0.098 RC
10.0 ML
1.333 LW
N
3.5 -0.5 M
3.5 -2.709 1.709 -4.5 -0.5 -4.5 C
-2.709 -4.5 -4.5 -2.709 -4.5 -0.5 C
-4.5 1.709 -2.709 3.5 -0.5 3.5 C
1.709 3.5 3.5 1.709 3.5 -0.5 C
S
GR
GS
[0.75 0 0 0.75 0 0.25] CT
0.149 GC
10.0 ML
0.667 LW
N
1639 108 M
1639 57 L
1723 57 L
1723 108 L
cp
S
GR
%%Trailer
%%Pages: 1
%%EOF
