%!PS-Adobe-3.0 EPSF-3.0
%%Creator: (MATLAB, The Mathworks, Inc. Version 9.1.0.441655 \(R2016b\). Operating System: Linux)
%%Title: (/home/quentin/Documents/1-Research/9-Papiers/Work In Progress/PhD_manuscript_real/2-Chapters/2-Chapter/Images/ETU_f.eps)
%%CreationDate: 2017-05-19T16:54:54
%%Pages: (atend)
%%BoundingBox: 0 0 1439 445
%%LanguageLevel: 3
%%EndComments
%%BeginProlog
%%BeginResource: procset (Apache XML Graphics Std ProcSet) 1.2 0
%%Version: 1.2 0
%%Copyright: (Copyright 2001-2003,2010 The Apache Software Foundation. License terms: http://www.apache.org/licenses/LICENSE-2.0)
/bd{bind def}bind def
/ld{load def}bd
/GR/grestore ld
/M/moveto ld
/LJ/setlinejoin ld
/C/curveto ld
/f/fill ld
/LW/setlinewidth ld
/GC/setgray ld
/t/show ld
/N/newpath ld
/CT/concat ld
/cp/closepath ld
/S/stroke ld
/L/lineto ld
/CC/setcmykcolor ld
/A/ashow ld
/GS/gsave ld
/RC/setrgbcolor ld
/RM/rmoveto ld
/ML/setmiterlimit ld
/re {4 2 roll M
1 index 0 rlineto
0 exch rlineto
neg 0 rlineto
cp } bd
/_ctm matrix def
/_tm matrix def
/BT { _ctm currentmatrix pop matrix _tm copy pop 0 0 moveto } bd
/ET { _ctm setmatrix } bd
/iTm { _ctm setmatrix _tm concat } bd
/Tm { _tm astore pop iTm 0 0 moveto } bd
/ux 0.0 def
/uy 0.0 def
/F {
  /Tp exch def
  /Tf exch def
  Tf findfont Tp scalefont setfont
  /cf Tf def  /cs Tp def
} bd
/ULS {currentpoint /uy exch def /ux exch def} bd
/ULE {
  /Tcx currentpoint pop def
  gsave
  newpath
  cf findfont cs scalefont dup
  /FontMatrix get 0 get /Ts exch def /FontInfo get dup
  /UnderlinePosition get Ts mul /To exch def
  /UnderlineThickness get Ts mul /Tt exch def
  ux uy To add moveto  Tcx uy To add lineto
  Tt setlinewidth stroke
  grestore
} bd
/OLE {
  /Tcx currentpoint pop def
  gsave
  newpath
  cf findfont cs scalefont dup
  /FontMatrix get 0 get /Ts exch def /FontInfo get dup
  /UnderlinePosition get Ts mul /To exch def
  /UnderlineThickness get Ts mul /Tt exch def
  ux uy To add cs add moveto Tcx uy To add cs add lineto
  Tt setlinewidth stroke
  grestore
} bd
/SOE {
  /Tcx currentpoint pop def
  gsave
  newpath
  cf findfont cs scalefont dup
  /FontMatrix get 0 get /Ts exch def /FontInfo get dup
  /UnderlinePosition get Ts mul /To exch def
  /UnderlineThickness get Ts mul /Tt exch def
  ux uy To add cs 10 mul 26 idiv add moveto Tcx uy To add cs 10 mul 26 idiv add lineto
  Tt setlinewidth stroke
  grestore
} bd
/QT {
/Y22 exch store
/X22 exch store
/Y21 exch store
/X21 exch store
currentpoint
/Y21 load 2 mul add 3 div exch
/X21 load 2 mul add 3 div exch
/X21 load 2 mul /X22 load add 3 div
/Y21 load 2 mul /Y22 load add 3 div
/X22 load /Y22 load curveto
} bd
/SSPD {
dup length /d exch dict def
{
/v exch def
/k exch def
currentpagedevice k known {
/cpdv currentpagedevice k get def
v cpdv ne {
/upd false def
/nullv v type /nulltype eq def
/nullcpdv cpdv type /nulltype eq def
nullv nullcpdv or
{
/upd true def
} {
/sametype v type cpdv type eq def
sametype {
v type /arraytype eq {
/vlen v length def
/cpdvlen cpdv length def
vlen cpdvlen eq {
0 1 vlen 1 sub {
/i exch def
/obj v i get def
/cpdobj cpdv i get def
obj cpdobj ne {
/upd true def
exit
} if
} for
} {
/upd true def
} ifelse
} {
v type /dicttype eq {
v {
/dv exch def
/dk exch def
/cpddv cpdv dk get def
dv cpddv ne {
/upd true def
exit
} if
} forall
} {
/upd true def
} ifelse
} ifelse
} if
} ifelse
upd true eq {
d k v put
} if
} if
} if
} forall
d length 0 gt {
d setpagedevice
} if
} bd
/RE { % /NewFontName [NewEncodingArray] /FontName RE -
  findfont dup length dict begin
  {
    1 index /FID ne
    {def} {pop pop} ifelse
  } forall
  /Encoding exch def
  /FontName 1 index def
  currentdict definefont pop
  end
} bind def
%%EndResource
%%BeginResource: procset (Apache XML Graphics EPS ProcSet) 1.0 0
%%Version: 1.0 0
%%Copyright: (Copyright 2002-2003 The Apache Software Foundation. License terms: http://www.apache.org/licenses/LICENSE-2.0)
/BeginEPSF { %def
/b4_Inc_state save def         % Save state for cleanup
/dict_count countdictstack def % Count objects on dict stack
/op_count count 1 sub def      % Count objects on operand stack
userdict begin                 % Push userdict on dict stack
/showpage { } def              % Redefine showpage, { } = null proc
0 setgray 0 setlinecap         % Prepare graphics state
1 setlinewidth 0 setlinejoin
10 setmiterlimit [ ] 0 setdash newpath
/languagelevel where           % If level not equal to 1 then
{pop languagelevel             % set strokeadjust and
1 ne                           % overprint to their defaults.
{false setstrokeadjust false setoverprint
} if
} if
} bd
/EndEPSF { %def
count op_count sub {pop} repeat            % Clean up stacks
countdictstack dict_count sub {end} repeat
b4_Inc_state restore
} bd
%%EndResource
%FOPBeginFontDict
%%IncludeResource: font Courier-Bold
%%IncludeResource: font Helvetica
%%IncludeResource: font Courier-BoldOblique
%%IncludeResource: font Courier-Oblique
%%IncludeResource: font Times-Roman
%%IncludeResource: font Helvetica-BoldOblique
%%IncludeResource: font Helvetica-Bold
%%IncludeResource: font Helvetica-Oblique
%%IncludeResource: font Times-BoldItalic
%%IncludeResource: font Courier
%%IncludeResource: font Times-Italic
%%IncludeResource: font Times-Bold
%%IncludeResource: font Symbol
%%IncludeResource: font ZapfDingbats
%FOPEndFontDict
%%BeginResource: encoding WinAnsiEncoding
/WinAnsiEncoding [
/.notdef /.notdef /.notdef /.notdef /.notdef
/.notdef /.notdef /.notdef /.notdef /.notdef
/.notdef /.notdef /.notdef /.notdef /.notdef
/.notdef /.notdef /.notdef /.notdef /.notdef
/.notdef /.notdef /.notdef /.notdef /.notdef
/.notdef /.notdef /.notdef /.notdef /.notdef
/.notdef /.notdef /space /exclam /quotedbl
/numbersign /dollar /percent /ampersand /quotesingle
/parenleft /parenright /asterisk /plus /comma
/hyphen /period /slash /zero /one
/two /three /four /five /six
/seven /eight /nine /colon /semicolon
/less /equal /greater /question /at
/A /B /C /D /E
/F /G /H /I /J
/K /L /M /N /O
/P /Q /R /S /T
/U /V /W /X /Y
/Z /bracketleft /backslash /bracketright /asciicircum
/underscore /quoteleft /a /b /c
/d /e /f /g /h
/i /j /k /l /m
/n /o /p /q /r
/s /t /u /v /w
/x /y /z /braceleft /bar
/braceright /asciitilde /bullet /Euro /bullet
/quotesinglbase /florin /quotedblbase /ellipsis /dagger
/daggerdbl /circumflex /perthousand /Scaron /guilsinglleft
/OE /bullet /Zcaron /bullet /bullet
/quoteleft /quoteright /quotedblleft /quotedblright /bullet
/endash /emdash /asciitilde /trademark /scaron
/guilsinglright /oe /bullet /zcaron /Ydieresis
/space /exclamdown /cent /sterling /currency
/yen /brokenbar /section /dieresis /copyright
/ordfeminine /guillemotleft /logicalnot /sfthyphen /registered
/macron /degree /plusminus /twosuperior /threesuperior
/acute /mu /paragraph /middot /cedilla
/onesuperior /ordmasculine /guillemotright /onequarter /onehalf
/threequarters /questiondown /Agrave /Aacute /Acircumflex
/Atilde /Adieresis /Aring /AE /Ccedilla
/Egrave /Eacute /Ecircumflex /Edieresis /Igrave
/Iacute /Icircumflex /Idieresis /Eth /Ntilde
/Ograve /Oacute /Ocircumflex /Otilde /Odieresis
/multiply /Oslash /Ugrave /Uacute /Ucircumflex
/Udieresis /Yacute /Thorn /germandbls /agrave
/aacute /acircumflex /atilde /adieresis /aring
/ae /ccedilla /egrave /eacute /ecircumflex
/edieresis /igrave /iacute /icircumflex /idieresis
/eth /ntilde /ograve /oacute /ocircumflex
/otilde /odieresis /divide /oslash /ugrave
/uacute /ucircumflex /udieresis /yacute /thorn
/ydieresis
] def
%%EndResource
%FOPBeginFontReencode
/Courier-Bold findfont
dup length dict begin
  {1 index /FID ne {def} {pop pop} ifelse} forall
  /Encoding WinAnsiEncoding def
  currentdict
end
/Courier-Bold exch definefont pop
/Helvetica findfont
dup length dict begin
  {1 index /FID ne {def} {pop pop} ifelse} forall
  /Encoding WinAnsiEncoding def
  currentdict
end
/Helvetica exch definefont pop
/Courier-BoldOblique findfont
dup length dict begin
  {1 index /FID ne {def} {pop pop} ifelse} forall
  /Encoding WinAnsiEncoding def
  currentdict
end
/Courier-BoldOblique exch definefont pop
/Courier-Oblique findfont
dup length dict begin
  {1 index /FID ne {def} {pop pop} ifelse} forall
  /Encoding WinAnsiEncoding def
  currentdict
end
/Courier-Oblique exch definefont pop
/Times-Roman findfont
dup length dict begin
  {1 index /FID ne {def} {pop pop} ifelse} forall
  /Encoding WinAnsiEncoding def
  currentdict
end
/Times-Roman exch definefont pop
/Helvetica-BoldOblique findfont
dup length dict begin
  {1 index /FID ne {def} {pop pop} ifelse} forall
  /Encoding WinAnsiEncoding def
  currentdict
end
/Helvetica-BoldOblique exch definefont pop
/Helvetica-Bold findfont
dup length dict begin
  {1 index /FID ne {def} {pop pop} ifelse} forall
  /Encoding WinAnsiEncoding def
  currentdict
end
/Helvetica-Bold exch definefont pop
/Helvetica-Oblique findfont
dup length dict begin
  {1 index /FID ne {def} {pop pop} ifelse} forall
  /Encoding WinAnsiEncoding def
  currentdict
end
/Helvetica-Oblique exch definefont pop
/Times-BoldItalic findfont
dup length dict begin
  {1 index /FID ne {def} {pop pop} ifelse} forall
  /Encoding WinAnsiEncoding def
  currentdict
end
/Times-BoldItalic exch definefont pop
/Courier findfont
dup length dict begin
  {1 index /FID ne {def} {pop pop} ifelse} forall
  /Encoding WinAnsiEncoding def
  currentdict
end
/Courier exch definefont pop
/Times-Italic findfont
dup length dict begin
  {1 index /FID ne {def} {pop pop} ifelse} forall
  /Encoding WinAnsiEncoding def
  currentdict
end
/Times-Italic exch definefont pop
/Times-Bold findfont
dup length dict begin
  {1 index /FID ne {def} {pop pop} ifelse} forall
  /Encoding WinAnsiEncoding def
  currentdict
end
/Times-Bold exch definefont pop
%FOPEndFontReencode
%%EndProlog
%%Page: 1 1
%%PageBoundingBox: 0 0 1439 445
%%BeginPageSetup
[1 0 0 -1 0 445] CT
%%EndPageSetup
GS
[0.75 0 0 0.75 0 0.25] CT
N
0 0 M
1918 0 L
1918 593 L
0 593 L
0 0 L
cp
clip
1 GC
N
0 0 1918 593 re
f
GR
GS
[0.75 0 0 0.75 0 0.25] CT
1 GC
N
0 0 1918 593 re
f
GR
GS
[0.75 0 0 0.75 0 0.25] CT
1 GC
N
249 528 M
1736 528 L
1736 44 L
249 44 L
cp
f
GR
GS
[0.75 0 0 0.75 0 0.25] CT
0.873 GC
1 LJ
0.667 LW
N
249 528 M
249 44 L
S
GR
GS
[0.75 0 0 0.75 0 0.25] CT
0.873 GC
1 LJ
0.667 LW
N
491.143 528 M
491.143 44 L
S
GR
GS
[0.75 0 0 0.75 0 0.25] CT
0.873 GC
1 LJ
0.667 LW
N
733.286 528 M
733.286 44 L
S
GR
GS
[0.75 0 0 0.75 0 0.25] CT
0.873 GC
1 LJ
0.667 LW
N
975.429 528 M
975.429 44 L
S
GR
GS
[0.75 0 0 0.75 0 0.25] CT
0.873 GC
1 LJ
0.667 LW
N
1217.572 528 M
1217.572 44 L
S
GR
GS
[0.75 0 0 0.75 0 0.25] CT
0.873 GC
1 LJ
0.667 LW
N
1459.715 528 M
1459.715 44 L
S
GR
GS
[0.75 0 0 0.75 0 0.25] CT
0.873 GC
1 LJ
0.667 LW
N
1701.858 528 M
1701.858 44 L
S
GR
GS
[0.75 0 0 0.75 0 0.25] CT
0.873 GC
1 LJ
0.667 LW
N
1736 528 M
249 528 L
S
GR
GS
[0.75 0 0 0.75 0 0.25] CT
0.873 GC
1 LJ
0.667 LW
N
1736 479.6 M
249 479.6 L
S
GR
GS
[0.75 0 0 0.75 0 0.25] CT
0.873 GC
1 LJ
0.667 LW
N
1736 431.2 M
249 431.2 L
S
GR
GS
[0.75 0 0 0.75 0 0.25] CT
0.873 GC
1 LJ
0.667 LW
N
1736 382.8 M
249 382.8 L
S
GR
GS
[0.75 0 0 0.75 0 0.25] CT
0.873 GC
1 LJ
0.667 LW
N
1736 334.4 M
249 334.4 L
S
GR
GS
[0.75 0 0 0.75 0 0.25] CT
0.873 GC
1 LJ
0.667 LW
N
1736 286 M
249 286 L
S
GR
GS
[0.75 0 0 0.75 0 0.25] CT
0.873 GC
1 LJ
0.667 LW
N
1736 237.6 M
249 237.6 L
S
GR
GS
[0.75 0 0 0.75 0 0.25] CT
0.873 GC
1 LJ
0.667 LW
N
1736 189.2 M
249 189.2 L
S
GR
GS
[0.75 0 0 0.75 0 0.25] CT
0.873 GC
1 LJ
0.667 LW
N
1736 140.8 M
249 140.8 L
S
GR
GS
[0.75 0 0 0.75 0 0.25] CT
0.873 GC
1 LJ
0.667 LW
N
1736 92.4 M
249 92.4 L
S
GR
GS
[0.75 0 0 0.75 0 0.25] CT
0.873 GC
1 LJ
0.667 LW
N
1736 44 M
249 44 L
S
GR
GS
[0.75 0 0 0.75 0 0.25] CT
0.149 GC
2 setlinecap
1 LJ
0.667 LW
N
249 528 M
1736 528 L
S
GR
GS
[0.75 0 0 0.75 0 0.25] CT
0.149 GC
2 setlinecap
1 LJ
0.667 LW
N
249 44 M
1736 44 L
S
GR
GS
[0.75 0 0 0.75 0 0.25] CT
0.149 GC
2 setlinecap
1 LJ
0.667 LW
N
249 528 M
249 513.13 L
S
GR
GS
[0.75 0 0 0.75 0 0.25] CT
0.149 GC
2 setlinecap
1 LJ
0.667 LW
N
491.143 528 M
491.143 513.13 L
S
GR
GS
[0.75 0 0 0.75 0 0.25] CT
0.149 GC
2 setlinecap
1 LJ
0.667 LW
N
733.286 528 M
733.286 513.13 L
S
GR
GS
[0.75 0 0 0.75 0 0.25] CT
0.149 GC
2 setlinecap
1 LJ
0.667 LW
N
975.429 528 M
975.429 513.13 L
S
GR
GS
[0.75 0 0 0.75 0 0.25] CT
0.149 GC
2 setlinecap
1 LJ
0.667 LW
N
1217.572 528 M
1217.572 513.13 L
S
GR
GS
[0.75 0 0 0.75 0 0.25] CT
0.149 GC
2 setlinecap
1 LJ
0.667 LW
N
1459.715 528 M
1459.715 513.13 L
S
GR
GS
[0.75 0 0 0.75 0 0.25] CT
0.149 GC
2 setlinecap
1 LJ
0.667 LW
N
1701.858 528 M
1701.858 513.13 L
S
GR
GS
[0.75 0 0 0.75 0 0.25] CT
0.149 GC
2 setlinecap
1 LJ
0.667 LW
N
249 44 M
249 58.87 L
S
GR
GS
[0.75 0 0 0.75 0 0.25] CT
0.149 GC
2 setlinecap
1 LJ
0.667 LW
N
491.143 44 M
491.143 58.87 L
S
GR
GS
[0.75 0 0 0.75 0 0.25] CT
0.149 GC
2 setlinecap
1 LJ
0.667 LW
N
733.286 44 M
733.286 58.87 L
S
GR
GS
[0.75 0 0 0.75 0 0.25] CT
0.149 GC
2 setlinecap
1 LJ
0.667 LW
N
975.429 44 M
975.429 58.87 L
S
GR
GS
[0.75 0 0 0.75 0 0.25] CT
0.149 GC
2 setlinecap
1 LJ
0.667 LW
N
1217.572 44 M
1217.572 58.87 L
S
GR
GS
[0.75 0 0 0.75 0 0.25] CT
0.149 GC
2 setlinecap
1 LJ
0.667 LW
N
1459.715 44 M
1459.715 58.87 L
S
GR
GS
[0.75 0 0 0.75 0 0.25] CT
0.149 GC
2 setlinecap
1 LJ
0.667 LW
N
1701.858 44 M
1701.858 58.87 L
S
GR
GS
[0.75 0 0 0.75 186.75 401.45001] CT
0.149 GC
/Courier 21.333 F
GS
[1 0 0 1 0 0] CT
-5.5 20 moveto 
1 -1 scale
(0) t 
GR
GR
GS
[0.75 0 0 0.75 368.35723 401.45001] CT
0.149 GC
/Courier 21.333 F
GS
[1 0 0 1 0 0] CT
-13.5 20 moveto 
1 -1 scale
(0.5) t 
GR
GR
GS
[0.75 0 0 0.75 549.96446 401.45001] CT
0.149 GC
/Courier 21.333 F
GS
[1 0 0 1 0 0] CT
-5.5 20 moveto 
1 -1 scale
(1) t 
GR
GR
GS
[0.75 0 0 0.75 731.57167 401.45001] CT
0.149 GC
/Courier 21.333 F
GS
[1 0 0 1 0 0] CT
-13.5 20 moveto 
1 -1 scale
(1.5) t 
GR
GR
GS
[0.75 0 0 0.75 913.17892 401.45001] CT
0.149 GC
/Courier 21.333 F
GS
[1 0 0 1 0 0] CT
-5.5 20 moveto 
1 -1 scale
(2) t 
GR
GR
GS
[0.75 0 0 0.75 1094.78613 401.45001] CT
0.149 GC
/Courier 21.333 F
GS
[1 0 0 1 0 0] CT
-13.5 20 moveto 
1 -1 scale
(2.5) t 
GR
GR
GS
[0.75 0 0 0.75 1276.39334 401.45001] CT
0.149 GC
/Courier 21.333 F
GS
[1 0 0 1 0 0] CT
-5.5 20 moveto 
1 -1 scale
(3) t 
GR
GR
GS
[0.75 0 0 0.75 744.37555 421.2] CT
0.149 GC
/Courier 23.467 F
GS
[1 0 0 1 0 0] CT
-27 21 moveto 
1 -1 scale
(f \(Hz\)) t 
GR
GR
GS
[0.75 0 0 0.75 1266.75 440.5] CT
0.149 GC
N
3.094 -0.609 M
3.094 -0.766 3.188 -0.906 QT
7.563 -5.25 L
3.188 -9.625 L
3.094 -9.719 3.094 -9.891 QT
3.094 -10.047 3.211 -10.18 QT
3.328 -10.313 3.5 -10.313 QT
3.656 -10.313 3.828 -10.188 QT
8.172 -5.828 L
12.5 -10.188 L
12.672 -10.313 12.813 -10.313 QT
12.984 -10.313 13.109 -10.188 QT
13.234 -10.063 13.234 -9.891 QT
13.234 -9.719 13.125 -9.625 QT
8.75 -5.25 L
13.125 -0.906 L
13.234 -0.766 13.234 -0.609 QT
13.234 -0.438 13.109 -0.313 QT
12.984 -0.188 12.813 -0.188 QT
12.656 -0.188 12.5 -0.344 QT
8.172 -4.672 L
3.828 -0.344 L
3.672 -0.188 3.5 -0.188 QT
3.328 -0.188 3.211 -0.32 QT
3.094 -0.453 3.094 -0.609 QT
cp
f
GR
GS
[0.75 0 0 0.75 1279.5 440.5] CT
0.149 GC
/Courier 21.333 F
GS
[1 0 0 1 0 0] CT
0 0 moveto 
1 -1 scale
(10) t 
GR
GR
GS
[0.75 0 0 0.75 1295.25 433] CT
0.149 GC
/Courier 17.067 F
GS
[1 0 0 1 0 0] CT
0 0 moveto 
1 -1 scale
(7) t 
GR
GR
GS
[0.75 0 0 0.75 0 0.25] CT
0.149 GC
2 setlinecap
1 LJ
0.667 LW
N
249 528 M
249 44 L
S
GR
GS
[0.75 0 0 0.75 0 0.25] CT
0.149 GC
2 setlinecap
1 LJ
0.667 LW
N
1736 528 M
1736 44 L
S
GR
GS
[0.75 0 0 0.75 0 0.25] CT
0.149 GC
2 setlinecap
1 LJ
0.667 LW
N
249 528 M
263.87 528 L
S
GR
GS
[0.75 0 0 0.75 0 0.25] CT
0.149 GC
2 setlinecap
1 LJ
0.667 LW
N
249 479.6 M
263.87 479.6 L
S
GR
GS
[0.75 0 0 0.75 0 0.25] CT
0.149 GC
2 setlinecap
1 LJ
0.667 LW
N
249 431.2 M
263.87 431.2 L
S
GR
GS
[0.75 0 0 0.75 0 0.25] CT
0.149 GC
2 setlinecap
1 LJ
0.667 LW
N
249 382.8 M
263.87 382.8 L
S
GR
GS
[0.75 0 0 0.75 0 0.25] CT
0.149 GC
2 setlinecap
1 LJ
0.667 LW
N
249 334.4 M
263.87 334.4 L
S
GR
GS
[0.75 0 0 0.75 0 0.25] CT
0.149 GC
2 setlinecap
1 LJ
0.667 LW
N
249 286 M
263.87 286 L
S
GR
GS
[0.75 0 0 0.75 0 0.25] CT
0.149 GC
2 setlinecap
1 LJ
0.667 LW
N
249 237.6 M
263.87 237.6 L
S
GR
GS
[0.75 0 0 0.75 0 0.25] CT
0.149 GC
2 setlinecap
1 LJ
0.667 LW
N
249 189.2 M
263.87 189.2 L
S
GR
GS
[0.75 0 0 0.75 0 0.25] CT
0.149 GC
2 setlinecap
1 LJ
0.667 LW
N
249 140.8 M
263.87 140.8 L
S
GR
GS
[0.75 0 0 0.75 0 0.25] CT
0.149 GC
2 setlinecap
1 LJ
0.667 LW
N
249 92.4 M
263.87 92.4 L
S
GR
GS
[0.75 0 0 0.75 0 0.25] CT
0.149 GC
2 setlinecap
1 LJ
0.667 LW
N
249 44 M
263.87 44 L
S
GR
GS
[0.75 0 0 0.75 0 0.25] CT
0.149 GC
2 setlinecap
1 LJ
0.667 LW
N
1736 528 M
1721.13 528 L
S
GR
GS
[0.75 0 0 0.75 0 0.25] CT
0.149 GC
2 setlinecap
1 LJ
0.667 LW
N
1736 479.6 M
1721.13 479.6 L
S
GR
GS
[0.75 0 0 0.75 0 0.25] CT
0.149 GC
2 setlinecap
1 LJ
0.667 LW
N
1736 431.2 M
1721.13 431.2 L
S
GR
GS
[0.75 0 0 0.75 0 0.25] CT
0.149 GC
2 setlinecap
1 LJ
0.667 LW
N
1736 382.8 M
1721.13 382.8 L
S
GR
GS
[0.75 0 0 0.75 0 0.25] CT
0.149 GC
2 setlinecap
1 LJ
0.667 LW
N
1736 334.4 M
1721.13 334.4 L
S
GR
GS
[0.75 0 0 0.75 0 0.25] CT
0.149 GC
2 setlinecap
1 LJ
0.667 LW
N
1736 286 M
1721.13 286 L
S
GR
GS
[0.75 0 0 0.75 0 0.25] CT
0.149 GC
2 setlinecap
1 LJ
0.667 LW
N
1736 237.6 M
1721.13 237.6 L
S
GR
GS
[0.75 0 0 0.75 0 0.25] CT
0.149 GC
2 setlinecap
1 LJ
0.667 LW
N
1736 189.2 M
1721.13 189.2 L
S
GR
GS
[0.75 0 0 0.75 0 0.25] CT
0.149 GC
2 setlinecap
1 LJ
0.667 LW
N
1736 140.8 M
1721.13 140.8 L
S
GR
GS
[0.75 0 0 0.75 0 0.25] CT
0.149 GC
2 setlinecap
1 LJ
0.667 LW
N
1736 92.4 M
1721.13 92.4 L
S
GR
GS
[0.75 0 0 0.75 0 0.25] CT
0.149 GC
2 setlinecap
1 LJ
0.667 LW
N
1736 44 M
1721.13 44 L
S
GR
GS
[0.75 0 0 0.75 181.55 396.25] CT
0.149 GC
/Courier 21.333 F
GS
[1 0 0 1 0 0] CT
-28 7.5 moveto 
1 -1 scale
(-40) t 
GR
GR
GS
[0.75 0 0 0.75 181.55 359.95] CT
0.149 GC
/Courier 21.333 F
GS
[1 0 0 1 0 0] CT
-28 7.5 moveto 
1 -1 scale
(-35) t 
GR
GR
GS
[0.75 0 0 0.75 181.55 323.65001] CT
0.149 GC
/Courier 21.333 F
GS
[1 0 0 1 0 0] CT
-28 7.5 moveto 
1 -1 scale
(-30) t 
GR
GR
GS
[0.75 0 0 0.75 181.55 287.34999] CT
0.149 GC
/Courier 21.333 F
GS
[1 0 0 1 0 0] CT
-28 7.5 moveto 
1 -1 scale
(-25) t 
GR
GR
GS
[0.75 0 0 0.75 181.55 251.05] CT
0.149 GC
/Courier 21.333 F
GS
[1 0 0 1 0 0] CT
-28 7.5 moveto 
1 -1 scale
(-20) t 
GR
GR
GS
[0.75 0 0 0.75 181.55 214.75] CT
0.149 GC
/Courier 21.333 F
GS
[1 0 0 1 0 0] CT
-28 7.5 moveto 
1 -1 scale
(-15) t 
GR
GR
GS
[0.75 0 0 0.75 181.55 178.45] CT
0.149 GC
/Courier 21.333 F
GS
[1 0 0 1 0 0] CT
-28 7.5 moveto 
1 -1 scale
(-10) t 
GR
GR
GS
[0.75 0 0 0.75 181.55 142.15] CT
0.149 GC
/Courier 21.333 F
GS
[1 0 0 1 0 0] CT
-18 7.5 moveto 
1 -1 scale
(-5) t 
GR
GR
GS
[0.75 0 0 0.75 181.55 105.85] CT
0.149 GC
/Courier 21.333 F
GS
[1 0 0 1 0 0] CT
-11 7.5 moveto 
1 -1 scale
(0) t 
GR
GR
GS
[0.75 0 0 0.75 181.55 69.55] CT
0.149 GC
/Courier 21.333 F
GS
[1 0 0 1 0 0] CT
-11 7.5 moveto 
1 -1 scale
(5) t 
GR
GR
GS
[0.75 0 0 0.75 181.55 33.25] CT
0.149 GC
/Courier 21.333 F
GS
[1 0 0 1 0 0] CT
-21 7.5 moveto 
1 -1 scale
(10) t 
GR
GR
GS
[0 -0.75 0.75 0 153.75 255.25] CT
0.149 GC
/Courier 23.467 F
GS
[1 0 0 1 0 0] CT
0 0 moveto 
1 -1 scale
(|H\(f\)|) t 
GR
GR
GS
[0 -0.75 0.75 0 145.5 217] CT
0.149 GC
/Courier 18.773 F
GS
[1 0 0 1 0 0] CT
0 0 moveto 
1 -1 scale
(2) t 
GR
GR
GS
[0 -0.75 0.75 0 153.75 209.5] CT
0.149 GC
/Courier 23.467 F
GS
[1 0 0 1 0 0] CT
0 0 moveto 
1 -1 scale
( \(dB\)) t 
GR
GR
GS
[0.75 0 0 0.75 0 0.25] CT
0 0.447 0.741 RC
1 LJ
1.333 LW
N
249 115.986 M
249.726 115.125 L
250.453 114.03 L
251.179 112.722 L
251.906 111.229 L
252.632 109.586 L
253.359 107.83 L
254.085 106.001 L
254.811 104.137 L
255.538 102.276 L
256.264 100.45 L
256.991 98.688 L
257.717 97.015 L
258.444 95.452 L
259.17 94.016 L
259.896 92.72 L
260.623 91.577 L
261.349 90.592 L
262.076 89.773 L
262.802 89.122 L
263.529 88.642 L
264.255 88.332 L
264.981 88.191 L
265.708 88.216 L
266.434 88.404 L
267.161 88.75 L
267.887 89.249 L
268.614 89.893 L
269.34 90.675 L
270.066 91.588 L
270.793 92.622 L
271.519 93.768 L
272.246 95.016 L
272.972 96.357 L
273.699 97.781 L
274.425 99.277 L
275.151 100.837 L
275.878 102.453 L
276.604 104.118 L
277.331 105.827 L
278.057 107.575 L
278.784 109.363 L
279.51 111.189 L
280.236 113.06 L
280.963 114.979 L
281.689 116.957 L
282.416 119.005 L
283.142 121.136 L
283.869 123.367 L
284.595 125.716 L
285.321 128.203 L
286.048 130.85 L
286.774 133.68 L
287.501 136.719 L
288.227 139.992 L
288.954 143.526 L
289.68 147.349 L
290.406 151.492 L
291.133 155.982 L
291.859 160.851 L
292.586 166.127 L
293.312 171.834 L
294.039 177.992 L
294.765 184.605 L
295.491 191.655 L
296.218 199.078 L
296.944 206.745 L
297.671 214.413 L
298.397 221.69 L
299.124 228.008 L
299.85 232.68 L
300.576 235.087 L
301.303 234.941 L
302.029 232.436 L
302.756 228.145 L
303.482 222.763 L
304.209 216.892 L
304.935 210.963 L
305.661 205.247 L
306.388 199.895 L
307.114 194.98 L
307.841 190.527 L
308.567 186.533 L
309.294 182.976 L
310.02 179.828 L
310.746 177.052 L
311.473 174.609 L
312.199 172.457 L
312.926 170.551 L
313.652 168.845 L
314.379 167.29 L
315.105 165.839 L
315.831 164.442 L
316.558 163.051 L
317.284 161.622 L
318.011 160.113 L
318.737 158.49 L
319.464 156.728 L
320.19 154.809 L
320.916 152.727 L
321.643 150.485 L
322.369 148.097 L
323.096 145.582 L
323.822 142.967 L
324.549 140.28 L
325.275 137.552 L
326.001 134.816 L
326.728 132.1 L
327.454 129.431 L
328.181 126.836 L
328.907 124.334 L
329.634 121.946 L
330.36 119.687 L
331.086 117.57 L
331.813 115.605 L
332.539 113.803 L
333.266 112.17 L
333.992 110.712 L
334.719 109.434 L
335.445 108.339 L
336.171 107.43 L
336.898 106.71 L
337.624 106.182 L
338.351 105.846 L
339.077 105.705 L
339.804 105.762 L
340.53 106.017 L
341.256 106.474 L
341.983 107.134 L
342.709 108.001 L
343.436 109.078 L
344.162 110.368 L
344.889 111.876 L
345.615 113.606 L
346.341 115.564 L
347.068 117.757 L
347.794 120.19 L
348.521 122.872 L
349.247 125.811 L
349.974 129.016 L
350.7 132.496 L
351.426 136.262 L
352.153 140.326 L
352.879 144.699 L
353.606 149.392 L
354.332 154.416 L
355.059 159.781 L
355.785 165.492 L
356.511 171.55 L
357.238 177.95 L
357.964 184.669 L
358.691 191.67 L
359.417 198.884 L
360.144 206.205 L
360.87 213.476 L
361.596 220.481 L
362.323 226.952 L
363.049 232.592 L
363.776 237.128 L
364.502 240.385 L
365.229 242.342 L
365.955 243.147 L
366.681 243.07 L
367.408 242.439 L
368.134 241.575 L
368.861 240.755 L
369.587 240.204 L
370.314 240.094 L
371.04 240.565 L
371.766 241.73 L
372.493 243.696 L
373.219 246.569 L
373.946 250.467 L
374.672 255.536 L
375.399 261.96 L
376.125 269.98 L
376.852 279.919 L
377.578 292.195 L
378.304 307.293 L
379.031 325.444 L
379.757 345.093 L
380.484 358.305 L
381.21 352.467 L
381.936 331.907 L
382.663 309.209 L
383.389 289.036 L
384.116 271.866 L
384.842 257.278 L
385.569 244.791 L
386.295 234.016 L
387.021 224.66 L
387.748 216.499 L
388.474 209.365 L
389.201 203.125 L
389.927 197.679 L
390.654 192.941 L
391.38 188.846 L
392.107 185.335 L
392.833 182.361 L
393.559 179.881 L
394.286 177.854 L
395.012 176.244 L
395.739 175.014 L
396.465 174.126 L
397.191 173.539 L
397.918 173.211 L
398.644 173.092 L
399.371 173.129 L
400.097 173.263 L
400.824 173.429 L
401.55 173.56 L
402.276 173.588 L
403.003 173.445 L
403.729 173.076 L
404.456 172.435 L
405.182 171.496 L
405.909 170.253 L
406.635 168.722 L
407.362 166.935 L
408.088 164.941 L
408.814 162.799 L
409.541 160.572 L
410.267 158.323 L
410.994 156.113 L
411.72 153.996 L
412.447 152.021 L
413.173 150.229 L
413.899 148.655 L
414.626 147.329 L
415.352 146.277 L
416.079 145.517 L
416.805 145.066 L
417.532 144.937 L
418.258 145.141 L
418.984 145.685 L
419.711 146.571 L
420.437 147.799 L
421.164 149.364 L
421.89 151.253 L
422.617 153.442 L
423.343 155.896 L
424.069 158.562 L
424.796 161.363 L
425.522 164.197 L
426.249 166.927 L
426.975 169.387 L
427.702 171.387 L
428.428 172.733 L
429.154 173.256 L
429.881 172.845 L
430.607 171.476 L
431.334 169.215 L
432.06 166.201 L
432.787 162.619 L
433.513 158.665 L
434.239 154.518 L
434.966 150.332 L
435.692 146.227 L
436.419 142.295 L
437.145 138.599 L
437.872 135.187 L
438.598 132.088 L
439.324 129.322 L
440.051 126.901 L
440.777 124.831 L
441.504 123.115 L
442.23 121.754 L
442.957 120.746 L
443.683 120.087 L
444.409 119.775 L
445.136 119.804 L
445.862 120.168 L
446.589 120.861 L
447.315 121.873 L
448.042 123.193 L
448.768 124.806 L
449.494 126.694 L
450.221 128.83 L
450.947 131.182 L
451.674 133.707 L
452.4 136.354 L
453.127 139.054 L
453.853 141.727 L
454.579 144.281 L
455.306 146.612 L
456.032 148.613 L
456.759 150.184 L
457.485 151.242 L
458.212 151.736 L
458.938 151.649 L
459.664 151.007 L
460.391 149.872 L
461.117 148.327 L
461.844 146.474 L
462.57 144.413 L
463.297 142.239 L
464.023 140.035 L
464.749 137.869 L
465.476 135.795 L
466.202 133.853 L
466.929 132.073 L
467.655 130.471 L
468.382 129.06 L
469.108 127.84 L
469.834 126.811 L
470.561 125.963 L
471.287 125.285 L
472.014 124.762 L
472.74 124.375 L
473.467 124.104 L
474.193 123.926 L
474.919 123.817 L
475.646 123.752 L
476.372 123.709 L
477.099 123.664 L
477.825 123.599 L
478.552 123.495 L
479.278 123.343 L
480.004 123.134 L
480.731 122.867 L
481.457 122.546 L
482.184 122.181 L
482.91 121.786 L
483.637 121.378 L
484.363 120.979 L
485.089 120.612 L
485.816 120.301 L
486.542 120.07 L
487.269 119.944 L
487.995 119.946 L
488.722 120.098 L
489.448 120.42 L
490.174 120.933 L
490.901 121.652 L
491.627 122.594 L
492.354 123.772 L
493.08 125.199 L
493.807 126.885 L
494.533 128.837 L
495.259 131.06 L
495.986 133.558 L
496.712 136.328 L
497.439 139.363 L
498.165 142.65 L
498.892 146.165 L
499.618 149.876 L
500.344 153.732 L
501.071 157.667 L
501.797 161.595 L
502.524 165.405 L
503.25 168.968 L
503.977 172.14 L
504.703 174.775 L
505.429 176.749 L
506.156 177.972 L
506.882 178.415 L
507.609 178.107 L
508.335 177.134 L
509.062 175.619 L
509.788 173.702 L
510.514 171.522 L
511.241 169.2 L
511.967 166.84 L
512.694 164.518 L
513.42 162.29 L
514.147 160.193 L
514.873 158.247 L
515.599 156.459 L
516.326 154.825 L
517.052 153.334 L
517.779 151.966 L
518.505 150.698 L
519.232 149.501 L
519.958 148.347 L
520.684 147.205 L
521.411 146.047 L
522.137 144.846 L
522.864 143.58 L
523.59 142.234 L
524.317 140.798 L
525.043 139.269 L
525.769 137.652 L
526.496 135.958 L
527.222 134.205 L
527.949 132.412 L
528.675 130.605 L
529.402 128.808 L
530.128 127.048 L
530.854 125.35 L
531.581 123.738 L
532.307 122.233 L
533.034 120.855 L
533.76 119.62 L
534.487 118.543 L
535.213 117.637 L
535.939 116.909 L
536.666 116.367 L
537.392 116.015 L
538.119 115.856 L
538.845 115.889 L
539.572 116.111 L
540.298 116.518 L
541.024 117.101 L
541.751 117.85 L
542.477 118.751 L
543.204 119.785 L
543.93 120.932 L
544.657 122.168 L
545.383 123.462 L
546.109 124.784 L
546.836 126.097 L
547.562 127.365 L
548.289 128.549 L
549.015 129.612 L
549.742 130.521 L
550.468 131.247 L
551.194 131.771 L
551.921 132.081 L
552.647 132.178 L
553.374 132.072 L
554.1 131.782 L
554.827 131.336 L
555.553 130.768 L
556.279 130.116 L
557.006 129.418 L
557.732 128.712 L
558.459 128.036 L
559.185 127.423 L
559.912 126.904 L
560.638 126.505 L
561.364 126.251 L
562.091 126.16 L
562.817 126.251 L
563.544 126.537 L
564.27 127.031 L
564.997 127.74 L
565.723 128.675 L
566.449 129.839 L
567.176 131.236 L
567.902 132.871 L
568.629 134.742 L
569.355 136.848 L
570.082 139.187 L
570.808 141.752 L
571.534 144.532 L
572.261 147.516 L
572.987 150.683 L
573.714 154.009 L
574.44 157.461 L
575.167 160.996 L
575.893 164.562 L
576.619 168.093 L
577.346 171.511 L
578.072 174.727 L
578.799 177.645 L
579.525 180.164 L
580.252 182.193 L
580.978 183.654 L
581.704 184.499 L
582.431 184.71 L
583.157 184.306 L
583.884 183.338 L
584.61 181.879 L
585.337 180.016 L
586.063 177.838 L
586.789 175.434 L
587.516 172.881 L
588.242 170.245 L
588.969 167.582 L
589.695 164.937 L
590.422 162.345 L
591.148 159.833 L
591.874 157.424 L
592.601 155.134 L
593.327 152.975 L
594.054 150.958 L
594.78 149.091 L
595.507 147.382 L
596.233 145.835 L
596.959 144.456 L
597.686 143.249 L
598.412 142.217 L
599.139 141.363 L
599.865 140.69 L
600.592 140.198 L
601.318 139.888 L
602.044 139.76 L
602.771 139.812 L
603.497 140.04 L
604.224 140.439 L
604.95 141 L
605.677 141.713 L
606.403 142.562 L
607.129 143.531 L
607.856 144.596 L
608.582 145.73 L
609.309 146.9 L
610.035 148.067 L
610.762 149.191 L
611.488 150.224 L
612.214 151.12 L
612.941 151.831 L
613.667 152.316 L
614.394 152.54 L
615.12 152.479 L
615.847 152.122 L
616.573 151.474 L
617.299 150.554 L
618.026 149.392 L
618.752 148.03 L
619.479 146.517 L
620.205 144.901 L
620.932 143.236 L
621.658 141.569 L
622.384 139.946 L
623.111 138.407 L
623.837 136.988 L
624.564 135.721 L
625.29 134.632 L
626.017 133.744 L
626.743 133.078 L
627.469 132.649 L
628.196 132.474 L
628.922 132.565 L
629.649 132.935 L
630.375 133.595 L
631.102 134.556 L
631.828 135.829 L
632.554 137.424 L
633.281 139.353 L
634.007 141.627 L
634.734 144.258 L
635.46 147.257 L
636.187 150.636 L
636.913 154.405 L
637.639 158.575 L
638.366 163.151 L
639.092 168.132 L
639.819 173.509 L
640.545 179.254 L
641.272 185.315 L
641.998 191.597 L
642.724 197.953 L
643.451 204.156 L
644.177 209.893 L
644.904 214.775 L
645.63 218.386 L
646.357 220.389 L
647.083 220.634 L
647.809 219.218 L
648.536 216.445 L
649.262 212.719 L
649.989 208.438 L
650.715 203.928 L
651.442 199.426 L
652.168 195.091 L
652.894 191.018 L
653.621 187.26 L
654.347 183.839 L
655.074 180.76 L
655.8 178.011 L
656.527 175.575 L
657.253 173.428 L
657.979 171.542 L
658.706 169.886 L
659.432 168.429 L
660.159 167.135 L
660.885 165.969 L
661.612 164.894 L
662.338 163.874 L
663.065 162.874 L
663.791 161.86 L
664.517 160.8 L
665.244 159.667 L
665.97 158.44 L
666.697 157.102 L
667.423 155.643 L
668.149 154.059 L
668.876 152.352 L
669.602 150.532 L
670.329 148.611 L
671.055 146.606 L
671.782 144.536 L
672.508 142.42 L
673.234 140.28 L
673.961 138.135 L
674.687 136.004 L
675.414 133.904 L
676.14 131.851 L
676.867 129.858 L
677.593 127.936 L
678.32 126.096 L
679.046 124.346 L
679.772 122.69 L
680.499 121.136 L
681.225 119.687 L
681.952 118.345 L
682.678 117.113 L
683.404 115.992 L
684.131 114.982 L
684.857 114.084 L
685.584 113.297 L
686.31 112.621 L
687.037 112.054 L
687.763 111.594 L
688.49 111.24 L
689.216 110.988 L
689.942 110.837 L
690.669 110.783 L
691.395 110.822 L
692.122 110.948 L
692.848 111.158 L
693.575 111.444 L
694.301 111.8 L
695.027 112.218 L
695.754 112.688 L
696.48 113.199 L
697.207 113.742 L
697.933 114.302 L
698.659 114.866 L
699.386 115.419 L
700.112 115.946 L
700.839 116.432 L
701.565 116.861 L
702.292 117.217 L
703.018 117.488 L
703.745 117.662 L
704.471 117.729 L
705.197 117.683 L
705.924 117.521 L
706.65 117.244 L
707.377 116.856 L
708.103 116.366 L
708.83 115.785 L
709.556 115.128 L
710.282 114.411 L
711.009 113.653 L
711.735 112.875 L
712.462 112.096 L
713.188 111.337 L
713.914 110.618 L
714.641 109.958 L
715.367 109.378 L
716.094 108.894 L
716.82 108.523 L
717.547 108.282 L
718.273 108.185 L
719 108.247 L
719.726 108.481 L
720.452 108.901 L
721.179 109.518 L
721.905 110.346 L
722.632 111.396 L
723.358 112.681 L
724.085 114.213 L
724.811 116.003 L
725.537 118.066 L
726.264 120.413 L
726.99 123.057 L
727.717 126.012 L
728.443 129.29 L
729.169 132.902 L
729.896 136.856 L
730.622 141.158 L
731.349 145.806 L
732.075 150.785 L
732.802 156.064 L
733.528 161.586 L
734.255 167.251 L
734.981 172.908 L
735.707 178.334 L
736.434 183.229 L
737.16 187.236 L
737.887 189.991 L
738.613 191.212 L
739.34 190.796 L
740.066 188.849 L
740.792 185.658 L
741.519 181.589 L
742.245 177.003 L
742.972 172.202 L
743.698 167.412 L
744.424 162.79 L
745.151 158.436 L
745.877 154.414 L
746.604 150.757 L
747.33 147.484 L
748.057 144.601 L
748.783 142.108 L
749.51 140.001 L
750.236 138.273 L
750.962 136.918 L
751.689 135.927 L
752.415 135.294 L
753.142 135.011 L
753.868 135.071 L
754.595 135.468 L
755.321 136.195 L
756.047 137.247 L
756.774 138.614 L
757.5 140.289 L
758.227 142.262 L
758.953 144.519 L
759.68 147.045 L
760.406 149.818 L
761.132 152.811 L
761.859 155.988 L
762.585 159.305 L
763.312 162.706 L
764.038 166.125 L
764.765 169.482 L
765.491 172.689 L
766.217 175.654 L
766.944 178.286 L
767.67 180.506 L
768.397 182.259 L
769.123 183.522 L
769.85 184.304 L
770.576 184.651 L
771.302 184.639 L
772.029 184.36 L
772.755 183.916 L
773.482 183.409 L
774.208 182.935 L
774.935 182.58 L
775.661 182.421 L
776.387 182.524 L
777.114 182.946 L
777.84 183.738 L
778.567 184.947 L
779.293 186.619 L
780.02 188.799 L
780.746 191.536 L
781.472 194.884 L
782.199 198.906 L
782.925 203.68 L
783.652 209.302 L
784.378 215.894 L
785.105 223.619 L
785.831 232.701 L
786.557 243.453 L
787.284 256.343 L
788.01 272.104 L
788.737 291.982 L
789.463 318.322 L
790.19 356.183 L
790.916 415.546 L
791.642 425.454 L
792.369 364.21 L
793.095 324.895 L
793.822 298.209 L
794.548 278.458 L
795.275 263.046 L
796.001 250.616 L
796.727 240.377 L
797.454 231.823 L
798.18 224.613 L
798.907 218.5 L
799.633 213.301 L
800.36 208.87 L
801.086 205.086 L
801.812 201.847 L
802.539 199.058 L
803.265 196.634 L
803.992 194.493 L
804.718 192.553 L
805.445 190.737 L
806.171 188.971 L
806.897 187.187 L
807.624 185.323 L
808.35 183.33 L
809.077 181.172 L
809.803 178.83 L
810.53 176.301 L
811.256 173.598 L
811.982 170.746 L
812.709 167.783 L
813.435 164.75 L
814.162 161.693 L
814.888 158.656 L
815.615 155.683 L
816.341 152.812 L
817.067 150.077 L
817.794 147.509 L
818.52 145.131 L
819.247 142.964 L
819.973 141.025 L
820.7 139.328 L
821.426 137.883 L
822.152 136.698 L
822.879 135.781 L
823.605 135.135 L
824.332 134.765 L
825.058 134.671 L
825.785 134.856 L
826.511 135.319 L
827.237 136.059 L
827.964 137.073 L
828.69 138.356 L
829.417 139.903 L
830.143 141.706 L
830.87 143.755 L
831.596 146.035 L
832.322 148.53 L
833.049 151.218 L
833.775 154.074 L
834.502 157.068 L
835.228 160.164 L
835.955 163.324 L
836.681 166.503 L
837.407 169.659 L
838.134 172.749 L
838.86 175.736 L
839.587 178.592 L
840.313 181.304 L
841.04 183.871 L
841.766 186.316 L
842.492 188.677 L
843.219 191.012 L
843.945 193.395 L
844.672 195.914 L
845.398 198.668 L
846.125 201.767 L
846.851 205.335 L
847.577 209.51 L
848.304 214.453 L
849.03 220.358 L
849.757 227.473 L
850.483 236.129 L
851.21 246.796 L
851.936 260.185 L
852.662 277.456 L
853.389 300.641 L
854.115 333.405 L
854.842 377.369 L
855.568 378.823 L
856.295 330.837 L
857.021 293.063 L
857.747 265.266 L
858.474 243.634 L
859.2 226.04 L
859.927 211.287 L
860.653 198.649 L
861.38 187.661 L
862.106 178.003 L
862.832 169.451 L
863.559 161.838 L
864.285 155.04 L
865.012 148.959 L
865.738 143.518 L
866.465 138.656 L
867.191 134.321 L
867.917 130.472 L
868.644 127.073 L
869.37 124.092 L
870.097 121.503 L
870.823 119.282 L
871.55 117.406 L
872.276 115.855 L
873.002 114.61 L
873.729 113.65 L
874.455 112.956 L
875.182 112.508 L
875.908 112.284 L
876.635 112.261 L
877.361 112.413 L
878.087 112.711 L
878.814 113.125 L
879.54 113.622 L
880.267 114.163 L
880.993 114.711 L
881.72 115.225 L
882.446 115.664 L
883.172 115.989 L
883.899 116.163 L
884.625 116.158 L
885.352 115.949 L
886.078 115.525 L
886.805 114.88 L
887.531 114.022 L
888.257 112.966 L
888.984 111.736 L
889.71 110.361 L
890.437 108.874 L
891.163 107.309 L
891.89 105.7 L
892.616 104.08 L
893.342 102.478 L
894.069 100.919 L
894.795 99.428 L
895.522 98.022 L
896.248 96.718 L
896.975 95.529 L
897.701 94.465 L
898.427 93.532 L
899.154 92.735 L
899.88 92.079 L
900.607 91.564 L
901.333 91.19 L
902.06 90.956 L
902.786 90.86 L
903.512 90.898 L
904.239 91.067 L
904.965 91.362 L
905.692 91.777 L
906.418 92.307 L
907.145 92.945 L
907.871 93.686 L
908.597 94.521 L
909.324 95.444 L
910.05 96.448 L
910.777 97.527 L
911.503 98.672 L
912.23 99.877 L
912.956 101.136 L
913.682 102.442 L
914.409 103.79 L
915.135 105.173 L
915.862 106.587 L
916.588 108.028 L
917.315 109.492 L
918.041 110.976 L
918.767 112.477 L
919.494 113.995 L
920.22 115.527 L
920.947 117.074 L
921.673 118.636 L
922.4 120.215 L
923.126 121.811 L
923.852 123.428 L
924.579 125.069 L
925.305 126.738 L
926.032 128.439 L
926.758 130.179 L
927.485 131.963 L
928.211 133.799 L
928.937 135.695 L
929.664 137.658 L
930.39 139.698 L
931.117 141.824 L
931.843 144.047 L
932.57 146.375 L
933.296 148.82 L
934.022 151.39 L
934.749 154.093 L
935.475 156.936 L
936.202 159.921 L
936.928 163.049 L
937.655 166.312 L
938.381 169.698 L
939.107 173.183 L
939.834 176.729 L
940.56 180.285 L
941.287 183.778 L
942.013 187.118 L
942.74 190.192 L
943.466 192.874 L
944.193 195.032 L
944.919 196.549 L
945.645 197.336 L
946.372 197.353 L
947.098 196.618 L
947.825 195.203 L
948.551 193.225 L
949.277 190.823 L
950.004 188.142 L
950.73 185.319 L
951.457 182.472 L
952.183 179.701 L
952.91 177.085 L
953.636 174.686 L
954.362 172.55 L
955.089 170.714 L
955.815 169.202 L
956.542 168.035 L
957.268 167.225 L
957.995 166.781 L
958.721 166.707 L
959.448 167.002 L
960.174 167.662 L
960.9 168.675 L
961.627 170.019 L
962.353 171.663 L
963.08 173.56 L
963.806 175.641 L
964.532 177.813 L
965.259 179.951 L
965.985 181.9 L
966.712 183.476 L
967.438 184.482 L
968.165 184.735 L
968.891 184.096 L
969.617 182.504 L
970.344 179.987 L
971.07 176.658 L
971.797 172.687 L
972.523 168.269 L
973.25 163.591 L
973.976 158.817 L
974.703 154.08 L
975.429 149.481 L
976.155 145.097 L
976.882 140.978 L
977.608 137.162 L
978.335 133.671 L
979.061 130.522 L
979.787 127.722 L
980.514 125.277 L
981.24 123.189 L
981.967 121.459 L
982.693 120.088 L
983.42 119.075 L
984.146 118.42 L
984.872 118.125 L
985.599 118.189 L
986.325 118.616 L
987.052 119.409 L
987.778 120.569 L
988.505 122.104 L
989.231 124.017 L
989.958 126.316 L
990.684 129.008 L
991.41 132.1 L
992.137 135.601 L
992.863 139.516 L
993.59 143.852 L
994.316 148.61 L
995.042 153.788 L
995.769 159.373 L
996.495 165.34 L
997.222 171.642 L
997.948 178.203 L
998.675 184.904 L
999.401 191.578 L
1000.128 197.996 L
1000.854 203.878 L
1001.58 208.925 L
1002.307 212.874 L
1003.033 215.57 L
1003.76 217.02 L
1004.486 217.396 L
1005.213 216.983 L
1005.939 216.11 L
1006.665 215.089 L
1007.392 214.187 L
1008.118 213.617 L
1008.845 213.544 L
1009.571 214.098 L
1010.297 215.39 L
1011.024 217.522 L
1011.75 220.598 L
1012.477 224.738 L
1013.203 230.087 L
1013.93 236.828 L
1014.656 245.203 L
1015.383 255.529 L
1016.109 268.199 L
1016.835 283.613 L
1017.562 301.729 L
1018.288 320.227 L
1019.015 330.414 L
1019.741 322.372 L
1020.468 302.439 L
1021.194 281.203 L
1021.92 262.358 L
1022.647 246.294 L
1023.373 232.652 L
1024.1 221.014 L
1024.826 211.031 L
1025.552 202.438 L
1026.279 195.033 L
1027.005 188.66 L
1027.732 183.202 L
1028.458 178.567 L
1029.185 174.681 L
1029.911 171.487 L
1030.638 168.941 L
1031.364 167.007 L
1032.09 165.654 L
1032.817 164.861 L
1033.543 164.607 L
1034.27 164.878 L
1034.996 165.658 L
1035.723 166.934 L
1036.449 168.689 L
1037.175 170.904 L
1037.902 173.55 L
1038.628 176.588 L
1039.355 179.959 L
1040.081 183.581 L
1040.807 187.335 L
1041.534 191.064 L
1042.26 194.563 L
1042.987 197.591 L
1043.713 199.892 L
1044.44 201.24 L
1045.166 201.486 L
1045.893 200.605 L
1046.619 198.696 L
1047.345 195.961 L
1048.072 192.648 L
1048.798 189.008 L
1049.525 185.26 L
1050.251 181.58 L
1050.978 178.098 L
1051.704 174.909 L
1052.43 172.078 L
1053.157 169.647 L
1053.883 167.643 L
1054.61 166.084 L
1055.336 164.978 L
1056.063 164.331 L
1056.789 164.143 L
1057.515 164.411 L
1058.242 165.13 L
1058.968 166.289 L
1059.695 167.872 L
1060.421 169.855 L
1061.148 172.201 L
1061.874 174.858 L
1062.6 177.748 L
1063.327 180.766 L
1064.053 183.768 L
1064.78 186.572 L
1065.506 188.962 L
1066.233 190.703 L
1066.959 191.581 L
1067.685 191.44 L
1068.412 190.225 L
1069.138 187.993 L
1069.865 184.899 L
1070.591 181.155 L
1071.318 176.984 L
1072.044 172.595 L
1072.77 168.158 L
1073.497 163.804 L
1074.223 159.626 L
1074.95 155.687 L
1075.676 152.028 L
1076.403 148.67 L
1077.129 145.622 L
1077.855 142.883 L
1078.582 140.447 L
1079.308 138.298 L
1080.035 136.42 L
1080.761 134.79 L
1081.488 133.383 L
1082.214 132.17 L
1082.94 131.121 L
1083.667 130.199 L
1084.393 129.369 L
1085.12 128.591 L
1085.846 127.826 L
1086.573 127.033 L
1087.299 126.178 L
1088.025 125.225 L
1088.752 124.147 L
1089.478 122.925 L
1090.205 121.547 L
1090.931 120.01 L
1091.658 118.323 L
1092.384 116.5 L
1093.11 114.564 L
1093.837 112.543 L
1094.563 110.466 L
1095.29 108.367 L
1096.016 106.278 L
1096.743 104.229 L
1097.469 102.25 L
1098.195 100.367 L
1098.922 98.603 L
1099.648 96.978 L
1100.375 95.512 L
1101.101 94.217 L
1101.828 93.109 L
1102.554 92.197 L
1103.28 91.49 L
1104.007 90.996 L
1104.733 90.722 L
1105.46 90.672 L
1106.186 90.85 L
1106.913 91.261 L
1107.639 91.906 L
1108.365 92.787 L
1109.092 93.904 L
1109.818 95.257 L
1110.545 96.845 L
1111.271 98.664 L
1111.998 100.709 L
1112.724 102.972 L
1113.45 105.444 L
1114.177 108.111 L
1114.903 110.953 L
1115.63 113.947 L
1116.356 117.061 L
1117.083 120.258 L
1117.809 123.491 L
1118.535 126.704 L
1119.262 129.833 L
1119.988 132.81 L
1120.715 135.561 L
1121.441 138.015 L
1122.168 140.112 L
1122.894 141.804 L
1123.62 143.067 L
1124.347 143.9 L
1125.073 144.328 L
1125.8 144.398 L
1126.526 144.175 L
1127.253 143.732 L
1127.979 143.147 L
1128.705 142.496 L
1129.432 141.849 L
1130.158 141.268 L
1130.885 140.809 L
1131.611 140.519 L
1132.338 140.437 L
1133.064 140.598 L
1133.79 141.031 L
1134.517 141.761 L
1135.243 142.811 L
1135.97 144.203 L
1136.696 145.956 L
1137.423 148.09 L
1138.149 150.625 L
1138.875 153.58 L
1139.602 156.974 L
1140.328 160.825 L
1141.055 165.148 L
1141.781 169.949 L
1142.508 175.224 L
1143.234 180.945 L
1143.96 187.042 L
1144.687 193.383 L
1145.413 199.732 L
1146.14 205.714 L
1146.866 210.797 L
1147.593 214.34 L
1148.319 215.753 L
1149.045 214.734 L
1149.772 211.418 L
1150.498 206.31 L
1151.225 200.054 L
1151.951 193.233 L
1152.678 186.282 L
1153.404 179.482 L
1154.13 173 L
1154.857 166.924 L
1155.583 161.293 L
1156.31 156.119 L
1157.036 151.396 L
1157.763 147.109 L
1158.489 143.243 L
1159.215 139.776 L
1159.942 136.69 L
1160.668 133.967 L
1161.395 131.589 L
1162.121 129.541 L
1162.848 127.807 L
1163.574 126.374 L
1164.3 125.229 L
1165.027 124.359 L
1165.753 123.753 L
1166.48 123.4 L
1167.206 123.287 L
1167.933 123.403 L
1168.659 123.735 L
1169.385 124.268 L
1170.112 124.987 L
1170.838 125.875 L
1171.565 126.91 L
1172.291 128.071 L
1173.018 129.331 L
1173.744 130.659 L
1174.47 132.022 L
1175.197 133.383 L
1175.923 134.699 L
1176.65 135.929 L
1177.376 137.028 L
1178.103 137.955 L
1178.829 138.67 L
1179.555 139.142 L
1180.282 139.348 L
1181.008 139.276 L
1181.735 138.925 L
1182.461 138.308 L
1183.188 137.448 L
1183.914 136.374 L
1184.641 135.126 L
1185.367 133.743 L
1186.093 132.268 L
1186.82 130.74 L
1187.546 129.2 L
1188.273 127.68 L
1188.999 126.212 L
1189.725 124.823 L
1190.452 123.536 L
1191.178 122.37 L
1191.905 121.342 L
1192.631 120.465 L
1193.358 119.749 L
1194.084 119.205 L
1194.81 118.84 L
1195.537 118.659 L
1196.263 118.668 L
1196.99 118.872 L
1197.716 119.274 L
1198.443 119.878 L
1199.169 120.686 L
1199.896 121.702 L
1200.622 122.928 L
1201.348 124.367 L
1202.075 126.023 L
1202.801 127.897 L
1203.528 129.994 L
1204.254 132.317 L
1204.98 134.87 L
1205.707 137.656 L
1206.433 140.681 L
1207.16 143.949 L
1207.886 147.465 L
1208.613 151.235 L
1209.339 155.265 L
1210.065 159.563 L
1210.792 164.133 L
1211.518 168.985 L
1212.245 174.127 L
1212.971 179.565 L
1213.698 185.308 L
1214.424 191.364 L
1215.151 197.74 L
1215.877 204.442 L
1216.603 211.472 L
1217.33 218.829 L
1218.056 226.503 L
1218.783 234.471 L
1219.509 242.688 L
1220.235 251.076 L
1220.962 259.504 L
1221.688 267.766 L
1222.415 275.549 L
1223.141 282.422 L
1223.868 287.859 L
1224.594 291.328 L
1225.32 292.459 L
1226.047 291.187 L
1226.773 287.778 L
1227.5 282.712 L
1228.226 276.51 L
1228.953 269.624 L
1229.679 262.389 L
1230.406 255.035 L
1231.132 247.711 L
1231.858 240.511 L
1232.585 233.492 L
1233.311 226.688 L
1234.038 220.12 L
1234.764 213.8 L
1235.49 207.735 L
1236.217 201.928 L
1236.943 196.379 L
1237.67 191.088 L
1238.396 186.052 L
1239.123 181.268 L
1239.849 176.732 L
1240.575 172.441 L
1241.302 168.389 L
1242.028 164.571 L
1242.755 160.982 L
1243.481 157.616 L
1244.208 154.467 L
1244.934 151.529 L
1245.661 148.795 L
1246.387 146.26 L
1247.113 143.916 L
1247.84 141.757 L
1248.566 139.776 L
1249.293 137.966 L
1250.019 136.32 L
1250.745 134.83 L
1251.472 133.49 L
1252.198 132.29 L
1252.925 131.225 L
1253.651 130.286 L
1254.378 129.467 L
1255.104 128.758 L
1255.83 128.155 L
1256.557 127.648 L
1257.283 127.232 L
1258.01 126.9 L
1258.736 126.647 L
1259.463 126.468 L
1260.189 126.358 L
1260.916 126.313 L
1261.642 126.332 L
1262.368 126.413 L
1263.095 126.555 L
1263.821 126.758 L
1264.548 127.024 L
1265.274 127.356 L
1266 127.756 L
1266.727 128.229 L
1267.453 128.78 L
1268.18 129.415 L
1268.906 130.14 L
1269.633 130.96 L
1270.359 131.885 L
1271.085 132.919 L
1271.812 134.071 L
1272.538 135.347 L
1273.265 136.754 L
1273.991 138.299 L
1274.718 139.987 L
1275.444 141.823 L
1276.171 143.811 L
1276.897 145.956 L
1277.623 148.257 L
1278.35 150.717 L
1279.076 153.332 L
1279.803 156.1 L
1280.529 159.012 L
1281.255 162.059 L
1281.982 165.225 L
1282.708 168.491 L
1283.435 171.831 L
1284.161 175.212 L
1284.888 178.592 L
1285.614 181.923 L
1286.34 185.145 L
1287.067 188.192 L
1287.793 190.989 L
1288.52 193.457 L
1289.246 195.519 L
1289.973 197.101 L
1290.699 198.145 L
1291.426 198.608 L
1292.152 198.47 L
1292.878 197.736 L
1293.605 196.431 L
1294.331 194.601 L
1295.058 192.302 L
1295.784 189.599 L
1296.51 186.558 L
1297.237 183.244 L
1297.963 179.716 L
1298.69 176.03 L
1299.416 172.233 L
1300.143 168.369 L
1300.869 164.476 L
1301.595 160.587 L
1302.322 156.73 L
1303.048 152.933 L
1303.775 149.217 L
1304.501 145.602 L
1305.228 142.106 L
1305.954 138.745 L
1306.681 135.532 L
1307.407 132.481 L
1308.133 129.6 L
1308.86 126.902 L
1309.586 124.392 L
1310.313 122.081 L
1311.039 119.973 L
1311.766 118.074 L
1312.492 116.391 L
1313.218 114.928 L
1313.945 113.688 L
1314.671 112.676 L
1315.398 111.894 L
1316.124 111.346 L
1316.85 111.033 L
1317.577 110.957 L
1318.303 111.119 L
1319.03 111.519 L
1319.756 112.156 L
1320.483 113.026 L
1321.209 114.127 L
1321.936 115.451 L
1322.662 116.989 L
1323.388 118.727 L
1324.115 120.648 L
1324.841 122.729 L
1325.568 124.938 L
1326.294 127.237 L
1327.021 129.579 L
1327.747 131.907 L
1328.473 134.154 L
1329.2 136.248 L
1329.926 138.11 L
1330.653 139.663 L
1331.379 140.838 L
1332.105 141.584 L
1332.832 141.868 L
1333.558 141.687 L
1334.285 141.063 L
1335.011 140.044 L
1335.738 138.696 L
1336.464 137.093 L
1337.191 135.316 L
1337.917 133.442 L
1338.643 131.539 L
1339.37 129.67 L
1340.096 127.885 L
1340.823 126.229 L
1341.549 124.733 L
1342.276 123.425 L
1343.002 122.325 L
1343.728 121.448 L
1344.455 120.805 L
1345.181 120.403 L
1345.908 120.246 L
1346.634 120.336 L
1347.36 120.673 L
1348.087 121.254 L
1348.813 122.074 L
1349.54 123.128 L
1350.266 124.407 L
1350.993 125.9 L
1351.719 127.591 L
1352.446 129.466 L
1353.172 131.501 L
1353.898 133.673 L
1354.625 135.952 L
1355.351 138.302 L
1356.078 140.684 L
1356.804 143.054 L
1357.531 145.363 L
1358.257 147.559 L
1358.983 149.59 L
1359.71 151.405 L
1360.436 152.961 L
1361.163 154.219 L
1361.889 155.153 L
1362.615 155.75 L
1363.342 156.008 L
1364.068 155.939 L
1364.795 155.564 L
1365.521 154.91 L
1366.248 154.011 L
1366.974 152.899 L
1367.701 151.606 L
1368.427 150.162 L
1369.153 148.591 L
1369.88 146.916 L
1370.606 145.153 L
1371.333 143.317 L
1372.059 141.419 L
1372.786 139.471 L
1373.512 137.481 L
1374.238 135.459 L
1374.965 133.415 L
1375.691 131.359 L
1376.418 129.303 L
1377.144 127.259 L
1377.87 125.241 L
1378.597 123.264 L
1379.323 121.342 L
1380.05 119.491 L
1380.776 117.725 L
1381.503 116.059 L
1382.229 114.509 L
1382.956 113.089 L
1383.682 111.811 L
1384.408 110.688 L
1385.135 109.732 L
1385.861 108.955 L
1386.588 108.367 L
1387.314 107.978 L
1388.041 107.797 L
1388.767 107.833 L
1389.493 108.093 L
1390.22 108.587 L
1390.946 109.321 L
1391.673 110.303 L
1392.399 111.541 L
1393.126 113.04 L
1393.852 114.81 L
1394.578 116.855 L
1395.305 119.183 L
1396.031 121.799 L
1396.758 124.711 L
1397.484 127.922 L
1398.211 131.436 L
1398.937 135.255 L
1399.663 139.379 L
1400.39 143.804 L
1401.116 148.52 L
1401.843 153.512 L
1402.569 158.753 L
1403.296 164.205 L
1404.022 169.815 L
1404.748 175.507 L
1405.475 181.187 L
1406.201 186.734 L
1406.928 192.009 L
1407.654 196.865 L
1408.381 201.159 L
1409.107 204.781 L
1409.833 207.671 L
1410.56 209.834 L
1411.286 211.343 L
1412.013 212.322 L
1412.739 212.928 L
1413.466 213.325 L
1414.192 213.67 L
1414.918 214.103 L
1415.645 214.74 L
1416.371 215.678 L
1417.098 216.994 L
1417.824 218.754 L
1418.551 221.011 L
1419.277 223.814 L
1420.003 227.206 L
1420.73 231.231 L
1421.456 235.936 L
1422.183 241.371 L
1422.909 247.589 L
1423.636 254.655 L
1424.362 262.64 L
1425.088 271.626 L
1425.815 281.699 L
1426.541 292.945 L
1427.268 305.422 L
1427.994 319.097 L
1428.721 333.704 L
1429.447 348.447 L
1430.173 361.553 L
1430.9 370.212 L
1431.626 372.086 L
1432.353 367.554 L
1433.079 359.145 L
1433.806 349.169 L
1434.532 338.81 L
1435.258 328.435 L
1435.985 318.051 L
1436.711 307.565 L
1437.438 296.913 L
1438.164 286.107 L
1438.891 275.22 L
1439.617 264.364 L
1440.343 253.66 L
1441.07 243.216 L
1441.796 233.12 L
1442.523 223.435 L
1443.249 214.201 L
1443.976 205.443 L
1444.702 197.171 L
1445.428 189.386 L
1446.155 182.082 L
1446.881 175.248 L
1447.608 168.874 L
1448.334 162.946 L
1449.061 157.451 L
1449.787 152.373 L
1450.513 147.701 L
1451.24 143.422 L
1451.966 139.525 L
1452.693 135.999 L
1453.419 132.833 L
1454.146 130.02 L
1454.872 127.552 L
1455.598 125.42 L
1456.325 123.62 L
1457.051 122.146 L
1457.778 120.992 L
1458.504 120.155 L
1459.231 119.63 L
1459.957 119.415 L
1460.683 119.507 L
1461.41 119.902 L
1462.136 120.598 L
1462.863 121.592 L
1463.589 122.879 L
1464.316 124.456 L
1465.042 126.317 L
1465.768 128.453 L
1466.495 130.854 L
1467.221 133.506 L
1467.948 136.39 L
1468.674 139.483 L
1469.401 142.751 L
1470.127 146.154 L
1470.853 149.64 L
1471.58 153.147 L
1472.306 156.6 L
1473.033 159.917 L
1473.759 163.008 L
1474.486 165.782 L
1475.212 168.159 L
1475.938 170.076 L
1476.665 171.498 L
1477.391 172.422 L
1478.118 172.879 L
1478.844 172.927 L
1479.571 172.646 L
1480.297 172.127 L
1481.023 171.463 L
1481.75 170.743 L
1482.476 170.044 L
1483.203 169.434 L
1483.929 168.971 L
1484.656 168.699 L
1485.382 168.655 L
1486.108 168.868 L
1486.835 169.36 L
1487.561 170.148 L
1488.288 171.245 L
1489.014 172.662 L
1489.741 174.406 L
1490.467 176.484 L
1491.193 178.899 L
1491.92 181.654 L
1492.646 184.75 L
1493.373 188.186 L
1494.099 191.958 L
1494.826 196.057 L
1495.552 200.47 L
1496.278 205.172 L
1497.005 210.126 L
1497.731 215.274 L
1498.458 220.53 L
1499.184 225.765 L
1499.911 230.801 L
1500.637 235.396 L
1501.363 239.252 L
1502.09 242.036 L
1502.816 243.437 L
1503.543 243.243 L
1504.269 241.404 L
1504.996 238.045 L
1505.722 233.427 L
1506.448 227.87 L
1507.175 221.685 L
1507.901 215.132 L
1508.628 208.414 L
1509.354 201.675 L
1510.081 195.014 L
1510.807 188.499 L
1511.533 182.172 L
1512.26 176.059 L
1512.986 170.178 L
1513.713 164.536 L
1514.439 159.138 L
1515.166 153.986 L
1515.892 149.077 L
1516.618 144.409 L
1517.345 139.979 L
1518.071 135.783 L
1518.798 131.815 L
1519.524 128.069 L
1520.251 124.54 L
1520.977 121.222 L
1521.703 118.107 L
1522.43 115.189 L
1523.156 112.46 L
1523.883 109.914 L
1524.609 107.54 L
1525.336 105.333 L
1526.062 103.283 L
1526.788 101.382 L
1527.515 99.621 L
1528.241 97.992 L
1528.968 96.485 L
1529.694 95.093 L
1530.421 93.807 L
1531.147 92.62 L
1531.873 91.524 L
1532.6 90.512 L
1533.326 89.579 L
1534.053 88.719 L
1534.779 87.929 L
1535.506 87.205 L
1536.232 86.546 L
1536.958 85.952 L
1537.685 85.423 L
1538.411 84.962 L
1539.138 84.572 L
1539.864 84.257 L
1540.591 84.023 L
1541.317 83.877 L
1542.043 83.825 L
1542.77 83.877 L
1543.496 84.04 L
1544.223 84.324 L
1544.949 84.737 L
1545.676 85.29 L
1546.402 85.993 L
1547.129 86.854 L
1547.855 87.882 L
1548.581 89.088 L
1549.308 90.479 L
1550.034 92.063 L
1550.761 93.847 L
1551.487 95.836 L
1552.214 98.035 L
1552.94 100.445 L
1553.666 103.067 L
1554.393 105.894 L
1555.119 108.918 L
1555.846 112.123 L
1556.572 115.486 L
1557.298 118.973 L
1558.025 122.539 L
1558.751 126.125 L
1559.478 129.654 L
1560.204 133.038 L
1560.931 136.174 L
1561.657 138.951 L
1562.384 141.266 L
1563.11 143.029 L
1563.836 144.18 L
1564.563 144.702 L
1565.289 144.619 L
1566.016 143.998 L
1566.742 142.935 L
1567.469 141.543 L
1568.195 139.939 L
1568.921 138.232 L
1569.648 136.522 L
1570.374 134.891 L
1571.101 133.408 L
1571.827 132.127 L
1572.553 131.094 L
1573.28 130.342 L
1574.006 129.9 L
1574.733 129.788 L
1575.459 130.027 L
1576.186 130.632 L
1576.912 131.618 L
1577.639 132.999 L
1578.365 134.788 L
1579.091 136.999 L
1579.818 139.645 L
1580.544 142.74 L
1581.271 146.297 L
1581.997 150.326 L
1582.724 154.835 L
1583.45 159.823 L
1584.176 165.275 L
1584.903 171.154 L
1585.629 177.383 L
1586.356 183.828 L
1587.082 190.268 L
1587.808 196.373 L
1588.535 201.692 L
1589.261 205.704 L
1589.988 207.933 L
1590.714 208.12 L
1591.441 206.333 L
1592.167 202.935 L
1592.894 198.437 L
1593.62 193.335 L
1594.346 188.029 L
1595.073 182.795 L
1595.799 177.811 L
1596.526 173.177 L
1597.252 168.946 L
1597.979 165.135 L
1598.705 161.746 L
1599.431 158.765 L
1600.158 156.174 L
1600.884 153.95 L
1601.611 152.067 L
1602.337 150.499 L
1603.063 149.217 L
1603.79 148.196 L
1604.516 147.406 L
1605.243 146.82 L
1605.969 146.412 L
1606.696 146.156 L
1607.422 146.026 L
1608.149 145.999 L
1608.875 146.055 L
1609.601 146.176 L
1610.328 146.349 L
1611.054 146.564 L
1611.781 146.817 L
1612.507 147.107 L
1613.234 147.442 L
1613.96 147.83 L
1614.686 148.287 L
1615.413 148.834 L
1616.139 149.491 L
1616.866 150.287 L
1617.592 151.25 L
1618.318 152.411 L
1619.045 153.805 L
1619.771 155.467 L
1620.498 157.435 L
1621.224 159.751 L
1621.951 162.461 L
1622.677 165.614 L
1623.404 169.267 L
1624.13 173.487 L
1624.856 178.351 L
1625.583 183.954 L
1626.309 190.412 L
1627.036 197.874 L
1627.762 206.534 L
1628.489 216.649 L
1629.215 228.568 L
1629.941 242.773 L
1630.668 259.899 L
1631.394 280.616 L
1632.121 304.572 L
1632.847 325.356 L
1633.573 325.487 L
1634.3 304.82 L
1635.026 280.873 L
1635.753 260.164 L
1636.479 243.076 L
1637.206 228.951 L
1637.932 217.159 L
1638.659 207.229 L
1639.385 198.818 L
1640.111 191.683 L
1640.838 185.64 L
1641.564 180.558 L
1642.291 176.334 L
1643.017 172.894 L
1643.744 170.18 L
1644.47 168.152 L
1645.196 166.78 L
1645.923 166.044 L
1646.649 165.936 L
1647.376 166.454 L
1648.102 167.607 L
1648.828 169.411 L
1649.555 171.893 L
1650.281 175.089 L
1651.008 179.052 L
1651.734 183.846 L
1652.461 189.557 L
1653.187 196.295 L
1653.914 204.196 L
1654.64 213.432 L
1655.366 224.2 L
1656.093 236.692 L
1656.819 250.965 L
1657.546 266.523 L
1658.272 281.239 L
1658.999 289.99 L
1659.725 287.431 L
1660.451 275.244 L
1661.178 259.535 L
1661.904 244.149 L
1662.631 230.362 L
1663.357 218.362 L
1664.083 208.008 L
1664.81 199.098 L
1665.536 191.442 L
1666.263 184.881 L
1666.989 179.289 L
1667.716 174.565 L
1668.442 170.63 L
1669.169 167.422 L
1669.895 164.893 L
1670.621 163.006 L
1671.348 161.736 L
1672.074 161.064 L
1672.801 160.978 L
1673.527 161.474 L
1674.254 162.555 L
1674.98 164.229 L
1675.706 166.509 L
1676.433 169.418 L
1677.159 172.982 L
1677.886 177.235 L
1678.612 182.215 L
1679.339 187.964 L
1680.065 194.521 L
1680.791 201.909 L
1681.518 210.11 L
1682.244 219.015 L
1682.971 228.329 L
1683.697 237.416 L
1684.424 245.152 L
1685.15 249.996 L
1685.876 250.632 L
1686.603 246.914 L
1687.329 239.984 L
1688.056 231.411 L
1688.782 222.429 L
1689.509 213.765 L
1690.235 205.77 L
1690.961 198.586 L
1691.688 192.244 L
1692.414 186.729 L
1693.141 182.006 L
1693.867 178.034 L
1694.594 174.775 L
1695.32 172.198 L
1696.046 170.273 L
1696.773 168.981 L
1697.499 168.305 L
1698.226 168.235 L
1698.952 168.764 L
1699.679 169.891 L
1700.405 171.615 L
1701.131 173.934 L
1701.858 176.845 L
1702.584 180.335 L
1703.311 184.372 L
1704.037 188.893 L
1704.764 193.781 L
1705.49 198.834 L
1706.216 203.727 L
1706.943 207.991 L
1707.669 211.032 L
1708.396 212.246 L
1709.122 211.231 L
1709.849 207.965 L
1710.575 202.822 L
1711.301 196.387 L
1712.028 189.254 L
1712.754 181.896 L
1713.481 174.637 L
1714.207 167.68 L
1714.934 161.136 L
1715.66 155.06 L
1716.386 149.473 L
1717.113 144.375 L
1717.839 139.756 L
1718.566 135.597 L
1719.292 131.88 L
1720.019 128.584 L
1720.745 125.689 L
1721.471 123.174 L
1722.198 121.02 L
1722.924 119.208 L
1723.651 117.718 L
1724.377 116.532 L
1725.104 115.629 L
1725.83 114.99 L
1726.556 114.591 L
1727.283 114.409 L
1728.009 114.416 L
1728.736 114.584 L
1729.462 114.88 L
1730.189 115.266 L
1730.915 115.705 L
1731.641 116.152 L
1732.368 116.564 L
1733.094 116.896 L
1733.821 117.102 L
1734.547 117.144 L
1735.274 116.987 L
1736 116.606 L
S
GR
%%Trailer
%%Pages: 1
%%EOF
