%!PS-Adobe-3.0 EPSF-3.0
%%Creator: cairo 1.14.6 (http://cairographics.org)
%%CreationDate: Tue May 30 21:48:18 2017
%%Pages: 1
%%DocumentData: Clean7Bit
%%LanguageLevel: 2
%%BoundingBox: 0 -1 180 249
%%EndComments
%%BeginProlog
save
50 dict begin
/q { gsave } bind def
/Q { grestore } bind def
/cm { 6 array astore concat } bind def
/w { setlinewidth } bind def
/J { setlinecap } bind def
/j { setlinejoin } bind def
/M { setmiterlimit } bind def
/d { setdash } bind def
/m { moveto } bind def
/l { lineto } bind def
/c { curveto } bind def
/h { closepath } bind def
/re { exch dup neg 3 1 roll 5 3 roll moveto 0 rlineto
      0 exch rlineto 0 rlineto closepath } bind def
/S { stroke } bind def
/f { fill } bind def
/f* { eofill } bind def
/n { newpath } bind def
/W { clip } bind def
/W* { eoclip } bind def
/BT { } bind def
/ET { } bind def
/pdfmark where { pop globaldict /?pdfmark /exec load put }
    { globaldict begin /?pdfmark /pop load def /pdfmark
    /cleartomark load def end } ifelse
/BDC { mark 3 1 roll /BDC pdfmark } bind def
/EMC { mark /EMC pdfmark } bind def
/cairo_store_point { /cairo_point_y exch def /cairo_point_x exch def } def
/Tj { show currentpoint cairo_store_point } bind def
/TJ {
  {
    dup
    type /stringtype eq
    { show } { -0.001 mul 0 cairo_font_matrix dtransform rmoveto } ifelse
  } forall
  currentpoint cairo_store_point
} bind def
/cairo_selectfont { cairo_font_matrix aload pop pop pop 0 0 6 array astore
    cairo_font exch selectfont cairo_point_x cairo_point_y moveto } bind def
/Tf { pop /cairo_font exch def /cairo_font_matrix where
      { pop cairo_selectfont } if } bind def
/Td { matrix translate cairo_font_matrix matrix concatmatrix dup
      /cairo_font_matrix exch def dup 4 get exch 5 get cairo_store_point
      /cairo_font where { pop cairo_selectfont } if } bind def
/Tm { 2 copy 8 2 roll 6 array astore /cairo_font_matrix exch def
      cairo_store_point /cairo_font where { pop cairo_selectfont } if } bind def
/g { setgray } bind def
/rg { setrgbcolor } bind def
/d1 { setcachedevice } bind def
%%EndProlog
%%BeginSetup
%%EndSetup
%%Page: 1 1
%%BeginPageSetup
%%PageBoundingBox: 0 -1 180 249
%%EndPageSetup
q 0 -1 180 250 rectclip q
q
0 248.035 180 -249 re W n
[ 1 0 0 1 0 -0.964844 ] concat
  q
0.615686 0.733333 0.380392 rg
103.688 220.055 m 109.145 246.582 l 97.391 249 l 90.371 214.879 l 49.102
 190.848 l 14.586 211.664 l 8.391 201.387 l 37.281 183.961 l 0 162.332 l
 0.297 74.195 l 43.742 0.965 l 179.445 80.047 l 179.445 204.688 l h
101.047 207.207 m 102.496 208.051 l 113.227 205.867 l 99.062 197.566 l 
h
87.129 199.102 m 85.133 189.398 l 68.074 179.402 l 60.816 183.781 l h
18.172 67.555 m 12.281 77.504 l 11.969 145.793 l 18.172 140.562 l h
16.285 157.848 m 48.996 176.898 l 56.293 172.496 l 22.445 152.656 l h
39.738 31.113 m 30.172 47.277 l 30.172 130.449 l 39.738 122.383 l h
32.176 144.453 m 130.844 202.285 l 156.84 197 l 46.367 132.488 l h
167.445 86.949 m 51.738 19.625 l 51.738 121.727 l 167.445 189.293 l h
167.445 86.949 m f
158.418 173.422 m 60.684 116.738 l 60.684 35.578 l 158.418 92.641 l h
146.418 99.531 m 72.684 56.48 l 72.684 109.824 l 146.418 152.59 l h
146.418 99.531 m f
  Q
Q
Q Q
showpage
%%Trailer
end restore
%%EOF
