\relax 
\providecommand\hyper@newdestlabel[2]{}
\FN@pp@footnotehinttrue 
\@writefile{toc}{\contentsline {chapter}{\numberline {2}Background and problem statement}{15}{chapter.2}}
\@writefile{lof}{\addvspace {10\p@ }}
\@writefile{lot}{\addvspace {10\p@ }}
\@writefile{lof}{\contentsline {xchapter}{Background and problem statement}{15}{chapter.2}}
\@writefile{lot}{\contentsline {xchapter}{Background and problem statement}{15}{chapter.2}}
\newlabel{chapter:2}{{2}{15}{Background and problem statement}{chapter.2}{}}
\@writefile{toc}{\contentsline {section}{\numberline {2.1}Introduction}{15}{section.2.1}}
\@writefile{toc}{\contentsline {section}{\numberline {2.2}Review on current wireless networks}{16}{section.2.2}}
\newlabel{sec:today_bcg}{{2.2}{16}{Review on current wireless networks}{section.2.2}{}}
\@writefile{toc}{\contentsline {subsection}{\numberline {2.2.1}Digital communications background}{16}{subsection.2.2.1}}
\@writefile{toc}{\contentsline {subsubsection}{Digital communication chain}{16}{section*.17}}
\@writefile{lof}{\contentsline {figure}{\numberline {2.1}{\ignorespaces Block diagram of a generic digital communication system}}{17}{figure.caption.18}}
\newlabel{fig:block_diagram_comm_system}{{2.1}{17}{Block diagram of a generic digital communication system}{figure.caption.18}{}}
\@writefile{toc}{\contentsline {subsubsection}{Wireless channel modeling}{18}{section*.19}}
\@writefile{lof}{\contentsline {figure}{\numberline {2.2}{\ignorespaces Representation of the three different channel propagation effects}}{19}{figure.caption.20}}
\@writefile{lot}{\contentsline {table}{\numberline {2.1}{\ignorespaces Examples of channel models}}{20}{table.caption.21}}
\newlabel{tab:channel_models}{{2.1}{20}{Examples of channel models}{table.caption.21}{}}
\@writefile{lot}{\contentsline {subtable}{\numberline{(a)}{\ignorespaces {}}}{20}{subtable.1.1}}
\@writefile{lot}{\contentsline {subtable}{\numberline{(b)}{\ignorespaces {}}}{20}{subtable.1.2}}
\newlabel{eq:channel_ir_t}{{2.5}{20}{Wireless channel modeling}{equation.2.2.5}{}}
\newlabel{eq:channel_ir_n}{{2.6}{20}{Wireless channel modeling}{equation.2.2.6}{}}
\@writefile{lof}{\contentsline {figure}{\numberline {2.3}{\ignorespaces Time and frequency response of a channel realization corresponding to (a)~EPA and (b)~ETU channel models.}}{21}{figure.caption.22}}
\newlabel{fig:channel_realizations}{{2.3}{21}{Time and frequency response of a channel realization corresponding to (a)~EPA and (b)~ETU channel models}{figure.caption.22}{}}
\@writefile{lof}{\contentsline {subfigure}{\numberline{(a)}{\ignorespaces {}}}{21}{subfigure.3.1}}
\@writefile{lof}{\contentsline {subfigure}{\numberline{(b)}{\ignorespaces {}}}{21}{subfigure.3.2}}
\@writefile{lof}{\contentsline {figure}{\numberline {2.4}{\ignorespaces Detailed structure of a multicarrier waveform modulation block}}{22}{figure.caption.24}}
\newlabel{fig:mcm_scheme}{{2.4}{22}{Detailed structure of a multicarrier waveform modulation block}{figure.caption.24}{}}
\@writefile{toc}{\contentsline {subsection}{\numberline {2.2.2}Multicarrier systems}{22}{subsection.2.2.2}}
\@writefile{toc}{\contentsline {subsubsection}{Generic mulitcarrier structure}{22}{section*.23}}
\@writefile{lof}{\contentsline {figure}{\numberline {2.5}{\ignorespaces Detailed structure of a multicarrier waveform demodulation block}}{23}{figure.caption.25}}
\newlabel{fig:mcm_rx_scheme}{{2.5}{23}{Detailed structure of a multicarrier waveform demodulation block}{figure.caption.25}{}}
\newlabel{eq:mcm_signal}{{2.7}{23}{Generic mulitcarrier structure}{equation.2.2.7}{}}
\newlabel{eq:mcm_signal}{{2.8}{23}{Generic mulitcarrier structure}{equation.2.2.8}{}}
\@writefile{toc}{\contentsline {subsubsection}{OFDM}{24}{section*.26}}
\@writefile{lof}{\contentsline {figure}{\numberline {2.6}{\ignorespaces Detailed implementation of CP-OFDM transmission and reception chains.\relax }}{25}{figure.caption.27}}
\newlabel{fig:cp-ofdm-tx-rx}{{2.6}{25}{Detailed implementation of CP-OFDM transmission and reception chains.\relax }{figure.caption.27}{}}
\@writefile{toc}{\contentsline {subsubsection}{OFDM-based multiuser schemes}{26}{section*.28}}
\@writefile{toc}{\contentsline {section}{\numberline {2.3}Arising coexistence issues}{26}{section.2.3}}
\newlabel{sec:coex}{{2.3}{26}{Arising coexistence issues}{section.2.3}{}}
\@writefile{toc}{\contentsline {subsection}{\numberline {2.3.1}Coexistence and cognitive radio}{26}{subsection.2.3.1}}
\@writefile{lof}{\contentsline {figure}{\numberline {2.7}{\ignorespaces Illustration of overlay OSA and underlay}}{27}{figure.caption.29}}
\newlabel{fig:OSA}{{2.7}{27}{Illustration of overlay OSA and underlay}{figure.caption.29}{}}
\@writefile{toc}{\contentsline {subsection}{\numberline {2.3.2}Foreseen coexistence scenarios}{28}{subsection.2.3.2}}
\@writefile{toc}{\contentsline {subsubsection}{TV White Spaces: a paramount example of CR application}{28}{section*.30}}
\@writefile{lof}{\contentsline {figure}{\numberline {2.8}{\ignorespaces Example of a TV white space deployment}}{29}{figure.caption.31}}
\newlabel{fig:TVWS_scenario}{{2.8}{29}{Example of a TV white space deployment}{figure.caption.31}{}}
\@writefile{lof}{\contentsline {figure}{\numberline {2.9}{\ignorespaces Spectral masks defined for portable and fixed TVWS}}{30}{figure.caption.32}}
\newlabel{fig:TVWS_mask}{{2.9}{30}{Spectral masks defined for portable and fixed TVWS}{figure.caption.32}{}}
\FN@pp@footnote@aux{2}{30}
\@writefile{toc}{\contentsline {subsubsection}{D2D communication in LTE bands}{30}{section*.33}}
\@writefile{lof}{\contentsline {figure}{\numberline {2.10}{\ignorespaces Coexistence of D2D communications and classical user equipments in cellular networks.\relax }}{31}{figure.caption.34}}
\newlabel{fig:D2D_in_cellular}{{2.10}{31}{Coexistence of D2D communications and classical user equipments in cellular networks.\relax }{figure.caption.34}{}}
\FN@pp@footnote@aux{3}{31}
\FN@pp@footnote@aux{4}{31}
\@writefile{lof}{\contentsline {figure}{\numberline {2.11}{\ignorespaces Typical classification of D2D spectrum allocation schemes}}{32}{figure.caption.35}}
\newlabel{fig:D2D_schemes}{{2.11}{32}{Typical classification of D2D spectrum allocation schemes}{figure.caption.35}{}}
\@writefile{toc}{\contentsline {section}{\numberline {2.4}Enhanced waveforms for 5G}{33}{section.2.4}}
\newlabel{sec:5G_waveforms}{{2.4}{33}{Enhanced waveforms for 5G}{section.2.4}{}}
\@writefile{toc}{\contentsline {subsection}{\numberline {2.4.1}Designing new waveforms: objectives and constraints}{33}{subsection.2.4.1}}
\FN@pp@footnote@aux{5}{33}
\FN@pp@footnote@aux{6}{33}
\FN@pp@footnote@aux{7}{33}
\FN@pp@footnote@aux{8}{33}
\FN@pp@footnote@aux{9}{34}
\FN@pp@footnote@aux{10}{34}
\@writefile{toc}{\contentsline {subsection}{\numberline {2.4.2}Linear FB-MC}{35}{subsection.2.4.2}}
\newlabel{sec:linear_FBMC}{{2.4.2}{35}{Linear FB-MC}{subsection.2.4.2}{}}
\@writefile{toc}{\contentsline {subsubsection}{Filtered Multi-Tone (FMT)}{35}{section*.36}}
\@writefile{toc}{\contentsline {subsubsection}{Offset QAM OFDM (OFDM/OQAM)}{35}{section*.37}}
\@writefile{toc}{\contentsline {subsubsection}{FBMC-PAM}{36}{section*.38}}
\@writefile{toc}{\contentsline {subsection}{\numberline {2.4.3}Circular convolution based filter banks}{36}{subsection.2.4.3}}
\@writefile{toc}{\contentsline {subsubsection}{GFDM}{36}{section*.40}}
\@writefile{lof}{\contentsline {figure}{\numberline {2.12}{\ignorespaces GFDM prototype filters $\mathaccentV {tilde}07E{g}_n(t)$ obtained from an original RRC prototype filter $g$ with roll-off 0.25, $N_\text  {b} = 5$ and $T_\text  {CP} = \frac  {T}{4}$.\relax }}{37}{figure.caption.39}}
\newlabel{fig:lineartocirc}{{2.12}{37}{GFDM prototype filters $\tilde {g}_n(t)$ obtained from an original RRC prototype filter $g$ with roll-off 0.25, $N_\text {b} = 5$ and $T_\text {CP} = \frac {T}{4}$.\relax }{figure.caption.39}{}}
\@writefile{toc}{\contentsline {subsubsection}{COQAM}{37}{section*.41}}
\@writefile{toc}{\contentsline {subsection}{\numberline {2.4.4}Band-filtered waveforms}{38}{subsection.2.4.4}}
\@writefile{toc}{\contentsline {subsubsection}{UFMC}{38}{section*.42}}
\@writefile{toc}{\contentsline {subsubsection}{f-OFDM}{38}{section*.43}}
\@writefile{toc}{\contentsline {subsection}{\numberline {2.4.5}Comparison criteria}{39}{subsection.2.4.5}}
\@writefile{toc}{\contentsline {subsubsection}{Selected waveform parameters}{39}{section*.44}}
\@writefile{lot}{\contentsline {table}{\numberline {2.2}{\ignorespaces Waveform configurations considered throughout the thesis\relax }}{40}{table.caption.45}}
\newlabel{tab:waveforms_parameters}{{2.2}{40}{Waveform configurations considered throughout the thesis\relax }{table.caption.45}{}}
\@writefile{lof}{\contentsline {figure}{\numberline {2.13}{\ignorespaces PSD of each studied waveform in a setup where 12 subcarriers are activated.\relax }}{41}{figure.caption.47}}
\newlabel{fig:PSD_waveforms_intro}{{2.13}{41}{PSD of each studied waveform in a setup where 12 subcarriers are activated.\relax }{figure.caption.47}{}}
\@writefile{toc}{\contentsline {subsubsection}{Spectral localization}{41}{section*.46}}
\@writefile{toc}{\contentsline {subsubsection}{Robustness to asynchronism in coexistence scenarios}{42}{section*.48}}
\@writefile{lof}{\contentsline {figure}{\numberline {2.14}{\ignorespaces Sensitivity of enhanced multicarrier waveforms to (a) TO and (b) CFO.\relax }}{43}{figure.caption.49}}
\newlabel{fig:TO_CFO}{{2.14}{43}{Sensitivity of enhanced multicarrier waveforms to (a) TO and (b) CFO.\relax }{figure.caption.49}{}}
\@writefile{lof}{\contentsline {subfigure}{\numberline{(a)}{\ignorespaces {}}}{43}{subfigure.14.1}}
\@writefile{lof}{\contentsline {subfigure}{\numberline{(b)}{\ignorespaces {}}}{43}{subfigure.14.2}}
\@writefile{toc}{\contentsline {subsubsection}{Time-spectral efficiency}{44}{section*.50}}
\@writefile{lof}{\contentsline {figure}{\numberline {2.15}{\ignorespaces Time-spectral efficiency of enhanced multicarrier waveforms\relax }}{45}{figure.caption.51}}
\newlabel{fig:TSE}{{2.15}{45}{Time-spectral efficiency of enhanced multicarrier waveforms\relax }{figure.caption.51}{}}
\@writefile{toc}{\contentsline {subsubsection}{Raw BER performance}{45}{section*.52}}
\@writefile{lof}{\contentsline {figure}{\numberline {2.16}{\ignorespaces Uncoded BER achieved by studied waveforms on an AWGN channel for an uncoded 16-QAM constellation.\relax }}{46}{figure.caption.53}}
\newlabel{fig:BER_waveforms}{{2.16}{46}{Uncoded BER achieved by studied waveforms on an AWGN channel for an uncoded 16-QAM constellation.\relax }{figure.caption.53}{}}
\@writefile{toc}{\contentsline {subsubsection}{Other criteria}{46}{section*.54}}
\@writefile{toc}{\contentsline {subsubsection}{Summary}{48}{section*.55}}
\@writefile{toc}{\contentsline {section}{\numberline {2.5}Open research problems}{48}{section.2.5}}
\newlabel{sec:research_questions}{{2.5}{48}{Open research problems}{section.2.5}{}}
\FN@pp@footnotehinttrue 
\@setckpt{2-Chapters/2-Chapter/chapter2}{
\setcounter{page}{50}
\setcounter{equation}{19}
\setcounter{enumi}{3}
\setcounter{enumii}{0}
\setcounter{enumiii}{0}
\setcounter{enumiv}{0}
\setcounter{footnote}{0}
\setcounter{mpfootnote}{0}
\setcounter{part}{0}
\setcounter{chapter}{2}
\setcounter{section}{5}
\setcounter{subsection}{0}
\setcounter{subsubsection}{0}
\setcounter{paragraph}{0}
\setcounter{subparagraph}{0}
\setcounter{figure}{16}
\setcounter{table}{2}
\setcounter{@pps}{0}
\setcounter{@ppsavesec}{0}
\setcounter{@ppsaveapp}{0}
\setcounter{parentequation}{0}
\setcounter{Item}{9}
\setcounter{Hfootnote}{10}
\setcounter{bookmark@seq@number}{28}
\setcounter{MYtempeqncnt}{0}
\setcounter{pp@next@reset}{11}
\setcounter{@fnserial}{10}
\setcounter{ALG@line}{0}
\setcounter{ALG@rem}{0}
\setcounter{ALG@nested}{0}
\setcounter{ALG@Lnr}{2}
\setcounter{ALG@blocknr}{10}
\setcounter{ALG@storecount}{0}
\setcounter{ALG@tmpcounter}{0}
\setcounter{float@type}{16}
\setcounter{algorithm}{0}
\setcounter{lstnumber}{1}
\setcounter{ContinuedFloat}{0}
\setcounter{KVtest}{1}
\setcounter{subfigure}{0}
\setcounter{subfigure@save}{2}
\setcounter{lofdepth}{1}
\setcounter{subtable}{0}
\setcounter{subtable@save}{2}
\setcounter{lotdepth}{1}
\setcounter{r@tfl@t}{0}
\setcounter{nlinenum}{0}
\setcounter{tabx@nest}{0}
\setcounter{listtotal}{0}
\setcounter{listcount}{0}
\setcounter{liststart}{0}
\setcounter{liststop}{0}
\setcounter{citecount}{0}
\setcounter{citetotal}{0}
\setcounter{multicitecount}{0}
\setcounter{multicitetotal}{0}
\setcounter{instcount}{168}
\setcounter{maxnames}{1}
\setcounter{minnames}{1}
\setcounter{maxitems}{3}
\setcounter{minitems}{1}
\setcounter{citecounter}{0}
\setcounter{savedcitecounter}{0}
\setcounter{uniquelist}{0}
\setcounter{uniquename}{0}
\setcounter{refsection}{0}
\setcounter{refsegment}{0}
\setcounter{maxextrayear}{0}
\setcounter{maxextraalpha}{0}
\setcounter{abbrvpenalty}{50}
\setcounter{highnamepenalty}{50}
\setcounter{lownamepenalty}{25}
\setcounter{maxparens}{3}
\setcounter{parenlevel}{0}
\setcounter{mincomprange}{10}
\setcounter{maxcomprange}{100000}
\setcounter{mincompwidth}{1}
\setcounter{labelname}{0}
\setcounter{savedlabelname}{0}
\setcounter{author}{0}
\setcounter{savedauthor}{0}
\setcounter{shortauthor}{0}
\setcounter{savedshortauthor}{0}
\setcounter{editor}{0}
\setcounter{savededitor}{0}
\setcounter{editora}{0}
\setcounter{savededitora}{0}
\setcounter{editorb}{0}
\setcounter{savededitorb}{0}
\setcounter{editorc}{0}
\setcounter{savededitorc}{0}
\setcounter{shorteditor}{0}
\setcounter{savedshorteditor}{0}
\setcounter{bookauthor}{0}
\setcounter{savedbookauthor}{0}
\setcounter{translator}{0}
\setcounter{savedtranslator}{0}
\setcounter{annotator}{0}
\setcounter{savedannotator}{0}
\setcounter{commentator}{0}
\setcounter{savedcommentator}{0}
\setcounter{introduction}{0}
\setcounter{savedintroduction}{0}
\setcounter{foreword}{0}
\setcounter{savedforeword}{0}
\setcounter{afterword}{0}
\setcounter{savedafterword}{0}
\setcounter{holder}{0}
\setcounter{savedholder}{0}
\setcounter{namea}{0}
\setcounter{savednamea}{0}
\setcounter{nameb}{0}
\setcounter{savednameb}{0}
\setcounter{namec}{0}
\setcounter{savednamec}{0}
\setcounter{institution}{0}
\setcounter{savedinstitution}{0}
\setcounter{language}{0}
\setcounter{savedlanguage}{0}
\setcounter{location}{0}
\setcounter{savedlocation}{0}
\setcounter{organization}{0}
\setcounter{savedorganization}{0}
\setcounter{origlocation}{0}
\setcounter{savedoriglocation}{0}
\setcounter{origpublisher}{0}
\setcounter{savedorigpublisher}{0}
\setcounter{pageref}{0}
\setcounter{savedpageref}{0}
\setcounter{publisher}{0}
\setcounter{savedpublisher}{0}
\setcounter{lista}{0}
\setcounter{savedlista}{0}
\setcounter{listb}{0}
\setcounter{savedlistb}{0}
\setcounter{listc}{0}
\setcounter{savedlistc}{0}
\setcounter{listd}{0}
\setcounter{savedlistd}{0}
\setcounter{liste}{0}
\setcounter{savedliste}{0}
\setcounter{listf}{0}
\setcounter{savedlistf}{0}
\setcounter{textcitecount}{0}
\setcounter{textcitetotal}{0}
\setcounter{textcitemaxnames}{0}
\setcounter{biburlnumpenalty}{0}
\setcounter{biburlucpenalty}{0}
\setcounter{biburllcpenalty}{0}
\setcounter{smartand}{1}
\setcounter{bbx:relatedcount}{0}
\setcounter{bbx:relatedtotal}{0}
\setcounter{cbx@tempcnta}{0}
\setcounter{cbx@tempcntb}{107}
\setcounter{mtc}{7}
\setcounter{minitocdepth}{2}
\setcounter{ptc}{0}
\setcounter{parttocdepth}{2}
\setcounter{cdefi}{0}
\setcounter{cprop}{0}
\setcounter{dblbotnumber}{2}
\setcounter{section@level}{1}
\setcounter{lstlisting}{0}
\setcounter{minilofdepth}{2}
\setcounter{minilotdepth}{2}
\setcounter{partlofdepth}{2}
\setcounter{partlotdepth}{2}
\setcounter{sectlofdepth}{2}
\setcounter{sectlotdepth}{2}
}
