%!PS-Adobe-3.0 EPSF-3.0
%%Creator: (MATLAB, The Mathworks, Inc. Version 8.5.0.197613 \(R2015a\). Operating System: Windows 7)
%%Title: Z:/exchange_figures/PI_solution.eps
%%CreationDate: 2016-07-06T10:25:22
%%Pages: (atend)
%%BoundingBox: 0 0 683 442
%%LanguageLevel: 2
%%EndComments
%%BeginProlog
%%BeginResource: procset (Apache XML Graphics Std ProcSet) 1.2 0
%%Version: 1.2 0
%%Copyright: (Copyright 2001-2003,2010 The Apache Software Foundation. License terms: http://www.apache.org/licenses/LICENSE-2.0)
/bd{bind def}bind def
/ld{load def}bd
/GR/grestore ld
/M/moveto ld
/LJ/setlinejoin ld
/C/curveto ld
/f/fill ld
/LW/setlinewidth ld
/GC/setgray ld
/t/show ld
/N/newpath ld
/CT/concat ld
/cp/closepath ld
/S/stroke ld
/L/lineto ld
/CC/setcmykcolor ld
/A/ashow ld
/GS/gsave ld
/RC/setrgbcolor ld
/RM/rmoveto ld
/ML/setmiterlimit ld
/re {4 2 roll M
1 index 0 rlineto
0 exch rlineto
neg 0 rlineto
cp } bd
/_ctm matrix def
/_tm matrix def
/BT { _ctm currentmatrix pop matrix _tm copy pop 0 0 moveto } bd
/ET { _ctm setmatrix } bd
/iTm { _ctm setmatrix _tm concat } bd
/Tm { _tm astore pop iTm 0 0 moveto } bd
/ux 0.0 def
/uy 0.0 def
/F {
  /Tp exch def
  /Tf exch def
  Tf findfont Tp scalefont setfont
  /cf Tf def  /cs Tp def
} bd
/ULS {currentpoint /uy exch def /ux exch def} bd
/ULE {
  /Tcx currentpoint pop def
  gsave
  newpath
  cf findfont cs scalefont dup
  /FontMatrix get 0 get /Ts exch def /FontInfo get dup
  /UnderlinePosition get Ts mul /To exch def
  /UnderlineThickness get Ts mul /Tt exch def
  ux uy To add moveto  Tcx uy To add lineto
  Tt setlinewidth stroke
  grestore
} bd
/OLE {
  /Tcx currentpoint pop def
  gsave
  newpath
  cf findfont cs scalefont dup
  /FontMatrix get 0 get /Ts exch def /FontInfo get dup
  /UnderlinePosition get Ts mul /To exch def
  /UnderlineThickness get Ts mul /Tt exch def
  ux uy To add cs add moveto Tcx uy To add cs add lineto
  Tt setlinewidth stroke
  grestore
} bd
/SOE {
  /Tcx currentpoint pop def
  gsave
  newpath
  cf findfont cs scalefont dup
  /FontMatrix get 0 get /Ts exch def /FontInfo get dup
  /UnderlinePosition get Ts mul /To exch def
  /UnderlineThickness get Ts mul /Tt exch def
  ux uy To add cs 10 mul 26 idiv add moveto Tcx uy To add cs 10 mul 26 idiv add lineto
  Tt setlinewidth stroke
  grestore
} bd
/QT {
/Y22 exch store
/X22 exch store
/Y21 exch store
/X21 exch store
currentpoint
/Y21 load 2 mul add 3 div exch
/X21 load 2 mul add 3 div exch
/X21 load 2 mul /X22 load add 3 div
/Y21 load 2 mul /Y22 load add 3 div
/X22 load /Y22 load curveto
} bd
/SSPD {
dup length /d exch dict def
{
/v exch def
/k exch def
currentpagedevice k known {
/cpdv currentpagedevice k get def
v cpdv ne {
/upd false def
/nullv v type /nulltype eq def
/nullcpdv cpdv type /nulltype eq def
nullv nullcpdv or
{
/upd true def
} {
/sametype v type cpdv type eq def
sametype {
v type /arraytype eq {
/vlen v length def
/cpdvlen cpdv length def
vlen cpdvlen eq {
0 1 vlen 1 sub {
/i exch def
/obj v i get def
/cpdobj cpdv i get def
obj cpdobj ne {
/upd true def
exit
} if
} for
} {
/upd true def
} ifelse
} {
v type /dicttype eq {
v {
/dv exch def
/dk exch def
/cpddv cpdv dk get def
dv cpddv ne {
/upd true def
exit
} if
} forall
} {
/upd true def
} ifelse
} ifelse
} if
} ifelse
upd true eq {
d k v put
} if
} if
} if
} forall
d length 0 gt {
d setpagedevice
} if
} bd
%%EndResource
%%BeginResource: procset (Apache XML Graphics EPS ProcSet) 1.0 0
%%Version: 1.0 0
%%Copyright: (Copyright 2002-2003 The Apache Software Foundation. License terms: http://www.apache.org/licenses/LICENSE-2.0)
/BeginEPSF { %def
/b4_Inc_state save def         % Save state for cleanup
/dict_count countdictstack def % Count objects on dict stack
/op_count count 1 sub def      % Count objects on operand stack
userdict begin                 % Push userdict on dict stack
/showpage { } def              % Redefine showpage, { } = null proc
0 setgray 0 setlinecap         % Prepare graphics state
1 setlinewidth 0 setlinejoin
10 setmiterlimit [ ] 0 setdash newpath
/languagelevel where           % If level not equal to 1 then
{pop languagelevel             % set strokeadjust and
1 ne                           % overprint to their defaults.
{false setstrokeadjust false setoverprint
} if
} if
} bd
/EndEPSF { %def
count op_count sub {pop} repeat            % Clean up stacks
countdictstack dict_count sub {end} repeat
b4_Inc_state restore
} bd
%%EndResource
%FOPBeginFontDict
%%IncludeResource: font Courier-Bold
%%IncludeResource: font Helvetica
%%IncludeResource: font Courier-BoldOblique
%%IncludeResource: font Courier-Oblique
%%IncludeResource: font Times-Roman
%%IncludeResource: font Helvetica-BoldOblique
%%IncludeResource: font Helvetica-Bold
%%IncludeResource: font Helvetica-Oblique
%%IncludeResource: font Times-BoldItalic
%%IncludeResource: font Courier
%%IncludeResource: font Times-Italic
%%IncludeResource: font Times-Bold
%%IncludeResource: font Symbol
%%IncludeResource: font ZapfDingbats
%FOPEndFontDict
%%BeginResource: encoding WinAnsiEncoding
/WinAnsiEncoding [
/.notdef /.notdef /.notdef /.notdef /.notdef
/.notdef /.notdef /.notdef /.notdef /.notdef
/.notdef /.notdef /.notdef /.notdef /.notdef
/.notdef /.notdef /.notdef /.notdef /.notdef
/.notdef /.notdef /.notdef /.notdef /.notdef
/.notdef /.notdef /.notdef /.notdef /.notdef
/.notdef /.notdef /space /exclam /quotedbl
/numbersign /dollar /percent /ampersand /quotesingle
/parenleft /parenright /asterisk /plus /comma
/hyphen /period /slash /zero /one
/two /three /four /five /six
/seven /eight /nine /colon /semicolon
/less /equal /greater /question /at
/A /B /C /D /E
/F /G /H /I /J
/K /L /M /N /O
/P /Q /R /S /T
/U /V /W /X /Y
/Z /bracketleft /backslash /bracketright /asciicircum
/underscore /quoteleft /a /b /c
/d /e /f /g /h
/i /j /k /l /m
/n /o /p /q /r
/s /t /u /v /w
/x /y /z /braceleft /bar
/braceright /asciitilde /bullet /Euro /bullet
/quotesinglbase /florin /quotedblbase /ellipsis /dagger
/daggerdbl /circumflex /perthousand /Scaron /guilsinglleft
/OE /bullet /Zcaron /bullet /bullet
/quoteleft /quoteright /quotedblleft /quotedblright /bullet
/endash /emdash /asciitilde /trademark /scaron
/guilsinglright /oe /bullet /zcaron /Ydieresis
/space /exclamdown /cent /sterling /currency
/yen /brokenbar /section /dieresis /copyright
/ordfeminine /guillemotleft /logicalnot /sfthyphen /registered
/macron /degree /plusminus /twosuperior /threesuperior
/acute /mu /paragraph /middot /cedilla
/onesuperior /ordmasculine /guillemotright /onequarter /onehalf
/threequarters /questiondown /Agrave /Aacute /Acircumflex
/Atilde /Adieresis /Aring /AE /Ccedilla
/Egrave /Eacute /Ecircumflex /Edieresis /Igrave
/Iacute /Icircumflex /Idieresis /Eth /Ntilde
/Ograve /Oacute /Ocircumflex /Otilde /Odieresis
/multiply /Oslash /Ugrave /Uacute /Ucircumflex
/Udieresis /Yacute /Thorn /germandbls /agrave
/aacute /acircumflex /atilde /adieresis /aring
/ae /ccedilla /egrave /eacute /ecircumflex
/edieresis /igrave /iacute /icircumflex /idieresis
/eth /ntilde /ograve /oacute /ocircumflex
/otilde /odieresis /divide /oslash /ugrave
/uacute /ucircumflex /udieresis /yacute /thorn
/ydieresis
] def
%%EndResource
%FOPBeginFontReencode
/Courier-Bold findfont
dup length dict begin
  {1 index /FID ne {def} {pop pop} ifelse} forall
  /Encoding WinAnsiEncoding def
  currentdict
end
/Courier-Bold exch definefont pop
/Helvetica findfont
dup length dict begin
  {1 index /FID ne {def} {pop pop} ifelse} forall
  /Encoding WinAnsiEncoding def
  currentdict
end
/Helvetica exch definefont pop
/Courier-BoldOblique findfont
dup length dict begin
  {1 index /FID ne {def} {pop pop} ifelse} forall
  /Encoding WinAnsiEncoding def
  currentdict
end
/Courier-BoldOblique exch definefont pop
/Courier-Oblique findfont
dup length dict begin
  {1 index /FID ne {def} {pop pop} ifelse} forall
  /Encoding WinAnsiEncoding def
  currentdict
end
/Courier-Oblique exch definefont pop
/Times-Roman findfont
dup length dict begin
  {1 index /FID ne {def} {pop pop} ifelse} forall
  /Encoding WinAnsiEncoding def
  currentdict
end
/Times-Roman exch definefont pop
/Helvetica-BoldOblique findfont
dup length dict begin
  {1 index /FID ne {def} {pop pop} ifelse} forall
  /Encoding WinAnsiEncoding def
  currentdict
end
/Helvetica-BoldOblique exch definefont pop
/Helvetica-Bold findfont
dup length dict begin
  {1 index /FID ne {def} {pop pop} ifelse} forall
  /Encoding WinAnsiEncoding def
  currentdict
end
/Helvetica-Bold exch definefont pop
/Helvetica-Oblique findfont
dup length dict begin
  {1 index /FID ne {def} {pop pop} ifelse} forall
  /Encoding WinAnsiEncoding def
  currentdict
end
/Helvetica-Oblique exch definefont pop
/Times-BoldItalic findfont
dup length dict begin
  {1 index /FID ne {def} {pop pop} ifelse} forall
  /Encoding WinAnsiEncoding def
  currentdict
end
/Times-BoldItalic exch definefont pop
/Courier findfont
dup length dict begin
  {1 index /FID ne {def} {pop pop} ifelse} forall
  /Encoding WinAnsiEncoding def
  currentdict
end
/Courier exch definefont pop
/Times-Italic findfont
dup length dict begin
  {1 index /FID ne {def} {pop pop} ifelse} forall
  /Encoding WinAnsiEncoding def
  currentdict
end
/Times-Italic exch definefont pop
/Times-Bold findfont
dup length dict begin
  {1 index /FID ne {def} {pop pop} ifelse} forall
  /Encoding WinAnsiEncoding def
  currentdict
end
/Times-Bold exch definefont pop
%FOPEndFontReencode
%%EndProlog
%%Page: 1 1
%%PageBoundingBox: 0 0 683 442
%%BeginPageSetup
[1 0 0 -1 0 442] CT
%%EndPageSetup
GS
[0.75 0 0 0.75 0 0.25] CT
N
0 0 M
910 0 L
910 589 L
0 589 L
0 0 L
cp
clip
1 GC
N
0 0 910 589 re
f
GR
GS
[0.75 0 0 0.75 0 0.25] CT
1 GC
N
0 0 910 589 re
f
GR
GS
[0.75 0 0 0.75 0 0.25] CT
1 GC
N
118 524 M
824 524 L
824 44 L
118 44 L
cp
f
GR
GS
[0.75 0 0 0.75 0 0.25] CT
0.873 GC
2 setlinecap
10.0 ML
N
118 524 M
118 44 L
S
GR
GS
[0.75 0 0 0.75 0 0.25] CT
0.873 GC
2 setlinecap
10.0 ML
N
235.667 524 M
235.667 44 L
S
GR
GS
[0.75 0 0 0.75 0 0.25] CT
0.873 GC
2 setlinecap
10.0 ML
N
353.333 524 M
353.333 44 L
S
GR
GS
[0.75 0 0 0.75 0 0.25] CT
0.873 GC
2 setlinecap
10.0 ML
N
471 524 M
471 44 L
S
GR
GS
[0.75 0 0 0.75 0 0.25] CT
0.873 GC
2 setlinecap
10.0 ML
N
588.667 524 M
588.667 44 L
S
GR
GS
[0.75 0 0 0.75 0 0.25] CT
0.873 GC
2 setlinecap
10.0 ML
N
706.333 524 M
706.333 44 L
S
GR
GS
[0.75 0 0 0.75 0 0.25] CT
0.873 GC
2 setlinecap
10.0 ML
N
824 524 M
824 44 L
S
GR
GS
[0.75 0 0 0.75 0 0.25] CT
0.873 GC
2 setlinecap
10.0 ML
N
824 524 M
118 524 L
S
GR
GS
[0.75 0 0 0.75 0 0.25] CT
0.873 GC
2 setlinecap
10.0 ML
N
824 464 M
118 464 L
S
GR
GS
[0.75 0 0 0.75 0 0.25] CT
0.873 GC
2 setlinecap
10.0 ML
N
824 404 M
118 404 L
S
GR
GS
[0.75 0 0 0.75 0 0.25] CT
0.873 GC
2 setlinecap
10.0 ML
N
824 344 M
118 344 L
S
GR
GS
[0.75 0 0 0.75 0 0.25] CT
0.873 GC
2 setlinecap
10.0 ML
N
824 284 M
118 284 L
S
GR
GS
[0.75 0 0 0.75 0 0.25] CT
0.873 GC
2 setlinecap
10.0 ML
N
824 224 M
118 224 L
S
GR
GS
[0.75 0 0 0.75 0 0.25] CT
0.873 GC
2 setlinecap
10.0 ML
N
824 164 M
118 164 L
S
GR
GS
[0.75 0 0 0.75 0 0.25] CT
0.873 GC
2 setlinecap
10.0 ML
N
824 104 M
118 104 L
S
GR
GS
[0.75 0 0 0.75 0 0.25] CT
0.873 GC
2 setlinecap
10.0 ML
N
824 44 M
118 44 L
S
GR
GS
[0.75 0 0 0.75 353.25025 418.2] CT
0.149 GC
/Times-Roman 23 F
GS
[1 0 0 1 0 0] CT
-280.5 21 moveto 
1 -1 scale
(Interference constraint set by the CP-OFDM incumbent \(dB\)) t 
GR
GR
GS
[0.75 0 0 0.75 0 0.25] CT
0.149 GC
2 setlinecap
10.0 ML
N
118 524 M
824 524 L
S
GR
GS
[0.75 0 0 0.75 0 0.25] CT
0.149 GC
2 setlinecap
10.0 ML
N
118 44 M
824 44 L
S
GR
GS
[0.75 0 0 0.75 0 0.25] CT
0.149 GC
2 setlinecap
10.0 ML
N
118 524 M
118 516.94 L
S
GR
GS
[0.75 0 0 0.75 0 0.25] CT
0.149 GC
2 setlinecap
10.0 ML
N
235.667 524 M
235.667 516.94 L
S
GR
GS
[0.75 0 0 0.75 0 0.25] CT
0.149 GC
2 setlinecap
10.0 ML
N
353.333 524 M
353.333 516.94 L
S
GR
GS
[0.75 0 0 0.75 0 0.25] CT
0.149 GC
2 setlinecap
10.0 ML
N
471 524 M
471 516.94 L
S
GR
GS
[0.75 0 0 0.75 0 0.25] CT
0.149 GC
2 setlinecap
10.0 ML
N
588.667 524 M
588.667 516.94 L
S
GR
GS
[0.75 0 0 0.75 0 0.25] CT
0.149 GC
2 setlinecap
10.0 ML
N
706.333 524 M
706.333 516.94 L
S
GR
GS
[0.75 0 0 0.75 0 0.25] CT
0.149 GC
2 setlinecap
10.0 ML
N
824 524 M
824 516.94 L
S
GR
GS
[0.75 0 0 0.75 0 0.25] CT
0.149 GC
2 setlinecap
10.0 ML
N
118 44 M
118 51.06 L
S
GR
GS
[0.75 0 0 0.75 0 0.25] CT
0.149 GC
2 setlinecap
10.0 ML
N
235.667 44 M
235.667 51.06 L
S
GR
GS
[0.75 0 0 0.75 0 0.25] CT
0.149 GC
2 setlinecap
10.0 ML
N
353.333 44 M
353.333 51.06 L
S
GR
GS
[0.75 0 0 0.75 0 0.25] CT
0.149 GC
2 setlinecap
10.0 ML
N
471 44 M
471 51.06 L
S
GR
GS
[0.75 0 0 0.75 0 0.25] CT
0.149 GC
2 setlinecap
10.0 ML
N
588.667 44 M
588.667 51.06 L
S
GR
GS
[0.75 0 0 0.75 0 0.25] CT
0.149 GC
2 setlinecap
10.0 ML
N
706.333 44 M
706.333 51.06 L
S
GR
GS
[0.75 0 0 0.75 0 0.25] CT
0.149 GC
2 setlinecap
10.0 ML
N
824 44 M
824 51.06 L
S
GR
GS
[0.75 0 0 0.75 88.5 398.45001] CT
0.149 GC
/Times-Roman 21 F
GS
[1 0 0 1 0 0] CT
-14 20 moveto 
1 -1 scale
(-60) t 
GR
GR
GS
[0.75 0 0 0.75 176.75 398.45001] CT
0.149 GC
/Times-Roman 21 F
GS
[1 0 0 1 0 0] CT
-14 20 moveto 
1 -1 scale
(-50) t 
GR
GR
GS
[0.75 0 0 0.75 265.00001 398.45001] CT
0.149 GC
/Times-Roman 21 F
GS
[1 0 0 1 0 0] CT
-14 20 moveto 
1 -1 scale
(-40) t 
GR
GR
GS
[0.75 0 0 0.75 353.25 398.45001] CT
0.149 GC
/Times-Roman 21 F
GS
[1 0 0 1 0 0] CT
-14 20 moveto 
1 -1 scale
(-30) t 
GR
GR
GS
[0.75 0 0 0.75 441.50002 398.45001] CT
0.149 GC
/Times-Roman 21 F
GS
[1 0 0 1 0 0] CT
-14 20 moveto 
1 -1 scale
(-20) t 
GR
GR
GS
[0.75 0 0 0.75 529.74998 398.45001] CT
0.149 GC
/Times-Roman 21 F
GS
[1 0 0 1 0 0] CT
-14 20 moveto 
1 -1 scale
(-10) t 
GR
GR
GS
[0.75 0 0 0.75 618 398.45001] CT
0.149 GC
/Times-Roman 21 F
GS
[1 0 0 1 0 0] CT
-5.5 20 moveto 
1 -1 scale
(0) t 
GR
GR
GS
[0 -0.75 0.75 0 64.54999 213.24982] CT
0.149 GC
/Times-Roman 23 F
GS
[1 0 0 1 0 0] CT
-193.5 -5 moveto 
1 -1 scale
(Capacity of the secondary user \(bits/s/Hz\)) t 
GR
GR
GS
[0.75 0 0 0.75 0 0.25] CT
0.149 GC
2 setlinecap
10.0 ML
N
118 524 M
118 44 L
S
GR
GS
[0.75 0 0 0.75 0 0.25] CT
0.149 GC
2 setlinecap
10.0 ML
N
824 524 M
824 44 L
S
GR
GS
[0.75 0 0 0.75 0 0.25] CT
0.149 GC
2 setlinecap
10.0 ML
N
118 524 M
125.06 524 L
S
GR
GS
[0.75 0 0 0.75 0 0.25] CT
0.149 GC
2 setlinecap
10.0 ML
N
118 464 M
125.06 464 L
S
GR
GS
[0.75 0 0 0.75 0 0.25] CT
0.149 GC
2 setlinecap
10.0 ML
N
118 404 M
125.06 404 L
S
GR
GS
[0.75 0 0 0.75 0 0.25] CT
0.149 GC
2 setlinecap
10.0 ML
N
118 344 M
125.06 344 L
S
GR
GS
[0.75 0 0 0.75 0 0.25] CT
0.149 GC
2 setlinecap
10.0 ML
N
118 284 M
125.06 284 L
S
GR
GS
[0.75 0 0 0.75 0 0.25] CT
0.149 GC
2 setlinecap
10.0 ML
N
118 224 M
125.06 224 L
S
GR
GS
[0.75 0 0 0.75 0 0.25] CT
0.149 GC
2 setlinecap
10.0 ML
N
118 164 M
125.06 164 L
S
GR
GS
[0.75 0 0 0.75 0 0.25] CT
0.149 GC
2 setlinecap
10.0 ML
N
118 104 M
125.06 104 L
S
GR
GS
[0.75 0 0 0.75 0 0.25] CT
0.149 GC
2 setlinecap
10.0 ML
N
118 44 M
125.06 44 L
S
GR
GS
[0.75 0 0 0.75 0 0.25] CT
0.149 GC
2 setlinecap
10.0 ML
N
824 524 M
816.94 524 L
S
GR
GS
[0.75 0 0 0.75 0 0.25] CT
0.149 GC
2 setlinecap
10.0 ML
N
824 464 M
816.94 464 L
S
GR
GS
[0.75 0 0 0.75 0 0.25] CT
0.149 GC
2 setlinecap
10.0 ML
N
824 404 M
816.94 404 L
S
GR
GS
[0.75 0 0 0.75 0 0.25] CT
0.149 GC
2 setlinecap
10.0 ML
N
824 344 M
816.94 344 L
S
GR
GS
[0.75 0 0 0.75 0 0.25] CT
0.149 GC
2 setlinecap
10.0 ML
N
824 284 M
816.94 284 L
S
GR
GS
[0.75 0 0 0.75 0 0.25] CT
0.149 GC
2 setlinecap
10.0 ML
N
824 224 M
816.94 224 L
S
GR
GS
[0.75 0 0 0.75 0 0.25] CT
0.149 GC
2 setlinecap
10.0 ML
N
824 164 M
816.94 164 L
S
GR
GS
[0.75 0 0 0.75 0 0.25] CT
0.149 GC
2 setlinecap
10.0 ML
N
824 104 M
816.94 104 L
S
GR
GS
[0.75 0 0 0.75 0 0.25] CT
0.149 GC
2 setlinecap
10.0 ML
N
824 44 M
816.94 44 L
S
GR
GS
[0.75 0 0 0.75 83.30002 393.25] CT
0.149 GC
/Times-Roman 21 F
GS
[1 0 0 1 0 0] CT
-11 7.5 moveto 
1 -1 scale
(2) t 
GR
GR
GS
[0.75 0 0 0.75 83.30002 348.25] CT
0.149 GC
/Times-Roman 21 F
GS
[1 0 0 1 0 0] CT
-11 7.5 moveto 
1 -1 scale
(4) t 
GR
GR
GS
[0.75 0 0 0.75 83.30002 303.25] CT
0.149 GC
/Times-Roman 21 F
GS
[1 0 0 1 0 0] CT
-11 7.5 moveto 
1 -1 scale
(6) t 
GR
GR
GS
[0.75 0 0 0.75 83.30002 258.25] CT
0.149 GC
/Times-Roman 21 F
GS
[1 0 0 1 0 0] CT
-11 7.5 moveto 
1 -1 scale
(8) t 
GR
GR
GS
[0.75 0 0 0.75 83.30002 213.25] CT
0.149 GC
/Times-Roman 21 F
GS
[1 0 0 1 0 0] CT
-21 7.5 moveto 
1 -1 scale
(10) t 
GR
GR
GS
[0.75 0 0 0.75 83.30002 168.25] CT
0.149 GC
/Times-Roman 21 F
GS
[1 0 0 1 0 0] CT
-21 7.5 moveto 
1 -1 scale
(12) t 
GR
GR
GS
[0.75 0 0 0.75 83.30002 123.25] CT
0.149 GC
/Times-Roman 21 F
GS
[1 0 0 1 0 0] CT
-21 7.5 moveto 
1 -1 scale
(14) t 
GR
GR
GS
[0.75 0 0 0.75 83.30002 78.25] CT
0.149 GC
/Times-Roman 21 F
GS
[1 0 0 1 0 0] CT
-21 7.5 moveto 
1 -1 scale
(16) t 
GR
GR
GS
[0.75 0 0 0.75 83.30002 33.25] CT
0.149 GC
/Times-Roman 21 F
GS
[1 0 0 1 0 0] CT
-21 7.5 moveto 
1 -1 scale
(18) t 
GR
GR
GS
[0.75 0 0 0.75 0 0.25] CT
0.851 0.325 0.098 RC
2 LJ
1.333 LW
N
118 240.48 M
129.767 238.099 L
141.533 235.762 L
153.3 233.205 L
165.067 230.57 L
176.833 227.792 L
188.6 224.865 L
200.367 221.816 L
212.133 218.744 L
223.9 215.478 L
235.667 212.208 L
247.433 208.868 L
259.2 205.379 L
270.967 201.922 L
282.733 198.428 L
294.5 194.904 L
306.267 191.356 L
318.033 187.79 L
329.8 184.211 L
341.567 180.62 L
353.333 177.023 L
365.1 173.422 L
376.867 169.819 L
388.633 166.218 L
400.4 162.622 L
412.167 159.032 L
423.933 155.454 L
435.7 151.891 L
447.467 148.346 L
459.233 144.82 L
471 141.316 L
482.767 137.841 L
494.533 134.317 L
506.3 130.919 L
518.067 127.577 L
529.833 124.303 L
541.6 121.109 L
553.367 117.932 L
565.133 114.94 L
576.9 111.993 L
588.667 109.246 L
600.433 106.584 L
612.2 103.971 L
623.967 101.542 L
635.733 99.479 L
647.5 97.457 L
659.267 95.575 L
671.033 94.105 L
682.8 92.838 L
694.567 92.013 L
S
GR
GS
[0.75 0 0 0.75 0 0.25] CT
0.851 0.325 0.098 RC
2 LJ
1.333 LW
N
694.567 92.013 M
706.333 91.371 L
718.1 90.909 L
729.867 90.702 L
741.633 90.629 L
753.4 90.614 L
765.167 90.614 L
776.933 90.614 L
788.7 90.614 L
800.467 90.614 L
812.233 90.614 L
824 90.614 L
S
GR
GS
[0.75 0 0 0.75 0 0.25] CT
0.851 0.325 0.098 RC
2 LJ
1.333 LW
N
114 240.5 M
123 240.5 L
S
GR
GS
[0.75 0 0 0.75 0 0.25] CT
0.851 0.325 0.098 RC
2 LJ
1.333 LW
N
118.5 245 M
118.5 236 L
S
GR
GS
[0.75 0 0 0.75 0 0.25] CT
0.851 0.325 0.098 RC
2 LJ
1.333 LW
N
125 238.5 M
134 238.5 L
S
GR
GS
[0.75 0 0 0.75 0 0.25] CT
0.851 0.325 0.098 RC
2 LJ
1.333 LW
N
129.5 243 M
129.5 234 L
S
GR
GS
[0.75 0 0 0.75 0 0.25] CT
0.851 0.325 0.098 RC
2 LJ
1.333 LW
N
137 235.5 M
146 235.5 L
S
GR
GS
[0.75 0 0 0.75 0 0.25] CT
0.851 0.325 0.098 RC
2 LJ
1.333 LW
N
141.5 240 M
141.5 231 L
S
GR
GS
[0.75 0 0 0.75 0 0.25] CT
0.851 0.325 0.098 RC
2 LJ
1.333 LW
N
149 233.5 M
158 233.5 L
S
GR
GS
[0.75 0 0 0.75 0 0.25] CT
0.851 0.325 0.098 RC
2 LJ
1.333 LW
N
153.5 238 M
153.5 229 L
S
GR
GS
[0.75 0 0 0.75 0 0.25] CT
0.851 0.325 0.098 RC
2 LJ
1.333 LW
N
161 230.5 M
170 230.5 L
S
GR
GS
[0.75 0 0 0.75 0 0.25] CT
0.851 0.325 0.098 RC
2 LJ
1.333 LW
N
165.5 235 M
165.5 226 L
S
GR
GS
[0.75 0 0 0.75 0 0.25] CT
0.851 0.325 0.098 RC
2 LJ
1.333 LW
N
172 227.5 M
181 227.5 L
S
GR
GS
[0.75 0 0 0.75 0 0.25] CT
0.851 0.325 0.098 RC
2 LJ
1.333 LW
N
176.5 232 M
176.5 223 L
S
GR
GS
[0.75 0 0 0.75 0 0.25] CT
0.851 0.325 0.098 RC
2 LJ
1.333 LW
N
184 224.5 M
193 224.5 L
S
GR
GS
[0.75 0 0 0.75 0 0.25] CT
0.851 0.325 0.098 RC
2 LJ
1.333 LW
N
188.5 229 M
188.5 220 L
S
GR
GS
[0.75 0 0 0.75 0 0.25] CT
0.851 0.325 0.098 RC
2 LJ
1.333 LW
N
196 221.5 M
205 221.5 L
S
GR
GS
[0.75 0 0 0.75 0 0.25] CT
0.851 0.325 0.098 RC
2 LJ
1.333 LW
N
200.5 226 M
200.5 217 L
S
GR
GS
[0.75 0 0 0.75 0 0.25] CT
0.851 0.325 0.098 RC
2 LJ
1.333 LW
N
208 218.5 M
217 218.5 L
S
GR
GS
[0.75 0 0 0.75 0 0.25] CT
0.851 0.325 0.098 RC
2 LJ
1.333 LW
N
212.5 223 M
212.5 214 L
S
GR
GS
[0.75 0 0 0.75 0 0.25] CT
0.851 0.325 0.098 RC
2 LJ
1.333 LW
N
219 215.5 M
228 215.5 L
S
GR
GS
[0.75 0 0 0.75 0 0.25] CT
0.851 0.325 0.098 RC
2 LJ
1.333 LW
N
223.5 220 M
223.5 211 L
S
GR
GS
[0.75 0 0 0.75 0 0.25] CT
0.851 0.325 0.098 RC
2 LJ
1.333 LW
N
231 212.5 M
240 212.5 L
S
GR
GS
[0.75 0 0 0.75 0 0.25] CT
0.851 0.325 0.098 RC
2 LJ
1.333 LW
N
235.5 217 M
235.5 208 L
S
GR
GS
[0.75 0 0 0.75 0 0.25] CT
0.851 0.325 0.098 RC
2 LJ
1.333 LW
N
243 208.5 M
252 208.5 L
S
GR
GS
[0.75 0 0 0.75 0 0.25] CT
0.851 0.325 0.098 RC
2 LJ
1.333 LW
N
247.5 213 M
247.5 204 L
S
GR
GS
[0.75 0 0 0.75 0 0.25] CT
0.851 0.325 0.098 RC
2 LJ
1.333 LW
N
255 205.5 M
264 205.5 L
S
GR
GS
[0.75 0 0 0.75 0 0.25] CT
0.851 0.325 0.098 RC
2 LJ
1.333 LW
N
259.5 210 M
259.5 201 L
S
GR
GS
[0.75 0 0 0.75 0 0.25] CT
0.851 0.325 0.098 RC
2 LJ
1.333 LW
N
266 201.5 M
275 201.5 L
S
GR
GS
[0.75 0 0 0.75 0 0.25] CT
0.851 0.325 0.098 RC
2 LJ
1.333 LW
N
270.5 206 M
270.5 197 L
S
GR
GS
[0.75 0 0 0.75 0 0.25] CT
0.851 0.325 0.098 RC
2 LJ
1.333 LW
N
278 198.5 M
287 198.5 L
S
GR
GS
[0.75 0 0 0.75 0 0.25] CT
0.851 0.325 0.098 RC
2 LJ
1.333 LW
N
282.5 203 M
282.5 194 L
S
GR
GS
[0.75 0 0 0.75 0 0.25] CT
0.851 0.325 0.098 RC
2 LJ
1.333 LW
N
290 194.5 M
299 194.5 L
S
GR
GS
[0.75 0 0 0.75 0 0.25] CT
0.851 0.325 0.098 RC
2 LJ
1.333 LW
N
294.5 199 M
294.5 190 L
S
GR
GS
[0.75 0 0 0.75 0 0.25] CT
0.851 0.325 0.098 RC
2 LJ
1.333 LW
N
302 191.5 M
311 191.5 L
S
GR
GS
[0.75 0 0 0.75 0 0.25] CT
0.851 0.325 0.098 RC
2 LJ
1.333 LW
N
306.5 196 M
306.5 187 L
S
GR
GS
[0.75 0 0 0.75 0 0.25] CT
0.851 0.325 0.098 RC
2 LJ
1.333 LW
N
314 187.5 M
323 187.5 L
S
GR
GS
[0.75 0 0 0.75 0 0.25] CT
0.851 0.325 0.098 RC
2 LJ
1.333 LW
N
318.5 192 M
318.5 183 L
S
GR
GS
[0.75 0 0 0.75 0 0.25] CT
0.851 0.325 0.098 RC
2 LJ
1.333 LW
N
325 184.5 M
334 184.5 L
S
GR
GS
[0.75 0 0 0.75 0 0.25] CT
0.851 0.325 0.098 RC
2 LJ
1.333 LW
N
329.5 189 M
329.5 180 L
S
GR
GS
[0.75 0 0 0.75 0 0.25] CT
0.851 0.325 0.098 RC
2 LJ
1.333 LW
N
337 180.5 M
346 180.5 L
S
GR
GS
[0.75 0 0 0.75 0 0.25] CT
0.851 0.325 0.098 RC
2 LJ
1.333 LW
N
341.5 185 M
341.5 176 L
S
GR
GS
[0.75 0 0 0.75 0 0.25] CT
0.851 0.325 0.098 RC
2 LJ
1.333 LW
N
349 177.5 M
358 177.5 L
S
GR
GS
[0.75 0 0 0.75 0 0.25] CT
0.851 0.325 0.098 RC
2 LJ
1.333 LW
N
353.5 182 M
353.5 173 L
S
GR
GS
[0.75 0 0 0.75 0 0.25] CT
0.851 0.325 0.098 RC
2 LJ
1.333 LW
N
361 173.5 M
370 173.5 L
S
GR
GS
[0.75 0 0 0.75 0 0.25] CT
0.851 0.325 0.098 RC
2 LJ
1.333 LW
N
365.5 178 M
365.5 169 L
S
GR
GS
[0.75 0 0 0.75 0 0.25] CT
0.851 0.325 0.098 RC
2 LJ
1.333 LW
N
372 169.5 M
381 169.5 L
S
GR
GS
[0.75 0 0 0.75 0 0.25] CT
0.851 0.325 0.098 RC
2 LJ
1.333 LW
N
376.5 174 M
376.5 165 L
S
GR
GS
[0.75 0 0 0.75 0 0.25] CT
0.851 0.325 0.098 RC
2 LJ
1.333 LW
N
384 166.5 M
393 166.5 L
S
GR
GS
[0.75 0 0 0.75 0 0.25] CT
0.851 0.325 0.098 RC
2 LJ
1.333 LW
N
388.5 171 M
388.5 162 L
S
GR
GS
[0.75 0 0 0.75 0 0.25] CT
0.851 0.325 0.098 RC
2 LJ
1.333 LW
N
396 162.5 M
405 162.5 L
S
GR
GS
[0.75 0 0 0.75 0 0.25] CT
0.851 0.325 0.098 RC
2 LJ
1.333 LW
N
400.5 167 M
400.5 158 L
S
GR
GS
[0.75 0 0 0.75 0 0.25] CT
0.851 0.325 0.098 RC
2 LJ
1.333 LW
N
408 159.5 M
417 159.5 L
S
GR
GS
[0.75 0 0 0.75 0 0.25] CT
0.851 0.325 0.098 RC
2 LJ
1.333 LW
N
412.5 164 M
412.5 155 L
S
GR
GS
[0.75 0 0 0.75 0 0.25] CT
0.851 0.325 0.098 RC
2 LJ
1.333 LW
N
419 155.5 M
428 155.5 L
S
GR
GS
[0.75 0 0 0.75 0 0.25] CT
0.851 0.325 0.098 RC
2 LJ
1.333 LW
N
423.5 160 M
423.5 151 L
S
GR
GS
[0.75 0 0 0.75 0 0.25] CT
0.851 0.325 0.098 RC
2 LJ
1.333 LW
N
431 151.5 M
440 151.5 L
S
GR
GS
[0.75 0 0 0.75 0 0.25] CT
0.851 0.325 0.098 RC
2 LJ
1.333 LW
N
435.5 156 M
435.5 147 L
S
GR
GS
[0.75 0 0 0.75 0 0.25] CT
0.851 0.325 0.098 RC
2 LJ
1.333 LW
N
443 148.5 M
452 148.5 L
S
GR
GS
[0.75 0 0 0.75 0 0.25] CT
0.851 0.325 0.098 RC
2 LJ
1.333 LW
N
447.5 153 M
447.5 144 L
S
GR
GS
[0.75 0 0 0.75 0 0.25] CT
0.851 0.325 0.098 RC
2 LJ
1.333 LW
N
455 144.5 M
464 144.5 L
S
GR
GS
[0.75 0 0 0.75 0 0.25] CT
0.851 0.325 0.098 RC
2 LJ
1.333 LW
N
459.5 149 M
459.5 140 L
S
GR
GS
[0.75 0 0 0.75 0 0.25] CT
0.851 0.325 0.098 RC
2 LJ
1.333 LW
N
467 141.5 M
476 141.5 L
S
GR
GS
[0.75 0 0 0.75 0 0.25] CT
0.851 0.325 0.098 RC
2 LJ
1.333 LW
N
471.5 146 M
471.5 137 L
S
GR
GS
[0.75 0 0 0.75 0 0.25] CT
0.851 0.325 0.098 RC
2 LJ
1.333 LW
N
478 137.5 M
487 137.5 L
S
GR
GS
[0.75 0 0 0.75 0 0.25] CT
0.851 0.325 0.098 RC
2 LJ
1.333 LW
N
482.5 142 M
482.5 133 L
S
GR
GS
[0.75 0 0 0.75 0 0.25] CT
0.851 0.325 0.098 RC
2 LJ
1.333 LW
N
490 134.5 M
499 134.5 L
S
GR
GS
[0.75 0 0 0.75 0 0.25] CT
0.851 0.325 0.098 RC
2 LJ
1.333 LW
N
494.5 139 M
494.5 130 L
S
GR
GS
[0.75 0 0 0.75 0 0.25] CT
0.851 0.325 0.098 RC
2 LJ
1.333 LW
N
502 130.5 M
511 130.5 L
S
GR
GS
[0.75 0 0 0.75 0 0.25] CT
0.851 0.325 0.098 RC
2 LJ
1.333 LW
N
506.5 135 M
506.5 126 L
S
GR
GS
[0.75 0 0 0.75 0 0.25] CT
0.851 0.325 0.098 RC
2 LJ
1.333 LW
N
514 127.5 M
523 127.5 L
S
GR
GS
[0.75 0 0 0.75 0 0.25] CT
0.851 0.325 0.098 RC
2 LJ
1.333 LW
N
518.5 132 M
518.5 123 L
S
GR
GS
[0.75 0 0 0.75 0 0.25] CT
0.851 0.325 0.098 RC
2 LJ
1.333 LW
N
525 124.5 M
534 124.5 L
S
GR
GS
[0.75 0 0 0.75 0 0.25] CT
0.851 0.325 0.098 RC
2 LJ
1.333 LW
N
529.5 129 M
529.5 120 L
S
GR
GS
[0.75 0 0 0.75 0 0.25] CT
0.851 0.325 0.098 RC
2 LJ
1.333 LW
N
537 121.5 M
546 121.5 L
S
GR
GS
[0.75 0 0 0.75 0 0.25] CT
0.851 0.325 0.098 RC
2 LJ
1.333 LW
N
541.5 126 M
541.5 117 L
S
GR
GS
[0.75 0 0 0.75 0 0.25] CT
0.851 0.325 0.098 RC
2 LJ
1.333 LW
N
549 117.5 M
558 117.5 L
S
GR
GS
[0.75 0 0 0.75 0 0.25] CT
0.851 0.325 0.098 RC
2 LJ
1.333 LW
N
553.5 122 M
553.5 113 L
S
GR
GS
[0.75 0 0 0.75 0 0.25] CT
0.851 0.325 0.098 RC
2 LJ
1.333 LW
N
561 114.5 M
570 114.5 L
S
GR
GS
[0.75 0 0 0.75 0 0.25] CT
0.851 0.325 0.098 RC
2 LJ
1.333 LW
N
565.5 119 M
565.5 110 L
S
GR
GS
[0.75 0 0 0.75 0 0.25] CT
0.851 0.325 0.098 RC
2 LJ
1.333 LW
N
572 111.5 M
581 111.5 L
S
GR
GS
[0.75 0 0 0.75 0 0.25] CT
0.851 0.325 0.098 RC
2 LJ
1.333 LW
N
576.5 116 M
576.5 107 L
S
GR
GS
[0.75 0 0 0.75 0 0.25] CT
0.851 0.325 0.098 RC
2 LJ
1.333 LW
N
584 109.5 M
593 109.5 L
S
GR
GS
[0.75 0 0 0.75 0 0.25] CT
0.851 0.325 0.098 RC
2 LJ
1.333 LW
N
588.5 114 M
588.5 105 L
S
GR
GS
[0.75 0 0 0.75 0 0.25] CT
0.851 0.325 0.098 RC
2 LJ
1.333 LW
N
596 106.5 M
605 106.5 L
S
GR
GS
[0.75 0 0 0.75 0 0.25] CT
0.851 0.325 0.098 RC
2 LJ
1.333 LW
N
600.5 111 M
600.5 102 L
S
GR
GS
[0.75 0 0 0.75 0 0.25] CT
0.851 0.325 0.098 RC
2 LJ
1.333 LW
N
608 103.5 M
617 103.5 L
S
GR
GS
[0.75 0 0 0.75 0 0.25] CT
0.851 0.325 0.098 RC
2 LJ
1.333 LW
N
612.5 108 M
612.5 99 L
S
GR
GS
[0.75 0 0 0.75 0 0.25] CT
0.851 0.325 0.098 RC
2 LJ
1.333 LW
N
619 101.5 M
628 101.5 L
S
GR
GS
[0.75 0 0 0.75 0 0.25] CT
0.851 0.325 0.098 RC
2 LJ
1.333 LW
N
623.5 106 M
623.5 97 L
S
GR
GS
[0.75 0 0 0.75 0 0.25] CT
0.851 0.325 0.098 RC
2 LJ
1.333 LW
N
631 99.5 M
640 99.5 L
S
GR
GS
[0.75 0 0 0.75 0 0.25] CT
0.851 0.325 0.098 RC
2 LJ
1.333 LW
N
635.5 104 M
635.5 95 L
S
GR
GS
[0.75 0 0 0.75 0 0.25] CT
0.851 0.325 0.098 RC
2 LJ
1.333 LW
N
643 97.5 M
652 97.5 L
S
GR
GS
[0.75 0 0 0.75 0 0.25] CT
0.851 0.325 0.098 RC
2 LJ
1.333 LW
N
647.5 102 M
647.5 93 L
S
GR
GS
[0.75 0 0 0.75 0 0.25] CT
0.851 0.325 0.098 RC
2 LJ
1.333 LW
N
655 95.5 M
664 95.5 L
S
GR
GS
[0.75 0 0 0.75 0 0.25] CT
0.851 0.325 0.098 RC
2 LJ
1.333 LW
N
659.5 100 M
659.5 91 L
S
GR
GS
[0.75 0 0 0.75 0 0.25] CT
0.851 0.325 0.098 RC
2 LJ
1.333 LW
N
667 94.5 M
676 94.5 L
S
GR
GS
[0.75 0 0 0.75 0 0.25] CT
0.851 0.325 0.098 RC
2 LJ
1.333 LW
N
671.5 99 M
671.5 90 L
S
GR
GS
[0.75 0 0 0.75 0 0.25] CT
0.851 0.325 0.098 RC
2 LJ
1.333 LW
N
678 92.5 M
687 92.5 L
S
GR
GS
[0.75 0 0 0.75 0 0.25] CT
0.851 0.325 0.098 RC
2 LJ
1.333 LW
N
682.5 97 M
682.5 88 L
S
GR
GS
[0.75 0 0 0.75 0 0.25] CT
0.851 0.325 0.098 RC
2 LJ
1.333 LW
N
690 92.5 M
699 92.5 L
S
GR
GS
[0.75 0 0 0.75 0 0.25] CT
0.851 0.325 0.098 RC
2 LJ
1.333 LW
N
694.5 97 M
694.5 88 L
S
GR
GS
[0.75 0 0 0.75 0 0.25] CT
0.851 0.325 0.098 RC
2 LJ
1.333 LW
N
702 91.5 M
711 91.5 L
S
GR
GS
[0.75 0 0 0.75 0 0.25] CT
0.851 0.325 0.098 RC
2 LJ
1.333 LW
N
706.5 96 M
706.5 87 L
S
GR
GS
[0.75 0 0 0.75 0 0.25] CT
0.851 0.325 0.098 RC
2 LJ
1.333 LW
N
714 90.5 M
723 90.5 L
S
GR
GS
[0.75 0 0 0.75 0 0.25] CT
0.851 0.325 0.098 RC
2 LJ
1.333 LW
N
718.5 95 M
718.5 86 L
S
GR
GS
[0.75 0 0 0.75 0 0.25] CT
0.851 0.325 0.098 RC
2 LJ
1.333 LW
N
725 90.5 M
734 90.5 L
S
GR
GS
[0.75 0 0 0.75 0 0.25] CT
0.851 0.325 0.098 RC
2 LJ
1.333 LW
N
729.5 95 M
729.5 86 L
S
GR
GS
[0.75 0 0 0.75 0 0.25] CT
0.851 0.325 0.098 RC
2 LJ
1.333 LW
N
737 90.5 M
746 90.5 L
S
GR
GS
[0.75 0 0 0.75 0 0.25] CT
0.851 0.325 0.098 RC
2 LJ
1.333 LW
N
741.5 95 M
741.5 86 L
S
GR
GS
[0.75 0 0 0.75 0 0.25] CT
0.851 0.325 0.098 RC
2 LJ
1.333 LW
N
749 90.5 M
758 90.5 L
S
GR
GS
[0.75 0 0 0.75 0 0.25] CT
0.851 0.325 0.098 RC
2 LJ
1.333 LW
N
753.5 95 M
753.5 86 L
S
GR
GS
[0.75 0 0 0.75 0 0.25] CT
0.851 0.325 0.098 RC
2 LJ
1.333 LW
N
761 90.5 M
770 90.5 L
S
GR
GS
[0.75 0 0 0.75 0 0.25] CT
0.851 0.325 0.098 RC
2 LJ
1.333 LW
N
765.5 95 M
765.5 86 L
S
GR
GS
[0.75 0 0 0.75 0 0.25] CT
0.851 0.325 0.098 RC
2 LJ
1.333 LW
N
772 90.5 M
781 90.5 L
S
GR
GS
[0.75 0 0 0.75 0 0.25] CT
0.851 0.325 0.098 RC
2 LJ
1.333 LW
N
776.5 95 M
776.5 86 L
S
GR
GS
[0.75 0 0 0.75 0 0.25] CT
0.851 0.325 0.098 RC
2 LJ
1.333 LW
N
784 90.5 M
793 90.5 L
S
GR
GS
[0.75 0 0 0.75 0 0.25] CT
0.851 0.325 0.098 RC
2 LJ
1.333 LW
N
788.5 95 M
788.5 86 L
S
GR
GS
[0.75 0 0 0.75 0 0.25] CT
0.851 0.325 0.098 RC
2 LJ
1.333 LW
N
796 90.5 M
805 90.5 L
S
GR
GS
[0.75 0 0 0.75 0 0.25] CT
0.851 0.325 0.098 RC
2 LJ
1.333 LW
N
800.5 95 M
800.5 86 L
S
GR
GS
[0.75 0 0 0.75 0 0.25] CT
0.851 0.325 0.098 RC
2 LJ
1.333 LW
N
808 90.5 M
817 90.5 L
S
GR
GS
[0.75 0 0 0.75 0 0.25] CT
0.851 0.325 0.098 RC
2 LJ
1.333 LW
N
812.5 95 M
812.5 86 L
S
GR
GS
[0.75 0 0 0.75 0 0.25] CT
0.851 0.325 0.098 RC
2 LJ
1.333 LW
N
820 90.5 M
829 90.5 L
S
GR
GS
[0.75 0 0 0.75 0 0.25] CT
0.851 0.325 0.098 RC
2 LJ
1.333 LW
N
824.5 95 M
824.5 86 L
S
GR
GS
[0.75 0 0 0.75 0 0.25] CT
0.851 0.325 0.098 RC
[10 6] 0 setdash
2 LJ
1.333 LW
N
118 485.742 M
129.767 479.598 L
141.533 473.316 L
153.3 466.902 L
165.067 460.363 L
176.833 453.704 L
188.6 446.93 L
200.367 440.034 L
212.133 433.009 L
223.9 425.847 L
235.667 418.532 L
247.433 411.049 L
259.2 403.403 L
270.967 395.599 L
282.733 387.61 L
294.5 379.413 L
306.267 371.021 L
318.033 362.446 L
329.8 353.693 L
341.567 344.756 L
353.333 335.648 L
365.1 326.395 L
376.867 317.014 L
388.633 307.526 L
400.4 297.949 L
412.167 288.296 L
423.933 278.58 L
435.7 268.814 L
447.467 259.007 L
459.233 249.169 L
471 239.304 L
482.767 229.419 L
494.533 219.517 L
506.3 209.747 L
518.067 200.227 L
529.833 190.964 L
541.6 182.139 L
553.367 173.75 L
565.133 165.939 L
576.9 158.636 L
588.667 151.939 L
600.433 145.909 L
612.2 140.022 L
623.967 134.414 L
635.733 129.778 L
647.5 125.314 L
659.267 120.79 L
671.033 117.211 L
682.8 113.38 L
694.567 109.988 L
706.333 106.768 L
718.1 103.941 L
729.867 101.314 L
741.633 99.043 L
753.4 97.071 L
765.167 95.385 L
776.933 94.073 L
788.7 93.04 L
800.467 92.15 L
812.233 91.554 L
824 91.234 L
S
GR
GS
[0.75 0 0 0.75 0 0.25] CT
0.851 0.325 0.098 RC
2 setlinecap
10.0 ML
1.333 LW
N
114 485.5 M
123 485.5 L
S
GR
GS
[0.75 0 0 0.75 0 0.25] CT
0.851 0.325 0.098 RC
2 setlinecap
10.0 ML
1.333 LW
N
118.5 490 M
118.5 481 L
S
GR
GS
[0.75 0 0 0.75 0 0.25] CT
0.851 0.325 0.098 RC
2 setlinecap
10.0 ML
1.333 LW
N
125 479.5 M
134 479.5 L
S
GR
GS
[0.75 0 0 0.75 0 0.25] CT
0.851 0.325 0.098 RC
2 setlinecap
10.0 ML
1.333 LW
N
129.5 484 M
129.5 475 L
S
GR
GS
[0.75 0 0 0.75 0 0.25] CT
0.851 0.325 0.098 RC
2 setlinecap
10.0 ML
1.333 LW
N
137 473.5 M
146 473.5 L
S
GR
GS
[0.75 0 0 0.75 0 0.25] CT
0.851 0.325 0.098 RC
2 setlinecap
10.0 ML
1.333 LW
N
141.5 478 M
141.5 469 L
S
GR
GS
[0.75 0 0 0.75 0 0.25] CT
0.851 0.325 0.098 RC
2 setlinecap
10.0 ML
1.333 LW
N
149 466.5 M
158 466.5 L
S
GR
GS
[0.75 0 0 0.75 0 0.25] CT
0.851 0.325 0.098 RC
2 setlinecap
10.0 ML
1.333 LW
N
153.5 471 M
153.5 462 L
S
GR
GS
[0.75 0 0 0.75 0 0.25] CT
0.851 0.325 0.098 RC
2 setlinecap
10.0 ML
1.333 LW
N
161 460.5 M
170 460.5 L
S
GR
GS
[0.75 0 0 0.75 0 0.25] CT
0.851 0.325 0.098 RC
2 setlinecap
10.0 ML
1.333 LW
N
165.5 465 M
165.5 456 L
S
GR
GS
[0.75 0 0 0.75 0 0.25] CT
0.851 0.325 0.098 RC
2 setlinecap
10.0 ML
1.333 LW
N
172 453.5 M
181 453.5 L
S
GR
GS
[0.75 0 0 0.75 0 0.25] CT
0.851 0.325 0.098 RC
2 setlinecap
10.0 ML
1.333 LW
N
176.5 458 M
176.5 449 L
S
GR
GS
[0.75 0 0 0.75 0 0.25] CT
0.851 0.325 0.098 RC
2 setlinecap
10.0 ML
1.333 LW
N
184 446.5 M
193 446.5 L
S
GR
GS
[0.75 0 0 0.75 0 0.25] CT
0.851 0.325 0.098 RC
2 setlinecap
10.0 ML
1.333 LW
N
188.5 451 M
188.5 442 L
S
GR
GS
[0.75 0 0 0.75 0 0.25] CT
0.851 0.325 0.098 RC
2 setlinecap
10.0 ML
1.333 LW
N
196 440.5 M
205 440.5 L
S
GR
GS
[0.75 0 0 0.75 0 0.25] CT
0.851 0.325 0.098 RC
2 setlinecap
10.0 ML
1.333 LW
N
200.5 445 M
200.5 436 L
S
GR
GS
[0.75 0 0 0.75 0 0.25] CT
0.851 0.325 0.098 RC
2 setlinecap
10.0 ML
1.333 LW
N
208 433.5 M
217 433.5 L
S
GR
GS
[0.75 0 0 0.75 0 0.25] CT
0.851 0.325 0.098 RC
2 setlinecap
10.0 ML
1.333 LW
N
212.5 438 M
212.5 429 L
S
GR
GS
[0.75 0 0 0.75 0 0.25] CT
0.851 0.325 0.098 RC
2 setlinecap
10.0 ML
1.333 LW
N
219 425.5 M
228 425.5 L
S
GR
GS
[0.75 0 0 0.75 0 0.25] CT
0.851 0.325 0.098 RC
2 setlinecap
10.0 ML
1.333 LW
N
223.5 430 M
223.5 421 L
S
GR
GS
[0.75 0 0 0.75 0 0.25] CT
0.851 0.325 0.098 RC
2 setlinecap
10.0 ML
1.333 LW
N
231 418.5 M
240 418.5 L
S
GR
GS
[0.75 0 0 0.75 0 0.25] CT
0.851 0.325 0.098 RC
2 setlinecap
10.0 ML
1.333 LW
N
235.5 423 M
235.5 414 L
S
GR
GS
[0.75 0 0 0.75 0 0.25] CT
0.851 0.325 0.098 RC
2 setlinecap
10.0 ML
1.333 LW
N
243 411.5 M
252 411.5 L
S
GR
GS
[0.75 0 0 0.75 0 0.25] CT
0.851 0.325 0.098 RC
2 setlinecap
10.0 ML
1.333 LW
N
247.5 416 M
247.5 407 L
S
GR
GS
[0.75 0 0 0.75 0 0.25] CT
0.851 0.325 0.098 RC
2 setlinecap
10.0 ML
1.333 LW
N
255 403.5 M
264 403.5 L
S
GR
GS
[0.75 0 0 0.75 0 0.25] CT
0.851 0.325 0.098 RC
2 setlinecap
10.0 ML
1.333 LW
N
259.5 408 M
259.5 399 L
S
GR
GS
[0.75 0 0 0.75 0 0.25] CT
0.851 0.325 0.098 RC
2 setlinecap
10.0 ML
1.333 LW
N
266 395.5 M
275 395.5 L
S
GR
GS
[0.75 0 0 0.75 0 0.25] CT
0.851 0.325 0.098 RC
2 setlinecap
10.0 ML
1.333 LW
N
270.5 400 M
270.5 391 L
S
GR
GS
[0.75 0 0 0.75 0 0.25] CT
0.851 0.325 0.098 RC
2 setlinecap
10.0 ML
1.333 LW
N
278 387.5 M
287 387.5 L
S
GR
GS
[0.75 0 0 0.75 0 0.25] CT
0.851 0.325 0.098 RC
2 setlinecap
10.0 ML
1.333 LW
N
282.5 392 M
282.5 383 L
S
GR
GS
[0.75 0 0 0.75 0 0.25] CT
0.851 0.325 0.098 RC
2 setlinecap
10.0 ML
1.333 LW
N
290 379.5 M
299 379.5 L
S
GR
GS
[0.75 0 0 0.75 0 0.25] CT
0.851 0.325 0.098 RC
2 setlinecap
10.0 ML
1.333 LW
N
294.5 384 M
294.5 375 L
S
GR
GS
[0.75 0 0 0.75 0 0.25] CT
0.851 0.325 0.098 RC
2 setlinecap
10.0 ML
1.333 LW
N
302 371.5 M
311 371.5 L
S
GR
GS
[0.75 0 0 0.75 0 0.25] CT
0.851 0.325 0.098 RC
2 setlinecap
10.0 ML
1.333 LW
N
306.5 376 M
306.5 367 L
S
GR
GS
[0.75 0 0 0.75 0 0.25] CT
0.851 0.325 0.098 RC
2 setlinecap
10.0 ML
1.333 LW
N
314 362.5 M
323 362.5 L
S
GR
GS
[0.75 0 0 0.75 0 0.25] CT
0.851 0.325 0.098 RC
2 setlinecap
10.0 ML
1.333 LW
N
318.5 367 M
318.5 358 L
S
GR
GS
[0.75 0 0 0.75 0 0.25] CT
0.851 0.325 0.098 RC
2 setlinecap
10.0 ML
1.333 LW
N
325 353.5 M
334 353.5 L
S
GR
GS
[0.75 0 0 0.75 0 0.25] CT
0.851 0.325 0.098 RC
2 setlinecap
10.0 ML
1.333 LW
N
329.5 358 M
329.5 349 L
S
GR
GS
[0.75 0 0 0.75 0 0.25] CT
0.851 0.325 0.098 RC
2 setlinecap
10.0 ML
1.333 LW
N
337 344.5 M
346 344.5 L
S
GR
GS
[0.75 0 0 0.75 0 0.25] CT
0.851 0.325 0.098 RC
2 setlinecap
10.0 ML
1.333 LW
N
341.5 349 M
341.5 340 L
S
GR
GS
[0.75 0 0 0.75 0 0.25] CT
0.851 0.325 0.098 RC
2 setlinecap
10.0 ML
1.333 LW
N
349 335.5 M
358 335.5 L
S
GR
GS
[0.75 0 0 0.75 0 0.25] CT
0.851 0.325 0.098 RC
2 setlinecap
10.0 ML
1.333 LW
N
353.5 340 M
353.5 331 L
S
GR
GS
[0.75 0 0 0.75 0 0.25] CT
0.851 0.325 0.098 RC
2 setlinecap
10.0 ML
1.333 LW
N
361 326.5 M
370 326.5 L
S
GR
GS
[0.75 0 0 0.75 0 0.25] CT
0.851 0.325 0.098 RC
2 setlinecap
10.0 ML
1.333 LW
N
365.5 331 M
365.5 322 L
S
GR
GS
[0.75 0 0 0.75 0 0.25] CT
0.851 0.325 0.098 RC
2 setlinecap
10.0 ML
1.333 LW
N
372 317.5 M
381 317.5 L
S
GR
GS
[0.75 0 0 0.75 0 0.25] CT
0.851 0.325 0.098 RC
2 setlinecap
10.0 ML
1.333 LW
N
376.5 322 M
376.5 313 L
S
GR
GS
[0.75 0 0 0.75 0 0.25] CT
0.851 0.325 0.098 RC
2 setlinecap
10.0 ML
1.333 LW
N
384 307.5 M
393 307.5 L
S
GR
GS
[0.75 0 0 0.75 0 0.25] CT
0.851 0.325 0.098 RC
2 setlinecap
10.0 ML
1.333 LW
N
388.5 312 M
388.5 303 L
S
GR
GS
[0.75 0 0 0.75 0 0.25] CT
0.851 0.325 0.098 RC
2 setlinecap
10.0 ML
1.333 LW
N
396 297.5 M
405 297.5 L
S
GR
GS
[0.75 0 0 0.75 0 0.25] CT
0.851 0.325 0.098 RC
2 setlinecap
10.0 ML
1.333 LW
N
400.5 302 M
400.5 293 L
S
GR
GS
[0.75 0 0 0.75 0 0.25] CT
0.851 0.325 0.098 RC
2 setlinecap
10.0 ML
1.333 LW
N
408 288.5 M
417 288.5 L
S
GR
GS
[0.75 0 0 0.75 0 0.25] CT
0.851 0.325 0.098 RC
2 setlinecap
10.0 ML
1.333 LW
N
412.5 293 M
412.5 284 L
S
GR
GS
[0.75 0 0 0.75 0 0.25] CT
0.851 0.325 0.098 RC
2 setlinecap
10.0 ML
1.333 LW
N
419 278.5 M
428 278.5 L
S
GR
GS
[0.75 0 0 0.75 0 0.25] CT
0.851 0.325 0.098 RC
2 setlinecap
10.0 ML
1.333 LW
N
423.5 283 M
423.5 274 L
S
GR
GS
[0.75 0 0 0.75 0 0.25] CT
0.851 0.325 0.098 RC
2 setlinecap
10.0 ML
1.333 LW
N
431 268.5 M
440 268.5 L
S
GR
GS
[0.75 0 0 0.75 0 0.25] CT
0.851 0.325 0.098 RC
2 setlinecap
10.0 ML
1.333 LW
N
435.5 273 M
435.5 264 L
S
GR
GS
[0.75 0 0 0.75 0 0.25] CT
0.851 0.325 0.098 RC
2 setlinecap
10.0 ML
1.333 LW
N
443 259.5 M
452 259.5 L
S
GR
GS
[0.75 0 0 0.75 0 0.25] CT
0.851 0.325 0.098 RC
2 setlinecap
10.0 ML
1.333 LW
N
447.5 264 M
447.5 255 L
S
GR
GS
[0.75 0 0 0.75 0 0.25] CT
0.851 0.325 0.098 RC
2 setlinecap
10.0 ML
1.333 LW
N
455 249.5 M
464 249.5 L
S
GR
GS
[0.75 0 0 0.75 0 0.25] CT
0.851 0.325 0.098 RC
2 setlinecap
10.0 ML
1.333 LW
N
459.5 254 M
459.5 245 L
S
GR
GS
[0.75 0 0 0.75 0 0.25] CT
0.851 0.325 0.098 RC
2 setlinecap
10.0 ML
1.333 LW
N
467 239.5 M
476 239.5 L
S
GR
GS
[0.75 0 0 0.75 0 0.25] CT
0.851 0.325 0.098 RC
2 setlinecap
10.0 ML
1.333 LW
N
471.5 244 M
471.5 235 L
S
GR
GS
[0.75 0 0 0.75 0 0.25] CT
0.851 0.325 0.098 RC
2 setlinecap
10.0 ML
1.333 LW
N
478 229.5 M
487 229.5 L
S
GR
GS
[0.75 0 0 0.75 0 0.25] CT
0.851 0.325 0.098 RC
2 setlinecap
10.0 ML
1.333 LW
N
482.5 234 M
482.5 225 L
S
GR
GS
[0.75 0 0 0.75 0 0.25] CT
0.851 0.325 0.098 RC
2 setlinecap
10.0 ML
1.333 LW
N
490 219.5 M
499 219.5 L
S
GR
GS
[0.75 0 0 0.75 0 0.25] CT
0.851 0.325 0.098 RC
2 setlinecap
10.0 ML
1.333 LW
N
494.5 224 M
494.5 215 L
S
GR
GS
[0.75 0 0 0.75 0 0.25] CT
0.851 0.325 0.098 RC
2 setlinecap
10.0 ML
1.333 LW
N
502 209.5 M
511 209.5 L
S
GR
GS
[0.75 0 0 0.75 0 0.25] CT
0.851 0.325 0.098 RC
2 setlinecap
10.0 ML
1.333 LW
N
506.5 214 M
506.5 205 L
S
GR
GS
[0.75 0 0 0.75 0 0.25] CT
0.851 0.325 0.098 RC
2 setlinecap
10.0 ML
1.333 LW
N
514 200.5 M
523 200.5 L
S
GR
GS
[0.75 0 0 0.75 0 0.25] CT
0.851 0.325 0.098 RC
2 setlinecap
10.0 ML
1.333 LW
N
518.5 205 M
518.5 196 L
S
GR
GS
[0.75 0 0 0.75 0 0.25] CT
0.851 0.325 0.098 RC
2 setlinecap
10.0 ML
1.333 LW
N
525 190.5 M
534 190.5 L
S
GR
GS
[0.75 0 0 0.75 0 0.25] CT
0.851 0.325 0.098 RC
2 setlinecap
10.0 ML
1.333 LW
N
529.5 195 M
529.5 186 L
S
GR
GS
[0.75 0 0 0.75 0 0.25] CT
0.851 0.325 0.098 RC
2 setlinecap
10.0 ML
1.333 LW
N
537 182.5 M
546 182.5 L
S
GR
GS
[0.75 0 0 0.75 0 0.25] CT
0.851 0.325 0.098 RC
2 setlinecap
10.0 ML
1.333 LW
N
541.5 187 M
541.5 178 L
S
GR
GS
[0.75 0 0 0.75 0 0.25] CT
0.851 0.325 0.098 RC
2 setlinecap
10.0 ML
1.333 LW
N
549 173.5 M
558 173.5 L
S
GR
GS
[0.75 0 0 0.75 0 0.25] CT
0.851 0.325 0.098 RC
2 setlinecap
10.0 ML
1.333 LW
N
553.5 178 M
553.5 169 L
S
GR
GS
[0.75 0 0 0.75 0 0.25] CT
0.851 0.325 0.098 RC
2 setlinecap
10.0 ML
1.333 LW
N
561 165.5 M
570 165.5 L
S
GR
GS
[0.75 0 0 0.75 0 0.25] CT
0.851 0.325 0.098 RC
2 setlinecap
10.0 ML
1.333 LW
N
565.5 170 M
565.5 161 L
S
GR
GS
[0.75 0 0 0.75 0 0.25] CT
0.851 0.325 0.098 RC
2 setlinecap
10.0 ML
1.333 LW
N
572 158.5 M
581 158.5 L
S
GR
GS
[0.75 0 0 0.75 0 0.25] CT
0.851 0.325 0.098 RC
2 setlinecap
10.0 ML
1.333 LW
N
576.5 163 M
576.5 154 L
S
GR
GS
[0.75 0 0 0.75 0 0.25] CT
0.851 0.325 0.098 RC
2 setlinecap
10.0 ML
1.333 LW
N
584 151.5 M
593 151.5 L
S
GR
GS
[0.75 0 0 0.75 0 0.25] CT
0.851 0.325 0.098 RC
2 setlinecap
10.0 ML
1.333 LW
N
588.5 156 M
588.5 147 L
S
GR
GS
[0.75 0 0 0.75 0 0.25] CT
0.851 0.325 0.098 RC
2 setlinecap
10.0 ML
1.333 LW
N
596 145.5 M
605 145.5 L
S
GR
GS
[0.75 0 0 0.75 0 0.25] CT
0.851 0.325 0.098 RC
2 setlinecap
10.0 ML
1.333 LW
N
600.5 150 M
600.5 141 L
S
GR
GS
[0.75 0 0 0.75 0 0.25] CT
0.851 0.325 0.098 RC
2 setlinecap
10.0 ML
1.333 LW
N
608 140.5 M
617 140.5 L
S
GR
GS
[0.75 0 0 0.75 0 0.25] CT
0.851 0.325 0.098 RC
2 setlinecap
10.0 ML
1.333 LW
N
612.5 145 M
612.5 136 L
S
GR
GS
[0.75 0 0 0.75 0 0.25] CT
0.851 0.325 0.098 RC
2 setlinecap
10.0 ML
1.333 LW
N
619 134.5 M
628 134.5 L
S
GR
GS
[0.75 0 0 0.75 0 0.25] CT
0.851 0.325 0.098 RC
2 setlinecap
10.0 ML
1.333 LW
N
623.5 139 M
623.5 130 L
S
GR
GS
[0.75 0 0 0.75 0 0.25] CT
0.851 0.325 0.098 RC
2 setlinecap
10.0 ML
1.333 LW
N
631 129.5 M
640 129.5 L
S
GR
GS
[0.75 0 0 0.75 0 0.25] CT
0.851 0.325 0.098 RC
2 setlinecap
10.0 ML
1.333 LW
N
635.5 134 M
635.5 125 L
S
GR
GS
[0.75 0 0 0.75 0 0.25] CT
0.851 0.325 0.098 RC
2 setlinecap
10.0 ML
1.333 LW
N
643 125.5 M
652 125.5 L
S
GR
GS
[0.75 0 0 0.75 0 0.25] CT
0.851 0.325 0.098 RC
2 setlinecap
10.0 ML
1.333 LW
N
647.5 130 M
647.5 121 L
S
GR
GS
[0.75 0 0 0.75 0 0.25] CT
0.851 0.325 0.098 RC
2 setlinecap
10.0 ML
1.333 LW
N
655 120.5 M
664 120.5 L
S
GR
GS
[0.75 0 0 0.75 0 0.25] CT
0.851 0.325 0.098 RC
2 setlinecap
10.0 ML
1.333 LW
N
659.5 125 M
659.5 116 L
S
GR
GS
[0.75 0 0 0.75 0 0.25] CT
0.851 0.325 0.098 RC
2 setlinecap
10.0 ML
1.333 LW
N
667 117.5 M
676 117.5 L
S
GR
GS
[0.75 0 0 0.75 0 0.25] CT
0.851 0.325 0.098 RC
2 setlinecap
10.0 ML
1.333 LW
N
671.5 122 M
671.5 113 L
S
GR
GS
[0.75 0 0 0.75 0 0.25] CT
0.851 0.325 0.098 RC
2 setlinecap
10.0 ML
1.333 LW
N
678 113.5 M
687 113.5 L
S
GR
GS
[0.75 0 0 0.75 0 0.25] CT
0.851 0.325 0.098 RC
2 setlinecap
10.0 ML
1.333 LW
N
682.5 118 M
682.5 109 L
S
GR
GS
[0.75 0 0 0.75 0 0.25] CT
0.851 0.325 0.098 RC
2 setlinecap
10.0 ML
1.333 LW
N
690 109.5 M
699 109.5 L
S
GR
GS
[0.75 0 0 0.75 0 0.25] CT
0.851 0.325 0.098 RC
2 setlinecap
10.0 ML
1.333 LW
N
694.5 114 M
694.5 105 L
S
GR
GS
[0.75 0 0 0.75 0 0.25] CT
0.851 0.325 0.098 RC
2 setlinecap
10.0 ML
1.333 LW
N
702 106.5 M
711 106.5 L
S
GR
GS
[0.75 0 0 0.75 0 0.25] CT
0.851 0.325 0.098 RC
2 setlinecap
10.0 ML
1.333 LW
N
706.5 111 M
706.5 102 L
S
GR
GS
[0.75 0 0 0.75 0 0.25] CT
0.851 0.325 0.098 RC
2 setlinecap
10.0 ML
1.333 LW
N
714 103.5 M
723 103.5 L
S
GR
GS
[0.75 0 0 0.75 0 0.25] CT
0.851 0.325 0.098 RC
2 setlinecap
10.0 ML
1.333 LW
N
718.5 108 M
718.5 99 L
S
GR
GS
[0.75 0 0 0.75 0 0.25] CT
0.851 0.325 0.098 RC
2 setlinecap
10.0 ML
1.333 LW
N
725 101.5 M
734 101.5 L
S
GR
GS
[0.75 0 0 0.75 0 0.25] CT
0.851 0.325 0.098 RC
2 setlinecap
10.0 ML
1.333 LW
N
729.5 106 M
729.5 97 L
S
GR
GS
[0.75 0 0 0.75 0 0.25] CT
0.851 0.325 0.098 RC
2 setlinecap
10.0 ML
1.333 LW
N
737 99.5 M
746 99.5 L
S
GR
GS
[0.75 0 0 0.75 0 0.25] CT
0.851 0.325 0.098 RC
2 setlinecap
10.0 ML
1.333 LW
N
741.5 104 M
741.5 95 L
S
GR
GS
[0.75 0 0 0.75 0 0.25] CT
0.851 0.325 0.098 RC
2 setlinecap
10.0 ML
1.333 LW
N
749 97.5 M
758 97.5 L
S
GR
GS
[0.75 0 0 0.75 0 0.25] CT
0.851 0.325 0.098 RC
2 setlinecap
10.0 ML
1.333 LW
N
753.5 102 M
753.5 93 L
S
GR
GS
[0.75 0 0 0.75 0 0.25] CT
0.851 0.325 0.098 RC
2 setlinecap
10.0 ML
1.333 LW
N
761 95.5 M
770 95.5 L
S
GR
GS
[0.75 0 0 0.75 0 0.25] CT
0.851 0.325 0.098 RC
2 setlinecap
10.0 ML
1.333 LW
N
765.5 100 M
765.5 91 L
S
GR
GS
[0.75 0 0 0.75 0 0.25] CT
0.851 0.325 0.098 RC
2 setlinecap
10.0 ML
1.333 LW
N
772 94.5 M
781 94.5 L
S
GR
GS
[0.75 0 0 0.75 0 0.25] CT
0.851 0.325 0.098 RC
2 setlinecap
10.0 ML
1.333 LW
N
776.5 99 M
776.5 90 L
S
GR
GS
[0.75 0 0 0.75 0 0.25] CT
0.851 0.325 0.098 RC
2 setlinecap
10.0 ML
1.333 LW
N
784 93.5 M
793 93.5 L
S
GR
GS
[0.75 0 0 0.75 0 0.25] CT
0.851 0.325 0.098 RC
2 setlinecap
10.0 ML
1.333 LW
N
788.5 98 M
788.5 89 L
S
GR
GS
[0.75 0 0 0.75 0 0.25] CT
0.851 0.325 0.098 RC
2 setlinecap
10.0 ML
1.333 LW
N
796 92.5 M
805 92.5 L
S
GR
GS
[0.75 0 0 0.75 0 0.25] CT
0.851 0.325 0.098 RC
2 setlinecap
10.0 ML
1.333 LW
N
800.5 97 M
800.5 88 L
S
GR
GS
[0.75 0 0 0.75 0 0.25] CT
0.851 0.325 0.098 RC
2 setlinecap
10.0 ML
1.333 LW
N
808 91.5 M
817 91.5 L
S
GR
GS
[0.75 0 0 0.75 0 0.25] CT
0.851 0.325 0.098 RC
2 setlinecap
10.0 ML
1.333 LW
N
812.5 96 M
812.5 87 L
S
GR
GS
[0.75 0 0 0.75 0 0.25] CT
0.851 0.325 0.098 RC
2 setlinecap
10.0 ML
1.333 LW
N
820 91.5 M
829 91.5 L
S
GR
GS
[0.75 0 0 0.75 0 0.25] CT
0.851 0.325 0.098 RC
2 setlinecap
10.0 ML
1.333 LW
N
824.5 96 M
824.5 87 L
S
GR
GS
[0.75 0 0 0.75 0 0.25] CT
0 0.447 0.741 RC
[8 3 2 3] 0 setdash
2 LJ
1.333 LW
N
118 498.548 M
129.767 492.822 L
141.533 486.911 L
153.3 480.814 L
165.067 474.525 L
176.833 468.051 L
188.6 461.402 L
200.367 454.588 L
212.133 447.596 L
223.9 440.428 L
235.667 433.089 L
247.433 425.566 L
259.2 417.846 L
270.967 409.914 L
282.733 401.773 L
294.5 393.429 L
306.267 384.889 L
318.033 376.16 L
329.8 367.245 L
341.567 358.15 L
353.333 348.9 L
365.1 339.516 L
376.867 330.02 L
388.633 320.431 L
400.4 310.767 L
412.167 301.042 L
423.933 291.269 L
435.7 281.457 L
447.467 271.619 L
459.233 261.767 L
471 251.905 L
482.767 242.04 L
494.533 232.179 L
506.3 222.341 L
518.067 212.511 L
529.833 202.734 L
541.6 193.145 L
553.367 183.775 L
565.133 174.738 L
576.9 166.174 L
588.667 158.025 L
600.433 150.576 L
612.2 143.751 L
623.967 137.352 L
635.733 131.393 L
647.5 125.726 L
659.267 120.713 L
671.033 116.217 L
682.8 112.001 L
694.567 108.408 L
706.333 105.126 L
718.1 102.174 L
729.867 99.579 L
741.633 97.234 L
753.4 95.439 L
765.167 94.007 L
776.933 92.67 L
788.7 91.928 L
800.467 91.346 L
812.233 91.133 L
824 91.031 L
S
GR
GS
[0.75 0 0 0.75 0 0.25] CT
0 0.447 0.741 RC
2 setlinecap
10.0 ML
1.333 LW
N
122.5 498.5 M
121.736 496.149 L
119.736 494.696 L
117.264 494.696 L
115.264 496.149 L
114.5 498.5 L
115.264 500.851 L
117.264 502.304 L
119.736 502.304 L
121.736 500.851 L
122.5 498.5 L
S
GR
GS
[0.75 0 0 0.75 0 0.25] CT
0 0.447 0.741 RC
2 setlinecap
10.0 ML
1.333 LW
N
133.5 492.5 M
132.736 490.149 L
130.736 488.696 L
128.264 488.696 L
126.264 490.149 L
125.5 492.5 L
126.264 494.851 L
128.264 496.304 L
130.736 496.304 L
132.736 494.851 L
133.5 492.5 L
S
GR
GS
[0.75 0 0 0.75 0 0.25] CT
0 0.447 0.741 RC
2 setlinecap
10.0 ML
1.333 LW
N
145.5 486.5 M
144.736 484.149 L
142.736 482.696 L
140.264 482.696 L
138.264 484.149 L
137.5 486.5 L
138.264 488.851 L
140.264 490.304 L
142.736 490.304 L
144.736 488.851 L
145.5 486.5 L
S
GR
GS
[0.75 0 0 0.75 0 0.25] CT
0 0.447 0.741 RC
2 setlinecap
10.0 ML
1.333 LW
N
157.5 480.5 M
156.736 478.149 L
154.736 476.696 L
152.264 476.696 L
150.264 478.149 L
149.5 480.5 L
150.264 482.851 L
152.264 484.304 L
154.736 484.304 L
156.736 482.851 L
157.5 480.5 L
S
GR
GS
[0.75 0 0 0.75 0 0.25] CT
0 0.447 0.741 RC
2 setlinecap
10.0 ML
1.333 LW
N
169.5 474.5 M
168.736 472.149 L
166.736 470.696 L
164.264 470.696 L
162.264 472.149 L
161.5 474.5 L
162.264 476.851 L
164.264 478.304 L
166.736 478.304 L
168.736 476.851 L
169.5 474.5 L
S
GR
GS
[0.75 0 0 0.75 0 0.25] CT
0 0.447 0.741 RC
2 setlinecap
10.0 ML
1.333 LW
N
180.5 468.5 M
179.736 466.149 L
177.736 464.696 L
175.264 464.696 L
173.264 466.149 L
172.5 468.5 L
173.264 470.851 L
175.264 472.304 L
177.736 472.304 L
179.736 470.851 L
180.5 468.5 L
S
GR
GS
[0.75 0 0 0.75 0 0.25] CT
0 0.447 0.741 RC
2 setlinecap
10.0 ML
1.333 LW
N
192.5 461.5 M
191.736 459.149 L
189.736 457.696 L
187.264 457.696 L
185.264 459.149 L
184.5 461.5 L
185.264 463.851 L
187.264 465.304 L
189.736 465.304 L
191.736 463.851 L
192.5 461.5 L
S
GR
GS
[0.75 0 0 0.75 0 0.25] CT
0 0.447 0.741 RC
2 setlinecap
10.0 ML
1.333 LW
N
204.5 454.5 M
203.736 452.149 L
201.736 450.696 L
199.264 450.696 L
197.264 452.149 L
196.5 454.5 L
197.264 456.851 L
199.264 458.304 L
201.736 458.304 L
203.736 456.851 L
204.5 454.5 L
S
GR
GS
[0.75 0 0 0.75 0 0.25] CT
0 0.447 0.741 RC
2 setlinecap
10.0 ML
1.333 LW
N
216.5 447.5 M
215.736 445.149 L
213.736 443.696 L
211.264 443.696 L
209.264 445.149 L
208.5 447.5 L
209.264 449.851 L
211.264 451.304 L
213.736 451.304 L
215.736 449.851 L
216.5 447.5 L
S
GR
GS
[0.75 0 0 0.75 0 0.25] CT
0 0.447 0.741 RC
2 setlinecap
10.0 ML
1.333 LW
N
227.5 440.5 M
226.736 438.149 L
224.736 436.696 L
222.264 436.696 L
220.264 438.149 L
219.5 440.5 L
220.264 442.851 L
222.264 444.304 L
224.736 444.304 L
226.736 442.851 L
227.5 440.5 L
S
GR
GS
[0.75 0 0 0.75 0 0.25] CT
0 0.447 0.741 RC
2 setlinecap
10.0 ML
1.333 LW
N
239.5 433.5 M
238.736 431.149 L
236.736 429.696 L
234.264 429.696 L
232.264 431.149 L
231.5 433.5 L
232.264 435.851 L
234.264 437.304 L
236.736 437.304 L
238.736 435.851 L
239.5 433.5 L
S
GR
GS
[0.75 0 0 0.75 0 0.25] CT
0 0.447 0.741 RC
2 setlinecap
10.0 ML
1.333 LW
N
251.5 425.5 M
250.736 423.149 L
248.736 421.696 L
246.264 421.696 L
244.264 423.149 L
243.5 425.5 L
244.264 427.851 L
246.264 429.304 L
248.736 429.304 L
250.736 427.851 L
251.5 425.5 L
S
GR
GS
[0.75 0 0 0.75 0 0.25] CT
0 0.447 0.741 RC
2 setlinecap
10.0 ML
1.333 LW
N
263.5 417.5 M
262.736 415.149 L
260.736 413.696 L
258.264 413.696 L
256.264 415.149 L
255.5 417.5 L
256.264 419.851 L
258.264 421.304 L
260.736 421.304 L
262.736 419.851 L
263.5 417.5 L
S
GR
GS
[0.75 0 0 0.75 0 0.25] CT
0 0.447 0.741 RC
2 setlinecap
10.0 ML
1.333 LW
N
274.5 409.5 M
273.736 407.149 L
271.736 405.696 L
269.264 405.696 L
267.264 407.149 L
266.5 409.5 L
267.264 411.851 L
269.264 413.304 L
271.736 413.304 L
273.736 411.851 L
274.5 409.5 L
S
GR
GS
[0.75 0 0 0.75 0 0.25] CT
0 0.447 0.741 RC
2 setlinecap
10.0 ML
1.333 LW
N
286.5 401.5 M
285.736 399.149 L
283.736 397.696 L
281.264 397.696 L
279.264 399.149 L
278.5 401.5 L
279.264 403.851 L
281.264 405.304 L
283.736 405.304 L
285.736 403.851 L
286.5 401.5 L
S
GR
GS
[0.75 0 0 0.75 0 0.25] CT
0 0.447 0.741 RC
2 setlinecap
10.0 ML
1.333 LW
N
298.5 393.5 M
297.736 391.149 L
295.736 389.696 L
293.264 389.696 L
291.264 391.149 L
290.5 393.5 L
291.264 395.851 L
293.264 397.304 L
295.736 397.304 L
297.736 395.851 L
298.5 393.5 L
S
GR
GS
[0.75 0 0 0.75 0 0.25] CT
0 0.447 0.741 RC
2 setlinecap
10.0 ML
1.333 LW
N
310.5 384.5 M
309.736 382.149 L
307.736 380.696 L
305.264 380.696 L
303.264 382.149 L
302.5 384.5 L
303.264 386.851 L
305.264 388.304 L
307.736 388.304 L
309.736 386.851 L
310.5 384.5 L
S
GR
GS
[0.75 0 0 0.75 0 0.25] CT
0 0.447 0.741 RC
2 setlinecap
10.0 ML
1.333 LW
N
322.5 376.5 M
321.736 374.149 L
319.736 372.696 L
317.264 372.696 L
315.264 374.149 L
314.5 376.5 L
315.264 378.851 L
317.264 380.304 L
319.736 380.304 L
321.736 378.851 L
322.5 376.5 L
S
GR
GS
[0.75 0 0 0.75 0 0.25] CT
0 0.447 0.741 RC
2 setlinecap
10.0 ML
1.333 LW
N
333.5 367.5 M
332.736 365.149 L
330.736 363.696 L
328.264 363.696 L
326.264 365.149 L
325.5 367.5 L
326.264 369.851 L
328.264 371.304 L
330.736 371.304 L
332.736 369.851 L
333.5 367.5 L
S
GR
GS
[0.75 0 0 0.75 0 0.25] CT
0 0.447 0.741 RC
2 setlinecap
10.0 ML
1.333 LW
N
345.5 358.5 M
344.736 356.149 L
342.736 354.696 L
340.264 354.696 L
338.264 356.149 L
337.5 358.5 L
338.264 360.851 L
340.264 362.304 L
342.736 362.304 L
344.736 360.851 L
345.5 358.5 L
S
GR
GS
[0.75 0 0 0.75 0 0.25] CT
0 0.447 0.741 RC
2 setlinecap
10.0 ML
1.333 LW
N
357.5 348.5 M
356.736 346.149 L
354.736 344.696 L
352.264 344.696 L
350.264 346.149 L
349.5 348.5 L
350.264 350.851 L
352.264 352.304 L
354.736 352.304 L
356.736 350.851 L
357.5 348.5 L
S
GR
GS
[0.75 0 0 0.75 0 0.25] CT
0 0.447 0.741 RC
2 setlinecap
10.0 ML
1.333 LW
N
369.5 339.5 M
368.736 337.149 L
366.736 335.696 L
364.264 335.696 L
362.264 337.149 L
361.5 339.5 L
362.264 341.851 L
364.264 343.304 L
366.736 343.304 L
368.736 341.851 L
369.5 339.5 L
S
GR
GS
[0.75 0 0 0.75 0 0.25] CT
0 0.447 0.741 RC
2 setlinecap
10.0 ML
1.333 LW
N
380.5 330.5 M
379.736 328.149 L
377.736 326.696 L
375.264 326.696 L
373.264 328.149 L
372.5 330.5 L
373.264 332.851 L
375.264 334.304 L
377.736 334.304 L
379.736 332.851 L
380.5 330.5 L
S
GR
GS
[0.75 0 0 0.75 0 0.25] CT
0 0.447 0.741 RC
2 setlinecap
10.0 ML
1.333 LW
N
392.5 320.5 M
391.736 318.149 L
389.736 316.696 L
387.264 316.696 L
385.264 318.149 L
384.5 320.5 L
385.264 322.851 L
387.264 324.304 L
389.736 324.304 L
391.736 322.851 L
392.5 320.5 L
S
GR
GS
[0.75 0 0 0.75 0 0.25] CT
0 0.447 0.741 RC
2 setlinecap
10.0 ML
1.333 LW
N
404.5 310.5 M
403.736 308.149 L
401.736 306.696 L
399.264 306.696 L
397.264 308.149 L
396.5 310.5 L
397.264 312.851 L
399.264 314.304 L
401.736 314.304 L
403.736 312.851 L
404.5 310.5 L
S
GR
GS
[0.75 0 0 0.75 0 0.25] CT
0 0.447 0.741 RC
2 setlinecap
10.0 ML
1.333 LW
N
416.5 301.5 M
415.736 299.149 L
413.736 297.696 L
411.264 297.696 L
409.264 299.149 L
408.5 301.5 L
409.264 303.851 L
411.264 305.304 L
413.736 305.304 L
415.736 303.851 L
416.5 301.5 L
S
GR
GS
[0.75 0 0 0.75 0 0.25] CT
0 0.447 0.741 RC
2 setlinecap
10.0 ML
1.333 LW
N
427.5 291.5 M
426.736 289.149 L
424.736 287.696 L
422.264 287.696 L
420.264 289.149 L
419.5 291.5 L
420.264 293.851 L
422.264 295.304 L
424.736 295.304 L
426.736 293.851 L
427.5 291.5 L
S
GR
GS
[0.75 0 0 0.75 0 0.25] CT
0 0.447 0.741 RC
2 setlinecap
10.0 ML
1.333 LW
N
439.5 281.5 M
438.736 279.149 L
436.736 277.696 L
434.264 277.696 L
432.264 279.149 L
431.5 281.5 L
432.264 283.851 L
434.264 285.304 L
436.736 285.304 L
438.736 283.851 L
439.5 281.5 L
S
GR
GS
[0.75 0 0 0.75 0 0.25] CT
0 0.447 0.741 RC
2 setlinecap
10.0 ML
1.333 LW
N
451.5 271.5 M
450.736 269.149 L
448.736 267.696 L
446.264 267.696 L
444.264 269.149 L
443.5 271.5 L
444.264 273.851 L
446.264 275.304 L
448.736 275.304 L
450.736 273.851 L
451.5 271.5 L
S
GR
GS
[0.75 0 0 0.75 0 0.25] CT
0 0.447 0.741 RC
2 setlinecap
10.0 ML
1.333 LW
N
463.5 261.5 M
462.736 259.149 L
460.736 257.696 L
458.264 257.696 L
456.264 259.149 L
455.5 261.5 L
456.264 263.851 L
458.264 265.304 L
460.736 265.304 L
462.736 263.851 L
463.5 261.5 L
S
GR
GS
[0.75 0 0 0.75 0 0.25] CT
0 0.447 0.741 RC
2 setlinecap
10.0 ML
1.333 LW
N
475.5 251.5 M
474.736 249.149 L
472.736 247.696 L
470.264 247.696 L
468.264 249.149 L
467.5 251.5 L
468.264 253.851 L
470.264 255.304 L
472.736 255.304 L
474.736 253.851 L
475.5 251.5 L
S
GR
GS
[0.75 0 0 0.75 0 0.25] CT
0 0.447 0.741 RC
2 setlinecap
10.0 ML
1.333 LW
N
486.5 242.5 M
485.736 240.149 L
483.736 238.696 L
481.264 238.696 L
479.264 240.149 L
478.5 242.5 L
479.264 244.851 L
481.264 246.304 L
483.736 246.304 L
485.736 244.851 L
486.5 242.5 L
S
GR
GS
[0.75 0 0 0.75 0 0.25] CT
0 0.447 0.741 RC
2 setlinecap
10.0 ML
1.333 LW
N
498.5 232.5 M
497.736 230.149 L
495.736 228.696 L
493.264 228.696 L
491.264 230.149 L
490.5 232.5 L
491.264 234.851 L
493.264 236.304 L
495.736 236.304 L
497.736 234.851 L
498.5 232.5 L
S
GR
GS
[0.75 0 0 0.75 0 0.25] CT
0 0.447 0.741 RC
2 setlinecap
10.0 ML
1.333 LW
N
510.5 222.5 M
509.736 220.149 L
507.736 218.696 L
505.264 218.696 L
503.264 220.149 L
502.5 222.5 L
503.264 224.851 L
505.264 226.304 L
507.736 226.304 L
509.736 224.851 L
510.5 222.5 L
S
GR
GS
[0.75 0 0 0.75 0 0.25] CT
0 0.447 0.741 RC
2 setlinecap
10.0 ML
1.333 LW
N
522.5 212.5 M
521.736 210.149 L
519.736 208.696 L
517.264 208.696 L
515.264 210.149 L
514.5 212.5 L
515.264 214.851 L
517.264 216.304 L
519.736 216.304 L
521.736 214.851 L
522.5 212.5 L
S
GR
GS
[0.75 0 0 0.75 0 0.25] CT
0 0.447 0.741 RC
2 setlinecap
10.0 ML
1.333 LW
N
533.5 202.5 M
532.736 200.149 L
530.736 198.696 L
528.264 198.696 L
526.264 200.149 L
525.5 202.5 L
526.264 204.851 L
528.264 206.304 L
530.736 206.304 L
532.736 204.851 L
533.5 202.5 L
S
GR
GS
[0.75 0 0 0.75 0 0.25] CT
0 0.447 0.741 RC
2 setlinecap
10.0 ML
1.333 LW
N
545.5 193.5 M
544.736 191.149 L
542.736 189.696 L
540.264 189.696 L
538.264 191.149 L
537.5 193.5 L
538.264 195.851 L
540.264 197.304 L
542.736 197.304 L
544.736 195.851 L
545.5 193.5 L
S
GR
GS
[0.75 0 0 0.75 0 0.25] CT
0 0.447 0.741 RC
2 setlinecap
10.0 ML
1.333 LW
N
557.5 183.5 M
556.736 181.149 L
554.736 179.696 L
552.264 179.696 L
550.264 181.149 L
549.5 183.5 L
550.264 185.851 L
552.264 187.304 L
554.736 187.304 L
556.736 185.851 L
557.5 183.5 L
S
GR
GS
[0.75 0 0 0.75 0 0.25] CT
0 0.447 0.741 RC
2 setlinecap
10.0 ML
1.333 LW
N
569.5 174.5 M
568.736 172.149 L
566.736 170.696 L
564.264 170.696 L
562.264 172.149 L
561.5 174.5 L
562.264 176.851 L
564.264 178.304 L
566.736 178.304 L
568.736 176.851 L
569.5 174.5 L
S
GR
GS
[0.75 0 0 0.75 0 0.25] CT
0 0.447 0.741 RC
2 setlinecap
10.0 ML
1.333 LW
N
580.5 166.5 M
579.736 164.149 L
577.736 162.696 L
575.264 162.696 L
573.264 164.149 L
572.5 166.5 L
573.264 168.851 L
575.264 170.304 L
577.736 170.304 L
579.736 168.851 L
580.5 166.5 L
S
GR
GS
[0.75 0 0 0.75 0 0.25] CT
0 0.447 0.741 RC
2 setlinecap
10.0 ML
1.333 LW
N
592.5 158.5 M
591.736 156.149 L
589.736 154.696 L
587.264 154.696 L
585.264 156.149 L
584.5 158.5 L
585.264 160.851 L
587.264 162.304 L
589.736 162.304 L
591.736 160.851 L
592.5 158.5 L
S
GR
GS
[0.75 0 0 0.75 0 0.25] CT
0 0.447 0.741 RC
2 setlinecap
10.0 ML
1.333 LW
N
604.5 150.5 M
603.736 148.149 L
601.736 146.696 L
599.264 146.696 L
597.264 148.149 L
596.5 150.5 L
597.264 152.851 L
599.264 154.304 L
601.736 154.304 L
603.736 152.851 L
604.5 150.5 L
S
GR
GS
[0.75 0 0 0.75 0 0.25] CT
0 0.447 0.741 RC
2 setlinecap
10.0 ML
1.333 LW
N
616.5 143.5 M
615.736 141.149 L
613.736 139.696 L
611.264 139.696 L
609.264 141.149 L
608.5 143.5 L
609.264 145.851 L
611.264 147.304 L
613.736 147.304 L
615.736 145.851 L
616.5 143.5 L
S
GR
GS
[0.75 0 0 0.75 0 0.25] CT
0 0.447 0.741 RC
2 setlinecap
10.0 ML
1.333 LW
N
627.5 137.5 M
626.736 135.149 L
624.736 133.696 L
622.264 133.696 L
620.264 135.149 L
619.5 137.5 L
620.264 139.851 L
622.264 141.304 L
624.736 141.304 L
626.736 139.851 L
627.5 137.5 L
S
GR
GS
[0.75 0 0 0.75 0 0.25] CT
0 0.447 0.741 RC
2 setlinecap
10.0 ML
1.333 LW
N
639.5 131.5 M
638.736 129.149 L
636.736 127.696 L
634.264 127.696 L
632.264 129.149 L
631.5 131.5 L
632.264 133.851 L
634.264 135.304 L
636.736 135.304 L
638.736 133.851 L
639.5 131.5 L
S
GR
GS
[0.75 0 0 0.75 0 0.25] CT
0 0.447 0.741 RC
2 setlinecap
10.0 ML
1.333 LW
N
651.5 125.5 M
650.736 123.149 L
648.736 121.696 L
646.264 121.696 L
644.264 123.149 L
643.5 125.5 L
644.264 127.851 L
646.264 129.304 L
648.736 129.304 L
650.736 127.851 L
651.5 125.5 L
S
GR
GS
[0.75 0 0 0.75 0 0.25] CT
0 0.447 0.741 RC
2 setlinecap
10.0 ML
1.333 LW
N
663.5 120.5 M
662.736 118.149 L
660.736 116.696 L
658.264 116.696 L
656.264 118.149 L
655.5 120.5 L
656.264 122.851 L
658.264 124.304 L
660.736 124.304 L
662.736 122.851 L
663.5 120.5 L
S
GR
GS
[0.75 0 0 0.75 0 0.25] CT
0 0.447 0.741 RC
2 setlinecap
10.0 ML
1.333 LW
N
675.5 116.5 M
674.736 114.149 L
672.736 112.696 L
670.264 112.696 L
668.264 114.149 L
667.5 116.5 L
668.264 118.851 L
670.264 120.304 L
672.736 120.304 L
674.736 118.851 L
675.5 116.5 L
S
GR
GS
[0.75 0 0 0.75 0 0.25] CT
0 0.447 0.741 RC
2 setlinecap
10.0 ML
1.333 LW
N
686.5 112.5 M
685.736 110.149 L
683.736 108.696 L
681.264 108.696 L
679.264 110.149 L
678.5 112.5 L
679.264 114.851 L
681.264 116.304 L
683.736 116.304 L
685.736 114.851 L
686.5 112.5 L
S
GR
GS
[0.75 0 0 0.75 0 0.25] CT
0 0.447 0.741 RC
2 setlinecap
10.0 ML
1.333 LW
N
698.5 108.5 M
697.736 106.149 L
695.736 104.696 L
693.264 104.696 L
691.264 106.149 L
690.5 108.5 L
691.264 110.851 L
693.264 112.304 L
695.736 112.304 L
697.736 110.851 L
698.5 108.5 L
S
GR
GS
[0.75 0 0 0.75 0 0.25] CT
0 0.447 0.741 RC
2 setlinecap
10.0 ML
1.333 LW
N
710.5 105.5 M
709.736 103.149 L
707.736 101.696 L
705.264 101.696 L
703.264 103.149 L
702.5 105.5 L
703.264 107.851 L
705.264 109.304 L
707.736 109.304 L
709.736 107.851 L
710.5 105.5 L
S
GR
GS
[0.75 0 0 0.75 0 0.25] CT
0 0.447 0.741 RC
2 setlinecap
10.0 ML
1.333 LW
N
722.5 102.5 M
721.736 100.149 L
719.736 98.696 L
717.264 98.696 L
715.264 100.149 L
714.5 102.5 L
715.264 104.851 L
717.264 106.304 L
719.736 106.304 L
721.736 104.851 L
722.5 102.5 L
S
GR
GS
[0.75 0 0 0.75 0 0.25] CT
0 0.447 0.741 RC
2 setlinecap
10.0 ML
1.333 LW
N
733.5 99.5 M
732.736 97.149 L
730.736 95.696 L
728.264 95.696 L
726.264 97.149 L
725.5 99.5 L
726.264 101.851 L
728.264 103.304 L
730.736 103.304 L
732.736 101.851 L
733.5 99.5 L
S
GR
GS
[0.75 0 0 0.75 0 0.25] CT
0 0.447 0.741 RC
2 setlinecap
10.0 ML
1.333 LW
N
745.5 97.5 M
744.736 95.149 L
742.736 93.696 L
740.264 93.696 L
738.264 95.149 L
737.5 97.5 L
738.264 99.851 L
740.264 101.304 L
742.736 101.304 L
744.736 99.851 L
745.5 97.5 L
S
GR
GS
[0.75 0 0 0.75 0 0.25] CT
0 0.447 0.741 RC
2 setlinecap
10.0 ML
1.333 LW
N
757.5 95.5 M
756.736 93.149 L
754.736 91.696 L
752.264 91.696 L
750.264 93.149 L
749.5 95.5 L
750.264 97.851 L
752.264 99.304 L
754.736 99.304 L
756.736 97.851 L
757.5 95.5 L
S
GR
GS
[0.75 0 0 0.75 0 0.25] CT
0 0.447 0.741 RC
2 setlinecap
10.0 ML
1.333 LW
N
769.5 94.5 M
768.736 92.149 L
766.736 90.696 L
764.264 90.696 L
762.264 92.149 L
761.5 94.5 L
762.264 96.851 L
764.264 98.304 L
766.736 98.304 L
768.736 96.851 L
769.5 94.5 L
S
GR
GS
[0.75 0 0 0.75 0 0.25] CT
0 0.447 0.741 RC
2 setlinecap
10.0 ML
1.333 LW
N
780.5 92.5 M
779.736 90.149 L
777.736 88.696 L
775.264 88.696 L
773.264 90.149 L
772.5 92.5 L
773.264 94.851 L
775.264 96.304 L
777.736 96.304 L
779.736 94.851 L
780.5 92.5 L
S
GR
GS
[0.75 0 0 0.75 0 0.25] CT
0 0.447 0.741 RC
2 setlinecap
10.0 ML
1.333 LW
N
792.5 91.5 M
791.736 89.149 L
789.736 87.696 L
787.264 87.696 L
785.264 89.149 L
784.5 91.5 L
785.264 93.851 L
787.264 95.304 L
789.736 95.304 L
791.736 93.851 L
792.5 91.5 L
S
GR
GS
[0.75 0 0 0.75 0 0.25] CT
0 0.447 0.741 RC
2 setlinecap
10.0 ML
1.333 LW
N
804.5 91.5 M
803.736 89.149 L
801.736 87.696 L
799.264 87.696 L
797.264 89.149 L
796.5 91.5 L
797.264 93.851 L
799.264 95.304 L
801.736 95.304 L
803.736 93.851 L
804.5 91.5 L
S
GR
GS
[0.75 0 0 0.75 0 0.25] CT
0 0.447 0.741 RC
2 setlinecap
10.0 ML
1.333 LW
N
816.5 91.5 M
815.736 89.149 L
813.736 87.696 L
811.264 87.696 L
809.264 89.149 L
808.5 91.5 L
809.264 93.851 L
811.264 95.304 L
813.736 95.304 L
815.736 93.851 L
816.5 91.5 L
S
GR
GS
[0.75 0 0 0.75 0 0.25] CT
0 0.447 0.741 RC
2 setlinecap
10.0 ML
1.333 LW
N
828.5 91.5 M
827.736 89.149 L
825.736 87.696 L
823.264 87.696 L
821.264 89.149 L
820.5 91.5 L
821.264 93.851 L
823.264 95.304 L
825.736 95.304 L
827.736 93.851 L
828.5 91.5 L
S
GR
GS
[0.75 0 0 0.75 0 0.25] CT
0 0.447 0.741 RC
2 setlinecap
10.0 ML
1.333 LW
N
118 475.368 M
129.767 469.023 L
141.533 462.567 L
153.3 456.008 L
165.067 449.357 L
176.833 442.616 L
188.6 435.788 L
200.367 428.867 L
212.133 421.848 L
223.9 414.715 L
235.667 407.452 L
247.433 400.03 L
259.2 392.418 L
270.967 384.603 L
282.733 376.584 L
294.5 368.378 L
306.267 359.983 L
318.033 351.393 L
329.8 342.606 L
341.567 333.631 L
353.333 324.502 L
365.1 315.244 L
376.867 305.864 L
388.633 296.401 L
400.4 286.874 L
412.167 277.278 L
423.933 267.636 L
435.7 257.966 L
447.467 248.279 L
459.233 238.593 L
471 228.901 L
482.767 219.234 L
494.533 209.62 L
506.3 200.106 L
518.067 190.934 L
529.833 182.181 L
541.6 173.959 L
553.367 166.345 L
565.133 159.304 L
576.9 152.911 L
588.667 147.101 L
600.433 141.342 L
612.2 136.318 L
623.967 131.609 L
635.733 126.994 L
647.5 122.615 L
659.267 118.946 L
671.033 115.127 L
682.8 111.813 L
694.567 108.671 L
S
GR
GS
[0.75 0 0 0.75 0 0.25] CT
0 0.447 0.741 RC
2 setlinecap
10.0 ML
1.333 LW
N
694.567 108.671 M
706.333 105.55 L
718.1 102.761 L
729.867 100.48 L
741.633 98.291 L
753.4 96.522 L
765.167 94.981 L
776.933 93.786 L
788.7 92.84 L
800.467 92.212 L
812.233 91.691 L
824 91.316 L
S
GR
GS
[0.75 0 0 0.75 0 0.25] CT
0 0.447 0.741 RC
2 setlinecap
10.0 ML
1.333 LW
N
122.5 475.5 M
121.736 473.149 L
119.736 471.696 L
117.264 471.696 L
115.264 473.149 L
114.5 475.5 L
115.264 477.851 L
117.264 479.304 L
119.736 479.304 L
121.736 477.851 L
122.5 475.5 L
S
GR
GS
[0.75 0 0 0.75 0 0.25] CT
0 0.447 0.741 RC
2 setlinecap
10.0 ML
1.333 LW
N
133.5 469.5 M
132.736 467.149 L
130.736 465.696 L
128.264 465.696 L
126.264 467.149 L
125.5 469.5 L
126.264 471.851 L
128.264 473.304 L
130.736 473.304 L
132.736 471.851 L
133.5 469.5 L
S
GR
GS
[0.75 0 0 0.75 0 0.25] CT
0 0.447 0.741 RC
2 setlinecap
10.0 ML
1.333 LW
N
145.5 462.5 M
144.736 460.149 L
142.736 458.696 L
140.264 458.696 L
138.264 460.149 L
137.5 462.5 L
138.264 464.851 L
140.264 466.304 L
142.736 466.304 L
144.736 464.851 L
145.5 462.5 L
S
GR
GS
[0.75 0 0 0.75 0 0.25] CT
0 0.447 0.741 RC
2 setlinecap
10.0 ML
1.333 LW
N
157.5 456.5 M
156.736 454.149 L
154.736 452.696 L
152.264 452.696 L
150.264 454.149 L
149.5 456.5 L
150.264 458.851 L
152.264 460.304 L
154.736 460.304 L
156.736 458.851 L
157.5 456.5 L
S
GR
GS
[0.75 0 0 0.75 0 0.25] CT
0 0.447 0.741 RC
2 setlinecap
10.0 ML
1.333 LW
N
169.5 449.5 M
168.736 447.149 L
166.736 445.696 L
164.264 445.696 L
162.264 447.149 L
161.5 449.5 L
162.264 451.851 L
164.264 453.304 L
166.736 453.304 L
168.736 451.851 L
169.5 449.5 L
S
GR
GS
[0.75 0 0 0.75 0 0.25] CT
0 0.447 0.741 RC
2 setlinecap
10.0 ML
1.333 LW
N
180.5 442.5 M
179.736 440.149 L
177.736 438.696 L
175.264 438.696 L
173.264 440.149 L
172.5 442.5 L
173.264 444.851 L
175.264 446.304 L
177.736 446.304 L
179.736 444.851 L
180.5 442.5 L
S
GR
GS
[0.75 0 0 0.75 0 0.25] CT
0 0.447 0.741 RC
2 setlinecap
10.0 ML
1.333 LW
N
192.5 435.5 M
191.736 433.149 L
189.736 431.696 L
187.264 431.696 L
185.264 433.149 L
184.5 435.5 L
185.264 437.851 L
187.264 439.304 L
189.736 439.304 L
191.736 437.851 L
192.5 435.5 L
S
GR
GS
[0.75 0 0 0.75 0 0.25] CT
0 0.447 0.741 RC
2 setlinecap
10.0 ML
1.333 LW
N
204.5 428.5 M
203.736 426.149 L
201.736 424.696 L
199.264 424.696 L
197.264 426.149 L
196.5 428.5 L
197.264 430.851 L
199.264 432.304 L
201.736 432.304 L
203.736 430.851 L
204.5 428.5 L
S
GR
GS
[0.75 0 0 0.75 0 0.25] CT
0 0.447 0.741 RC
2 setlinecap
10.0 ML
1.333 LW
N
216.5 421.5 M
215.736 419.149 L
213.736 417.696 L
211.264 417.696 L
209.264 419.149 L
208.5 421.5 L
209.264 423.851 L
211.264 425.304 L
213.736 425.304 L
215.736 423.851 L
216.5 421.5 L
S
GR
GS
[0.75 0 0 0.75 0 0.25] CT
0 0.447 0.741 RC
2 setlinecap
10.0 ML
1.333 LW
N
227.5 414.5 M
226.736 412.149 L
224.736 410.696 L
222.264 410.696 L
220.264 412.149 L
219.5 414.5 L
220.264 416.851 L
222.264 418.304 L
224.736 418.304 L
226.736 416.851 L
227.5 414.5 L
S
GR
GS
[0.75 0 0 0.75 0 0.25] CT
0 0.447 0.741 RC
2 setlinecap
10.0 ML
1.333 LW
N
239.5 407.5 M
238.736 405.149 L
236.736 403.696 L
234.264 403.696 L
232.264 405.149 L
231.5 407.5 L
232.264 409.851 L
234.264 411.304 L
236.736 411.304 L
238.736 409.851 L
239.5 407.5 L
S
GR
GS
[0.75 0 0 0.75 0 0.25] CT
0 0.447 0.741 RC
2 setlinecap
10.0 ML
1.333 LW
N
251.5 400.5 M
250.736 398.149 L
248.736 396.696 L
246.264 396.696 L
244.264 398.149 L
243.5 400.5 L
244.264 402.851 L
246.264 404.304 L
248.736 404.304 L
250.736 402.851 L
251.5 400.5 L
S
GR
GS
[0.75 0 0 0.75 0 0.25] CT
0 0.447 0.741 RC
2 setlinecap
10.0 ML
1.333 LW
N
263.5 392.5 M
262.736 390.149 L
260.736 388.696 L
258.264 388.696 L
256.264 390.149 L
255.5 392.5 L
256.264 394.851 L
258.264 396.304 L
260.736 396.304 L
262.736 394.851 L
263.5 392.5 L
S
GR
GS
[0.75 0 0 0.75 0 0.25] CT
0 0.447 0.741 RC
2 setlinecap
10.0 ML
1.333 LW
N
274.5 384.5 M
273.736 382.149 L
271.736 380.696 L
269.264 380.696 L
267.264 382.149 L
266.5 384.5 L
267.264 386.851 L
269.264 388.304 L
271.736 388.304 L
273.736 386.851 L
274.5 384.5 L
S
GR
GS
[0.75 0 0 0.75 0 0.25] CT
0 0.447 0.741 RC
2 setlinecap
10.0 ML
1.333 LW
N
286.5 376.5 M
285.736 374.149 L
283.736 372.696 L
281.264 372.696 L
279.264 374.149 L
278.5 376.5 L
279.264 378.851 L
281.264 380.304 L
283.736 380.304 L
285.736 378.851 L
286.5 376.5 L
S
GR
GS
[0.75 0 0 0.75 0 0.25] CT
0 0.447 0.741 RC
2 setlinecap
10.0 ML
1.333 LW
N
298.5 368.5 M
297.736 366.149 L
295.736 364.696 L
293.264 364.696 L
291.264 366.149 L
290.5 368.5 L
291.264 370.851 L
293.264 372.304 L
295.736 372.304 L
297.736 370.851 L
298.5 368.5 L
S
GR
GS
[0.75 0 0 0.75 0 0.25] CT
0 0.447 0.741 RC
2 setlinecap
10.0 ML
1.333 LW
N
310.5 359.5 M
309.736 357.149 L
307.736 355.696 L
305.264 355.696 L
303.264 357.149 L
302.5 359.5 L
303.264 361.851 L
305.264 363.304 L
307.736 363.304 L
309.736 361.851 L
310.5 359.5 L
S
GR
GS
[0.75 0 0 0.75 0 0.25] CT
0 0.447 0.741 RC
2 setlinecap
10.0 ML
1.333 LW
N
322.5 351.5 M
321.736 349.149 L
319.736 347.696 L
317.264 347.696 L
315.264 349.149 L
314.5 351.5 L
315.264 353.851 L
317.264 355.304 L
319.736 355.304 L
321.736 353.851 L
322.5 351.5 L
S
GR
GS
[0.75 0 0 0.75 0 0.25] CT
0 0.447 0.741 RC
2 setlinecap
10.0 ML
1.333 LW
N
333.5 342.5 M
332.736 340.149 L
330.736 338.696 L
328.264 338.696 L
326.264 340.149 L
325.5 342.5 L
326.264 344.851 L
328.264 346.304 L
330.736 346.304 L
332.736 344.851 L
333.5 342.5 L
S
GR
GS
[0.75 0 0 0.75 0 0.25] CT
0 0.447 0.741 RC
2 setlinecap
10.0 ML
1.333 LW
N
345.5 333.5 M
344.736 331.149 L
342.736 329.696 L
340.264 329.696 L
338.264 331.149 L
337.5 333.5 L
338.264 335.851 L
340.264 337.304 L
342.736 337.304 L
344.736 335.851 L
345.5 333.5 L
S
GR
GS
[0.75 0 0 0.75 0 0.25] CT
0 0.447 0.741 RC
2 setlinecap
10.0 ML
1.333 LW
N
357.5 324.5 M
356.736 322.149 L
354.736 320.696 L
352.264 320.696 L
350.264 322.149 L
349.5 324.5 L
350.264 326.851 L
352.264 328.304 L
354.736 328.304 L
356.736 326.851 L
357.5 324.5 L
S
GR
GS
[0.75 0 0 0.75 0 0.25] CT
0 0.447 0.741 RC
2 setlinecap
10.0 ML
1.333 LW
N
369.5 315.5 M
368.736 313.149 L
366.736 311.696 L
364.264 311.696 L
362.264 313.149 L
361.5 315.5 L
362.264 317.851 L
364.264 319.304 L
366.736 319.304 L
368.736 317.851 L
369.5 315.5 L
S
GR
GS
[0.75 0 0 0.75 0 0.25] CT
0 0.447 0.741 RC
2 setlinecap
10.0 ML
1.333 LW
N
380.5 305.5 M
379.736 303.149 L
377.736 301.696 L
375.264 301.696 L
373.264 303.149 L
372.5 305.5 L
373.264 307.851 L
375.264 309.304 L
377.736 309.304 L
379.736 307.851 L
380.5 305.5 L
S
GR
GS
[0.75 0 0 0.75 0 0.25] CT
0 0.447 0.741 RC
2 setlinecap
10.0 ML
1.333 LW
N
392.5 296.5 M
391.736 294.149 L
389.736 292.696 L
387.264 292.696 L
385.264 294.149 L
384.5 296.5 L
385.264 298.851 L
387.264 300.304 L
389.736 300.304 L
391.736 298.851 L
392.5 296.5 L
S
GR
GS
[0.75 0 0 0.75 0 0.25] CT
0 0.447 0.741 RC
2 setlinecap
10.0 ML
1.333 LW
N
404.5 286.5 M
403.736 284.149 L
401.736 282.696 L
399.264 282.696 L
397.264 284.149 L
396.5 286.5 L
397.264 288.851 L
399.264 290.304 L
401.736 290.304 L
403.736 288.851 L
404.5 286.5 L
S
GR
GS
[0.75 0 0 0.75 0 0.25] CT
0 0.447 0.741 RC
2 setlinecap
10.0 ML
1.333 LW
N
416.5 277.5 M
415.736 275.149 L
413.736 273.696 L
411.264 273.696 L
409.264 275.149 L
408.5 277.5 L
409.264 279.851 L
411.264 281.304 L
413.736 281.304 L
415.736 279.851 L
416.5 277.5 L
S
GR
GS
[0.75 0 0 0.75 0 0.25] CT
0 0.447 0.741 RC
2 setlinecap
10.0 ML
1.333 LW
N
427.5 267.5 M
426.736 265.149 L
424.736 263.696 L
422.264 263.696 L
420.264 265.149 L
419.5 267.5 L
420.264 269.851 L
422.264 271.304 L
424.736 271.304 L
426.736 269.851 L
427.5 267.5 L
S
GR
GS
[0.75 0 0 0.75 0 0.25] CT
0 0.447 0.741 RC
2 setlinecap
10.0 ML
1.333 LW
N
439.5 257.5 M
438.736 255.149 L
436.736 253.696 L
434.264 253.696 L
432.264 255.149 L
431.5 257.5 L
432.264 259.851 L
434.264 261.304 L
436.736 261.304 L
438.736 259.851 L
439.5 257.5 L
S
GR
GS
[0.75 0 0 0.75 0 0.25] CT
0 0.447 0.741 RC
2 setlinecap
10.0 ML
1.333 LW
N
451.5 248.5 M
450.736 246.149 L
448.736 244.696 L
446.264 244.696 L
444.264 246.149 L
443.5 248.5 L
444.264 250.851 L
446.264 252.304 L
448.736 252.304 L
450.736 250.851 L
451.5 248.5 L
S
GR
GS
[0.75 0 0 0.75 0 0.25] CT
0 0.447 0.741 RC
2 setlinecap
10.0 ML
1.333 LW
N
463.5 238.5 M
462.736 236.149 L
460.736 234.696 L
458.264 234.696 L
456.264 236.149 L
455.5 238.5 L
456.264 240.851 L
458.264 242.304 L
460.736 242.304 L
462.736 240.851 L
463.5 238.5 L
S
GR
GS
[0.75 0 0 0.75 0 0.25] CT
0 0.447 0.741 RC
2 setlinecap
10.0 ML
1.333 LW
N
475.5 228.5 M
474.736 226.149 L
472.736 224.696 L
470.264 224.696 L
468.264 226.149 L
467.5 228.5 L
468.264 230.851 L
470.264 232.304 L
472.736 232.304 L
474.736 230.851 L
475.5 228.5 L
S
GR
GS
[0.75 0 0 0.75 0 0.25] CT
0 0.447 0.741 RC
2 setlinecap
10.0 ML
1.333 LW
N
486.5 219.5 M
485.736 217.149 L
483.736 215.696 L
481.264 215.696 L
479.264 217.149 L
478.5 219.5 L
479.264 221.851 L
481.264 223.304 L
483.736 223.304 L
485.736 221.851 L
486.5 219.5 L
S
GR
GS
[0.75 0 0 0.75 0 0.25] CT
0 0.447 0.741 RC
2 setlinecap
10.0 ML
1.333 LW
N
498.5 209.5 M
497.736 207.149 L
495.736 205.696 L
493.264 205.696 L
491.264 207.149 L
490.5 209.5 L
491.264 211.851 L
493.264 213.304 L
495.736 213.304 L
497.736 211.851 L
498.5 209.5 L
S
GR
GS
[0.75 0 0 0.75 0 0.25] CT
0 0.447 0.741 RC
2 setlinecap
10.0 ML
1.333 LW
N
510.5 200.5 M
509.736 198.149 L
507.736 196.696 L
505.264 196.696 L
503.264 198.149 L
502.5 200.5 L
503.264 202.851 L
505.264 204.304 L
507.736 204.304 L
509.736 202.851 L
510.5 200.5 L
S
GR
GS
[0.75 0 0 0.75 0 0.25] CT
0 0.447 0.741 RC
2 setlinecap
10.0 ML
1.333 LW
N
522.5 190.5 M
521.736 188.149 L
519.736 186.696 L
517.264 186.696 L
515.264 188.149 L
514.5 190.5 L
515.264 192.851 L
517.264 194.304 L
519.736 194.304 L
521.736 192.851 L
522.5 190.5 L
S
GR
GS
[0.75 0 0 0.75 0 0.25] CT
0 0.447 0.741 RC
2 setlinecap
10.0 ML
1.333 LW
N
533.5 182.5 M
532.736 180.149 L
530.736 178.696 L
528.264 178.696 L
526.264 180.149 L
525.5 182.5 L
526.264 184.851 L
528.264 186.304 L
530.736 186.304 L
532.736 184.851 L
533.5 182.5 L
S
GR
GS
[0.75 0 0 0.75 0 0.25] CT
0 0.447 0.741 RC
2 setlinecap
10.0 ML
1.333 LW
N
545.5 173.5 M
544.736 171.149 L
542.736 169.696 L
540.264 169.696 L
538.264 171.149 L
537.5 173.5 L
538.264 175.851 L
540.264 177.304 L
542.736 177.304 L
544.736 175.851 L
545.5 173.5 L
S
GR
GS
[0.75 0 0 0.75 0 0.25] CT
0 0.447 0.741 RC
2 setlinecap
10.0 ML
1.333 LW
N
557.5 166.5 M
556.736 164.149 L
554.736 162.696 L
552.264 162.696 L
550.264 164.149 L
549.5 166.5 L
550.264 168.851 L
552.264 170.304 L
554.736 170.304 L
556.736 168.851 L
557.5 166.5 L
S
GR
GS
[0.75 0 0 0.75 0 0.25] CT
0 0.447 0.741 RC
2 setlinecap
10.0 ML
1.333 LW
N
569.5 159.5 M
568.736 157.149 L
566.736 155.696 L
564.264 155.696 L
562.264 157.149 L
561.5 159.5 L
562.264 161.851 L
564.264 163.304 L
566.736 163.304 L
568.736 161.851 L
569.5 159.5 L
S
GR
GS
[0.75 0 0 0.75 0 0.25] CT
0 0.447 0.741 RC
2 setlinecap
10.0 ML
1.333 LW
N
580.5 152.5 M
579.736 150.149 L
577.736 148.696 L
575.264 148.696 L
573.264 150.149 L
572.5 152.5 L
573.264 154.851 L
575.264 156.304 L
577.736 156.304 L
579.736 154.851 L
580.5 152.5 L
S
GR
GS
[0.75 0 0 0.75 0 0.25] CT
0 0.447 0.741 RC
2 setlinecap
10.0 ML
1.333 LW
N
592.5 147.5 M
591.736 145.149 L
589.736 143.696 L
587.264 143.696 L
585.264 145.149 L
584.5 147.5 L
585.264 149.851 L
587.264 151.304 L
589.736 151.304 L
591.736 149.851 L
592.5 147.5 L
S
GR
GS
[0.75 0 0 0.75 0 0.25] CT
0 0.447 0.741 RC
2 setlinecap
10.0 ML
1.333 LW
N
604.5 141.5 M
603.736 139.149 L
601.736 137.696 L
599.264 137.696 L
597.264 139.149 L
596.5 141.5 L
597.264 143.851 L
599.264 145.304 L
601.736 145.304 L
603.736 143.851 L
604.5 141.5 L
S
GR
GS
[0.75 0 0 0.75 0 0.25] CT
0 0.447 0.741 RC
2 setlinecap
10.0 ML
1.333 LW
N
616.5 136.5 M
615.736 134.149 L
613.736 132.696 L
611.264 132.696 L
609.264 134.149 L
608.5 136.5 L
609.264 138.851 L
611.264 140.304 L
613.736 140.304 L
615.736 138.851 L
616.5 136.5 L
S
GR
GS
[0.75 0 0 0.75 0 0.25] CT
0 0.447 0.741 RC
2 setlinecap
10.0 ML
1.333 LW
N
627.5 131.5 M
626.736 129.149 L
624.736 127.696 L
622.264 127.696 L
620.264 129.149 L
619.5 131.5 L
620.264 133.851 L
622.264 135.304 L
624.736 135.304 L
626.736 133.851 L
627.5 131.5 L
S
GR
GS
[0.75 0 0 0.75 0 0.25] CT
0 0.447 0.741 RC
2 setlinecap
10.0 ML
1.333 LW
N
639.5 126.5 M
638.736 124.149 L
636.736 122.696 L
634.264 122.696 L
632.264 124.149 L
631.5 126.5 L
632.264 128.851 L
634.264 130.304 L
636.736 130.304 L
638.736 128.851 L
639.5 126.5 L
S
GR
GS
[0.75 0 0 0.75 0 0.25] CT
0 0.447 0.741 RC
2 setlinecap
10.0 ML
1.333 LW
N
651.5 122.5 M
650.736 120.149 L
648.736 118.696 L
646.264 118.696 L
644.264 120.149 L
643.5 122.5 L
644.264 124.851 L
646.264 126.304 L
648.736 126.304 L
650.736 124.851 L
651.5 122.5 L
S
GR
GS
[0.75 0 0 0.75 0 0.25] CT
0 0.447 0.741 RC
2 setlinecap
10.0 ML
1.333 LW
N
663.5 118.5 M
662.736 116.149 L
660.736 114.696 L
658.264 114.696 L
656.264 116.149 L
655.5 118.5 L
656.264 120.851 L
658.264 122.304 L
660.736 122.304 L
662.736 120.851 L
663.5 118.5 L
S
GR
GS
[0.75 0 0 0.75 0 0.25] CT
0 0.447 0.741 RC
2 setlinecap
10.0 ML
1.333 LW
N
675.5 115.5 M
674.736 113.149 L
672.736 111.696 L
670.264 111.696 L
668.264 113.149 L
667.5 115.5 L
668.264 117.851 L
670.264 119.304 L
672.736 119.304 L
674.736 117.851 L
675.5 115.5 L
S
GR
GS
[0.75 0 0 0.75 0 0.25] CT
0 0.447 0.741 RC
2 setlinecap
10.0 ML
1.333 LW
N
686.5 111.5 M
685.736 109.149 L
683.736 107.696 L
681.264 107.696 L
679.264 109.149 L
678.5 111.5 L
679.264 113.851 L
681.264 115.304 L
683.736 115.304 L
685.736 113.851 L
686.5 111.5 L
S
GR
GS
[0.75 0 0 0.75 0 0.25] CT
0 0.447 0.741 RC
2 setlinecap
10.0 ML
1.333 LW
N
698.5 108.5 M
697.736 106.149 L
695.736 104.696 L
693.264 104.696 L
691.264 106.149 L
690.5 108.5 L
691.264 110.851 L
693.264 112.304 L
695.736 112.304 L
697.736 110.851 L
698.5 108.5 L
S
GR
GS
[0.75 0 0 0.75 0 0.25] CT
0 0.447 0.741 RC
2 setlinecap
10.0 ML
1.333 LW
N
710.5 105.5 M
709.736 103.149 L
707.736 101.696 L
705.264 101.696 L
703.264 103.149 L
702.5 105.5 L
703.264 107.851 L
705.264 109.304 L
707.736 109.304 L
709.736 107.851 L
710.5 105.5 L
S
GR
GS
[0.75 0 0 0.75 0 0.25] CT
0 0.447 0.741 RC
2 setlinecap
10.0 ML
1.333 LW
N
722.5 102.5 M
721.736 100.149 L
719.736 98.696 L
717.264 98.696 L
715.264 100.149 L
714.5 102.5 L
715.264 104.851 L
717.264 106.304 L
719.736 106.304 L
721.736 104.851 L
722.5 102.5 L
S
GR
GS
[0.75 0 0 0.75 0 0.25] CT
0 0.447 0.741 RC
2 setlinecap
10.0 ML
1.333 LW
N
733.5 100.5 M
732.736 98.149 L
730.736 96.696 L
728.264 96.696 L
726.264 98.149 L
725.5 100.5 L
726.264 102.851 L
728.264 104.304 L
730.736 104.304 L
732.736 102.851 L
733.5 100.5 L
S
GR
GS
[0.75 0 0 0.75 0 0.25] CT
0 0.447 0.741 RC
2 setlinecap
10.0 ML
1.333 LW
N
745.5 98.5 M
744.736 96.149 L
742.736 94.696 L
740.264 94.696 L
738.264 96.149 L
737.5 98.5 L
738.264 100.851 L
740.264 102.304 L
742.736 102.304 L
744.736 100.851 L
745.5 98.5 L
S
GR
GS
[0.75 0 0 0.75 0 0.25] CT
0 0.447 0.741 RC
2 setlinecap
10.0 ML
1.333 LW
N
757.5 96.5 M
756.736 94.149 L
754.736 92.696 L
752.264 92.696 L
750.264 94.149 L
749.5 96.5 L
750.264 98.851 L
752.264 100.304 L
754.736 100.304 L
756.736 98.851 L
757.5 96.5 L
S
GR
GS
[0.75 0 0 0.75 0 0.25] CT
0 0.447 0.741 RC
2 setlinecap
10.0 ML
1.333 LW
N
769.5 94.5 M
768.736 92.149 L
766.736 90.696 L
764.264 90.696 L
762.264 92.149 L
761.5 94.5 L
762.264 96.851 L
764.264 98.304 L
766.736 98.304 L
768.736 96.851 L
769.5 94.5 L
S
GR
GS
[0.75 0 0 0.75 0 0.25] CT
0 0.447 0.741 RC
2 setlinecap
10.0 ML
1.333 LW
N
780.5 93.5 M
779.736 91.149 L
777.736 89.696 L
775.264 89.696 L
773.264 91.149 L
772.5 93.5 L
773.264 95.851 L
775.264 97.304 L
777.736 97.304 L
779.736 95.851 L
780.5 93.5 L
S
GR
GS
[0.75 0 0 0.75 0 0.25] CT
0 0.447 0.741 RC
2 setlinecap
10.0 ML
1.333 LW
N
792.5 92.5 M
791.736 90.149 L
789.736 88.696 L
787.264 88.696 L
785.264 90.149 L
784.5 92.5 L
785.264 94.851 L
787.264 96.304 L
789.736 96.304 L
791.736 94.851 L
792.5 92.5 L
S
GR
GS
[0.75 0 0 0.75 0 0.25] CT
0 0.447 0.741 RC
2 setlinecap
10.0 ML
1.333 LW
N
804.5 92.5 M
803.736 90.149 L
801.736 88.696 L
799.264 88.696 L
797.264 90.149 L
796.5 92.5 L
797.264 94.851 L
799.264 96.304 L
801.736 96.304 L
803.736 94.851 L
804.5 92.5 L
S
GR
GS
[0.75 0 0 0.75 0 0.25] CT
0 0.447 0.741 RC
2 setlinecap
10.0 ML
1.333 LW
N
816.5 91.5 M
815.736 89.149 L
813.736 87.696 L
811.264 87.696 L
809.264 89.149 L
808.5 91.5 L
809.264 93.851 L
811.264 95.304 L
813.736 95.304 L
815.736 93.851 L
816.5 91.5 L
S
GR
GS
[0.75 0 0 0.75 0 0.25] CT
0 0.447 0.741 RC
2 setlinecap
10.0 ML
1.333 LW
N
828.5 91.5 M
827.736 89.149 L
825.736 87.696 L
823.264 87.696 L
821.264 89.149 L
820.5 91.5 L
821.264 93.851 L
823.264 95.304 L
825.736 95.304 L
827.736 93.851 L
828.5 91.5 L
S
GR
GS
[0.75 0 0 0.75 0 0.25] CT
1 GC
N
303 510 M
303 414 L
812 414 L
812 510 L
cp
f
GR
GS
[0.75 0 0 0.75 266.25 321.07168] CT
/Times-Roman 19 F
GS
[1 0 0 1 0 0] CT
0 7 moveto 
1 -1 scale
(CP-OFDM secondary, PSD-based measure of Interference) t 
GR
GR
GS
[0.75 0 0 0.75 0 0.25] CT
0 0.447 0.741 RC
2 setlinecap
10.0 ML
1.333 LW
N
311 427.762 M
351 427.762 L
S
GR
GS
[0.75 0 0 0.75 0 0.25] CT
0 0.447 0.741 RC
2 setlinecap
10.0 ML
1.333 LW
N
335.5 427.5 M
334.736 425.149 L
332.736 423.696 L
330.264 423.696 L
328.264 425.149 L
327.5 427.5 L
328.264 429.851 L
330.264 431.304 L
332.736 431.304 L
334.736 429.851 L
335.5 427.5 L
S
GR
GS
[0.75 0 0 0.75 266.25 338.19055] CT
/Times-Roman 19 F
GS
[1 0 0 1 0 0] CT
0 7 moveto 
1 -1 scale
(CP-OFDM secondary, EVM-based measure of Interference) t 
GR
GR
GS
[0.75 0 0 0.75 0 0.25] CT
0 0.447 0.741 RC
[8 3 2 3] 0 setdash
2 LJ
1.333 LW
N
311 450.587 M
351 450.587 L
S
GR
GS
[0.75 0 0 0.75 0 0.25] CT
0 0.447 0.741 RC
2 setlinecap
10.0 ML
1.333 LW
N
335.5 450.5 M
334.736 448.149 L
332.736 446.696 L
330.264 446.696 L
328.264 448.149 L
327.5 450.5 L
328.264 452.851 L
330.264 454.304 L
332.736 454.304 L
334.736 452.851 L
335.5 450.5 L
S
GR
GS
[0.75 0 0 0.75 266.25 355.30945] CT
/Times-Roman 19 F
GS
[1 0 0 1 0 0] CT
0 7 moveto 
1 -1 scale
(FB secondary, PSD-based measure of Interference) t 
GR
GR
GS
[0.75 0 0 0.75 0 0.25] CT
0.851 0.325 0.098 RC
2 setlinecap
10.0 ML
1.333 LW
N
311 473.413 M
351 473.413 L
S
GR
GS
[0.75 0 0 0.75 0 0.25] CT
0.851 0.325 0.098 RC
2 setlinecap
10.0 ML
1.333 LW
N
327 473.5 M
336 473.5 L
S
GR
GS
[0.75 0 0 0.75 0 0.25] CT
0.851 0.325 0.098 RC
2 setlinecap
10.0 ML
1.333 LW
N
331.5 478 M
331.5 469 L
S
GR
GS
[0.75 0 0 0.75 266.25 372.42832] CT
/Times-Roman 19 F
GS
[1 0 0 1 0 0] CT
0 7 moveto 
1 -1 scale
(FB secondary, EVM-based measure of Interference ) t 
GR
GR
GS
[0.75 0 0 0.75 0 0.25] CT
0.851 0.325 0.098 RC
[10 6] 0 setdash
2 LJ
1.333 LW
N
311 496.238 M
351 496.238 L
S
GR
GS
[0.75 0 0 0.75 0 0.25] CT
0.851 0.325 0.098 RC
2 setlinecap
10.0 ML
1.333 LW
N
327 496.5 M
336 496.5 L
S
GR
GS
[0.75 0 0 0.75 0 0.25] CT
0.851 0.325 0.098 RC
2 setlinecap
10.0 ML
1.333 LW
N
331.5 501 M
331.5 492 L
S
GR
GS
[0.75 0 0 0.75 0 0.25] CT
0.149 GC
2 setlinecap
10.0 ML
N
303 510 M
303 414 L
812 414 L
812 510 L
303 510 L
S
GR
%%Trailer
%%Pages: 1
%%EOF
