\relax 
\providecommand\hyper@newdestlabel[2]{}
\FN@pp@footnotehinttrue 
\@writefile{toc}{\contentsline {chapter}{\numberline {5}Coexistence with CP-OFDM incumbent systems in CR setups}{93}{chapter.5}}
\@writefile{lof}{\addvspace {10\p@ }}
\@writefile{lot}{\addvspace {10\p@ }}
\@writefile{lof}{\contentsline {xchapter}{Coexistence with CP-OFDM incumbent systems in CR setups}{93}{chapter.5}}
\@writefile{lot}{\contentsline {xchapter}{Coexistence with CP-OFDM incumbent systems in CR setups}{93}{chapter.5}}
\newlabel{chapter:4}{{5}{93}{Coexistence with CP-OFDM incumbent systems in CR setups}{chapter.5}{}}
\@writefile{toc}{\contentsline {section}{\numberline {5.1}Introduction}{93}{section.5.1}}
\newlabel{sec:intro_4}{{5.1}{93}{Introduction}{section.5.1}{}}
\@writefile{toc}{\contentsline {section}{\numberline {5.2}Guard band dimensioning}{94}{section.5.2}}
\newlabel{sec:GB_dimensioning}{{5.2}{94}{Guard band dimensioning}{section.5.2}{}}
\@writefile{toc}{\contentsline {subsection}{\numberline {5.2.1}System setup}{94}{subsection.5.2.1}}
\newlabel{fig:I_PSD_GB}{{5.1a}{95}{Subfigure 5 5.1a}{subfigure.5.1.1}{}}
\newlabel{sub@fig:I_PSD_GB}{{(a)}{a}{Subfigure 5 5.1a\relax }{subfigure.5.1.1}{}}
\newlabel{fig:I_EVM_GB}{{5.1b}{95}{Subfigure 5 5.1b}{subfigure.5.1.2}{}}
\newlabel{sub@fig:I_EVM_GB}{{(b)}{b}{Subfigure 5 5.1b\relax }{subfigure.5.1.2}{}}
\@writefile{lof}{\contentsline {figure}{\numberline {5.1}{\ignorespaces Interference seen on each subcarrier of the incumbent according to (a)the PSD-based model and (b)the EVM-based model presented in chapter 4.\relax }}{95}{figure.caption.83}}
\newlabel{fig:I_total_3rb}{{5.1}{95}{Interference seen on each subcarrier of the incumbent according to (a)the PSD-based model and (b)the EVM-based model presented in chapter 4.\relax }{figure.caption.83}{}}
\@writefile{lof}{\contentsline {subfigure}{\numberline{(a)}{\ignorespaces {}}}{95}{subfigure.1.1}}
\@writefile{lof}{\contentsline {subfigure}{\numberline{(b)}{\ignorespaces {}}}{95}{subfigure.1.2}}
\@writefile{toc}{\contentsline {subsection}{\numberline {5.2.2}Obtained results}{95}{subsection.5.2.2}}
\newlabel{fig:NG_PSD_GB}{{5.2a}{96}{Subfigure 5 5.2a}{subfigure.5.2.1}{}}
\newlabel{sub@fig:NG_PSD_GB}{{(a)}{a}{Subfigure 5 5.2a\relax }{subfigure.5.2.1}{}}
\newlabel{fig:NG_EVM_GB}{{5.2b}{96}{Subfigure 5 5.2b}{subfigure.5.2.2}{}}
\newlabel{sub@fig:NG_EVM_GB}{{(b)}{b}{Subfigure 5 5.2b\relax }{subfigure.5.2.2}{}}
\@writefile{lof}{\contentsline {figure}{\numberline {5.2}{\ignorespaces Number of guard subcarriers necessary to protect the incumbent as a function of its interference threshold per subcarrier $I_\text  {th}$ according to (a) the PSD-based model of the literature and (b) our EVM-based modeling.\relax }}{96}{figure.caption.84}}
\newlabel{fig:GB_necessary}{{5.2}{96}{Number of guard subcarriers necessary to protect the incumbent as a function of its interference threshold per subcarrier $I_\text {th}$ according to (a) the PSD-based model of the literature and (b) our EVM-based modeling.\relax }{figure.caption.84}{}}
\@writefile{lof}{\contentsline {subfigure}{\numberline{(a)}{\ignorespaces {}}}{96}{subfigure.2.1}}
\@writefile{lof}{\contentsline {subfigure}{\numberline{(b)}{\ignorespaces {}}}{96}{subfigure.2.2}}
\@writefile{toc}{\contentsline {section}{\numberline {5.3}Optimal power allocation}{97}{section.5.3}}
\newlabel{sec:optimal_pa}{{5.3}{97}{Optimal power allocation}{section.5.3}{}}
\@writefile{toc}{\contentsline {subsection}{\numberline {5.3.1}System setup}{97}{subsection.5.3.1}}
\@writefile{lof}{\contentsline {figure}{\numberline {5.3}{\ignorespaces Power allocated on each subcarrier of the secondary system according to the interference threshold set by the incumbent for (a) UFMC and (b) OFDM/OQAM.\relax }}{98}{figure.caption.85}}
\newlabel{fig:pow_alloc}{{5.3}{98}{Power allocated on each subcarrier of the secondary system according to the interference threshold set by the incumbent for (a) UFMC and (b) OFDM/OQAM.\relax }{figure.caption.85}{}}
\@writefile{lof}{\contentsline {subfigure}{\numberline{(a)}{\ignorespaces {}}}{98}{subfigure.3.1}}
\@writefile{lof}{\contentsline {subfigure}{\numberline{(b)}{\ignorespaces {}}}{98}{subfigure.3.2}}
\@writefile{toc}{\contentsline {subsection}{\numberline {5.3.2}Obtained results}{98}{subsection.5.3.2}}
\@writefile{lof}{\contentsline {figure}{\numberline {5.4}{\ignorespaces Achievable rate (not accounting for TSE) by each studied waveform in the studied scenario as computed with (a) the PSD-based model and (b) our EVM-based approach.\relax }}{100}{figure.caption.86}}
\newlabel{fig:achievable_rate}{{5.4}{100}{Achievable rate (not accounting for TSE) by each studied waveform in the studied scenario as computed with (a) the PSD-based model and (b) our EVM-based approach.\relax }{figure.caption.86}{}}
\@writefile{lof}{\contentsline {subfigure}{\numberline{(a)}{\ignorespaces {}}}{100}{subfigure.4.1}}
\@writefile{lof}{\contentsline {subfigure}{\numberline{(b)}{\ignorespaces {}}}{100}{subfigure.4.2}}
\@writefile{toc}{\contentsline {section}{\numberline {5.4}Optimal transmission in a given time frame}{100}{section.5.4}}
\newlabel{sec:optimal_trans_tf}{{5.4}{100}{Optimal transmission in a given time frame}{section.5.4}{}}
\@writefile{toc}{\contentsline {subsection}{\numberline {5.4.1}System setup}{100}{subsection.5.4.1}}
\newlabel{eq7}{{5.4}{100}{System setup}{equation.5.4.4}{}}
\@writefile{lof}{\contentsline {figure}{\numberline {5.5}{\ignorespaces Considered system setup: the secondary device transmits in the free band $\mathcal  {M}_S$ that it can use during $T_\text  {Tx}$\relax }}{101}{figure.caption.87}}
\newlabel{fig:sys_layout_time}{{5.5}{101}{Considered system setup: the secondary device transmits in the free band $\mathcal {M}_S$ that it can use during $T_\text {Tx}$\relax }{figure.caption.87}{}}
\@writefile{toc}{\contentsline {subsection}{\numberline {5.4.2}Obtained results}{101}{subsection.5.4.2}}
\newlabel{fig:b_f_of_t_a}{{5.6a}{102}{Subfigure 5 5.6a}{subfigure.5.6.1}{}}
\newlabel{sub@fig:b_f_of_t_a}{{(a)}{a}{Subfigure 5 5.6a\relax }{subfigure.5.6.1}{}}
\newlabel{fig:b_f_of_t_b}{{5.6b}{102}{Subfigure 5 5.6b}{subfigure.5.6.2}{}}
\newlabel{sub@fig:b_f_of_t_b}{{(b)}{b}{Subfigure 5 5.6b\relax }{subfigure.5.6.2}{}}
\@writefile{lof}{\contentsline {figure}{\numberline {5.6}{\ignorespaces Total amount of transmittable data as a function of the available time to transmit $T_{\text  {Tx}}$ for a) $I_{\text  {th}} = -40\text  { dB}$ and b) $I_{\text  {th}} = -10\text  { dB}$\relax }}{102}{figure.caption.88}}
\newlabel{fig:b_f_of_t}{{5.6}{102}{Total amount of transmittable data as a function of the available time to transmit $T_{\text {Tx}}$ for a) $I_{\text {th}} = -40\text { dB}$ and b) $I_{\text {th}} = -10\text { dB}$\relax }{figure.caption.88}{}}
\@writefile{lof}{\contentsline {subfigure}{\numberline{(a)}{\ignorespaces {}}}{102}{subfigure.6.1}}
\@writefile{lof}{\contentsline {subfigure}{\numberline{(b)}{\ignorespaces {}}}{102}{subfigure.6.2}}
\newlabel{fig:b_f_of_i_a}{{5.7a}{103}{Subfigure 5 5.7a}{subfigure.5.7.1}{}}
\newlabel{sub@fig:b_f_of_i_a}{{(a)}{a}{Subfigure 5 5.7a\relax }{subfigure.5.7.1}{}}
\newlabel{fig:b_f_of_i_b}{{5.7b}{103}{Subfigure 5 5.7b}{subfigure.5.7.2}{}}
\newlabel{sub@fig:b_f_of_i_b}{{(b)}{b}{Subfigure 5 5.7b\relax }{subfigure.5.7.2}{}}
\@writefile{lof}{\contentsline {figure}{\numberline {5.7}{\ignorespaces Total amount of transmittable data as a function of the interference constraint $I_{\text  {th}}$ for a) a short transmission window $T_{\text  {Tx}}=\frac  {15}{\Delta \text  {F}}$ equivalent to one LTE TTI and b) a long transmission window $T_{\text  {Tx}}=\frac  {200}{\Delta \text  {F}}$.\relax }}{103}{figure.caption.89}}
\newlabel{fig:b_f_of_i}{{5.7}{103}{Total amount of transmittable data as a function of the interference constraint $I_{\text {th}}$ for a) a short transmission window $T_{\text {Tx}}=\frac {15}{\Delta \text {F}}$ equivalent to one LTE TTI and b) a long transmission window $T_{\text {Tx}}=\frac {200}{\Delta \text {F}}$.\relax }{figure.caption.89}{}}
\@writefile{lof}{\contentsline {subfigure}{\numberline{(a)}{\ignorespaces {}}}{103}{subfigure.7.1}}
\@writefile{lof}{\contentsline {subfigure}{\numberline{(b)}{\ignorespaces {}}}{103}{subfigure.7.2}}
\@writefile{toc}{\contentsline {section}{\numberline {5.5}Conclusion}{104}{section.5.5}}
\newlabel{sec:ccl_4}{{5.5}{104}{Conclusion}{section.5.5}{}}
\FN@pp@footnotehinttrue 
\@setckpt{2-Chapters/4-Chapter/chapter4}{
\setcounter{page}{105}
\setcounter{equation}{4}
\setcounter{enumi}{4}
\setcounter{enumii}{0}
\setcounter{enumiii}{0}
\setcounter{enumiv}{0}
\setcounter{footnote}{0}
\setcounter{mpfootnote}{0}
\setcounter{part}{0}
\setcounter{chapter}{5}
\setcounter{section}{5}
\setcounter{subsection}{0}
\setcounter{subsubsection}{0}
\setcounter{paragraph}{0}
\setcounter{subparagraph}{0}
\setcounter{figure}{7}
\setcounter{table}{0}
\setcounter{@pps}{0}
\setcounter{@ppsavesec}{0}
\setcounter{@ppsaveapp}{0}
\setcounter{parentequation}{0}
\setcounter{Item}{28}
\setcounter{Hfootnote}{10}
\setcounter{bookmark@seq@number}{72}
\setcounter{MYtempeqncnt}{0}
\setcounter{pp@next@reset}{11}
\setcounter{@fnserial}{10}
\setcounter{ALG@line}{0}
\setcounter{ALG@rem}{0}
\setcounter{ALG@nested}{0}
\setcounter{ALG@Lnr}{2}
\setcounter{ALG@blocknr}{10}
\setcounter{ALG@storecount}{0}
\setcounter{ALG@tmpcounter}{0}
\setcounter{float@type}{16}
\setcounter{algorithm}{0}
\setcounter{lstnumber}{1}
\setcounter{ContinuedFloat}{0}
\setcounter{KVtest}{1}
\setcounter{subfigure}{0}
\setcounter{subfigure@save}{2}
\setcounter{lofdepth}{1}
\setcounter{subtable}{0}
\setcounter{subtable@save}{2}
\setcounter{lotdepth}{1}
\setcounter{r@tfl@t}{0}
\setcounter{nlinenum}{0}
\setcounter{tabx@nest}{0}
\setcounter{listtotal}{0}
\setcounter{listcount}{0}
\setcounter{liststart}{0}
\setcounter{liststop}{0}
\setcounter{citecount}{0}
\setcounter{citetotal}{0}
\setcounter{multicitecount}{0}
\setcounter{multicitetotal}{0}
\setcounter{instcount}{236}
\setcounter{maxnames}{1}
\setcounter{minnames}{1}
\setcounter{maxitems}{3}
\setcounter{minitems}{1}
\setcounter{citecounter}{0}
\setcounter{savedcitecounter}{0}
\setcounter{uniquelist}{0}
\setcounter{uniquename}{0}
\setcounter{refsection}{0}
\setcounter{refsegment}{0}
\setcounter{maxextrayear}{0}
\setcounter{maxextraalpha}{0}
\setcounter{abbrvpenalty}{50}
\setcounter{highnamepenalty}{50}
\setcounter{lownamepenalty}{25}
\setcounter{maxparens}{3}
\setcounter{parenlevel}{0}
\setcounter{mincomprange}{10}
\setcounter{maxcomprange}{100000}
\setcounter{mincompwidth}{1}
\setcounter{labelname}{0}
\setcounter{savedlabelname}{0}
\setcounter{author}{0}
\setcounter{savedauthor}{0}
\setcounter{shortauthor}{0}
\setcounter{savedshortauthor}{0}
\setcounter{editor}{0}
\setcounter{savededitor}{0}
\setcounter{editora}{0}
\setcounter{savededitora}{0}
\setcounter{editorb}{0}
\setcounter{savededitorb}{0}
\setcounter{editorc}{0}
\setcounter{savededitorc}{0}
\setcounter{shorteditor}{0}
\setcounter{savedshorteditor}{0}
\setcounter{bookauthor}{0}
\setcounter{savedbookauthor}{0}
\setcounter{translator}{0}
\setcounter{savedtranslator}{0}
\setcounter{annotator}{0}
\setcounter{savedannotator}{0}
\setcounter{commentator}{0}
\setcounter{savedcommentator}{0}
\setcounter{introduction}{0}
\setcounter{savedintroduction}{0}
\setcounter{foreword}{0}
\setcounter{savedforeword}{0}
\setcounter{afterword}{0}
\setcounter{savedafterword}{0}
\setcounter{holder}{0}
\setcounter{savedholder}{0}
\setcounter{namea}{0}
\setcounter{savednamea}{0}
\setcounter{nameb}{0}
\setcounter{savednameb}{0}
\setcounter{namec}{0}
\setcounter{savednamec}{0}
\setcounter{institution}{0}
\setcounter{savedinstitution}{0}
\setcounter{language}{0}
\setcounter{savedlanguage}{0}
\setcounter{location}{0}
\setcounter{savedlocation}{0}
\setcounter{organization}{0}
\setcounter{savedorganization}{0}
\setcounter{origlocation}{0}
\setcounter{savedoriglocation}{0}
\setcounter{origpublisher}{0}
\setcounter{savedorigpublisher}{0}
\setcounter{pageref}{0}
\setcounter{savedpageref}{0}
\setcounter{publisher}{0}
\setcounter{savedpublisher}{0}
\setcounter{lista}{0}
\setcounter{savedlista}{0}
\setcounter{listb}{0}
\setcounter{savedlistb}{0}
\setcounter{listc}{0}
\setcounter{savedlistc}{0}
\setcounter{listd}{0}
\setcounter{savedlistd}{0}
\setcounter{liste}{0}
\setcounter{savedliste}{0}
\setcounter{listf}{0}
\setcounter{savedlistf}{0}
\setcounter{textcitecount}{0}
\setcounter{textcitetotal}{0}
\setcounter{textcitemaxnames}{0}
\setcounter{biburlnumpenalty}{0}
\setcounter{biburlucpenalty}{0}
\setcounter{biburllcpenalty}{0}
\setcounter{smartand}{1}
\setcounter{bbx:relatedcount}{0}
\setcounter{bbx:relatedtotal}{0}
\setcounter{cbx@tempcnta}{0}
\setcounter{cbx@tempcntb}{109}
\setcounter{mtc}{10}
\setcounter{minitocdepth}{2}
\setcounter{ptc}{0}
\setcounter{parttocdepth}{2}
\setcounter{cdefi}{0}
\setcounter{cprop}{0}
\setcounter{dblbotnumber}{2}
\setcounter{section@level}{1}
\setcounter{lstlisting}{0}
\setcounter{minilofdepth}{2}
\setcounter{minilotdepth}{2}
\setcounter{partlofdepth}{2}
\setcounter{partlotdepth}{2}
\setcounter{sectlofdepth}{2}
\setcounter{sectlotdepth}{2}
}
